Back cam,"corner 1,1",,,"corner 2,1",,,"corner 3,1",,,"corner 4,1",,,
,,,,,,,,,,,,,
Picture 1,-0.7497,1.2163,-0.1928,-0.3738,1.2508,-0.2935,-0.6748,0.7162,-0.089,-0.3,0.7506,-0.1899,
Picture 2,,,,,,,,,,,,,
PIcture 3,-0.0986,1.5434,-0.1664,0.2622,1.524,-0.0174,-0.1861,1.0578,-0.0157,0.1736,1.0362,0.1309,
Picture 4,-0.0779,1.2554,-0.1546,0.3123,1.2464,-0.1458,-0.0913,0.7493,-0.0566,0.2979,0.7387,-0.0496,
Picture 5,-0.5015,1.2386,-0.225,-0.113,1.2193,-0.2619,-0.5057,,,,,,
Picture 6,-0.4621,1.5267,-0.1572,-0.1106,1.5077,-0.3262,-0.406,1.0426,0.0129,0.0554,1.0233,-0.1554,
Picture 7,0.2569,1.5294,-1.1571,0.6273,1.5061,-1.0344,0.175,1.045,-0.9991,0.5443,1.0201,-0.8786,
Picture 8,,,,,,,,,,,,,
Picture 9,-1.3113,1.0716,-1.3772,-0.9704,1.055,-1.5619,-1.2579,0.5773,-1.2345,-0.9193,0.5527,-1.4273,
Picture 10,0.4063,1.0722,-1.4605,0.7671,1.0537,-1.6099,0.4422,0.5788,-1.3144,0.799,0.5535,-1.4663,
Picture 11,0.2884,1.5369,-0.0115,0.0437,1.5203,0.1936,-0.3722,1.0371,0.0861,-0.0412,1.0194,0.2892,
Picture 12,-0.5523,1.5365,0.2236,-0.2542,1.5188,-0.0276,-0.4866,1.0373,0.3359,-0.19,1.0191,0.0853,
Picture 13,0.4275,1.5115,0.1173,-0.0776,1.5144,-0.0557,-0.4298,0.9941,0.1025,-0.0827,0.9921,-0.074,
Picture 14,-0.1589,1.3359,-0.1618,0.1836,1.305,0.0235,-0.2909,0.866,0.0051,0.0504,0.8336,0.1888,
Picture 15,-0.3096,1.0892,-1.3061,0.0473,1.0635,-1.4628,-0.2645,0.608241,-1.1252,0.0877,0.5752,-1.2852,
,,,,,,,,,,,,,
Left cam,"corner 1,1",,,"corner 2,1",,,"corner 3,1",,,"corner 4,1",,,
,,,,,,,,,,,,,
Picture 1,1.68,1.638,1.5532,1.3323,1.6126,1.7281,1.6866,1.1192,1.4908,1.3399,1.1,1.6677,
Picture 2,0.9196,1.6797,1.3501,0.8479,1.6809,1.734,0.7714,1.1859,1.3252,0.7021,1.1868,1.7081,
PIcture 3,0.7991,1.9363,1.9314,0.4323,1.92,2.0645,0.774,1.4339,1.8162,0.4137,1.4163,1.9535,
Picture 4,0.8187,1.9365,1.4896,0.6286,1.9134,1.8299,0.7373,1.4334,1.4115,0.5504,1.4093,1.7521,
Picture 5,0.8361,1.9653,1.7583,0.5194,1.9271,1.9838,0.8272,1.4579,1.6659,0.5162,1.4192,1.8938,
Picture 6,0.7708,1.8336,1.7315,0.5575,1.7963,2.0565,0.7274,1.3266,1.6468,0.5197,1.2885,1.973,
Picture 7,0.6499,1.903,1.1139,0.606,1.8806,1.5012,0.563,1.3958,1.0754,0.521,1.3731,1.4622,
Picture 8,0.7579,1.953,1.4369,0.7053,1.9347,1.8233,0.7021,1.4392,1.4056,0.6483,1.4225,1.7914,
Picture 9,0.8439,1.8764,1.1003,0.7992,1.8512,1.4874,0.767,1.3678,1.0591,0.7246,1.3422,1.4458,
Picture 10,2.1975,1.8538,1.4059,2.1972,1.834,1.796,2.0878,1.3501,1.3814,2.09,1.3297,1.7705,
Picture 11,1.205,1.8529,2.3931,0.8677,1.834,2.5895,1.1741,1.3463,2.2987,0.8429,1.3266,2.4984,
Picture 12,3.0504,1.8124,1.7989,2.8396,1.7792,2.1263,3.0096,1.3026,1.7248,2.805,1.2692,2.0539,
Picture 13,,,,,,,,,,,,,
Picture 14,2.062,1.8117,1.7641,1.9888,1.7763,2.1462,1.9912,1.3038,1.7049,1.9203,1.2683,2.0859,
Picture 15,1.721,1.8123,2.1106,1.5418,1.7776,2.4561,1.6878,1.2961,2.0417,1.5092,1.2668,2.3877,
,,,,,,,,,,,,,
Right cam,"corner 1,1",,,"corner 2,1",,,"corner 3,1",,,"corner 4,1",,,
,,,,,,,,,,,,,
Picture 1,-1.4517,1.5412,1.7724,-1.6842,1.5019,1.4613,-.1.3847,1.0264,1.7831,-1.6175,0.9911,1.4703,
Picture 2,-1.194,1.5415,2.0924,-1.538,1.5029,1.9121,-1.1271,1.0251,2.0714,-1.4734,0.9917,1.89,
PIcture 3,-0.8673,1.5457,2.5643,-1.2554,1.5038,2.5554,-0.8161,1.0382,2.507,-1.2017,0.9939,2.5021,
Picture 4,-2.3558,1.6037,2.1512,-2.5446,1.5651,1.8119,-2.2681,1.092,2.1585,-2.4589,1.0578,1.8159,
Picture 5,-2.0449,1.6045,2.9652,-2.357,1.5646,2.7344,-1.9626,1.0944,2.9427,-2.2789,1.0559,2.7092,
Picture 6,-1.0573,1.6024,3.2596,-1.4206,1.5643,3.2596,-0.9904,1.085,3.217,-1.3549,1.0549,3.0785,
Picture 7,-0.7641,1.9532,2.5132,-1.1482,1.9335,2.4448,-0.733,1.4343,2.4688,-1.1168,1.4204,2.4,
Picture 8,-1.3809,1.7691,2.5879,-1.6891,1.7508,2.3485,-1.3208,1.2536,2.5453,-1.6284,1.2348,2.307,
Picture 9,-1.9562,1.7672,1.9262,-2.0305,1.7512,1.5432,-1.8753,1.2554,1.9307,-1.9517,1.2383,1.5484,
Picture 10,-1.2524,1.9639,1.6754,-1.4673,1.9274,1.3517,-1.1759,1.4516,1.6814,-1.3909,1.4135,1.3577,
Picture 11,-0.8339,1.9637,1.9115,-1.1099,1.9254,1.6379,-0.7589,1.4513,1.9072,-1.0386,1.415,1.6312,
Picture 12,-0.6679,1.9606,2.0852,-0.9922,1.9252,1.8706,-0.603,1.4467,2.0711,-0.9291,1.4133,1.8561,
Picture 13,-0.5894,1.694,2.0943,-0.9548,1.6599,1.9606,-0.5257,1.1812,2.0487,-0.8934,1.1497,1.9142,
Picture 14,-0.8893,1.6953,1.8104,-1.108,1.6531,1.4898,-0.8048,1.1824,1.8178,-1.0239,1.1406,1.4981,
Picture 15,-1.0312,1.6918,1.5315,-1.303,1.6539,1.2539,-0.9289,1.1852,1.5001,-1.2002,1.1458,1.2217,
,,,,,,,,,,,,,
Ricoh left,"corner 1,1",,,"corner 2,1",,,"corner 3,1",,,"corner 4,1",,,
Picture 1,0.7623,1.8434,,,,,,,,,,,
Picture 2,,,,,,,,,,,,,
PIcture 3,,,,,,,,,,,,,
Picture 4,,,,,,,,,,,,,
Picture 5,,,,,,,,,,,,,
Picture 6,,,,,,,,,,,,,
Picture 7,,,,,,,,,,,,,
Picture 8,,,,,,,,,,,,,
Picture 9,,,,,,,,,,,,,
Picture 10,,,,,,,,,,,,,
Picture 11,,,,,,,,,,,,,
Picture 12,,,,,,,,,,,,,
Picture 13,,,,,,,,,,,,,
Picture 14,,,,,,,,,,,,,
Picture 15,,,,,,,,,,,,,
,,,,,,,,,,,,,
Ricoh right,"corner 1,1",,,"corner 2,1",,,"corner 3,1",,,"corner 4,1",,,
Picture 1,,,,,,,,,,,,,
Picture 2,,,,,,,,,,,,,
PIcture 3,,,,,,,,,,,,,
Picture 4,,,,,,,,,,,,,
Picture 5,,,,,,,,,,,,,
Picture 6,,,,,,,,,,,,,
Picture 7,,,,,,,,,,,,,
Picture 8,,,,,,,,,,,,,
Picture 9,,,,,,,,,,,,,
Picture 10,,,,,,,,,,,,,
Picture 11,,,,,,,,,,,,,
Picture 12,,,,,,,,,,,,,
Picture 13,,,,,,,,,,,,,
Picture 14,,,,,,,,,,,,,
Picture 15,,,,,,,,,,,,,
,,,,,,,,,,,,,
,,,,,,,,,,,,,
,,,,,,,,,,,,,
,,,,,,,,,,,,,
,,,,,,,,,,,,,
,,L,,,R,,,,,,,,
,,,,,,,,,,,,,
,X,Y,Z,X,Y,Z,,,,,,,
Baselink (Back wheels),0.1673,0.1337,1.0725,-0.4069,0.1361,1.090651,,,,,,,
,,,,,,,,,,,,,
Laser,-0.1202,1.4308,1.0281,,,,,,,,,,
,,,,,,,,,,,,,
RTK,-0.1209,1.6581,0.9498,,,,,,,,,,
,,,,,,,,,,,,,
Front Wheels,,,,,,,,,,,,,
,,,,,,,,,,,,,
,,,,,,,,,,,,,
,,,,,,,,,,,,,
,,,,,,,,,,,,,
FINAL RESULTS RELATIVE TO THE BASELINK,,,,,,,,,,,,,
,,,,,,,,,,,,,
,,TRANSLATION,,,,,ROTATION ,,,,,,
,X,Y,Z,,,Z,Y,X,,,,,
RTK,,,,,,,,,,,,,
,,,,,,,,,,,,,
Laser,,,,,,,,,,,,,
,,,,,,,,,,,,,
Front cam,,,,,,,,,,,,,
,,,,,,,,,,,,,
Left cam,,,,,,,,,,,,,
,,,,,,,,,,,,,
Right cam,,,,,,,,,,,,,
,,,,,,,,,,,,,
,,,,,,,,,,,,,
,,,,,,,,,,,,,
,,,,,,,,,,,,,
,,,,,,,,,,,,,
,,,,,,,,,,,,,0.0148472