-0.7497,1.2163,-0.1928,-0.3738,1.2508,-0.2935,-0.6748,0.7162,-0.089,-0.3,0.7506,-0.1899
-0.0986,1.5434,-0.1664,0.2622,1.524,-0.0174,-0.1861,1.0578,-0.0157,0.1736,1.0362,0.1309
-0.0779,1.2554,-0.1546,0.3123,1.2464,-0.1458,-0.0913,0.7493,-0.0566,0.2979,0.7387,-0.0496
-0.4621,1.5267,-0.1572,-0.1106,1.5077,-0.3262,-0.406,1.0426,0.0129,-0.0554,1.0233,-0.1554
0.2569,1.5294,-1.1571,0.6273,1.5061,-1.0344,0.175,1.045,-0.9991,0.5443,1.0201,-0.8786
0.4063,1.0722,-1.4605,0.7671,1.0537,-1.6099,0.4422,0.5788,-1.3144,0.799,0.5535,-1.4663
-0.2884,1.5369,-0.0115,0.0437,1.5203,0.1936,-0.3722,1.0371,0.0861,-0.0412,1.0194,0.2892
-0.5523,1.5365,0.2236,-0.2542,1.5188,-0.0276,-0.4866,1.0373,0.3359,-0.19,1.0191,0.0853
-0.4275,1.5115,0.1173,-0.0776,1.5144,-0.0557,-0.4298,0.9941,0.1025,-0.0827,0.9921,-0.074
-0.1589,1.3359,-0.1618,0.1836,1.305,0.0235,-0.2909,0.866,0.0051,0.0504,0.8336,0.1888
-0.3096,1.0892,-1.3061,0.0473,1.0635,-1.4628,-0.2645,0.608241,-1.1252,0.0877,0.5752,-1.2852
