1607306294.35114
1607306414.62093
1607306490.32936
1607306552.30831
1607306601.89452
1607306689.8502
1607306845.69461
1607306881.18219
1607306928.15203
1607307036.03063
1607307074.42958
1607307105.23093
1607307143.39588
1607307173.19102
1607307207.04113
1607307245.24309
1607307273.736
1607307309.98874
1607307400.49707
1607307457.61007
1607307585.51774
1607307613.134
1607307641.90126
1607307723.07963
1607307760.93038
1607307795.97482
1607307830.81456
1607307869.53646
1607307927.23431
1607308428.47015
