left_back

STANDARD
0.26 
All images

FISHEYE
0.25
All images
__________

left_front

STANDARD
0.36
15

FISHEYE
0.33
21,22
__________

right_back

STANDARD
0.34
All images

FISHEYE
0.39
27

__________

right_front

STANDARD
0.36
All IMAGES

FISHEYE
0.41
12,19
