Format Version,1.2,Take Name,Take 2020-02-07 04.37.53 PM,Capture Frame Rate,120.000000,Export Frame Rate,120.000000,Capture Start Time,2020-02-07 04.37.53.924 PM,Total Frames,622,Rotation Type,Quaternion,Length Units,Meters,Coordinate Space,Global

,,Rigid Body Marker,Rigid Body Marker,Rigid Body Marker,Rigid Body Marker,Rigid Body Marker,Rigid Body Marker,Rigid Body Marker,Rigid Body Marker,Rigid Body Marker,Rigid Body Marker,Rigid Body Marker,Rigid Body Marker,Rigid Body Marker,Rigid Body Marker,Rigid Body Marker
,,Rigid Body 1_1,Rigid Body 1_1,Rigid Body 1_1,Rigid Body 1_2,Rigid Body 1_2,Rigid Body 1_2,Rigid Body 1_3,Rigid Body 1_3,Rigid Body 1_3,Rigid Body 1_4,Rigid Body 1_4,Rigid Body 1_4,Rigid Body 1_5,Rigid Body 1_5,Rigid Body 1_5
,,"FB1F47AA496A11EAE5BE26CA05685A8D","FB1F47AA496A11EAE5BE26CA05685A8D","FB1F47AA496A11EAE5BE26CA05685A8D","FB1F47AA496A11EAE5BE26CA05685A8D","FB1F47AA496A11EAE5BE26CA05685A8D","FB1F47AA496A11EAE5BE26CA05685A8D","FB1F47AA496A11EAE5BE26CA05685A8D","FB1F47AA496A11EAE5BE26CA05685A8D","FB1F47AA496A11EAE5BE26CA05685A8D","FB1F47AA496A11EAE5BE26CA05685A8D","FB1F47AA496A11EAE5BE26CA05685A8D","FB1F47AA496A11EAE5BE26CA05685A8D","FB1F47AA496A11EAE5BE26CA05685A8D","FB1F47AA496A11EAE5BE26CA05685A8D","FB1F47AA496A11EAE5BE26CA05685A8D"
,,Position,Position,Position,Position,Position,Position,Position,Position,Position,Position,Position,Position,Position,Position,Position
Frame,Time,X,Y,Z,X,Y,Z,X,Y,Z,X,Y,Z,X,Y,Z
0,0.000000,0.628698,1.825814,1.778565,0.372873,1.822026,2.071530,0.610510,1.309948,1.756134,0.355024,1.307500,2.049300,0.564444,1.824762,1.848729
1,0.008333,0.628710,1.825808,1.778561,0.372875,1.822023,2.071517,0.610517,1.309942,1.756130,0.355020,1.307497,2.049289,0.564453,1.824757,1.848722
2,0.016667,0.628717,1.825804,1.778553,0.372879,1.822024,2.071507,0.610527,1.309938,1.756133,0.355027,1.307497,2.049289,0.564459,1.824754,1.848714
3,0.025000,0.628711,1.825812,1.778547,0.372889,1.822028,2.071516,0.610514,1.309947,1.756115,0.355031,1.307502,2.049285,0.564457,1.824761,1.848712
4,0.033333,0.628730,1.825818,1.778551,0.372898,1.822033,2.071511,0.610523,1.309953,1.756108,0.355030,1.307508,2.049269,0.564474,1.824767,1.848714
5,0.041667,0.628740,1.825815,1.778542,0.372904,1.822030,2.071497,0.610554,1.309949,1.756116,0.355056,1.307503,2.049273,0.564483,1.824764,1.848703
6,0.050000,0.628741,1.825812,1.778533,0.372909,1.822036,2.071492,0.610537,1.309946,1.756107,0.355043,1.307509,2.049268,0.564485,1.824763,1.848695
7,0.058333,0.628745,1.825802,1.778533,0.372907,1.822030,2.071487,0.610546,1.309936,1.756118,0.355047,1.307503,2.049274,0.564487,1.824754,1.848694
8,0.066667,0.628752,1.825809,1.778521,0.372923,1.822037,2.071483,0.610549,1.309943,1.756105,0.355059,1.307511,2.049269,0.564497,1.824761,1.848684
9,0.075000,0.628766,1.825805,1.778519,0.372929,1.822043,2.071474,0.610562,1.309939,1.756117,0.355063,1.307516,2.049274,0.564509,1.824760,1.848680
10,0.083333,0.628769,1.825813,1.778520,0.372935,1.822048,2.071478,0.610558,1.309947,1.756107,0.355063,1.307521,2.049267,0.564512,1.824767,1.848682
11,0.091667,0.628766,1.825806,1.778513,0.372929,1.822046,2.071469,0.610554,1.309940,1.756109,0.355055,1.307519,2.049265,0.564508,1.824761,1.848675
12,0.100000,0.628778,1.825803,1.778512,0.372948,1.822042,2.071474,0.610559,1.309938,1.756101,0.355068,1.307516,2.049263,0.564522,1.824758,1.848675
13,0.108333,0.628788,1.825808,1.778510,0.372944,1.822047,2.071460,0.610562,1.309943,1.756092,0.355056,1.307522,2.049242,0.564529,1.824763,1.848670
14,0.116667,0.628789,1.825808,1.778502,0.372951,1.822047,2.071457,0.610567,1.309942,1.756088,0.355068,1.307520,2.049243,0.564531,1.824762,1.848663
15,0.125000,0.628789,1.825807,1.778506,0.372950,1.822044,2.071459,0.610570,1.309942,1.756088,0.355070,1.307518,2.049243,0.564531,1.824761,1.848666
16,0.133333,0.628797,1.825797,1.778506,0.372956,1.822044,2.071459,0.610574,1.309931,1.756104,0.355072,1.307517,2.049258,0.564538,1.824754,1.848667
17,0.141667,0.628798,1.825803,1.778496,0.372964,1.822046,2.071455,0.610569,1.309938,1.756084,0.355075,1.307520,2.049244,0.564541,1.824759,1.848658
18,0.150000,0.628795,1.825806,1.778497,0.372961,1.822049,2.071456,0.610569,1.309941,1.756087,0.355074,1.307523,2.049247,0.564538,1.824762,1.848659
19,0.158333,0.628790,1.825802,1.778496,0.372965,1.822047,2.071461,0.610571,1.309936,1.756094,0.355085,1.307520,2.049262,0.564536,1.824758,1.848659
20,0.166667,0.628796,1.825798,1.778501,0.372956,1.822046,2.071454,0.610575,1.309932,1.756104,0.355074,1.307519,2.049258,0.564538,1.824755,1.848661
21,0.175000,0.628799,1.825806,1.778504,0.372962,1.822050,2.071460,0.610576,1.309940,1.756099,0.355079,1.307524,2.049256,0.564541,1.824762,1.848665
22,0.183333,0.628799,1.825813,1.778516,0.372948,1.822053,2.071459,0.610570,1.309948,1.756095,0.355057,1.307528,2.049240,0.564538,1.824768,1.848674
23,0.191667,0.628795,1.825803,1.778514,0.372959,1.822056,2.071470,0.610550,1.309938,1.756103,0.355052,1.307531,2.049261,0.564538,1.824761,1.848675
24,0.200000,0.628790,1.825802,1.778511,0.372955,1.822041,2.071468,0.610564,1.309937,1.756093,0.355068,1.307515,2.049251,0.564533,1.824757,1.848673
25,0.208333,0.628783,1.825797,1.778519,0.372938,1.822033,2.071468,0.610562,1.309932,1.756098,0.355055,1.307507,2.049248,0.564524,1.824751,1.848679
26,0.216667,0.628778,1.825804,1.778521,0.372943,1.822044,2.071478,0.610556,1.309939,1.756108,0.355059,1.307518,2.049266,0.564521,1.824759,1.848683
27,0.225000,0.628772,1.825806,1.778519,0.372941,1.822038,2.071480,0.610563,1.309940,1.756105,0.355071,1.307512,2.049268,0.564516,1.824759,1.848682
28,0.233333,0.628773,1.825802,1.778531,0.372935,1.822037,2.071485,0.610555,1.309937,1.756112,0.355056,1.307511,2.049268,0.564515,1.824756,1.848692
29,0.241667,0.628752,1.825808,1.778525,0.372940,1.822038,2.071502,0.610546,1.309942,1.756112,0.355073,1.307511,2.049290,0.564501,1.824760,1.848692
30,0.250000,0.628755,1.825801,1.778540,0.372919,1.822037,2.071496,0.610536,1.309935,1.756123,0.355039,1.307511,2.049281,0.564498,1.824755,1.848701
31,0.258333,0.628748,1.825797,1.778540,0.372921,1.822022,2.071503,0.610555,1.309931,1.756126,0.355066,1.307495,2.049291,0.564493,1.824748,1.848703
32,0.266667,0.628743,1.825804,1.778552,0.372899,1.822030,2.071502,0.610537,1.309939,1.756127,0.355032,1.307504,2.049278,0.564484,1.824756,1.848712
33,0.275000,0.628728,1.825806,1.778547,0.372895,1.822031,2.071505,0.610523,1.309941,1.756121,0.355029,1.307504,2.049281,0.564472,1.824757,1.848709
34,0.283333,0.628730,1.825804,1.778560,0.372899,1.822027,2.071520,0.610530,1.309938,1.756137,0.355038,1.307501,2.049299,0.564474,1.824755,1.848722
35,0.291667,0.628730,1.825803,1.778565,0.372897,1.822014,2.071524,0.610540,1.309938,1.756129,0.355046,1.307487,2.049289,0.564473,1.824751,1.848727
36,0.300000,0.628719,1.825804,1.778567,0.372885,1.822023,2.071526,0.610512,1.309939,1.756130,0.355017,1.307497,2.049290,0.564462,1.824754,1.848729
37,0.308333,0.628711,1.825803,1.778573,0.372873,1.822018,2.071527,0.610515,1.309937,1.756137,0.355015,1.307492,2.049293,0.564454,1.824751,1.848734
38,0.316667,0.628703,1.825815,1.778582,0.372872,1.822020,2.071541,0.610526,1.309949,1.756146,0.355033,1.307493,2.049307,0.564447,1.824761,1.848744
39,0.325000,0.628704,1.825814,1.778587,0.372869,1.822014,2.071543,0.610526,1.309948,1.756141,0.355030,1.307487,2.049299,0.564447,1.824759,1.848748
40,0.333333,0.628697,1.825812,1.778583,0.372867,1.822009,2.071544,0.610521,1.309946,1.756135,0.355029,1.307483,2.049298,0.564441,1.824756,1.848745
41,0.341667,0.628687,1.825803,1.778599,0.372854,1.821998,2.071557,0.610494,1.309939,1.756133,0.355000,1.307473,2.049293,0.564430,1.824747,1.848761
42,0.350000,0.628699,1.825810,1.778600,0.372849,1.822010,2.071544,0.610514,1.309945,1.756147,0.355003,1.307484,2.049292,0.564438,1.824755,1.848759
43,0.358333,0.628695,1.825817,1.778601,0.372843,1.822020,2.071543,0.610523,1.309951,1.756164,0.355010,1.307493,2.049308,0.564434,1.824763,1.848759
44,0.366667,0.628693,1.825817,1.778596,0.372856,1.822013,2.071551,0.610511,1.309952,1.756140,0.355013,1.307487,2.049297,0.564436,1.824761,1.848757
45,0.375000,0.628691,1.825816,1.778602,0.372852,1.822010,2.071556,0.610507,1.309951,1.756141,0.355007,1.307484,2.049296,0.564433,1.824759,1.848763
46,0.383333,0.628687,1.825813,1.778596,0.372852,1.821999,2.071553,0.610520,1.309947,1.756137,0.355023,1.307473,2.049295,0.564430,1.824755,1.848758
47,0.391667,0.628696,1.825809,1.778598,0.372860,1.822006,2.071553,0.610520,1.309944,1.756149,0.355023,1.307480,2.049307,0.564439,1.824753,1.848759
48,0.400000,0.628693,1.825818,1.778599,0.372849,1.822016,2.071548,0.610508,1.309953,1.756144,0.355003,1.307490,2.049295,0.564434,1.824762,1.848759
49,0.408333,0.628685,1.825823,1.778589,0.372864,1.822014,2.071558,0.610518,1.309957,1.756139,0.355035,1.307487,2.049309,0.564432,1.824766,1.848754
50,0.416667,0.628698,1.825815,1.778592,0.372856,1.822008,2.071543,0.610505,1.309951,1.756122,0.355002,1.307484,2.049274,0.564439,1.824759,1.848752
51,0.425000,0.628696,1.825811,1.778587,0.372865,1.822010,2.071548,0.610521,1.309945,1.756145,0.355029,1.307484,2.049307,0.564440,1.824756,1.848750
52,0.433333,0.628691,1.825807,1.778584,0.372863,1.822013,2.071546,0.610512,1.309941,1.756150,0.355022,1.307487,2.049314,0.564436,1.824754,1.848747
53,0.441667,0.628704,1.825816,1.778587,0.372864,1.822015,2.071539,0.610522,1.309951,1.756136,0.355020,1.307489,2.049289,0.564446,1.824761,1.848747
54,0.450000,0.628710,1.825819,1.778579,0.372871,1.822019,2.071532,0.610523,1.309954,1.756125,0.355023,1.307494,2.049280,0.564453,1.824764,1.848740
55,0.458333,0.628712,1.825820,1.778572,0.372881,1.822024,2.071532,0.610522,1.309955,1.756124,0.355030,1.307498,2.049286,0.564456,1.824766,1.848734
56,0.466667,0.628715,1.825814,1.778571,0.372879,1.822022,2.071528,0.610527,1.309949,1.756131,0.355030,1.307495,2.049289,0.564458,1.824761,1.848733
57,0.475000,0.628723,1.825804,1.778561,0.372892,1.822017,2.071522,0.610534,1.309937,1.756131,0.355041,1.307490,2.049293,0.564467,1.824752,1.848724
58,0.483333,0.628727,1.825812,1.778556,0.372902,1.822023,2.071521,0.610545,1.309946,1.756127,0.355058,1.307496,2.049294,0.564473,1.824760,1.848719
59,0.491667,0.628730,1.825812,1.778545,0.372903,1.822030,2.071509,0.610542,1.309946,1.756124,0.355054,1.307503,2.049289,0.564475,1.824761,1.848708
60,0.500000,0.628731,1.825808,1.778543,0.372908,1.822027,2.071511,0.610538,1.309942,1.756121,0.355053,1.307501,2.049289,0.564477,1.824758,1.848708
61,0.508333,0.628742,1.825811,1.778546,0.372904,1.822042,2.071501,0.610537,1.309945,1.756133,0.355038,1.307515,2.049288,0.564485,1.824763,1.848707
62,0.516667,0.628757,1.825807,1.778542,0.372922,1.822034,2.071499,0.610555,1.309941,1.756124,0.355059,1.307508,2.049282,0.564500,1.824759,1.848704
63,0.525000,0.628757,1.825803,1.778536,0.372926,1.822025,2.071497,0.610535,1.309939,1.756093,0.355044,1.307500,2.049256,0.564501,1.824753,1.848698
64,0.533333,0.628765,1.825803,1.778529,0.372934,1.822031,2.071490,0.610546,1.309938,1.756098,0.355055,1.307505,2.049261,0.564509,1.824755,1.848691
65,0.541667,0.628773,1.825809,1.778531,0.372942,1.822035,2.071492,0.610565,1.309944,1.756106,0.355073,1.307509,2.049268,0.564517,1.824761,1.848693
66,0.550000,0.628773,1.825813,1.778519,0.372940,1.822043,2.071478,0.610563,1.309947,1.756099,0.355069,1.307517,2.049260,0.564516,1.824765,1.848682
67,0.558333,0.628779,1.825801,1.778520,0.372943,1.822044,2.071477,0.610541,1.309936,1.756098,0.355044,1.307518,2.049256,0.564522,1.824756,1.848682
68,0.566667,0.628771,1.825799,1.778508,0.372949,1.822031,2.071477,0.610568,1.309933,1.756099,0.355085,1.307504,2.049269,0.564517,1.824752,1.848673
69,0.575000,0.628780,1.825797,1.778506,0.372952,1.822030,2.071469,0.610571,1.309931,1.756093,0.355081,1.307503,2.049257,0.564525,1.824750,1.848669
70,0.583333,0.628783,1.825801,1.778503,0.372960,1.822041,2.071470,0.610576,1.309935,1.756103,0.355091,1.307513,2.049272,0.564529,1.824756,1.848667
71,0.591667,0.628788,1.825805,1.778513,0.372953,1.822046,2.071470,0.610576,1.309939,1.756110,0.355079,1.307519,2.049268,0.564531,1.824760,1.848674
72,0.600000,0.628789,1.825803,1.778512,0.372957,1.822041,2.071472,0.610574,1.309937,1.756102,0.355081,1.307514,2.049263,0.564533,1.824757,1.848674
73,0.608333,0.628783,1.825803,1.778510,0.372955,1.822037,2.071474,0.610576,1.309937,1.756099,0.355087,1.307510,2.049265,0.564528,1.824757,1.848673
74,0.616667,0.628791,1.825801,1.778508,0.372953,1.822042,2.071463,0.610568,1.309935,1.756096,0.355069,1.307516,2.049253,0.564533,1.824756,1.848669
75,0.625000,0.628787,1.825806,1.778499,0.372953,1.822047,2.071456,0.610568,1.309940,1.756091,0.355073,1.307520,2.049250,0.564530,1.824761,1.848660
76,0.633333,0.628795,1.825793,1.778508,0.372959,1.822036,2.071464,0.610579,1.309927,1.756104,0.355081,1.307509,2.049261,0.564538,1.824749,1.848669
77,0.641667,0.628779,1.825804,1.778511,0.372948,1.822039,2.071472,0.610576,1.309937,1.756108,0.355084,1.307512,2.049270,0.564523,1.824758,1.848674
78,0.650000,0.628777,1.825804,1.778511,0.372939,1.822036,2.071465,0.610569,1.309938,1.756095,0.355069,1.307510,2.049251,0.564519,1.824757,1.848672
79,0.658333,0.628777,1.825799,1.778508,0.372942,1.822040,2.071466,0.610564,1.309933,1.756106,0.355069,1.307513,2.049265,0.564520,1.824754,1.848670
80,0.666667,0.628773,1.825804,1.778511,0.372948,1.822026,2.071476,0.610583,1.309937,1.756096,0.355096,1.307498,2.049263,0.564518,1.824754,1.848675
81,0.675000,0.628763,1.825806,1.778523,0.372940,1.822033,2.071490,0.610562,1.309940,1.756108,0.355078,1.307506,2.049277,0.564509,1.824758,1.848687
82,0.683333,0.628760,1.825802,1.778529,0.372923,1.822029,2.071484,0.610562,1.309935,1.756115,0.355064,1.307502,2.049272,0.564503,1.824753,1.848690
83,0.691667,0.628758,1.825809,1.778523,0.372938,1.822032,2.071492,0.610559,1.309943,1.756103,0.355077,1.307505,2.049274,0.564505,1.824759,1.848688
84,0.700000,0.628760,1.825803,1.778530,0.372934,1.822029,2.071495,0.610568,1.309936,1.756120,0.355081,1.307502,2.049286,0.564505,1.824754,1.848694
85,0.708333,0.628748,1.825815,1.778537,0.372921,1.822034,2.071501,0.610552,1.309949,1.756112,0.355064,1.307508,2.049277,0.564493,1.824765,1.848700
86,0.716667,0.628751,1.825803,1.778544,0.372906,1.822028,2.071492,0.610546,1.309937,1.756119,0.355040,1.307502,2.049269,0.564492,1.824754,1.848703
87,0.725000,0.628746,1.825801,1.778545,0.372903,1.822019,2.071495,0.610552,1.309936,1.756116,0.355047,1.307492,2.049267,0.564487,1.824751,1.848705
88,0.733333,0.628740,1.825810,1.778546,0.372915,1.822023,2.071511,0.610550,1.309944,1.756115,0.355063,1.307497,2.049282,0.564485,1.824759,1.848710
89,0.741667,0.628728,1.825812,1.778553,0.372901,1.822020,2.071517,0.610544,1.309946,1.756118,0.355055,1.307494,2.049284,0.564473,1.824759,1.848716
90,0.750000,0.628718,1.825810,1.778552,0.372897,1.822016,2.071521,0.610535,1.309944,1.756114,0.355053,1.307489,2.049285,0.564465,1.824757,1.848716
91,0.758333,0.628724,1.825811,1.778553,0.372893,1.822029,2.071514,0.610524,1.309945,1.756122,0.355032,1.307503,2.049284,0.564468,1.824760,1.848715
92,0.766667,0.628715,1.825814,1.778564,0.372881,1.822022,2.071522,0.610519,1.309949,1.756119,0.355025,1.307497,2.049279,0.564458,1.824761,1.848726
93,0.775000,0.628711,1.825810,1.778568,0.372881,1.822018,2.071528,0.610532,1.309944,1.756135,0.355040,1.307491,2.049297,0.564456,1.824757,1.848730
94,0.783333,0.628706,1.825812,1.778569,0.372878,1.822012,2.071531,0.610527,1.309947,1.756123,0.355037,1.307486,2.049286,0.564451,1.824757,1.848732
95,0.791667,0.628700,1.825812,1.778574,0.372873,1.822020,2.071538,0.610508,1.309947,1.756131,0.355019,1.307494,2.049296,0.564445,1.824759,1.848738
96,0.800000,0.628702,1.825812,1.778579,0.372863,1.822016,2.071532,0.610515,1.309946,1.756133,0.355014,1.307490,2.049288,0.564444,1.824758,1.848739
97,0.808333,0.628701,1.825806,1.778577,0.372867,1.822015,2.071535,0.610510,1.309941,1.756136,0.355014,1.307489,2.049295,0.564444,1.824753,1.848739
98,0.816667,0.628701,1.825814,1.778577,0.372872,1.822019,2.071539,0.610510,1.309949,1.756130,0.355020,1.307493,2.049294,0.564445,1.824760,1.848740
99,0.825000,0.628690,1.825817,1.778573,0.372858,1.822016,2.071533,0.610522,1.309951,1.756137,0.355030,1.307489,2.049298,0.564434,1.824762,1.848736
100,0.833333,0.628694,1.825815,1.778585,0.372845,1.822015,2.071529,0.610518,1.309950,1.756138,0.355007,1.307488,2.049284,0.564434,1.824760,1.848744
101,0.841667,0.628700,1.825810,1.778588,0.372859,1.822013,2.071539,0.610522,1.309944,1.756148,0.355019,1.307487,2.049301,0.564442,1.824756,1.848748
102,0.850000,0.628697,1.825814,1.778586,0.372856,1.822012,2.071538,0.610510,1.309949,1.756129,0.355008,1.307487,2.049283,0.564439,1.824759,1.848746
103,0.858333,0.628694,1.825811,1.778580,0.372857,1.822008,2.071534,0.610524,1.309945,1.756136,0.355025,1.307481,2.049292,0.564437,1.824755,1.848741
104,0.866667,0.628702,1.825813,1.778574,0.372868,1.822013,2.071531,0.610536,1.309946,1.756140,0.355040,1.307486,2.049299,0.564446,1.824758,1.848735
105,0.875000,0.628700,1.825814,1.778583,0.372868,1.822016,2.071542,0.610510,1.309949,1.756132,0.355017,1.307491,2.049293,0.564444,1.824760,1.848745
106,0.883333,0.628692,1.825806,1.778580,0.372861,1.822019,2.071541,0.610498,1.309941,1.756146,0.355006,1.307493,2.049308,0.564436,1.824754,1.848743
107,0.891667,0.628712,1.825812,1.778579,0.372868,1.822019,2.071528,0.610521,1.309947,1.756133,0.355016,1.307493,2.049284,0.564453,1.824759,1.848738
108,0.900000,0.628708,1.825804,1.778561,0.372883,1.822015,2.071526,0.610520,1.309938,1.756129,0.355033,1.307489,2.049295,0.564454,1.824752,1.848725
109,0.908333,0.628710,1.825811,1.778565,0.372881,1.822023,2.071527,0.610533,1.309945,1.756141,0.355043,1.307495,2.049305,0.564455,1.824759,1.848728
110,0.916667,0.628709,1.825809,1.778563,0.372885,1.822021,2.071530,0.610521,1.309943,1.756133,0.355036,1.307495,2.049301,0.564455,1.824757,1.848727
111,0.925000,0.628730,1.825810,1.778562,0.372894,1.822024,2.071519,0.610532,1.309944,1.756126,0.355035,1.307498,2.049284,0.564473,1.824758,1.848724
112,0.933333,0.628735,1.825804,1.778556,0.372897,1.822026,2.071510,0.610527,1.309939,1.756123,0.355029,1.307500,2.049279,0.564477,1.824754,1.848717
113,0.941667,0.628727,1.825806,1.778553,0.372899,1.822023,2.071516,0.610538,1.309939,1.756130,0.355049,1.307496,2.049294,0.564472,1.824755,1.848716
114,0.950000,0.628730,1.825801,1.778553,0.372904,1.822020,2.071517,0.610528,1.309935,1.756122,0.355040,1.307494,2.049288,0.564475,1.824750,1.848716
115,0.958333,0.628744,1.825796,1.778548,0.372919,1.822013,2.071513,0.610551,1.309930,1.756122,0.355064,1.307487,2.049288,0.564490,1.824745,1.848712
116,0.966667,0.628751,1.825801,1.778543,0.372921,1.822021,2.071503,0.610551,1.309935,1.756113,0.355058,1.307494,2.049275,0.564496,1.824751,1.848705
117,0.975000,0.628749,1.825814,1.778547,0.372916,1.822031,2.071505,0.610546,1.309948,1.756112,0.355051,1.307506,2.049272,0.564493,1.824763,1.848709
118,0.983333,0.628760,1.825813,1.778548,0.372926,1.822036,2.071507,0.610547,1.309948,1.756115,0.355053,1.307510,2.049275,0.564503,1.824763,1.848710
119,0.991667,0.628763,1.825793,1.778539,0.372939,1.822019,2.071505,0.610553,1.309927,1.756113,0.355068,1.307493,2.049281,0.564509,1.824744,1.848703
120,1.000000,0.628760,1.825802,1.778529,0.372933,1.822030,2.071493,0.610554,1.309936,1.756112,0.355066,1.307503,2.049278,0.564505,1.824754,1.848693
121,1.008333,0.628766,1.825800,1.778543,0.372927,1.822041,2.071496,0.610526,1.309936,1.756115,0.355026,1.307516,2.049270,0.564508,1.824755,1.848703
122,1.016667,0.628771,1.825798,1.778526,0.372948,1.822034,2.071493,0.610558,1.309932,1.756116,0.355074,1.307507,2.049284,0.564517,1.824752,1.848690
123,1.025000,0.628777,1.825798,1.778525,0.372943,1.822031,2.071483,0.610567,1.309932,1.756111,0.355071,1.307505,2.049270,0.564520,1.824751,1.848687
124,1.033333,0.628786,1.825806,1.778530,0.372944,1.822029,2.071481,0.610568,1.309941,1.756091,0.355065,1.307504,2.049243,0.564527,1.824757,1.848690
125,1.041667,0.628776,1.825804,1.778525,0.372942,1.822039,2.071484,0.610558,1.309939,1.756108,0.355063,1.307513,2.049268,0.564519,1.824758,1.848687
126,1.050000,0.628778,1.825796,1.778520,0.372943,1.822033,2.071477,0.610554,1.309931,1.756099,0.355057,1.307507,2.049258,0.564521,1.824750,1.848681
127,1.058333,0.628777,1.825797,1.778511,0.372959,1.822031,2.071484,0.610566,1.309931,1.756100,0.355087,1.307505,2.049274,0.564524,1.824751,1.848677
128,1.066667,0.628771,1.825797,1.778511,0.372946,1.822029,2.071477,0.610561,1.309932,1.756096,0.355074,1.307503,2.049263,0.564517,1.824750,1.848675
129,1.075000,0.628776,1.825802,1.778518,0.372950,1.822036,2.071482,0.610556,1.309937,1.756098,0.355069,1.307510,2.049264,0.564521,1.824755,1.848681
130,1.083333,0.628786,1.825788,1.778517,0.372956,1.822038,2.071479,0.610558,1.309922,1.756116,0.355067,1.307511,2.049280,0.564530,1.824745,1.848680
131,1.091667,0.628780,1.825799,1.778517,0.372948,1.822026,2.071477,0.610573,1.309933,1.756096,0.355080,1.307500,2.049258,0.564524,1.824750,1.848679
132,1.100000,0.628767,1.825799,1.778516,0.372938,1.822037,2.071479,0.610550,1.309933,1.756106,0.355060,1.307511,2.049270,0.564511,1.824753,1.848679
133,1.108333,0.628767,1.825803,1.778524,0.372943,1.822041,2.071490,0.610540,1.309938,1.756104,0.355054,1.307515,2.049272,0.564513,1.824757,1.848688
134,1.116667,0.628774,1.825791,1.778516,0.372947,1.822021,2.071480,0.610564,1.309925,1.756096,0.355075,1.307494,2.049262,0.564519,1.824743,1.848679
135,1.125000,0.628768,1.825797,1.778524,0.372944,1.822024,2.071491,0.610568,1.309931,1.756109,0.355083,1.307498,2.049277,0.564514,1.824749,1.848688
136,1.133333,0.628753,1.825810,1.778531,0.372928,1.822032,2.071497,0.610560,1.309943,1.756115,0.355074,1.307505,2.049282,0.564498,1.824760,1.848695
137,1.141667,0.628754,1.825804,1.778530,0.372929,1.822029,2.071496,0.610552,1.309938,1.756111,0.355066,1.307503,2.049278,0.564499,1.824755,1.848694
138,1.150000,0.628757,1.825801,1.778523,0.372932,1.822028,2.071488,0.610552,1.309935,1.756103,0.355065,1.307502,2.049270,0.564503,1.824753,1.848687
139,1.158333,0.628741,1.825802,1.778535,0.372911,1.822024,2.071496,0.610542,1.309936,1.756110,0.355050,1.307497,2.049273,0.564486,1.824752,1.848697
140,1.166667,0.628741,1.825815,1.778544,0.372916,1.822031,2.071510,0.610549,1.309949,1.756117,0.355063,1.307504,2.049285,0.564486,1.824764,1.848708
141,1.175000,0.628748,1.825811,1.778546,0.372905,1.822041,2.071497,0.610523,1.309947,1.756112,0.355019,1.307516,2.049264,0.564489,1.824764,1.848706
142,1.183333,0.628732,1.825804,1.778546,0.372907,1.822023,2.071512,0.610535,1.309939,1.756119,0.355049,1.307496,2.049286,0.564477,1.824754,1.848710
143,1.191667,0.628723,1.825809,1.778541,0.372900,1.822019,2.071508,0.610533,1.309943,1.756105,0.355048,1.307492,2.049273,0.564469,1.824756,1.848705
144,1.200000,0.628719,1.825814,1.778553,0.372900,1.822024,2.071524,0.610524,1.309949,1.756112,0.355044,1.307498,2.049285,0.564466,1.824762,1.848718
145,1.208333,0.628717,1.825813,1.778569,0.372882,1.822022,2.071525,0.610520,1.309948,1.756122,0.355023,1.307497,2.049280,0.564460,1.824761,1.848730
146,1.216667,0.628720,1.825816,1.778566,0.372880,1.822024,2.071519,0.610535,1.309951,1.756128,0.355034,1.307497,2.049283,0.564462,1.824763,1.848727
147,1.225000,0.628707,1.825808,1.778562,0.372874,1.822017,2.071521,0.610518,1.309942,1.756124,0.355024,1.307491,2.049284,0.564450,1.824755,1.848724
148,1.233333,0.628708,1.825818,1.778570,0.372876,1.822025,2.071529,0.610523,1.309952,1.756132,0.355030,1.307498,2.049293,0.564451,1.824764,1.848732
149,1.241667,0.628702,1.825822,1.778565,0.372876,1.822020,2.071529,0.610534,1.309955,1.756127,0.355047,1.307493,2.049293,0.564447,1.824766,1.848728
150,1.250000,0.628704,1.825812,1.778568,0.372872,1.822018,2.071527,0.610521,1.309946,1.756128,0.355028,1.307491,2.049289,0.564448,1.824758,1.848730
151,1.258333,0.628700,1.825819,1.778572,0.372875,1.822025,2.071537,0.610522,1.309953,1.756139,0.355036,1.307498,2.049306,0.564445,1.824766,1.848736
152,1.266667,0.628692,1.825823,1.778581,0.372861,1.822016,2.071541,0.610503,1.309958,1.756116,0.355011,1.307491,2.049278,0.564436,1.824766,1.848743
153,1.275000,0.628688,1.825822,1.778574,0.372853,1.822028,2.071531,0.610515,1.309956,1.756143,0.355018,1.307501,2.049301,0.564431,1.824768,1.848736
154,1.283333,0.628691,1.825813,1.778568,0.372865,1.822018,2.071532,0.610514,1.309947,1.756134,0.355027,1.307491,2.049300,0.564436,1.824759,1.848731
155,1.291667,0.628696,1.825813,1.778576,0.372871,1.822015,2.071541,0.610520,1.309947,1.756137,0.355034,1.307488,2.049304,0.564442,1.824758,1.848740
156,1.300000,0.628700,1.825819,1.778583,0.372880,1.822020,2.071552,0.610527,1.309952,1.756147,0.355045,1.307493,2.049318,0.564447,1.824764,1.848748
157,1.308333,0.628699,1.825820,1.778579,0.372867,1.822023,2.071539,0.610535,1.309953,1.756152,0.355042,1.307496,2.049314,0.564443,1.824766,1.848741
158,1.316667,0.628704,1.825817,1.778574,0.372866,1.822024,2.071527,0.610520,1.309951,1.756135,0.355020,1.307498,2.049291,0.564447,1.824764,1.848735
159,1.325000,0.628699,1.825819,1.778572,0.372869,1.822022,2.071533,0.610513,1.309953,1.756127,0.355022,1.307496,2.049289,0.564444,1.824764,1.848735
160,1.333333,0.628704,1.825814,1.778574,0.372873,1.822022,2.071535,0.610520,1.309948,1.756139,0.355028,1.307495,2.049301,0.564448,1.824761,1.848737
161,1.341667,0.628712,1.825813,1.778576,0.372878,1.822021,2.071533,0.610526,1.309947,1.756139,0.355031,1.307495,2.049298,0.564456,1.824760,1.848737
162,1.350000,0.628708,1.825815,1.778570,0.372881,1.822017,2.071534,0.610524,1.309949,1.756126,0.355036,1.307491,2.049291,0.564453,1.824760,1.848734
163,1.358333,0.628709,1.825819,1.778568,0.372882,1.822016,2.071532,0.610535,1.309953,1.756123,0.355047,1.307490,2.049288,0.564454,1.824764,1.848731
164,1.366667,0.628712,1.825812,1.778559,0.372887,1.822018,2.071524,0.610532,1.309946,1.756124,0.355045,1.307491,2.049290,0.564457,1.824758,1.848722
165,1.375000,0.628726,1.825813,1.778560,0.372898,1.822025,2.071523,0.610540,1.309947,1.756130,0.355051,1.307498,2.049294,0.564470,1.824761,1.848723
166,1.383333,0.628721,1.825816,1.778562,0.372899,1.822024,2.071530,0.610543,1.309949,1.756132,0.355059,1.307497,2.049301,0.564468,1.824763,1.848727
167,1.391667,0.628726,1.825815,1.778558,0.372894,1.822025,2.071518,0.610538,1.309949,1.756124,0.355046,1.307498,2.049285,0.564470,1.824762,1.848720
168,1.400000,0.628729,1.825810,1.778552,0.372898,1.822027,2.071512,0.610530,1.309945,1.756119,0.355037,1.307501,2.049280,0.564473,1.824760,1.848714
169,1.408333,0.628741,1.825810,1.778548,0.372914,1.822024,2.071512,0.610543,1.309945,1.756110,0.355055,1.307498,2.049275,0.564486,1.824759,1.848711
170,1.416667,0.628749,1.825813,1.778546,0.372919,1.822034,2.071507,0.610538,1.309948,1.756110,0.355047,1.307509,2.049273,0.564494,1.824763,1.848709
171,1.425000,0.628744,1.825812,1.778547,0.372919,1.822035,2.071512,0.610544,1.309946,1.756125,0.355057,1.307508,2.049291,0.564490,1.824763,1.848711
172,1.433333,0.628760,1.825810,1.778544,0.372936,1.822035,2.071511,0.610555,1.309944,1.756121,0.355070,1.307508,2.049289,0.564506,1.824761,1.848708
173,1.441667,0.628762,1.825812,1.778539,0.372928,1.822028,2.071497,0.610568,1.309946,1.756110,0.355073,1.307502,2.049269,0.564505,1.824761,1.848701
174,1.450000,0.628760,1.825816,1.778536,0.372927,1.822041,2.071495,0.610553,1.309951,1.756111,0.355059,1.307515,2.049272,0.564504,1.824767,1.848698
175,1.458333,0.628760,1.825804,1.778534,0.372939,1.822032,2.071504,0.610551,1.309939,1.756112,0.355069,1.307505,2.049284,0.564507,1.824756,1.848699
176,1.466667,0.628771,1.825808,1.778532,0.372954,1.822031,2.071505,0.610567,1.309942,1.756108,0.355088,1.307505,2.049282,0.564518,1.824759,1.848698
177,1.475000,0.628774,1.825806,1.778536,0.372937,1.822036,2.071491,0.610560,1.309940,1.756112,0.355062,1.307510,2.049269,0.564517,1.824758,1.848697
178,1.483333,0.628767,1.825804,1.778527,0.372938,1.822033,2.071489,0.610547,1.309939,1.756097,0.355056,1.307507,2.049260,0.564511,1.824756,1.848690
179,1.491667,0.628769,1.825802,1.778519,0.372945,1.822041,2.071486,0.610555,1.309936,1.756112,0.355070,1.307514,2.049281,0.564515,1.824757,1.848683
180,1.500000,0.628775,1.825810,1.778520,0.372952,1.822034,2.071487,0.610568,1.309944,1.756093,0.355083,1.307508,2.049262,0.564521,1.824761,1.848684
181,1.508333,0.628776,1.825806,1.778529,0.372945,1.822037,2.071490,0.610555,1.309942,1.756101,0.355063,1.307512,2.049263,0.564520,1.824759,1.848691
182,1.516667,0.628787,1.825807,1.778529,0.372954,1.822039,2.071488,0.610561,1.309942,1.756100,0.355067,1.307514,2.049260,0.564531,1.824760,1.848691
183,1.525000,0.628777,1.825807,1.778522,0.372948,1.822037,2.071485,0.610558,1.309942,1.756095,0.355068,1.307511,2.049259,0.564521,1.824759,1.848685
184,1.533333,0.628777,1.825814,1.778513,0.372961,1.822041,2.071486,0.610560,1.309949,1.756084,0.355083,1.307515,2.049259,0.564525,1.824765,1.848678
185,1.541667,0.628782,1.825815,1.778528,0.372945,1.822049,2.071483,0.610561,1.309950,1.756105,0.355063,1.307523,2.049262,0.564524,1.824768,1.848689
186,1.550000,0.628769,1.825816,1.778527,0.372941,1.822048,2.071490,0.610534,1.309952,1.756089,0.355046,1.307523,2.049254,0.564514,1.824769,1.848690
187,1.558333,0.628774,1.825811,1.778519,0.372938,1.822042,2.071476,0.610560,1.309946,1.756097,0.355063,1.307516,2.049255,0.564517,1.824764,1.848681
188,1.566667,0.628764,1.825807,1.778519,0.372946,1.822031,2.071491,0.610559,1.309941,1.756095,0.355080,1.307504,2.049269,0.564511,1.824758,1.848684
189,1.575000,0.628764,1.825800,1.778517,0.372942,1.822030,2.071484,0.610547,1.309935,1.756091,0.355063,1.307504,2.049260,0.564511,1.824753,1.848681
190,1.583333,0.628772,1.825806,1.778528,0.372935,1.822036,2.071484,0.610565,1.309940,1.756110,0.355067,1.307510,2.049268,0.564515,1.824759,1.848689
191,1.591667,0.628765,1.825814,1.778535,0.372931,1.822042,2.071493,0.610549,1.309949,1.756106,0.355053,1.307516,2.049265,0.564508,1.824766,1.848697
192,1.600000,0.628764,1.825807,1.778535,0.372930,1.822040,2.071494,0.610537,1.309942,1.756107,0.355042,1.307515,2.049267,0.564507,1.824760,1.848697
193,1.608333,0.628752,1.825805,1.778536,0.372923,1.822031,2.071499,0.610534,1.309940,1.756104,0.355044,1.307506,2.049268,0.564497,1.824756,1.848699
194,1.616667,0.628754,1.825807,1.778548,0.372916,1.822026,2.071502,0.610548,1.309942,1.756112,0.355049,1.307500,2.049268,0.564497,1.824757,1.848709
195,1.625000,0.628743,1.825807,1.778539,0.372916,1.822027,2.071504,0.610545,1.309941,1.756114,0.355058,1.307500,2.049280,0.564488,1.824757,1.848703
196,1.633333,0.628734,1.825818,1.778547,0.372912,1.822031,2.071516,0.610540,1.309952,1.756115,0.355058,1.307505,2.049285,0.564480,1.824766,1.848712
197,1.641667,0.628733,1.825812,1.778549,0.372902,1.822036,2.071510,0.610537,1.309946,1.756130,0.355045,1.307509,2.049292,0.564477,1.824763,1.848711
198,1.650000,0.628736,1.825811,1.778555,0.372905,1.822031,2.071516,0.610534,1.309946,1.756126,0.355042,1.307505,2.049288,0.564480,1.824761,1.848718
199,1.658333,0.628725,1.825806,1.778552,0.372894,1.822019,2.071512,0.610535,1.309940,1.756121,0.355042,1.307493,2.049283,0.564469,1.824754,1.848714
200,1.666667,0.628716,1.825803,1.778557,0.372887,1.822015,2.071519,0.610531,1.309937,1.756128,0.355040,1.307489,2.049291,0.564461,1.824751,1.848720
201,1.675000,0.628712,1.825815,1.778571,0.372883,1.822021,2.071534,0.610530,1.309949,1.756135,0.355040,1.307494,2.049299,0.564457,1.824761,1.848734
202,1.683333,0.628722,1.825817,1.778576,0.372875,1.822021,2.071522,0.610537,1.309951,1.756131,0.355028,1.307495,2.049279,0.564462,1.824763,1.848735
203,1.691667,0.628705,1.825823,1.778565,0.372881,1.822031,2.071531,0.610528,1.309957,1.756137,0.355042,1.307504,2.049304,0.564451,1.824770,1.848729
204,1.700000,0.628707,1.825817,1.778575,0.372869,1.822021,2.071529,0.610517,1.309952,1.756128,0.355018,1.307496,2.049284,0.564449,1.824763,1.848736
205,1.708333,0.628698,1.825809,1.778579,0.372869,1.822008,2.071541,0.610540,1.309942,1.756150,0.355049,1.307481,2.049313,0.564443,1.824754,1.848742
206,1.716667,0.628702,1.825808,1.778570,0.372872,1.822010,2.071532,0.610531,1.309942,1.756136,0.355040,1.307483,2.049299,0.564447,1.824754,1.848733
207,1.725000,0.628695,1.825816,1.778576,0.372865,1.822021,2.071537,0.610514,1.309950,1.756137,0.355023,1.307494,2.049300,0.564440,1.824762,1.848739
208,1.733333,0.628691,1.825818,1.778573,0.372861,1.822020,2.071534,0.610523,1.309951,1.756142,0.355031,1.307492,2.049304,0.564435,1.824763,1.848736
209,1.741667,0.628696,1.825819,1.778572,0.372865,1.822021,2.071531,0.610518,1.309953,1.756131,0.355025,1.307495,2.049292,0.564440,1.824765,1.848734
210,1.750000,0.628692,1.825813,1.778570,0.372868,1.822021,2.071536,0.610514,1.309947,1.756141,0.355028,1.307494,2.049309,0.564438,1.824760,1.848734
211,1.758333,0.628696,1.825810,1.778581,0.372862,1.822009,2.071539,0.610523,1.309944,1.756141,0.355028,1.307483,2.049300,0.564439,1.824755,1.848743
212,1.766667,0.628698,1.825811,1.778580,0.372865,1.822011,2.071538,0.610511,1.309946,1.756128,0.355016,1.307486,2.049288,0.564442,1.824756,1.848742
213,1.775000,0.628696,1.825814,1.778580,0.372875,1.822016,2.071549,0.610519,1.309948,1.756143,0.355037,1.307490,2.049313,0.564442,1.824759,1.848744
214,1.783333,0.628698,1.825819,1.778578,0.372863,1.822016,2.071534,0.610534,1.309953,1.756139,0.355037,1.307489,2.049297,0.564441,1.824764,1.848739
215,1.791667,0.628696,1.825810,1.778575,0.372866,1.822009,2.071536,0.610507,1.309945,1.756120,0.355016,1.307483,2.049283,0.564441,1.824754,1.848738
216,1.800000,0.628703,1.825812,1.778573,0.372867,1.822016,2.071530,0.610527,1.309946,1.756137,0.355030,1.307489,2.049295,0.564446,1.824758,1.848735
217,1.808333,0.628702,1.825812,1.778568,0.372875,1.822015,2.071532,0.610527,1.309946,1.756132,0.355039,1.307489,2.049297,0.564447,1.824758,1.848731
218,1.816667,0.628715,1.825815,1.778570,0.372887,1.822021,2.071533,0.610539,1.309948,1.756139,0.355049,1.307494,2.049304,0.564460,1.824761,1.848733
219,1.825000,0.628718,1.825820,1.778564,0.372896,1.822029,2.071532,0.610529,1.309955,1.756126,0.355045,1.307502,2.049296,0.564464,1.824767,1.848729
220,1.833333,0.628711,1.825811,1.778564,0.372888,1.822023,2.071531,0.610531,1.309944,1.756140,0.355046,1.307496,2.049309,0.564457,1.824759,1.848728
221,1.841667,0.628713,1.825806,1.778560,0.372885,1.822013,2.071523,0.610532,1.309940,1.756125,0.355043,1.307486,2.049289,0.564458,1.824753,1.848723
222,1.850000,0.628728,1.825805,1.778553,0.372896,1.822020,2.071512,0.610535,1.309939,1.756123,0.355041,1.307494,2.049283,0.564472,1.824753,1.848715
223,1.858333,0.628739,1.825808,1.778549,0.372907,1.822023,2.071509,0.610545,1.309943,1.756117,0.355052,1.307497,2.049278,0.564483,1.824757,1.848711
224,1.866667,0.628745,1.825809,1.778553,0.372921,1.822026,2.071519,0.610547,1.309943,1.756122,0.355061,1.307499,2.049290,0.564491,1.824758,1.848717
225,1.875000,0.628730,1.825807,1.778546,0.372905,1.822030,2.071511,0.610533,1.309941,1.756127,0.355047,1.307504,2.049294,0.564476,1.824758,1.848710
226,1.883333,0.628747,1.825810,1.778548,0.372913,1.822028,2.071506,0.610548,1.309945,1.756115,0.355053,1.307501,2.049275,0.564491,1.824760,1.848710
227,1.891667,0.628749,1.825800,1.778549,0.372914,1.822014,2.071507,0.610545,1.309935,1.756107,0.355049,1.307488,2.049266,0.564492,1.824748,1.848711
228,1.900000,0.628755,1.825803,1.778541,0.372937,1.822018,2.071513,0.610557,1.309938,1.756106,0.355078,1.307492,2.049280,0.564502,1.824752,1.848706
229,1.908333,0.628769,1.825800,1.778544,0.372928,1.822027,2.071496,0.610565,1.309935,1.756123,0.355064,1.307500,2.049277,0.564510,1.824752,1.848704
230,1.916667,0.628757,1.825805,1.778541,0.372936,1.822031,2.071510,0.610558,1.309939,1.756125,0.355075,1.307505,2.049296,0.564504,1.824757,1.848706
231,1.925000,0.628773,1.825804,1.778543,0.372939,1.822034,2.071502,0.610550,1.309939,1.756113,0.355055,1.307508,2.049273,0.564516,1.824756,1.848705
232,1.933333,0.628771,1.825800,1.778537,0.372929,1.822026,2.071487,0.610550,1.309935,1.756098,0.355046,1.307500,2.049250,0.564513,1.824751,1.848696
233,1.941667,0.628763,1.825806,1.778534,0.372933,1.822029,2.071496,0.610554,1.309940,1.756104,0.355064,1.307503,2.049267,0.564507,1.824756,1.848697
234,1.950000,0.628780,1.825809,1.778529,0.372948,1.822037,2.071489,0.610569,1.309943,1.756106,0.355077,1.307511,2.049268,0.564524,1.824761,1.848691
235,1.958333,0.628776,1.825800,1.778533,0.372945,1.822031,2.071493,0.610556,1.309935,1.756106,0.355064,1.307505,2.049268,0.564520,1.824753,1.848695
236,1.966667,0.628772,1.825802,1.778530,0.372940,1.822031,2.071490,0.610554,1.309937,1.756101,0.355060,1.307505,2.049263,0.564516,1.824754,1.848693
237,1.975000,0.628768,1.825805,1.778522,0.372946,1.822032,2.071491,0.610567,1.309938,1.756108,0.355084,1.307505,2.049278,0.564514,1.824756,1.848687
238,1.983333,0.628768,1.825800,1.778528,0.372938,1.822032,2.071489,0.610563,1.309934,1.756116,0.355072,1.307505,2.049279,0.564512,1.824753,1.848690
239,1.991667,0.628767,1.825799,1.778521,0.372942,1.822021,2.071487,0.610568,1.309933,1.756098,0.355082,1.307495,2.049265,0.564513,1.824750,1.848685
240,2.000000,0.628767,1.825799,1.778531,0.372940,1.822024,2.071495,0.610561,1.309934,1.756107,0.355073,1.307498,2.049273,0.564512,1.824750,1.848694
241,2.008333,0.628760,1.825802,1.778523,0.372935,1.822028,2.071489,0.610568,1.309936,1.756112,0.355081,1.307500,2.049279,0.564505,1.824754,1.848687
242,2.016667,0.628762,1.825805,1.778527,0.372938,1.822028,2.071493,0.610560,1.309940,1.756102,0.355075,1.307502,2.049270,0.564508,1.824756,1.848691
243,2.025000,0.628768,1.825799,1.778535,0.372937,1.822020,2.071496,0.610555,1.309934,1.756097,0.355062,1.307495,2.049259,0.564512,1.824749,1.848698
244,2.033333,0.628764,1.825801,1.778538,0.372937,1.822028,2.071502,0.610558,1.309936,1.756117,0.355069,1.307502,2.049282,0.564509,1.824753,1.848701
245,2.041667,0.628759,1.825798,1.778537,0.372931,1.822024,2.071500,0.610560,1.309932,1.756120,0.355071,1.307497,2.049284,0.564504,1.824749,1.848700
246,2.050000,0.628754,1.825808,1.778533,0.372917,1.822030,2.071489,0.610549,1.309943,1.756104,0.355051,1.307504,2.049261,0.564496,1.824759,1.848695
247,2.058333,0.628745,1.825803,1.778530,0.372928,1.822026,2.071503,0.610557,1.309936,1.756120,0.355079,1.307499,2.049295,0.564493,1.824754,1.848695
248,2.066667,0.628746,1.825809,1.778546,0.372919,1.822026,2.071510,0.610553,1.309943,1.756119,0.355064,1.307499,2.049284,0.564491,1.824758,1.848709
249,2.075000,0.628744,1.825813,1.778548,0.372911,1.822029,2.071506,0.610548,1.309947,1.756115,0.355054,1.307503,2.049275,0.564488,1.824762,1.848710
250,2.083333,0.628749,1.825804,1.778555,0.372905,1.822029,2.071504,0.610530,1.309940,1.756117,0.355024,1.307504,2.049267,0.564490,1.824756,1.848714
251,2.091667,0.628736,1.825806,1.778554,0.372903,1.822015,2.071512,0.610555,1.309940,1.756123,0.355061,1.307489,2.049283,0.564480,1.824753,1.848716
252,2.100000,0.628736,1.825803,1.778553,0.372914,1.822013,2.071521,0.610556,1.309936,1.756126,0.355073,1.307486,2.049295,0.564482,1.824750,1.848717
253,2.108333,0.628727,1.825807,1.778556,0.372900,1.822022,2.071520,0.610534,1.309941,1.756126,0.355045,1.307495,2.049291,0.564472,1.824756,1.848720
254,2.116667,0.628726,1.825811,1.778559,0.372900,1.822017,2.071523,0.610541,1.309945,1.756120,0.355053,1.307491,2.049285,0.564472,1.824757,1.848722
255,2.125000,0.628729,1.825806,1.778559,0.372898,1.822024,2.071520,0.610529,1.309940,1.756129,0.355037,1.307498,2.049291,0.564473,1.824755,1.848722
256,2.133333,0.628721,1.825816,1.778561,0.372888,1.822021,2.071519,0.610534,1.309951,1.756117,0.355040,1.307495,2.049277,0.564464,1.824762,1.848723
257,2.141667,0.628723,1.825810,1.778563,0.372901,1.822019,2.071531,0.610536,1.309945,1.756127,0.355052,1.307493,2.049297,0.564469,1.824758,1.848728
258,2.150000,0.628722,1.825816,1.778569,0.372891,1.822020,2.071530,0.610537,1.309950,1.756127,0.355045,1.307494,2.049289,0.564466,1.824762,1.848732
259,2.158333,0.628716,1.825811,1.778569,0.372883,1.822021,2.071527,0.610523,1.309946,1.756128,0.355028,1.307495,2.049288,0.564460,1.824759,1.848731
260,2.166667,0.628706,1.825811,1.778575,0.372887,1.822011,2.071545,0.610532,1.309945,1.756135,0.355052,1.307484,2.049308,0.564453,1.824756,1.848740
261,2.175000,0.628711,1.825813,1.778571,0.372891,1.822017,2.071541,0.610523,1.309948,1.756126,0.355042,1.307491,2.049298,0.564457,1.824759,1.848736
262,2.183333,0.628713,1.825815,1.778568,0.372893,1.822023,2.071538,0.610521,1.309949,1.756127,0.355040,1.307497,2.049298,0.564460,1.824762,1.848733
263,2.191667,0.628707,1.825812,1.778575,0.372882,1.822006,2.071540,0.610528,1.309946,1.756122,0.355041,1.307481,2.049288,0.564453,1.824755,1.848739
264,2.200000,0.628706,1.825813,1.778583,0.372876,1.822015,2.071545,0.610528,1.309947,1.756142,0.355037,1.307488,2.049305,0.564450,1.824758,1.848746
265,2.208333,0.628706,1.825809,1.778578,0.372882,1.822009,2.071545,0.610521,1.309944,1.756129,0.355036,1.307484,2.049298,0.564452,1.824754,1.848742
266,2.216667,0.628709,1.825810,1.778578,0.372882,1.822018,2.071541,0.610511,1.309945,1.756132,0.355023,1.307493,2.049297,0.564454,1.824757,1.848741
267,2.225000,0.628704,1.825806,1.778569,0.372880,1.822009,2.071535,0.610524,1.309940,1.756130,0.355038,1.307483,2.049298,0.564450,1.824752,1.848733
268,2.233333,0.628706,1.825802,1.778570,0.372876,1.822011,2.071531,0.610532,1.309936,1.756145,0.355040,1.307484,2.049307,0.564451,1.824750,1.848733
269,2.241667,0.628710,1.825812,1.778567,0.372887,1.822013,2.071535,0.610530,1.309947,1.756124,0.355046,1.307487,2.049293,0.564456,1.824758,1.848731
270,2.250000,0.628719,1.825810,1.778571,0.372884,1.822022,2.071528,0.610518,1.309945,1.756127,0.355022,1.307496,2.049286,0.564462,1.824758,1.848733
271,2.258333,0.628710,1.825808,1.778568,0.372880,1.822018,2.071529,0.610529,1.309942,1.756138,0.355038,1.307491,2.049301,0.564454,1.824755,1.848730
272,2.266667,0.628715,1.825804,1.778571,0.372876,1.822007,2.071524,0.610535,1.309938,1.756129,0.355035,1.307480,2.049284,0.564457,1.824749,1.848731
273,2.275000,0.628722,1.825799,1.778561,0.372900,1.822008,2.071529,0.610536,1.309934,1.756125,0.355052,1.307481,2.049295,0.564468,1.824746,1.848726
274,2.283333,0.628725,1.825804,1.778564,0.372894,1.822009,2.071525,0.610535,1.309939,1.756117,0.355043,1.307483,2.049279,0.564469,1.824750,1.848727
275,2.291667,0.628730,1.825807,1.778568,0.372901,1.822018,2.071529,0.610550,1.309941,1.756141,0.355059,1.307491,2.049304,0.564475,1.824755,1.848731
276,2.300000,0.628728,1.825807,1.778569,0.372897,1.822017,2.071529,0.610532,1.309942,1.756127,0.355040,1.307491,2.049289,0.564472,1.824754,1.848731
277,2.308333,0.628738,1.825803,1.778558,0.372908,1.822017,2.071520,0.610547,1.309937,1.756128,0.355056,1.307491,2.049291,0.564482,1.824752,1.848721
278,2.316667,0.628735,1.825796,1.778552,0.372912,1.822015,2.071520,0.610546,1.309930,1.756133,0.355062,1.307488,2.049302,0.564481,1.824746,1.848717
279,2.325000,0.628745,1.825795,1.778551,0.372922,1.822011,2.071519,0.610553,1.309929,1.756125,0.355069,1.307485,2.049294,0.564491,1.824744,1.848716
280,2.333333,0.628755,1.825796,1.778550,0.372919,1.822023,2.071506,0.610548,1.309931,1.756128,0.355050,1.307497,2.049285,0.564498,1.824748,1.848712
281,2.341667,0.628757,1.825801,1.778555,0.372923,1.822026,2.071513,0.610543,1.309936,1.756122,0.355048,1.307500,2.049281,0.564501,1.824752,1.848717
282,2.350000,0.628760,1.825806,1.778549,0.372927,1.822033,2.071507,0.610543,1.309941,1.756119,0.355049,1.307508,2.049279,0.564503,1.824758,1.848711
283,2.358333,0.628764,1.825805,1.778554,0.372927,1.822026,2.071509,0.610555,1.309940,1.756118,0.355057,1.307500,2.049275,0.564506,1.824755,1.848715
284,2.366667,0.628759,1.825795,1.778538,0.372934,1.822020,2.071504,0.610553,1.309930,1.756113,0.355067,1.307493,2.049280,0.564505,1.824746,1.848702
285,2.375000,0.628766,1.825800,1.778541,0.372938,1.822026,2.071504,0.610554,1.309934,1.756114,0.355065,1.307500,2.049279,0.564511,1.824751,1.848704
286,2.383333,0.628767,1.825795,1.778542,0.372939,1.822016,2.071505,0.610556,1.309930,1.756106,0.355067,1.307491,2.049272,0.564512,1.824745,1.848705
287,2.391667,0.628765,1.825791,1.778534,0.372936,1.822020,2.071496,0.610542,1.309926,1.756102,0.355051,1.307495,2.049266,0.564510,1.824743,1.848697
288,2.400000,0.628763,1.825798,1.778530,0.372937,1.822023,2.071495,0.610555,1.309932,1.756104,0.355068,1.307496,2.049271,0.564508,1.824749,1.848694
289,2.408333,0.628766,1.825799,1.778530,0.372941,1.822027,2.071496,0.610556,1.309933,1.756108,0.355070,1.307501,2.049276,0.564512,1.824751,1.848694
290,2.416667,0.628771,1.825799,1.778534,0.372941,1.822024,2.071495,0.610555,1.309935,1.756099,0.355063,1.307498,2.049262,0.564515,1.824751,1.848696
291,2.425000,0.628768,1.825799,1.778533,0.372942,1.822028,2.071498,0.610555,1.309934,1.756110,0.355068,1.307502,2.049277,0.564513,1.824752,1.848696
292,2.433333,0.628775,1.825798,1.778531,0.372946,1.822022,2.071493,0.610565,1.309932,1.756101,0.355074,1.307496,2.049265,0.564520,1.824749,1.848693
293,2.441667,0.628771,1.825788,1.778525,0.372944,1.822026,2.071489,0.610547,1.309922,1.756109,0.355060,1.307500,2.049275,0.564516,1.824742,1.848688
294,2.450000,0.628765,1.825801,1.778526,0.372937,1.822028,2.071489,0.610565,1.309935,1.756111,0.355076,1.307502,2.049275,0.564510,1.824753,1.848689
295,2.458333,0.628773,1.825795,1.778527,0.372940,1.822037,2.071487,0.610553,1.309930,1.756119,0.355059,1.307510,2.049279,0.564517,1.824751,1.848690
296,2.466667,0.628768,1.825799,1.778534,0.372940,1.822032,2.071497,0.610552,1.309933,1.756117,0.355063,1.307506,2.049281,0.564513,1.824752,1.848697
297,2.475000,0.628769,1.825797,1.778534,0.372933,1.822032,2.071490,0.610544,1.309933,1.756109,0.355046,1.307507,2.049266,0.564512,1.824751,1.848695
298,2.483333,0.628759,1.825798,1.778542,0.372938,1.822021,2.071511,0.610538,1.309934,1.756101,0.355056,1.307496,2.049272,0.564506,1.824749,1.848707
299,2.491667,0.628757,1.825798,1.778544,0.372921,1.822026,2.071500,0.610542,1.309933,1.756116,0.355045,1.307500,2.049273,0.564500,1.824750,1.848706
300,2.500000,0.628750,1.825795,1.778537,0.372927,1.822027,2.071505,0.610542,1.309929,1.756124,0.355058,1.307500,2.049293,0.564496,1.824748,1.848701
301,2.508333,0.628754,1.825800,1.778552,0.372921,1.822023,2.071510,0.610543,1.309935,1.756118,0.355048,1.307497,2.049278,0.564497,1.824751,1.848714
302,2.516667,0.628754,1.825798,1.778554,0.372918,1.822017,2.071511,0.610552,1.309933,1.756122,0.355055,1.307491,2.049280,0.564496,1.824748,1.848716
303,2.525000,0.628743,1.825803,1.778550,0.372917,1.822019,2.071515,0.610509,1.309940,1.756085,0.355022,1.307496,2.049252,0.564489,1.824752,1.848714
304,2.533333,0.628741,1.825797,1.778554,0.372915,1.822016,2.071518,0.610528,1.309932,1.756113,0.355040,1.307491,2.049278,0.564487,1.824747,1.848717
305,2.541667,0.628740,1.825801,1.778562,0.372902,1.822021,2.071517,0.610535,1.309936,1.756128,0.355035,1.307495,2.049284,0.564482,1.824751,1.848723
306,2.550000,0.628735,1.825809,1.778557,0.372900,1.822027,2.071515,0.610536,1.309944,1.756125,0.355040,1.307501,2.049284,0.564478,1.824759,1.848719
307,2.558333,0.628732,1.825799,1.778558,0.372899,1.822020,2.071516,0.610528,1.309933,1.756128,0.355034,1.307494,2.049288,0.564476,1.824749,1.848720
308,2.566667,0.628728,1.825803,1.778564,0.372900,1.822008,2.071527,0.610545,1.309937,1.756124,0.355055,1.307482,2.049289,0.564473,1.824749,1.848727
309,2.575000,0.628727,1.825796,1.778570,0.372896,1.822013,2.071531,0.610528,1.309930,1.756138,0.355036,1.307487,2.049300,0.564471,1.824745,1.848733
310,2.583333,0.628722,1.825812,1.778562,0.372901,1.822022,2.071531,0.610510,1.309948,1.756107,0.355028,1.307497,2.049278,0.564468,1.824759,1.848726
311,2.591667,0.628716,1.825808,1.778581,0.372885,1.822020,2.071541,0.610508,1.309943,1.756132,0.355015,1.307495,2.049294,0.564460,1.824756,1.848743
312,2.600000,0.628711,1.825804,1.778568,0.372887,1.822013,2.071534,0.610520,1.309938,1.756130,0.355035,1.307487,2.049298,0.564456,1.824751,1.848732
313,2.608333,0.628708,1.825801,1.778574,0.372879,1.822008,2.071535,0.610520,1.309936,1.756132,0.355029,1.307482,2.049295,0.564453,1.824748,1.848736
314,2.616667,0.628716,1.825802,1.778580,0.372881,1.822009,2.071536,0.610514,1.309937,1.756127,0.355017,1.307484,2.049285,0.564459,1.824749,1.848741
315,2.625000,0.628709,1.825807,1.778579,0.372874,1.822010,2.071536,0.610525,1.309942,1.756133,0.355029,1.307484,2.049292,0.564452,1.824753,1.848740
316,2.633333,0.628708,1.825813,1.778585,0.372864,1.822019,2.071534,0.610519,1.309948,1.756140,0.355014,1.307493,2.049291,0.564449,1.824760,1.848745
317,2.641667,0.628704,1.825810,1.778573,0.372879,1.822015,2.071538,0.610510,1.309945,1.756124,0.355024,1.307489,2.049291,0.564450,1.824756,1.848736
318,2.650000,0.628701,1.825805,1.778572,0.372871,1.822008,2.071534,0.610522,1.309939,1.756132,0.355031,1.307482,2.049295,0.564446,1.824751,1.848735
319,2.658333,0.628715,1.825802,1.778578,0.372883,1.822013,2.071537,0.610507,1.309937,1.756126,0.355013,1.307488,2.049287,0.564459,1.824749,1.848740
320,2.666667,0.628710,1.825805,1.778580,0.372875,1.822003,2.071537,0.610522,1.309941,1.756124,0.355026,1.307478,2.049282,0.564453,1.824750,1.848742
321,2.675000,0.628714,1.825805,1.778578,0.372878,1.822012,2.071533,0.610509,1.309941,1.756122,0.355011,1.307487,2.049279,0.564457,1.824752,1.848739
322,2.683333,0.628707,1.825815,1.778577,0.372878,1.822018,2.071539,0.610523,1.309949,1.756132,0.355033,1.307491,2.049296,0.564452,1.824761,1.848740
323,2.691667,0.628714,1.825806,1.778577,0.372884,1.822012,2.071538,0.610523,1.309941,1.756132,0.355032,1.307486,2.049295,0.564458,1.824753,1.848740
324,2.700000,0.628702,1.825811,1.778582,0.372875,1.822004,2.071545,0.610521,1.309946,1.756122,0.355033,1.307478,2.049288,0.564447,1.824754,1.848745
325,2.708333,0.628715,1.825806,1.778571,0.372888,1.822015,2.071535,0.610526,1.309941,1.756132,0.355037,1.307488,2.049297,0.564460,1.824754,1.848735
326,2.716667,0.628721,1.825801,1.778581,0.372890,1.822005,2.071541,0.610511,1.309937,1.756116,0.355018,1.307481,2.049278,0.564465,1.824747,1.848743
327,2.725000,0.628716,1.825811,1.778578,0.372890,1.822009,2.071542,0.610538,1.309945,1.756132,0.355050,1.307483,2.049298,0.564461,1.824755,1.848741
328,2.733333,0.628713,1.825810,1.778571,0.372883,1.822010,2.071532,0.610532,1.309944,1.756124,0.355041,1.307484,2.049287,0.564457,1.824755,1.848733
329,2.741667,0.628718,1.825809,1.778572,0.372890,1.822015,2.071535,0.610531,1.309943,1.756132,0.355041,1.307489,2.049296,0.564463,1.824755,1.848735
330,2.750000,0.628731,1.825808,1.778571,0.372892,1.822022,2.071525,0.610527,1.309943,1.756127,0.355027,1.307496,2.049283,0.564473,1.824757,1.848732
331,2.758333,0.628732,1.825805,1.778561,0.372898,1.822014,2.071519,0.610547,1.309939,1.756125,0.355051,1.307487,2.049285,0.564475,1.824752,1.848723
332,2.766667,0.628731,1.825805,1.778554,0.372909,1.822013,2.071522,0.610526,1.309941,1.756101,0.355042,1.307488,2.049271,0.564477,1.824753,1.848719
333,2.775000,0.628745,1.825808,1.778558,0.372906,1.822026,2.071511,0.610543,1.309943,1.756124,0.355043,1.307500,2.049278,0.564487,1.824758,1.848719
334,2.783333,0.628734,1.825801,1.778561,0.372903,1.822016,2.071521,0.610545,1.309936,1.756132,0.355052,1.307489,2.049293,0.564478,1.824750,1.848724
335,2.791667,0.628747,1.825804,1.778552,0.372925,1.822022,2.071520,0.610540,1.309939,1.756116,0.355057,1.307496,2.049286,0.564493,1.824753,1.848716
336,2.800000,0.628751,1.825795,1.778546,0.372927,1.822016,2.071513,0.610547,1.309929,1.756119,0.355062,1.307490,2.049287,0.564497,1.824745,1.848711
337,2.808333,0.628754,1.825795,1.778548,0.372924,1.822021,2.071509,0.610539,1.309930,1.756116,0.355048,1.307495,2.049279,0.564498,1.824746,1.848711
338,2.816667,0.628755,1.825794,1.778545,0.372923,1.822009,2.071503,0.610555,1.309929,1.756107,0.355061,1.307483,2.049267,0.564499,1.824743,1.848707
339,2.825000,0.628755,1.825801,1.778536,0.372923,1.822026,2.071496,0.610552,1.309936,1.756113,0.355059,1.307499,2.049274,0.564498,1.824752,1.848698
340,2.833333,0.628760,1.825796,1.778544,0.372935,1.822032,2.071509,0.610541,1.309930,1.756128,0.355055,1.307505,2.049295,0.564505,1.824750,1.848707
341,2.841667,0.628763,1.825793,1.778544,0.372926,1.822030,2.071500,0.610539,1.309928,1.756124,0.355041,1.307504,2.049280,0.564506,1.824747,1.848706
342,2.850000,0.628761,1.825801,1.778538,0.372935,1.822022,2.071502,0.610560,1.309935,1.756112,0.355073,1.307496,2.049278,0.564506,1.824751,1.848701
343,2.858333,0.628761,1.825798,1.778539,0.372938,1.822018,2.071506,0.610564,1.309932,1.756113,0.355080,1.307491,2.049281,0.564507,1.824748,1.848703
344,2.866667,0.628767,1.825800,1.778539,0.372930,1.822016,2.071494,0.610570,1.309934,1.756107,0.355071,1.307490,2.049263,0.564510,1.824749,1.848700
345,2.875000,0.628769,1.825800,1.778543,0.372939,1.822026,2.071505,0.610553,1.309935,1.756113,0.355062,1.307501,2.049276,0.564513,1.824751,1.848706
346,2.883333,0.628757,1.825801,1.778538,0.372936,1.822028,2.071507,0.610546,1.309936,1.756114,0.355063,1.307502,2.049284,0.564504,1.824753,1.848703
347,2.891667,0.628761,1.825792,1.778535,0.372938,1.822024,2.071503,0.610551,1.309926,1.756120,0.355067,1.307497,2.049290,0.564507,1.824745,1.848699
348,2.900000,0.628765,1.825795,1.778535,0.372934,1.822022,2.071496,0.610553,1.309930,1.756107,0.355061,1.307496,2.049270,0.564509,1.824747,1.848698
349,2.908333,0.628766,1.825803,1.778541,0.372930,1.822031,2.071498,0.610550,1.309938,1.756112,0.355053,1.307505,2.049270,0.564509,1.824755,1.848703
350,2.916667,0.628763,1.825800,1.778543,0.372922,1.822025,2.071496,0.610555,1.309935,1.756115,0.355053,1.307499,2.049268,0.564504,1.824751,1.848704
351,2.925000,0.628750,1.825798,1.778532,0.372932,1.822017,2.071504,0.610567,1.309931,1.756119,0.355088,1.307490,2.049292,0.564497,1.824748,1.848697
352,2.933333,0.628760,1.825794,1.778541,0.372914,1.822020,2.071488,0.610556,1.309929,1.756116,0.355049,1.307493,2.049265,0.564501,1.824746,1.848700
353,2.941667,0.628749,1.825801,1.778542,0.372914,1.822016,2.071499,0.610544,1.309937,1.756099,0.355047,1.307491,2.049258,0.564492,1.824750,1.848704
354,2.950000,0.628742,1.825798,1.778540,0.372916,1.822016,2.071505,0.610549,1.309932,1.756114,0.355061,1.307489,2.049280,0.564488,1.824748,1.848704
355,2.958333,0.628746,1.825803,1.778550,0.372913,1.822024,2.071509,0.610546,1.309938,1.756122,0.355052,1.307498,2.049283,0.564490,1.824754,1.848712
356,2.966667,0.628744,1.825806,1.778552,0.372907,1.822025,2.071507,0.610548,1.309940,1.756124,0.355050,1.307498,2.049281,0.564487,1.824756,1.848713
357,2.975000,0.628738,1.825802,1.778550,0.372901,1.822013,2.071505,0.610544,1.309937,1.756111,0.355046,1.307487,2.049268,0.564481,1.824750,1.848711
358,2.983333,0.628740,1.825795,1.778558,0.372899,1.822011,2.071510,0.610531,1.309930,1.756114,0.355029,1.307486,2.049267,0.564482,1.824744,1.848719
359,2.991667,0.628736,1.825793,1.778557,0.372908,1.822010,2.071520,0.610545,1.309927,1.756130,0.355056,1.307483,2.049295,0.564481,1.824742,1.848720
360,3.000000,0.628730,1.825802,1.778554,0.372905,1.822018,2.071521,0.610529,1.309937,1.756119,0.355043,1.307492,2.049287,0.564475,1.824751,1.848718
361,3.008333,0.628728,1.825803,1.778566,0.372891,1.822012,2.071520,0.610543,1.309937,1.756131,0.355043,1.307486,2.049287,0.564471,1.824750,1.848727
362,3.016667,0.628724,1.825799,1.778563,0.372891,1.822010,2.071521,0.610536,1.309933,1.756129,0.355040,1.307484,2.049289,0.564468,1.824747,1.848725
363,3.025000,0.628718,1.825797,1.778561,0.372894,1.822005,2.071527,0.610526,1.309932,1.756120,0.355041,1.307479,2.049288,0.564464,1.824744,1.848725
364,3.033333,0.628718,1.825798,1.778570,0.372879,1.822008,2.071524,0.610518,1.309933,1.756123,0.355018,1.307482,2.049279,0.564460,1.824745,1.848731
365,3.041667,0.628716,1.825809,1.778574,0.372879,1.822015,2.071529,0.610526,1.309944,1.756129,0.355028,1.307489,2.049286,0.564459,1.824756,1.848735
366,3.050000,0.628713,1.825799,1.778576,0.372882,1.822004,2.071537,0.610522,1.309934,1.756129,0.355029,1.307478,2.049290,0.564457,1.824745,1.848739
367,3.058333,0.628707,1.825800,1.778565,0.372887,1.822010,2.071535,0.610508,1.309935,1.756121,0.355027,1.307484,2.049293,0.564454,1.824747,1.848730
368,3.066667,0.628708,1.825803,1.778569,0.372875,1.822007,2.071527,0.610535,1.309936,1.756136,0.355041,1.307480,2.049296,0.564452,1.824749,1.848731
369,3.075000,0.628705,1.825809,1.778575,0.372883,1.822008,2.071543,0.610535,1.309943,1.756136,0.355052,1.307481,2.049305,0.564452,1.824754,1.848739
370,3.083333,0.628700,1.825804,1.778571,0.372874,1.822012,2.071536,0.610511,1.309938,1.756132,0.355024,1.307486,2.049299,0.564445,1.824751,1.848735
371,3.091667,0.628699,1.825801,1.778576,0.372868,1.822009,2.071536,0.610506,1.309936,1.756133,0.355014,1.307483,2.049295,0.564443,1.824748,1.848738
372,3.100000,0.628701,1.825804,1.778574,0.372877,1.822002,2.071540,0.610518,1.309938,1.756123,0.355033,1.307476,2.049290,0.564447,1.824748,1.848738
373,3.108333,0.628698,1.825801,1.778575,0.372872,1.821999,2.071540,0.610530,1.309934,1.756137,0.355042,1.307472,2.049303,0.564443,1.824745,1.848739
374,3.116667,0.628700,1.825800,1.778574,0.372872,1.822004,2.071537,0.610514,1.309935,1.756130,0.355025,1.307478,2.049295,0.564445,1.824746,1.848737
375,3.125000,0.628701,1.825801,1.778572,0.372879,1.822006,2.071540,0.610514,1.309935,1.756130,0.355030,1.307480,2.049300,0.564447,1.824747,1.848736
376,3.133333,0.628708,1.825807,1.778570,0.372875,1.822016,2.071529,0.610518,1.309942,1.756130,0.355023,1.307490,2.049290,0.564452,1.824754,1.848732
377,3.141667,0.628705,1.825806,1.778574,0.372874,1.822011,2.071535,0.610520,1.309941,1.756131,0.355028,1.307485,2.049294,0.564449,1.824752,1.848736
378,3.150000,0.628705,1.825801,1.778565,0.372885,1.822012,2.071536,0.610516,1.309935,1.756131,0.355035,1.307485,2.049303,0.564451,1.824749,1.848730
379,3.158333,0.628699,1.825799,1.778568,0.372878,1.822000,2.071536,0.610525,1.309932,1.756130,0.355042,1.307473,2.049300,0.564445,1.824744,1.848732
380,3.166667,0.628714,1.825805,1.778563,0.372876,1.822012,2.071518,0.610533,1.309939,1.756127,0.355033,1.307486,2.049283,0.564456,1.824752,1.848724
381,3.175000,0.628715,1.825804,1.778567,0.372888,1.822013,2.071530,0.610520,1.309939,1.756123,0.355031,1.307487,2.049288,0.564460,1.824752,1.848730
382,3.183333,0.628720,1.825801,1.778567,0.372895,1.822014,2.071532,0.610530,1.309935,1.756136,0.355043,1.307487,2.049303,0.564466,1.824749,1.848731
383,3.191667,0.628720,1.825802,1.778565,0.372893,1.822017,2.071528,0.610523,1.309936,1.756132,0.355034,1.307491,2.049297,0.564465,1.824751,1.848728
384,3.200000,0.628721,1.825795,1.778557,0.372893,1.822012,2.071521,0.610510,1.309931,1.756115,0.355021,1.307487,2.049280,0.564466,1.824745,1.848721
385,3.208333,0.628726,1.825789,1.778556,0.372899,1.822013,2.071520,0.610522,1.309923,1.756132,0.355034,1.307486,2.049297,0.564471,1.824740,1.848719
386,3.216667,0.628727,1.825793,1.778558,0.372896,1.822013,2.071519,0.610527,1.309927,1.756131,0.355035,1.307487,2.049294,0.564471,1.824743,1.848721
387,3.225000,0.628725,1.825802,1.778554,0.372894,1.822020,2.071515,0.610531,1.309936,1.756127,0.355039,1.307493,2.049289,0.564469,1.824751,1.848717
388,3.233333,0.628733,1.825806,1.778554,0.372888,1.822029,2.071503,0.610523,1.309941,1.756121,0.355017,1.307504,2.049272,0.564474,1.824757,1.848714
389,3.241667,0.628734,1.825800,1.778548,0.372905,1.822013,2.071510,0.610537,1.309935,1.756110,0.355046,1.307487,2.049273,0.564479,1.824748,1.848711
390,3.250000,0.628735,1.825798,1.778546,0.372908,1.822017,2.071510,0.610539,1.309932,1.756121,0.355050,1.307491,2.049286,0.564480,1.824747,1.848709
391,3.258333,0.628744,1.825801,1.778550,0.372904,1.822022,2.071503,0.610536,1.309936,1.756116,0.355035,1.307497,2.049270,0.564486,1.824752,1.848711
392,3.266667,0.628734,1.825800,1.778540,0.372921,1.822019,2.071516,0.610534,1.309935,1.756110,0.355060,1.307492,2.049288,0.564483,1.824750,1.848706
393,3.275000,0.628745,1.825797,1.778537,0.372917,1.822026,2.071500,0.610538,1.309931,1.756119,0.355048,1.307500,2.049283,0.564490,1.824749,1.848700
394,3.283333,0.628744,1.825802,1.778544,0.372919,1.822020,2.071509,0.610558,1.309936,1.756125,0.355071,1.307493,2.049292,0.564490,1.824751,1.848708
395,3.291667,0.628749,1.825801,1.778537,0.372920,1.822023,2.071499,0.610547,1.309936,1.756111,0.355056,1.307497,2.049274,0.564493,1.824752,1.848700
396,3.300000,0.628744,1.825785,1.778534,0.372923,1.822014,2.071502,0.610541,1.309919,1.756120,0.355058,1.307487,2.049290,0.564491,1.824737,1.848698
397,3.308333,0.628759,1.825789,1.778536,0.372930,1.822014,2.071498,0.610547,1.309924,1.756106,0.355057,1.307488,2.049270,0.564504,1.824740,1.848699
398,3.316667,0.628761,1.825790,1.778536,0.372928,1.822025,2.071495,0.610544,1.309925,1.756119,0.355050,1.307499,2.049279,0.564505,1.824744,1.848698
399,3.325000,0.628759,1.825804,1.778537,0.372926,1.822028,2.071496,0.610557,1.309939,1.756114,0.355062,1.307502,2.049274,0.564502,1.824755,1.848699
400,3.333333,0.628752,1.825791,1.778527,0.372930,1.822023,2.071495,0.610544,1.309925,1.756113,0.355060,1.307496,2.049282,0.564498,1.824744,1.848692
401,3.341667,0.628751,1.825797,1.778530,0.372917,1.822019,2.071487,0.610555,1.309931,1.756107,0.355060,1.307492,2.049266,0.564494,1.824747,1.848691
402,3.350000,0.628750,1.825791,1.778526,0.372929,1.822019,2.071496,0.610546,1.309925,1.756111,0.355065,1.307492,2.049282,0.564496,1.824742,1.848691
403,3.358333,0.628753,1.825790,1.778525,0.372930,1.822023,2.071492,0.610549,1.309923,1.756118,0.355064,1.307496,2.049287,0.564499,1.824743,1.848689
404,3.366667,0.628759,1.825790,1.778535,0.372923,1.822023,2.071491,0.610538,1.309925,1.756111,0.355041,1.307498,2.049269,0.564502,1.824743,1.848696
405,3.375000,0.628750,1.825793,1.778528,0.372929,1.822033,2.071497,0.610524,1.309927,1.756114,0.355042,1.307507,2.049285,0.564496,1.824748,1.848692
406,3.383333,0.628750,1.825797,1.778529,0.372928,1.822025,2.071497,0.610546,1.309932,1.756112,0.355063,1.307499,2.049282,0.564497,1.824749,1.848693
407,3.391667,0.628747,1.825792,1.778531,0.372924,1.822019,2.071498,0.610535,1.309927,1.756105,0.355051,1.307493,2.049274,0.564493,1.824744,1.848695
408,3.400000,0.628749,1.825803,1.778535,0.372917,1.822029,2.071495,0.610535,1.309938,1.756105,0.355041,1.307504,2.049267,0.564492,1.824755,1.848697
409,3.408333,0.628748,1.825798,1.778534,0.372913,1.822029,2.071491,0.610539,1.309932,1.756117,0.355043,1.307503,2.049275,0.564492,1.824751,1.848696
410,3.416667,0.628736,1.825796,1.778538,0.372910,1.822021,2.071503,0.610535,1.309930,1.756120,0.355048,1.307495,2.049286,0.564481,1.824747,1.848702
411,3.425000,0.628740,1.825795,1.778548,0.372914,1.822019,2.071513,0.610534,1.309929,1.756122,0.355047,1.307493,2.049289,0.564485,1.824746,1.848711
412,3.433333,0.628736,1.825798,1.778546,0.372893,1.822026,2.071496,0.610525,1.309933,1.756119,0.355020,1.307500,2.049271,0.564477,1.824750,1.848706
413,3.441667,0.628741,1.825804,1.778544,0.372908,1.822019,2.071502,0.610544,1.309939,1.756108,0.355050,1.307493,2.049268,0.564485,1.824753,1.848706
414,3.450000,0.628743,1.825802,1.778552,0.372912,1.822019,2.071513,0.610537,1.309937,1.756115,0.355045,1.307494,2.049277,0.564487,1.824751,1.848715
415,3.458333,0.628736,1.825798,1.778558,0.372902,1.822025,2.071515,0.610534,1.309932,1.756140,0.355039,1.307499,2.049300,0.564480,1.824749,1.848719
416,3.466667,0.628726,1.825798,1.778563,0.372892,1.822015,2.071521,0.610509,1.309934,1.756115,0.355013,1.307491,2.049275,0.564470,1.824747,1.848725
417,3.475000,0.628732,1.825792,1.778562,0.372897,1.822015,2.071518,0.610526,1.309926,1.756134,0.355030,1.307489,2.049292,0.564475,1.824743,1.848723
418,3.483333,0.628733,1.825793,1.778558,0.372896,1.822008,2.071514,0.610539,1.309927,1.756125,0.355041,1.307482,2.049283,0.564475,1.824742,1.848719
419,3.491667,0.628726,1.825796,1.778564,0.372897,1.822019,2.071527,0.610519,1.309931,1.756135,0.355029,1.307493,2.049299,0.564470,1.824747,1.848727
420,3.500000,0.628720,1.825804,1.778572,0.372886,1.822013,2.071530,0.610523,1.309939,1.756127,0.355028,1.307487,2.049287,0.564463,1.824751,1.848734
421,3.508333,0.628723,1.825802,1.778567,0.372886,1.822017,2.071522,0.610517,1.309937,1.756124,0.355019,1.307492,2.049281,0.564465,1.824751,1.848728
422,3.516667,0.628724,1.825797,1.778570,0.372878,1.822018,2.071517,0.610512,1.309932,1.756131,0.355005,1.307492,2.049280,0.564465,1.824747,1.848729
423,3.525000,0.628711,1.825799,1.778568,0.372882,1.822011,2.071530,0.610508,1.309934,1.756124,0.355017,1.307486,2.049287,0.564456,1.824747,1.848731
424,3.533333,0.628715,1.825795,1.778581,0.372883,1.822007,2.071540,0.610512,1.309930,1.756136,0.355018,1.307482,2.049297,0.564459,1.824743,1.848743
425,3.541667,0.628707,1.825805,1.778577,0.372882,1.822009,2.071542,0.610526,1.309939,1.756137,0.355039,1.307483,2.049303,0.564453,1.824751,1.848740
426,3.550000,0.628704,1.825805,1.778579,0.372865,1.822014,2.071532,0.610511,1.309940,1.756136,0.355011,1.307488,2.049292,0.564446,1.824752,1.848739
427,3.558333,0.628702,1.825799,1.778572,0.372872,1.822011,2.071533,0.610511,1.309934,1.756136,0.355019,1.307485,2.049299,0.564446,1.824747,1.848734
428,3.566667,0.628700,1.825801,1.778574,0.372871,1.822003,2.071535,0.610521,1.309936,1.756133,0.355031,1.307477,2.049296,0.564444,1.824747,1.848737
429,3.575000,0.628708,1.825798,1.778578,0.372865,1.822012,2.071528,0.610511,1.309933,1.756140,0.355007,1.307486,2.049291,0.564449,1.824747,1.848738
430,3.583333,0.628701,1.825808,1.778581,0.372860,1.822011,2.071532,0.610515,1.309942,1.756133,0.355012,1.307485,2.049285,0.564443,1.824754,1.848741
431,3.591667,0.628702,1.825809,1.778577,0.372860,1.822020,2.071528,0.610499,1.309944,1.756129,0.354996,1.307495,2.049281,0.564444,1.824757,1.848737
432,3.600000,0.628698,1.825799,1.778567,0.372872,1.822006,2.071532,0.610506,1.309934,1.756124,0.355019,1.307480,2.049290,0.564443,1.824746,1.848731
433,3.608333,0.628712,1.825800,1.778566,0.372878,1.822017,2.071524,0.610514,1.309934,1.756135,0.355019,1.307491,2.049294,0.564455,1.824749,1.848728
434,3.616667,0.628710,1.825803,1.778570,0.372880,1.822013,2.071531,0.610516,1.309938,1.756129,0.355025,1.307487,2.049292,0.564454,1.824751,1.848732
435,3.625000,0.628713,1.825810,1.778574,0.372873,1.822017,2.071527,0.610525,1.309944,1.756134,0.355024,1.307491,2.049288,0.564455,1.824757,1.848735
436,3.633333,0.628707,1.825800,1.778571,0.372870,1.822014,2.071526,0.610508,1.309935,1.756132,0.355009,1.307488,2.049288,0.564450,1.824749,1.848732
437,3.641667,0.628710,1.825809,1.778558,0.372884,1.822019,2.071522,0.610527,1.309943,1.756126,0.355040,1.307492,2.049293,0.564455,1.824757,1.848721
438,3.650000,0.628714,1.825806,1.778568,0.372878,1.822016,2.071524,0.610499,1.309942,1.756109,0.355002,1.307491,2.049266,0.564457,1.824753,1.848729
439,3.658333,0.628725,1.825804,1.778573,0.372891,1.822017,2.071530,0.610528,1.309939,1.756135,0.355032,1.307491,2.049294,0.564468,1.824752,1.848734
440,3.666667,0.628728,1.825800,1.778568,0.372890,1.822021,2.071522,0.610515,1.309935,1.756129,0.355016,1.307495,2.049285,0.564471,1.824750,1.848729
441,3.675000,0.628726,1.825803,1.778567,0.372900,1.822025,2.071532,0.610512,1.309938,1.756132,0.355025,1.307500,2.049298,0.564471,1.824754,1.848731
442,3.683333,0.628724,1.825807,1.778567,0.372896,1.822018,2.071530,0.610532,1.309941,1.756131,0.355042,1.307492,2.049295,0.564468,1.824754,1.848730
443,3.691667,0.628732,1.825806,1.778558,0.372900,1.822020,2.071517,0.610537,1.309940,1.756123,0.355043,1.307493,2.049284,0.564476,1.824754,1.848720
444,3.700000,0.628742,1.825796,1.778561,0.372910,1.822026,2.071521,0.610533,1.309930,1.756142,0.355040,1.307499,2.049303,0.564486,1.824748,1.848724
445,3.708333,0.628735,1.825801,1.778551,0.372905,1.822027,2.071512,0.610539,1.309935,1.756137,0.355048,1.307500,2.049299,0.564480,1.824753,1.848714
446,3.716667,0.628748,1.825800,1.778552,0.372914,1.822024,2.071509,0.610515,1.309937,1.756101,0.355020,1.307500,2.049260,0.564492,1.824751,1.848713
447,3.725000,0.628745,1.825800,1.778552,0.372908,1.822019,2.071507,0.610544,1.309935,1.756119,0.355045,1.307493,2.049276,0.564488,1.824750,1.848713
448,3.733333,0.628746,1.825795,1.778556,0.372916,1.822022,2.071517,0.610523,1.309931,1.756119,0.355032,1.307497,2.049281,0.564490,1.824747,1.848719
449,3.741667,0.628751,1.825794,1.778546,0.372924,1.822019,2.071510,0.610542,1.309929,1.756119,0.355055,1.307493,2.049284,0.564496,1.824746,1.848709
450,3.750000,0.628747,1.825794,1.778549,0.372916,1.822022,2.071510,0.610536,1.309929,1.756126,0.355044,1.307496,2.049287,0.564491,1.824746,1.848712
451,3.758333,0.628753,1.825792,1.778547,0.372921,1.822018,2.071507,0.610519,1.309929,1.756099,0.355026,1.307494,2.049260,0.564497,1.824744,1.848709
452,3.766667,0.628751,1.825793,1.778535,0.372928,1.822024,2.071503,0.610534,1.309928,1.756113,0.355050,1.307498,2.049282,0.564497,1.824746,1.848700
453,3.775000,0.628755,1.825801,1.778540,0.372929,1.822023,2.071504,0.610554,1.309936,1.756115,0.355067,1.307497,2.049281,0.564500,1.824752,1.848703
454,3.783333,0.628755,1.825800,1.778552,0.372925,1.822019,2.071513,0.610556,1.309934,1.756123,0.355065,1.307492,2.049285,0.564499,1.824749,1.848714
455,3.791667,0.628753,1.825795,1.778549,0.372923,1.822026,2.071511,0.610536,1.309930,1.756125,0.355045,1.307500,2.049289,0.564497,1.824748,1.848712
456,3.800000,0.628759,1.825797,1.778547,0.372941,1.822018,2.071519,0.610552,1.309932,1.756116,0.355073,1.307492,2.049289,0.564506,1.824748,1.848712
457,3.808333,0.628759,1.825799,1.778546,0.372932,1.822027,2.071510,0.610549,1.309934,1.756123,0.355060,1.307501,2.049288,0.564504,1.824751,1.848709
458,3.816667,0.628761,1.825797,1.778548,0.372941,1.822023,2.071519,0.610534,1.309932,1.756109,0.355053,1.307498,2.049281,0.564508,1.824748,1.848713
459,3.825000,0.628757,1.825805,1.778550,0.372935,1.822022,2.071518,0.610540,1.309941,1.756102,0.355057,1.307497,2.049273,0.564503,1.824755,1.848714
460,3.833333,0.628749,1.825790,1.778551,0.372928,1.822020,2.071520,0.610532,1.309925,1.756126,0.355050,1.307494,2.049297,0.564496,1.824743,1.848716
461,3.841667,0.628766,1.825790,1.778557,0.372927,1.822026,2.071511,0.610537,1.309925,1.756131,0.355037,1.307500,2.049287,0.564508,1.824744,1.848718
462,3.850000,0.628745,1.825796,1.778546,0.372935,1.822023,2.071524,0.610536,1.309931,1.756123,0.355065,1.307496,2.049304,0.564494,1.824748,1.848713
463,3.858333,0.628755,1.825803,1.778558,0.372922,1.822023,2.071517,0.610516,1.309940,1.756097,0.355022,1.307500,2.049257,0.564498,1.824753,1.848720
464,3.866667,0.628752,1.825798,1.778555,0.372927,1.822024,2.071521,0.610533,1.309933,1.756123,0.355047,1.307499,2.049290,0.564498,1.824749,1.848719
465,3.875000,0.628759,1.825798,1.778558,0.372928,1.822028,2.071519,0.610535,1.309933,1.756126,0.355043,1.307503,2.049288,0.564503,1.824751,1.848721
466,3.883333,0.628753,1.825797,1.778564,0.372921,1.822018,2.071524,0.610522,1.309933,1.756112,0.355029,1.307494,2.049273,0.564497,1.824747,1.848727
467,3.891667,0.628739,1.825793,1.778550,0.372918,1.822016,2.071519,0.610534,1.309928,1.756123,0.355052,1.307490,2.049294,0.564486,1.824744,1.848715
468,3.900000,0.628739,1.825799,1.778559,0.372909,1.822026,2.071520,0.610527,1.309933,1.756132,0.355034,1.307500,2.049294,0.564484,1.824750,1.848722
469,3.908333,0.628745,1.825797,1.778569,0.372911,1.822018,2.071526,0.610533,1.309932,1.756132,0.355038,1.307493,2.049291,0.564489,1.824747,1.848730
470,3.916667,0.628737,1.825798,1.778570,0.372916,1.822016,2.071539,0.610536,1.309933,1.756138,0.355053,1.307490,2.049309,0.564483,1.824748,1.848734
471,3.925000,0.628733,1.825799,1.778569,0.372907,1.822017,2.071534,0.610529,1.309934,1.756135,0.355042,1.307491,2.049302,0.564478,1.824748,1.848733
472,3.933333,0.628742,1.825799,1.778568,0.372917,1.822018,2.071533,0.610524,1.309934,1.756124,0.355038,1.307493,2.049291,0.564487,1.824748,1.848732
473,3.941667,0.628724,1.825804,1.778572,0.372906,1.822008,2.071544,0.610524,1.309939,1.756118,0.355045,1.307483,2.049291,0.564471,1.824750,1.848738
474,3.950000,0.628725,1.825799,1.778580,0.372897,1.822011,2.071543,0.610529,1.309934,1.756141,0.355039,1.307485,2.049305,0.564470,1.824747,1.848743
475,3.958333,0.628732,1.825795,1.778581,0.372895,1.822012,2.071537,0.610533,1.309930,1.756147,0.355035,1.307486,2.049304,0.564475,1.824744,1.848742
476,3.966667,0.628726,1.825803,1.778580,0.372898,1.822011,2.071544,0.610542,1.309937,1.756146,0.355053,1.307485,2.049311,0.564471,1.824750,1.848744
477,3.975000,0.628723,1.825797,1.778575,0.372899,1.822015,2.071542,0.610516,1.309932,1.756137,0.355031,1.307489,2.049305,0.564469,1.824747,1.848739
478,3.983333,0.628727,1.825799,1.778581,0.372892,1.822013,2.071537,0.610527,1.309933,1.756142,0.355030,1.307487,2.049300,0.564470,1.824747,1.848742
479,3.991667,0.628721,1.825797,1.778581,0.372890,1.822010,2.071542,0.610524,1.309932,1.756142,0.355032,1.307484,2.049304,0.564465,1.824746,1.848744
480,4.000000,0.628725,1.825798,1.778579,0.372901,1.822010,2.071546,0.610513,1.309934,1.756127,0.355029,1.307485,2.049296,0.564471,1.824746,1.848743
481,4.008333,0.628718,1.825804,1.778583,0.372891,1.822010,2.071547,0.610531,1.309938,1.756142,0.355042,1.307484,2.049307,0.564463,1.824750,1.848746
482,4.016667,0.628717,1.825801,1.778571,0.372900,1.822014,2.071544,0.610522,1.309935,1.756138,0.355044,1.307488,2.049313,0.564464,1.824749,1.848737
483,4.025000,0.628721,1.825797,1.778582,0.372887,1.822011,2.071540,0.610518,1.309932,1.756140,0.355023,1.307485,2.049299,0.564465,1.824746,1.848744
484,4.033333,0.628713,1.825795,1.778577,0.372882,1.822004,2.071537,0.610528,1.309929,1.756142,0.355035,1.307477,2.049304,0.564457,1.824742,1.848740
485,4.041667,0.628720,1.825803,1.778578,0.372895,1.822011,2.071544,0.610528,1.309938,1.756137,0.355042,1.307485,2.049304,0.564465,1.824750,1.848742
486,4.050000,0.628722,1.825803,1.778573,0.372894,1.822019,2.071537,0.610523,1.309938,1.756139,0.355034,1.307493,2.049304,0.564467,1.824752,1.848736
487,4.058333,0.628725,1.825802,1.778573,0.372899,1.822018,2.071538,0.610524,1.309937,1.756138,0.355037,1.307492,2.049304,0.564471,1.824751,1.848737
488,4.066667,0.628727,1.825795,1.778580,0.372901,1.822008,2.071545,0.610529,1.309930,1.756141,0.355041,1.307482,2.049307,0.564472,1.824744,1.848744
489,4.075000,0.628734,1.825796,1.778578,0.372901,1.822016,2.071536,0.610518,1.309932,1.756135,0.355024,1.307491,2.049295,0.564477,1.824746,1.848740
490,4.083333,0.628729,1.825803,1.778568,0.372901,1.822015,2.071531,0.610539,1.309937,1.756135,0.355050,1.307489,2.049300,0.564474,1.824751,1.848731
491,4.091667,0.628727,1.825800,1.778575,0.372904,1.822011,2.071542,0.610524,1.309936,1.756128,0.355039,1.307485,2.049296,0.564473,1.824748,1.848739
492,4.100000,0.628722,1.825810,1.778573,0.372899,1.822015,2.071540,0.610529,1.309945,1.756125,0.355044,1.307490,2.049294,0.564468,1.824757,1.848737
493,4.108333,0.628721,1.825802,1.778566,0.372906,1.822017,2.071541,0.610515,1.309937,1.756125,0.355039,1.307491,2.049301,0.564469,1.824751,1.848732
494,4.116667,0.628730,1.825797,1.778563,0.372902,1.822012,2.071526,0.610513,1.309933,1.756110,0.355023,1.307487,2.049274,0.564475,1.824746,1.848726
495,4.125000,0.628731,1.825800,1.778562,0.372903,1.822017,2.071525,0.610520,1.309936,1.756119,0.355030,1.307492,2.049283,0.564476,1.824750,1.848725
496,4.133333,0.628737,1.825807,1.778561,0.372914,1.822019,2.071528,0.610537,1.309942,1.756120,0.355053,1.307493,2.049289,0.564483,1.824755,1.848725
497,4.141667,0.628738,1.825801,1.778560,0.372913,1.822025,2.071526,0.610525,1.309936,1.756128,0.355039,1.307499,2.049296,0.564484,1.824752,1.848724
498,4.150000,0.628737,1.825801,1.778560,0.372917,1.822013,2.071529,0.610515,1.309937,1.756101,0.355034,1.307489,2.049272,0.564484,1.824749,1.848725
499,4.158333,0.628742,1.825794,1.778565,0.372914,1.822007,2.071528,0.610513,1.309931,1.756100,0.355024,1.307483,2.049265,0.564487,1.824742,1.848728
500,4.166667,0.628743,1.825795,1.778555,0.372916,1.822015,2.071518,0.610535,1.309930,1.756120,0.355047,1.307489,2.049286,0.564488,1.824745,1.848718
501,4.175000,0.628748,1.825796,1.778553,0.372922,1.822020,2.071518,0.610518,1.309932,1.756106,0.355031,1.307495,2.049273,0.564493,1.824747,1.848717
502,4.183333,0.628744,1.825805,1.778544,0.372918,1.822028,2.071509,0.610539,1.309940,1.756116,0.355052,1.307502,2.049283,0.564490,1.824756,1.848707
503,4.191667,0.628746,1.825807,1.778545,0.372919,1.822028,2.071508,0.610534,1.309942,1.756108,0.355045,1.307502,2.049273,0.564491,1.824757,1.848708
504,4.200000,0.628746,1.825802,1.778550,0.372922,1.822019,2.071516,0.610543,1.309937,1.756113,0.355057,1.307493,2.049280,0.564492,1.824751,1.848714
505,4.208333,0.628747,1.825794,1.778545,0.372925,1.822017,2.071513,0.610524,1.309930,1.756103,0.355041,1.307492,2.049273,0.564493,1.824745,1.848710
506,4.216667,0.628756,1.825798,1.778550,0.372928,1.822019,2.071514,0.610524,1.309935,1.756096,0.355035,1.307495,2.049261,0.564501,1.824748,1.848714
507,4.225000,0.628752,1.825799,1.778543,0.372933,1.822026,2.071514,0.610545,1.309933,1.756124,0.355064,1.307500,2.049296,0.564499,1.824751,1.848708
508,4.233333,0.628756,1.825799,1.778539,0.372937,1.822018,2.071510,0.610555,1.309933,1.756111,0.355075,1.307492,2.049283,0.564503,1.824749,1.848704
509,4.241667,0.628763,1.825794,1.778542,0.372927,1.822024,2.071498,0.610532,1.309930,1.756104,0.355035,1.307499,2.049261,0.564506,1.824747,1.848704
510,4.250000,0.628760,1.825801,1.778547,0.372927,1.822029,2.071505,0.610535,1.309937,1.756110,0.355041,1.307503,2.049270,0.564503,1.824753,1.848709
511,4.258333,0.628758,1.825799,1.778537,0.372943,1.822027,2.071511,0.610547,1.309933,1.756114,0.355070,1.307501,2.049289,0.564506,1.824751,1.848703
512,4.266667,0.628755,1.825795,1.778540,0.372938,1.822019,2.071513,0.610553,1.309929,1.756119,0.355075,1.307492,2.049294,0.564503,1.824746,1.848706
513,4.275000,0.628764,1.825792,1.778539,0.372942,1.822024,2.071507,0.610547,1.309927,1.756117,0.355064,1.307498,2.049287,0.564510,1.824745,1.848704
514,4.283333,0.628755,1.825800,1.778550,0.372934,1.822018,2.071519,0.610552,1.309934,1.756117,0.355070,1.307492,2.049288,0.564502,1.824749,1.848714
515,4.291667,0.628756,1.825805,1.778548,0.372935,1.822036,2.071517,0.610540,1.309940,1.756126,0.355058,1.307510,2.049296,0.564502,1.824758,1.848712
516,4.300000,0.628739,1.825800,1.778548,0.372922,1.822017,2.071520,0.610520,1.309936,1.756098,0.355041,1.307492,2.049272,0.564487,1.824749,1.848713
517,4.308333,0.628751,1.825796,1.778548,0.372923,1.822024,2.071512,0.610529,1.309931,1.756116,0.355040,1.307499,2.049281,0.564496,1.824748,1.848711
518,4.316667,0.628745,1.825794,1.778553,0.372919,1.822015,2.071517,0.610545,1.309928,1.756127,0.355056,1.307489,2.049293,0.564490,1.824744,1.848716
519,4.325000,0.628743,1.825796,1.778550,0.372919,1.822011,2.071517,0.610522,1.309932,1.756096,0.355037,1.307487,2.049265,0.564488,1.824745,1.848714
520,4.333333,0.628734,1.825795,1.778550,0.372925,1.822018,2.071529,0.610534,1.309929,1.756128,0.355063,1.307491,2.049309,0.564483,1.824746,1.848717
521,4.341667,0.628740,1.825800,1.778553,0.372906,1.822022,2.071510,0.610534,1.309935,1.756122,0.355038,1.307496,2.049281,0.564483,1.824751,1.848714
522,4.350000,0.628742,1.825802,1.778558,0.372913,1.822021,2.071521,0.610534,1.309937,1.756123,0.355044,1.307496,2.049287,0.564486,1.824752,1.848721
523,4.358333,0.628731,1.825807,1.778556,0.372916,1.822020,2.071530,0.610541,1.309941,1.756126,0.355065,1.307493,2.049302,0.564479,1.824755,1.848721
524,4.366667,0.628734,1.825797,1.778558,0.372913,1.822021,2.071528,0.610525,1.309932,1.756130,0.355043,1.307495,2.049301,0.564480,1.824748,1.848723
525,4.375000,0.628724,1.825795,1.778550,0.372914,1.822010,2.071528,0.610531,1.309930,1.756121,0.355060,1.307484,2.049301,0.564473,1.824744,1.848717
526,4.383333,0.628726,1.825807,1.778564,0.372905,1.822018,2.071532,0.610543,1.309941,1.756134,0.355060,1.307491,2.049304,0.564472,1.824755,1.848728
527,4.391667,0.628729,1.825800,1.778573,0.372904,1.822016,2.071538,0.610518,1.309935,1.756130,0.355032,1.307491,2.049297,0.564474,1.824749,1.848737
528,4.400000,0.628723,1.825797,1.778563,0.372901,1.822018,2.071532,0.610530,1.309930,1.756145,0.355047,1.307491,2.049315,0.564469,1.824747,1.848728
529,4.408333,0.628714,1.825807,1.778572,0.372895,1.822014,2.071542,0.610527,1.309942,1.756133,0.355047,1.307488,2.049305,0.564461,1.824754,1.848737
530,4.416667,0.628719,1.825805,1.778568,0.372889,1.822020,2.071529,0.610517,1.309940,1.756130,0.355026,1.307494,2.049293,0.564463,1.824754,1.848731
531,4.425000,0.628717,1.825797,1.778567,0.372896,1.822009,2.071536,0.610503,1.309933,1.756114,0.355021,1.307485,2.049285,0.564464,1.824745,1.848732
532,4.433333,0.628710,1.825797,1.778577,0.372883,1.822008,2.071541,0.610524,1.309931,1.756145,0.355035,1.307481,2.049310,0.564455,1.824745,1.848740
533,4.441667,0.628714,1.825805,1.778580,0.372874,1.822018,2.071533,0.610524,1.309939,1.756147,0.355023,1.307491,2.049301,0.564456,1.824753,1.848741
534,4.450000,0.628715,1.825806,1.778580,0.372889,1.822011,2.071544,0.610517,1.309941,1.756127,0.355029,1.307485,2.049294,0.564460,1.824752,1.848743
535,4.458333,0.628706,1.825802,1.778571,0.372880,1.822008,2.071536,0.610533,1.309935,1.756141,0.355045,1.307480,2.049308,0.564452,1.824748,1.848735
536,4.466667,0.628710,1.825803,1.778581,0.372881,1.822006,2.071543,0.610513,1.309939,1.756125,0.355023,1.307480,2.049288,0.564454,1.824749,1.848743
537,4.475000,0.628713,1.825807,1.778578,0.372887,1.822013,2.071543,0.610534,1.309941,1.756143,0.355047,1.307486,2.049309,0.564458,1.824754,1.848742
538,4.483333,0.628703,1.825802,1.778576,0.372880,1.822011,2.071543,0.610521,1.309936,1.756145,0.355037,1.307485,2.049314,0.564449,1.824749,1.848740
539,4.491667,0.628710,1.825799,1.778581,0.372878,1.822004,2.071540,0.610535,1.309933,1.756148,0.355042,1.307477,2.049309,0.564453,1.824745,1.848743
540,4.500000,0.628706,1.825792,1.778567,0.372880,1.821999,2.071531,0.610521,1.309926,1.756130,0.355034,1.307472,2.049296,0.564451,1.824739,1.848731
541,4.508333,0.628715,1.825799,1.778573,0.372895,1.822002,2.071542,0.610529,1.309934,1.756129,0.355047,1.307476,2.049299,0.564462,1.824745,1.848738
542,4.516667,0.628714,1.825805,1.778576,0.372887,1.822003,2.071541,0.610541,1.309939,1.756134,0.355054,1.307477,2.049300,0.564459,1.824750,1.848740
543,4.525000,0.628704,1.825794,1.778567,0.372877,1.822008,2.071530,0.610517,1.309928,1.756139,0.355028,1.307482,2.049304,0.564449,1.824743,1.848730
544,4.533333,0.628712,1.825797,1.778569,0.372883,1.822008,2.071531,0.610528,1.309931,1.756140,0.355037,1.307482,2.049304,0.564457,1.824745,1.848732
545,4.541667,0.628705,1.825794,1.778564,0.372882,1.822002,2.071531,0.610524,1.309928,1.756132,0.355039,1.307475,2.049300,0.564451,1.824741,1.848728
546,4.550000,0.628714,1.825792,1.778556,0.372892,1.822006,2.071524,0.610531,1.309926,1.756132,0.355047,1.307479,2.049301,0.564460,1.824740,1.848721
547,4.558333,0.628711,1.825796,1.778564,0.372896,1.821999,2.071538,0.610531,1.309930,1.756124,0.355055,1.307472,2.049301,0.564459,1.824742,1.848730
548,4.566667,0.628712,1.825798,1.778560,0.372886,1.822004,2.071525,0.610535,1.309932,1.756129,0.355049,1.307477,2.049296,0.564457,1.824744,1.848724
549,4.575000,0.628710,1.825797,1.778563,0.372881,1.822010,2.071525,0.610525,1.309931,1.756135,0.355035,1.307483,2.049299,0.564455,1.824745,1.848726
550,4.583333,0.628716,1.825793,1.778564,0.372892,1.822005,2.071531,0.610528,1.309927,1.756132,0.355043,1.307478,2.049301,0.564462,1.824741,1.848728
551,4.591667,0.628725,1.825791,1.778564,0.372902,1.822002,2.071531,0.610539,1.309925,1.756133,0.355054,1.307475,2.049302,0.564471,1.824738,1.848728
552,4.600000,0.628724,1.825788,1.778556,0.372899,1.822003,2.071521,0.610547,1.309921,1.756139,0.355059,1.307475,2.049305,0.564470,1.824736,1.848720
553,4.608333,0.628725,1.825787,1.778549,0.372917,1.822012,2.071529,0.610535,1.309921,1.756140,0.355066,1.307484,2.049322,0.564474,1.824738,1.848716
554,4.616667,0.628732,1.825796,1.778563,0.372906,1.822019,2.071527,0.610534,1.309930,1.756142,0.355047,1.307492,2.049308,0.564478,1.824747,1.848726
555,4.625000,0.628736,1.825797,1.778562,0.372900,1.822013,2.071519,0.610536,1.309932,1.756125,0.355038,1.307487,2.049283,0.564479,1.824746,1.848724
556,4.633333,0.628747,1.825788,1.778550,0.372923,1.822012,2.071516,0.610541,1.309923,1.756123,0.355056,1.307485,2.049291,0.564493,1.824739,1.848714
557,4.641667,0.628745,1.825787,1.778559,0.372919,1.822007,2.071523,0.610555,1.309921,1.756139,0.355067,1.307480,2.049305,0.564491,1.824737,1.848722
558,4.650000,0.628748,1.825793,1.778557,0.372920,1.822011,2.071519,0.610539,1.309928,1.756119,0.355049,1.307486,2.049282,0.564493,1.824742,1.848720
559,4.658333,0.628741,1.825785,1.778553,0.372920,1.822007,2.071522,0.610546,1.309919,1.756132,0.355063,1.307480,2.049303,0.564488,1.824736,1.848717
560,4.666667,0.628747,1.825786,1.778556,0.372919,1.822011,2.071519,0.610540,1.309921,1.756131,0.355050,1.307485,2.049295,0.564492,1.824737,1.848719
561,4.675000,0.628748,1.825790,1.778555,0.372924,1.822017,2.071521,0.610542,1.309924,1.756136,0.355057,1.307491,2.049304,0.564494,1.824742,1.848719
562,4.683333,0.628751,1.825791,1.778552,0.372923,1.822016,2.071515,0.610547,1.309926,1.756128,0.355058,1.307489,2.049293,0.564496,1.824742,1.848715
563,4.691667,0.628749,1.825784,1.778553,0.372926,1.822008,2.071520,0.610546,1.309919,1.756129,0.355062,1.307481,2.049298,0.564495,1.824735,1.848717
564,4.700000,0.628753,1.825787,1.778557,0.372929,1.822012,2.071523,0.610554,1.309921,1.756140,0.355069,1.307485,2.049308,0.564499,1.824738,1.848721
565,4.708333,0.628752,1.825791,1.778553,0.372925,1.822012,2.071517,0.610554,1.309925,1.756130,0.355065,1.307486,2.049295,0.564497,1.824741,1.848717
566,4.716667,0.628745,1.825795,1.778555,0.372925,1.822017,2.071525,0.610552,1.309928,1.756138,0.355071,1.307490,2.049309,0.564492,1.824745,1.848720
567,4.725000,0.628752,1.825788,1.778554,0.372928,1.822016,2.071521,0.610546,1.309922,1.756136,0.355061,1.307490,2.049305,0.564498,1.824740,1.848718
568,4.733333,0.628752,1.825791,1.778556,0.372918,1.822014,2.071514,0.610543,1.309926,1.756126,0.355048,1.307489,2.049286,0.564495,1.824742,1.848718
569,4.741667,0.628751,1.825793,1.778553,0.372924,1.822017,2.071517,0.610550,1.309927,1.756131,0.355062,1.307490,2.049297,0.564496,1.824744,1.848716
570,4.750000,0.628748,1.825788,1.778555,0.372915,1.822013,2.071513,0.610528,1.309923,1.756117,0.355033,1.307488,2.049278,0.564492,1.824739,1.848717
571,4.758333,0.628744,1.825792,1.778559,0.372921,1.822013,2.071526,0.610555,1.309926,1.756143,0.355071,1.307486,2.049312,0.564490,1.824742,1.848723
572,4.766667,0.628740,1.825788,1.778559,0.372908,1.822013,2.071518,0.610544,1.309921,1.756143,0.355051,1.307486,2.049304,0.564484,1.824739,1.848721
573,4.775000,0.628745,1.825789,1.778563,0.372915,1.822018,2.071524,0.610538,1.309923,1.756145,0.355046,1.307492,2.049307,0.564489,1.824741,1.848726
574,4.783333,0.628741,1.825796,1.778561,0.372915,1.822014,2.071526,0.610551,1.309930,1.756139,0.355063,1.307488,2.049305,0.564486,1.824745,1.848725
575,4.791667,0.628744,1.825792,1.778556,0.372918,1.822013,2.071520,0.610544,1.309926,1.756129,0.355057,1.307486,2.049296,0.564490,1.824742,1.848719
576,4.800000,0.628741,1.825794,1.778561,0.372909,1.822012,2.071521,0.610552,1.309927,1.756140,0.355059,1.307485,2.049302,0.564484,1.824743,1.848724
577,4.808333,0.628739,1.825792,1.778566,0.372915,1.822016,2.071533,0.610532,1.309926,1.756141,0.355047,1.307490,2.049310,0.564485,1.824743,1.848731
578,4.816667,0.628733,1.825793,1.778569,0.372903,1.822014,2.071530,0.610527,1.309927,1.756138,0.355036,1.307488,2.049301,0.564477,1.824743,1.848731
579,4.825000,0.628724,1.825793,1.778565,0.372898,1.822010,2.071529,0.610520,1.309928,1.756128,0.355033,1.307485,2.049294,0.564470,1.824742,1.848728
580,4.833333,0.628732,1.825802,1.778573,0.372910,1.822023,2.071541,0.610525,1.309937,1.756141,0.355043,1.307497,2.049311,0.564478,1.824753,1.848737
581,4.841667,0.628730,1.825797,1.778571,0.372905,1.822006,2.071537,0.610519,1.309933,1.756115,0.355033,1.307482,2.049282,0.564476,1.824744,1.848735
582,4.850000,0.628726,1.825801,1.778570,0.372903,1.822016,2.071537,0.610529,1.309935,1.756138,0.355045,1.307490,2.049307,0.564472,1.824749,1.848734
583,4.858333,0.628728,1.825802,1.778578,0.372897,1.822020,2.071537,0.610520,1.309937,1.756139,0.355027,1.307495,2.049300,0.564472,1.824751,1.848740
584,4.866667,0.628716,1.825806,1.778572,0.372900,1.822022,2.071545,0.610516,1.309941,1.756137,0.355038,1.307496,2.049312,0.564464,1.824755,1.848738
585,4.875000,0.628721,1.825805,1.778578,0.372892,1.822020,2.071540,0.610525,1.309939,1.756145,0.355035,1.307494,2.049309,0.564466,1.824754,1.848741
586,4.883333,0.628725,1.825799,1.778574,0.372899,1.822010,2.071540,0.610536,1.309933,1.756142,0.355049,1.307484,2.049309,0.564470,1.824746,1.848738
587,4.891667,0.628718,1.825805,1.778580,0.372890,1.822010,2.071543,0.610541,1.309938,1.756146,0.355052,1.307483,2.049311,0.564463,1.824751,1.848743
588,4.900000,0.628714,1.825801,1.778583,0.372882,1.822011,2.071543,0.610506,1.309937,1.756130,0.355013,1.307486,2.049291,0.564458,1.824749,1.848745
589,4.908333,0.628712,1.825800,1.778575,0.372888,1.822014,2.071541,0.610524,1.309934,1.756147,0.355038,1.307487,2.049315,0.564458,1.824748,1.848739
590,4.916667,0.628721,1.825802,1.778577,0.372893,1.822021,2.071539,0.610520,1.309936,1.756146,0.355030,1.307495,2.049310,0.564466,1.824751,1.848740
591,4.925000,0.628717,1.825798,1.778580,0.372893,1.822008,2.071547,0.610533,1.309932,1.756149,0.355048,1.307481,2.049317,0.564463,1.824745,1.848744
592,4.933333,0.628717,1.825793,1.778577,0.372889,1.822007,2.071541,0.610497,1.309929,1.756123,0.355009,1.307483,2.049288,0.564462,1.824741,1.848741
593,4.941667,0.628713,1.825799,1.778579,0.372892,1.822004,2.071548,0.610535,1.309932,1.756147,0.355053,1.307477,2.049317,0.564459,1.824745,1.848744
594,4.950000,0.628715,1.825799,1.778576,0.372883,1.822007,2.071536,0.610535,1.309933,1.756143,0.355042,1.307480,2.049305,0.564459,1.824746,1.848739
595,4.958333,0.628721,1.825805,1.778575,0.372883,1.822022,2.071530,0.610528,1.309939,1.756147,0.355029,1.307495,2.049303,0.564463,1.824754,1.848736
596,4.966667,0.628716,1.825803,1.778579,0.372892,1.822009,2.071545,0.610534,1.309937,1.756142,0.355048,1.307483,2.049310,0.564462,1.824750,1.848743
597,4.975000,0.628714,1.825793,1.778575,0.372894,1.822001,2.071544,0.610536,1.309927,1.756146,0.355054,1.307474,2.049316,0.564461,1.824740,1.848740
598,4.983333,0.628722,1.825795,1.778570,0.372897,1.822011,2.071536,0.610528,1.309930,1.756140,0.355042,1.307485,2.049307,0.564468,1.824744,1.848734
599,4.991667,0.628723,1.825799,1.778577,0.372892,1.822019,2.071538,0.610522,1.309934,1.756146,0.355030,1.307493,2.049309,0.564467,1.824749,1.848740
600,5.000000,0.628720,1.825798,1.778571,0.372895,1.822014,2.071537,0.610521,1.309933,1.756138,0.355035,1.307488,2.049305,0.564465,1.824747,1.848735
601,5.008333,0.628723,1.825799,1.778571,0.372898,1.822022,2.071537,0.610526,1.309933,1.756152,0.355040,1.307495,2.049320,0.564468,1.824749,1.848735
602,5.016667,0.628720,1.825801,1.778565,0.372902,1.822016,2.071537,0.610526,1.309936,1.756134,0.355047,1.307490,2.049307,0.564467,1.824750,1.848730
603,5.025000,0.628730,1.825798,1.778570,0.372905,1.822013,2.071536,0.610533,1.309932,1.756137,0.355047,1.307487,2.049304,0.564475,1.824747,1.848734
604,5.033333,0.628722,1.825801,1.778566,0.372899,1.822013,2.071534,0.610543,1.309935,1.756143,0.355059,1.307486,2.049312,0.564468,1.824749,1.848730
605,5.041667,0.628729,1.825801,1.778562,0.372907,1.822021,2.071531,0.610544,1.309935,1.756148,0.355061,1.307494,2.049318,0.564475,1.824751,1.848727
606,5.050000,0.628735,1.825804,1.778561,0.372906,1.822018,2.071523,0.610557,1.309937,1.756141,0.355066,1.307490,2.049304,0.564479,1.824752,1.848724
607,5.058333,0.628735,1.825801,1.778555,0.372911,1.822023,2.071521,0.610541,1.309934,1.756136,0.355055,1.307496,2.049304,0.564481,1.824751,1.848719
608,5.066667,0.628735,1.825800,1.778553,0.372911,1.822018,2.071520,0.610546,1.309934,1.756131,0.355060,1.307491,2.049299,0.564481,1.824750,1.848717
609,5.075000,0.628733,1.825800,1.778553,0.372903,1.822024,2.071514,0.610538,1.309934,1.756135,0.355046,1.307497,2.049298,0.564478,1.824751,1.848716
610,5.083333,0.628735,1.825796,1.778558,0.372901,1.822020,2.071516,0.610541,1.309930,1.756142,0.355045,1.307493,2.049301,0.564479,1.824747,1.848720
611,5.091667,0.628740,1.825793,1.778557,0.372908,1.822018,2.071516,0.610535,1.309927,1.756134,0.355041,1.307492,2.049294,0.564484,1.824744,1.848719
612,5.100000,0.628733,1.825797,1.778554,0.372912,1.822009,2.071523,0.610547,1.309931,1.756126,0.355064,1.307483,2.049296,0.564480,1.824745,1.848719
613,5.108333,0.628740,1.825791,1.778556,0.372917,1.822019,2.071523,0.610537,1.309926,1.756138,0.355052,1.307492,2.049307,0.564486,1.824743,1.848720
614,5.116667,0.628742,1.825796,1.778550,0.372919,1.822026,2.071517,0.610542,1.309930,1.756139,0.355058,1.307499,2.049308,0.564488,1.824749,1.848714
615,5.125000,0.628744,1.825796,1.778554,0.372916,1.822013,2.071517,0.610543,1.309931,1.756120,0.355054,1.307487,2.049285,0.564489,1.824745,1.848717
616,5.133333,0.628739,1.825796,1.778545,0.372917,1.822024,2.071514,0.610530,1.309931,1.756123,0.355047,1.307498,2.049293,0.564485,1.824748,1.848710
617,5.141667,0.628742,1.825789,1.778552,0.372914,1.822012,2.071515,0.610543,1.309923,1.756132,0.355054,1.307486,2.049296,0.564486,1.824740,1.848715
618,5.150000,0.628745,1.825788,1.778547,0.372919,1.822020,2.071512,0.610537,1.309923,1.756133,0.355050,1.307493,2.049299,0.564490,1.824741,1.848711
619,5.158333,0.628743,1.825790,1.778542,0.372923,1.822015,2.071512,0.610546,1.309924,1.756126,0.355065,1.307488,2.049298,0.564490,1.824741,1.848706
620,5.166667,0.628741,1.825797,1.778543,0.372931,1.822016,2.071521,0.610549,1.309931,1.756122,0.355078,1.307489,2.049303,0.564490,1.824746,1.848710
621,5.175000,,,,,,,,,,,,,,,
