Format Version,1.2,Take Name,Take 2020-01-06 04.56.07 PM,Capture Frame Rate,120.000000,Export Frame Rate,120.000000,Capture Start Time,2020-01-06 04.56.07.915 PM,Total Frames,135,Rotation Type,Quaternion,Length Units,Meters,Coordinate Space,Global

,,Rigid Body Marker,Rigid Body Marker,Rigid Body Marker,Rigid Body Marker,Rigid Body Marker,Rigid Body Marker,Rigid Body Marker,Rigid Body Marker,Rigid Body Marker,Rigid Body Marker,Rigid Body Marker,Rigid Body Marker,Rigid Body Marker,Rigid Body Marker,Rigid Body Marker
,,Rigid Body 9_1,Rigid Body 9_1,Rigid Body 9_1,Rigid Body 9_2,Rigid Body 9_2,Rigid Body 9_2,Rigid Body 9_3,Rigid Body 9_3,Rigid Body 9_3,Rigid Body 9_4,Rigid Body 9_4,Rigid Body 9_4,Rigid Body 9_5,Rigid Body 9_5,Rigid Body 9_5
,,"7C2917A8304311EAE5BE26CA05685A8D","7C2917A8304311EAE5BE26CA05685A8D","7C2917A8304311EAE5BE26CA05685A8D","7C2917A8304311EAE5BE26CA05685A8D","7C2917A8304311EAE5BE26CA05685A8D","7C2917A8304311EAE5BE26CA05685A8D","7C2917A8304311EAE5BE26CA05685A8D","7C2917A8304311EAE5BE26CA05685A8D","7C2917A8304311EAE5BE26CA05685A8D","7C2917A8304311EAE5BE26CA05685A8D","7C2917A8304311EAE5BE26CA05685A8D","7C2917A8304311EAE5BE26CA05685A8D","7C2917A8304311EAE5BE26CA05685A8D","7C2917A8304311EAE5BE26CA05685A8D","7C2917A8304311EAE5BE26CA05685A8D"
,,Position,Position,Position,Position,Position,Position,Position,Position,Position,Position,Position,Position,Position,Position,Position
Frame,Time,X,Y,Z,X,Y,Z,X,Y,Z,X,Y,Z,X,Y,Z
0,0.000000,-0.210610,1.503756,-0.231176,0.178318,1.505329,-0.264524,-0.206911,0.987085,-0.189345,0.182495,0.988996,-0.224168,-0.115173,1.503990,-0.239740
1,0.008333,-0.210603,1.503760,-0.231167,0.178326,1.505344,-0.264496,-0.206893,0.987087,-0.189362,0.182514,0.989010,-0.224166,-0.115166,1.503997,-0.239727
2,0.016667,-0.210587,1.503780,-0.231161,0.178340,1.505349,-0.264504,-0.206895,0.987107,-0.189352,0.182511,0.989015,-0.224169,-0.115151,1.504014,-0.239724
3,0.025000,-0.210578,1.503793,-0.231155,0.178348,1.505348,-0.264519,-0.206902,0.987121,-0.189334,0.182502,0.989014,-0.224174,-0.115142,1.504023,-0.239723
4,0.033333,-0.210572,1.503779,-0.231171,0.178357,1.505344,-0.264499,-0.206885,0.987107,-0.189348,0.182522,0.989011,-0.224151,-0.115135,1.504011,-0.239730
5,0.041667,-0.210575,1.503768,-0.231168,0.178354,1.505336,-0.264497,-0.206886,0.987093,-0.189375,0.182521,0.989001,-0.224178,-0.115138,1.504001,-0.239728
6,0.050000,-0.210569,1.503774,-0.231173,0.178360,1.505335,-0.264498,-0.206889,0.987099,-0.189372,0.182519,0.989000,-0.224172,-0.115132,1.504005,-0.239731
7,0.058333,-0.210565,1.503782,-0.231162,0.178361,1.505339,-0.264523,-0.206887,0.987108,-0.189357,0.182518,0.989005,-0.224193,-0.115129,1.504012,-0.239729
8,0.066667,-0.210563,1.503789,-0.231159,0.178366,1.505353,-0.264493,-0.206880,0.987114,-0.189367,0.182527,0.989017,-0.224175,-0.115126,1.504021,-0.239720
9,0.075000,-0.210554,1.503794,-0.231150,0.178373,1.505348,-0.264502,-0.206882,0.987120,-0.189351,0.182524,0.989013,-0.224177,-0.115118,1.504024,-0.239715
10,0.083333,-0.210568,1.503788,-0.231149,0.178359,1.505340,-0.264495,-0.206899,0.987114,-0.189347,0.182507,0.989005,-0.224168,-0.115132,1.504017,-0.239713
11,0.091667,-0.210573,1.503767,-0.231169,0.178355,1.505329,-0.264504,-0.206891,0.987094,-0.189358,0.182516,0.988995,-0.224169,-0.115136,1.503999,-0.239730
12,0.100000,-0.210579,1.503760,-0.231170,0.178349,1.505334,-0.264512,-0.206880,0.987087,-0.189360,0.182526,0.989000,-0.224176,-0.115142,1.503995,-0.239733
13,0.108333,-0.210576,1.503770,-0.231171,0.178352,1.505344,-0.264513,-0.206877,0.987097,-0.189353,0.182529,0.989010,-0.224170,-0.115140,1.504004,-0.239734
14,0.116667,-0.210595,1.503778,-0.231177,0.178333,1.505357,-0.264513,-0.206890,0.987104,-0.189370,0.182517,0.989023,-0.224180,-0.115159,1.504014,-0.239739
15,0.125000,-0.210604,1.503762,-0.231171,0.178323,1.505351,-0.264520,-0.206884,0.987090,-0.189353,0.182521,0.989017,-0.224176,-0.115167,1.504000,-0.239735
16,0.133333,-0.210595,1.503755,-0.231191,0.178335,1.505334,-0.264511,-0.206889,0.987083,-0.189361,0.182519,0.989002,-0.224157,-0.115158,1.503991,-0.239748
17,0.141667,-0.210613,1.503750,-0.231175,0.178314,1.505341,-0.264527,-0.206888,0.987078,-0.189345,0.182517,0.989009,-0.224172,-0.115177,1.503988,-0.239741
18,0.150000,-0.210635,1.503750,-0.231185,0.178293,1.505356,-0.264514,-0.206894,0.987079,-0.189355,0.182513,0.989024,-0.224159,-0.115199,1.503993,-0.239745
19,0.158333,-0.210628,1.503760,-0.231175,0.178300,1.505354,-0.264521,-0.206900,0.987088,-0.189350,0.182506,0.989022,-0.224171,-0.115191,1.503999,-0.239738
20,0.166667,-0.210624,1.503768,-0.231165,0.178303,1.505358,-0.264510,-0.206902,0.987096,-0.189342,0.182503,0.989025,-0.224162,-0.115188,1.504007,-0.239728
21,0.175000,-0.210637,1.503766,-0.231168,0.178291,1.505365,-0.264506,-0.206904,0.987095,-0.189336,0.182502,0.989033,-0.224148,-0.115200,1.504006,-0.239730
22,0.183333,-0.210658,1.503744,-0.231184,0.178271,1.505352,-0.264509,-0.206916,0.987072,-0.189371,0.182491,0.989018,-0.224171,-0.115221,1.503987,-0.239742
23,0.191667,-0.210652,1.503749,-0.231178,0.178278,1.505361,-0.264492,-0.206906,0.987076,-0.189363,0.182503,0.989027,-0.224152,-0.115215,1.503993,-0.239734
24,0.200000,-0.210642,1.503757,-0.231154,0.178285,1.505359,-0.264503,-0.206907,0.987084,-0.189351,0.182498,0.989024,-0.224175,-0.115206,1.503999,-0.239718
25,0.208333,-0.210654,1.503752,-0.231170,0.178274,1.505366,-0.264504,-0.206903,0.987079,-0.189361,0.182504,0.989033,-0.224170,-0.115217,1.503996,-0.239731
26,0.216667,-0.210660,1.503752,-0.231164,0.178268,1.505365,-0.264499,-0.206909,0.987081,-0.189336,0.182497,0.989033,-0.224145,-0.115223,1.503996,-0.239725
27,0.225000,-0.210658,1.503747,-0.231185,0.178271,1.505360,-0.264514,-0.206908,0.987075,-0.189363,0.182499,0.989027,-0.224166,-0.115221,1.503991,-0.239745
28,0.233333,-0.210829,1.503940,-0.231389,0.178137,1.505857,-0.264265,-0.206688,0.987305,-0.189148,0.182758,0.989561,-0.223498,-0.115382,1.504258,-0.239837
29,0.241667,-0.210664,1.503750,-0.231189,0.178266,1.505374,-0.264500,-0.206902,0.987078,-0.189367,0.182507,0.989041,-0.224154,-0.115227,1.503997,-0.239744
30,0.250000,-0.210660,1.503764,-0.231167,0.178268,1.505372,-0.264508,-0.206916,0.987090,-0.189365,0.182490,0.989038,-0.224181,-0.115223,1.504007,-0.239729
31,0.258333,-0.210650,1.503756,-0.231185,0.178279,1.505359,-0.264513,-0.206913,0.987084,-0.189365,0.182494,0.989026,-0.224168,-0.115213,1.503998,-0.239745
32,0.266667,-0.210646,1.503748,-0.231178,0.178282,1.505346,-0.264519,-0.206915,0.987077,-0.189351,0.182491,0.989013,-0.224167,-0.115209,1.503989,-0.239741
33,0.275000,-0.210639,1.503740,-0.231193,0.178291,1.505343,-0.264502,-0.206905,0.987067,-0.189378,0.182504,0.989009,-0.224162,-0.115202,1.503981,-0.239748
34,0.283333,-0.210644,1.503748,-0.231191,0.178286,1.505354,-0.264506,-0.206904,0.987075,-0.189374,0.182504,0.989021,-0.224164,-0.115207,1.503990,-0.239747
35,0.291667,-0.210628,1.503756,-0.231185,0.178300,1.505351,-0.264529,-0.206899,0.987085,-0.189353,0.182507,0.989019,-0.224171,-0.115191,1.503995,-0.239748
36,0.300000,-0.210611,1.503764,-0.231192,0.178319,1.505360,-0.264508,-0.206886,0.987091,-0.189380,0.182522,0.989026,-0.224171,-0.115174,1.504004,-0.239749
37,0.308333,-0.210613,1.503773,-0.231176,0.178315,1.505358,-0.264516,-0.206899,0.987101,-0.189353,0.182507,0.989025,-0.224167,-0.115176,1.504011,-0.239738
38,0.316667,-0.210610,1.503753,-0.231196,0.178320,1.505345,-0.264510,-0.206889,0.987080,-0.189380,0.182519,0.989011,-0.224169,-0.115173,1.503992,-0.239752
39,0.325000,-0.210604,1.503747,-0.231192,0.178325,1.505339,-0.264514,-0.206884,0.987074,-0.189381,0.182524,0.989005,-0.224178,-0.115168,1.503986,-0.239750
40,0.333333,-0.210587,1.503763,-0.231194,0.178343,1.505336,-0.264512,-0.206891,0.987090,-0.189377,0.182518,0.989003,-0.224170,-0.115150,1.503997,-0.239751
41,0.341667,-0.210584,1.503767,-0.231180,0.178346,1.505342,-0.264499,-0.206888,0.987093,-0.189377,0.182521,0.989007,-0.224171,-0.115147,1.504002,-0.239737
42,0.350000,-0.210575,1.503788,-0.231181,0.178353,1.505362,-0.264510,-0.206878,0.987116,-0.189360,0.182530,0.989029,-0.224163,-0.115139,1.504023,-0.239740
43,0.358333,-0.210578,1.503781,-0.231176,0.178351,1.505351,-0.264502,-0.206887,0.987108,-0.189370,0.182521,0.989017,-0.224170,-0.115141,1.504015,-0.239735
44,0.366667,-0.210574,1.503766,-0.231190,0.178354,1.505327,-0.264524,-0.206893,0.987093,-0.189368,0.182514,0.988993,-0.224176,-0.115138,1.503997,-0.239751
45,0.375000,-0.210569,1.503759,-0.231194,0.178360,1.505326,-0.264515,-0.206882,0.987085,-0.189383,0.182526,0.988991,-0.224179,-0.115132,1.503991,-0.239752
46,0.383333,-0.210575,1.503773,-0.231168,0.178356,1.505347,-0.264479,-0.206880,0.987099,-0.189368,0.182529,0.989013,-0.224154,-0.115137,1.504008,-0.239723
47,0.391667,-0.210555,1.503779,-0.231176,0.178375,1.505340,-0.264502,-0.206875,0.987104,-0.189375,0.182533,0.989005,-0.224175,-0.115118,1.504010,-0.239735
48,0.400000,-0.210552,1.503793,-0.231171,0.178377,1.505354,-0.264502,-0.206871,0.987120,-0.189357,0.182537,0.989020,-0.224162,-0.115115,1.504024,-0.239731
49,0.408333,-0.210575,1.503780,-0.231190,0.178356,1.505347,-0.264499,-0.206887,0.987108,-0.189365,0.182522,0.989014,-0.224149,-0.115138,1.504013,-0.239745
50,0.416667,-0.210587,1.503769,-0.231185,0.178343,1.505339,-0.264500,-0.206895,0.987097,-0.189359,0.182513,0.989006,-0.224149,-0.115150,1.504002,-0.239741
51,0.425000,-0.210576,1.503776,-0.231182,0.178353,1.505336,-0.264504,-0.206898,0.987103,-0.189360,0.182510,0.989002,-0.224157,-0.115139,1.504007,-0.239740
52,0.433333,-0.210582,1.503770,-0.231178,0.178349,1.505356,-0.264484,-0.206873,0.987096,-0.189378,0.182536,0.989021,-0.224159,-0.115144,1.504008,-0.239732
53,0.441667,-0.210582,1.503774,-0.231180,0.178348,1.505368,-0.264498,-0.206859,0.987102,-0.189359,0.182549,0.989035,-0.224152,-0.115145,1.504014,-0.239737
54,0.450000,-0.210593,1.503772,-0.231178,0.178337,1.505358,-0.264489,-0.206883,0.987100,-0.189361,0.182526,0.989024,-0.224148,-0.115156,1.504010,-0.239733
55,0.458333,-0.210599,1.503775,-0.231175,0.178331,1.505360,-0.264479,-0.206891,0.987100,-0.189377,0.182519,0.989025,-0.224156,-0.115162,1.504012,-0.239728
56,0.466667,-0.210593,1.503774,-0.231175,0.178335,1.505354,-0.264504,-0.206887,0.987102,-0.189347,0.182521,0.989021,-0.224151,-0.115157,1.504010,-0.239735
57,0.475000,-0.210598,1.503776,-0.231172,0.178331,1.505357,-0.264491,-0.206893,0.987103,-0.189359,0.182515,0.989023,-0.224153,-0.115161,1.504012,-0.239729
58,0.483333,-0.210631,1.503776,-0.231160,0.178298,1.505372,-0.264493,-0.206904,0.987103,-0.189349,0.182503,0.989038,-0.224156,-0.115194,1.504016,-0.239721
59,0.491667,-0.210626,1.503767,-0.231182,0.178304,1.505366,-0.264496,-0.206895,0.987094,-0.189365,0.182513,0.989033,-0.224155,-0.115188,1.504007,-0.239738
60,0.500000,-0.210622,1.503751,-0.231187,0.178307,1.505340,-0.264505,-0.206906,0.987078,-0.189372,0.182502,0.989006,-0.224165,-0.115185,1.503989,-0.239744
61,0.508333,-0.210623,1.503750,-0.231178,0.178307,1.505337,-0.264496,-0.206909,0.987078,-0.189354,0.182500,0.989004,-0.224146,-0.115186,1.503988,-0.239735
62,0.516667,-0.210649,1.503768,-0.231176,0.178281,1.505363,-0.264487,-0.206925,0.987096,-0.189354,0.182484,0.989030,-0.224140,-0.115212,1.504008,-0.239731
63,0.525000,-0.210646,1.503765,-0.231179,0.178284,1.505373,-0.264491,-0.206904,0.987092,-0.189357,0.182504,0.989040,-0.224144,-0.115209,1.504007,-0.239734
64,0.533333,-0.210652,1.503761,-0.231181,0.178278,1.505358,-0.264494,-0.206924,0.987088,-0.189363,0.182485,0.989025,-0.224151,-0.115215,1.504001,-0.239737
65,0.541667,-0.210636,1.503751,-0.231187,0.178294,1.505345,-0.264495,-0.206915,0.987077,-0.189378,0.182494,0.989011,-0.224161,-0.115199,1.503990,-0.239741
66,0.550000,-0.210656,1.503746,-0.231200,0.178275,1.505342,-0.264503,-0.206930,0.987075,-0.189363,0.182480,0.989010,-0.224141,-0.115218,1.503985,-0.239753
67,0.558333,-0.210658,1.503745,-0.231196,0.178274,1.505352,-0.264485,-0.206920,0.987073,-0.189379,0.182491,0.989019,-0.224143,-0.115220,1.503988,-0.239746
68,0.566667,-0.210644,1.503762,-0.231185,0.178285,1.505353,-0.264508,-0.206922,0.987091,-0.189352,0.182485,0.989021,-0.224149,-0.115208,1.504001,-0.239743
69,0.575000,-0.210645,1.503766,-0.231196,0.178287,1.505368,-0.264495,-0.206914,0.987093,-0.189384,0.182496,0.989034,-0.224157,-0.115207,1.504007,-0.239748
70,0.583333,-0.210652,1.503762,-0.231184,0.178278,1.505361,-0.264495,-0.206922,0.987090,-0.189357,0.182486,0.989029,-0.224143,-0.115215,1.504003,-0.239739
71,0.591667,-0.210645,1.503752,-0.231186,0.178286,1.505345,-0.264492,-0.206925,0.987079,-0.189374,0.182484,0.989011,-0.224154,-0.115208,1.503991,-0.239740
72,0.600000,-0.210652,1.503754,-0.231182,0.178276,1.505351,-0.264516,-0.206924,0.987083,-0.189355,0.182483,0.989018,-0.224164,-0.115216,1.503994,-0.239742
73,0.608333,-0.210642,1.503751,-0.231197,0.178290,1.505361,-0.264497,-0.206899,0.987078,-0.189383,0.182511,0.989028,-0.224157,-0.115204,1.503994,-0.239750
74,0.616667,-0.210624,1.503776,-0.231179,0.178306,1.505373,-0.264491,-0.206899,0.987104,-0.189364,0.182510,0.989039,-0.224152,-0.115187,1.504016,-0.239734
75,0.625000,-0.210621,1.503774,-0.231179,0.178309,1.505367,-0.264497,-0.206897,0.987102,-0.189350,0.182511,0.989035,-0.224143,-0.115184,1.504013,-0.239736
76,0.633333,-0.210623,1.503765,-0.231188,0.178308,1.505348,-0.264490,-0.206916,0.987090,-0.189387,0.182493,0.989013,-0.224164,-0.115185,1.504001,-0.239741
77,0.641667,-0.210615,1.503760,-0.231184,0.178316,1.505352,-0.264491,-0.206895,0.987086,-0.189375,0.182514,0.989018,-0.224157,-0.115178,1.503999,-0.239738
78,0.650000,-0.210617,1.503760,-0.231198,0.178316,1.505358,-0.264482,-0.206894,0.987086,-0.189399,0.182517,0.989023,-0.224157,-0.115179,1.504000,-0.239747
79,0.658333,-0.210609,1.503763,-0.231192,0.178322,1.505355,-0.264497,-0.206890,0.987089,-0.189389,0.182519,0.989021,-0.224169,-0.115172,1.504002,-0.239746
80,0.666667,-0.210597,1.503699,-0.231118,0.178320,1.505339,-0.264580,-0.206785,0.987038,-0.189163,0.182610,0.989017,-0.224100,-0.115163,1.503949,-0.239710
81,0.675000,-0.210591,1.503780,-0.231173,0.178339,1.505359,-0.264490,-0.206888,0.987106,-0.189365,0.182520,0.989025,-0.224157,-0.115154,1.504016,-0.239729
82,0.683333,-0.210603,1.503764,-0.231172,0.178326,1.505357,-0.264497,-0.206881,0.987090,-0.189362,0.182527,0.989023,-0.224162,-0.115166,1.504003,-0.239731
83,0.691667,-0.210603,1.503678,-0.231136,0.178317,1.505324,-0.264565,-0.206788,0.987017,-0.189191,0.182610,0.989002,-0.224095,-0.115169,1.503930,-0.239720
84,0.700000,-0.210584,1.503781,-0.231195,0.178346,1.505357,-0.264511,-0.206886,0.987107,-0.189388,0.182523,0.989022,-0.224178,-0.115147,1.504016,-0.239752
85,0.708333,-0.210588,1.503707,-0.231098,0.178328,1.505340,-0.264578,-0.206785,0.987046,-0.189156,0.182609,0.989017,-0.224112,-0.115155,1.503956,-0.239695
86,0.716667,-0.210585,1.503777,-0.231181,0.178346,1.505360,-0.264485,-0.206879,0.987103,-0.189382,0.182531,0.989025,-0.224160,-0.115148,1.504014,-0.239735
87,0.725000,-0.210590,1.503763,-0.231199,0.178340,1.505354,-0.264509,-0.206873,0.987091,-0.189385,0.182536,0.989020,-0.224170,-0.115153,1.504002,-0.239754
88,0.733333,-0.210580,1.503770,-0.231187,0.178351,1.505348,-0.264498,-0.206881,0.987096,-0.189388,0.182528,0.989013,-0.224173,-0.115142,1.504006,-0.239742
89,0.741667,-0.210586,1.503774,-0.231184,0.178345,1.505360,-0.264488,-0.206877,0.987100,-0.189392,0.182532,0.989024,-0.224171,-0.115148,1.504012,-0.239738
90,0.750000,-0.210602,1.503699,-0.231106,0.178316,1.505338,-0.264560,-0.206792,0.987038,-0.189156,0.182603,0.989015,-0.224085,-0.115168,1.503949,-0.239696
91,0.758333,-0.210586,1.503782,-0.231173,0.178343,1.505359,-0.264508,-0.206885,0.987108,-0.189372,0.182522,0.989024,-0.224182,-0.115149,1.504017,-0.239734
92,0.766667,-0.210594,1.503766,-0.231197,0.178337,1.505358,-0.264507,-0.206876,0.987092,-0.189403,0.182532,0.989022,-0.224188,-0.115157,1.504005,-0.239752
93,0.775000,-0.210602,1.503766,-0.231177,0.178328,1.505353,-0.264490,-0.206890,0.987091,-0.189380,0.182518,0.989018,-0.224168,-0.115165,1.504003,-0.239733
94,0.783333,-0.210604,1.503762,-0.231200,0.178327,1.505348,-0.264511,-0.206892,0.987089,-0.189392,0.182516,0.989014,-0.224177,-0.115166,1.503999,-0.239755
95,0.791667,-0.210606,1.503773,-0.231173,0.178323,1.505355,-0.264490,-0.206901,0.987098,-0.189384,0.182508,0.989020,-0.224176,-0.115169,1.504009,-0.239730
96,0.800000,-0.210615,1.503764,-0.231179,0.178315,1.505362,-0.264502,-0.206889,0.987090,-0.189389,0.182519,0.989026,-0.224186,-0.115178,1.504005,-0.239737
97,0.808333,-0.210606,1.503767,-0.231168,0.178322,1.505352,-0.264503,-0.206894,0.987092,-0.189376,0.182513,0.989017,-0.224185,-0.115169,1.504004,-0.239729
98,0.816667,-0.210632,1.503755,-0.231181,0.178297,1.505351,-0.264502,-0.206908,0.987082,-0.189379,0.182500,0.989017,-0.224174,-0.115195,1.503995,-0.239738
99,0.825000,-0.210631,1.503669,-0.231137,0.178287,1.505321,-0.264594,-0.206802,0.987010,-0.189168,0.182593,0.989001,-0.224099,-0.115197,1.503922,-0.239728
100,0.833333,-0.210627,1.503760,-0.231188,0.178303,1.505349,-0.264511,-0.206910,0.987088,-0.189366,0.182498,0.989016,-0.224164,-0.115190,1.503998,-0.239746
101,0.841667,-0.210631,1.503769,-0.231190,0.178299,1.505368,-0.264503,-0.206901,0.987096,-0.189372,0.182507,0.989035,-0.224159,-0.115194,1.504009,-0.239746
102,0.850000,-0.210642,1.503765,-0.231194,0.178288,1.505369,-0.264510,-0.206905,0.987093,-0.189368,0.182503,0.989037,-0.224158,-0.115205,1.504007,-0.239750
103,0.858333,-0.210638,1.503754,-0.231196,0.178294,1.505357,-0.264493,-0.206907,0.987080,-0.189398,0.182503,0.989022,-0.224169,-0.115201,1.503995,-0.239748
104,0.866667,-0.210658,1.503740,-0.231208,0.178271,1.505349,-0.264525,-0.206913,0.987069,-0.189378,0.182495,0.989017,-0.224170,-0.115221,1.503983,-0.239765
105,0.875000,-0.210653,1.503743,-0.231199,0.178278,1.505353,-0.264505,-0.206909,0.987071,-0.189375,0.182500,0.989021,-0.224155,-0.115216,1.503986,-0.239753
106,0.883333,-0.210663,1.503752,-0.231204,0.178268,1.505358,-0.264498,-0.206926,0.987080,-0.189381,0.182484,0.989026,-0.224150,-0.115226,1.503995,-0.239755
107,0.891667,-0.210652,1.503770,-0.231195,0.178280,1.505373,-0.264490,-0.206920,0.987096,-0.189389,0.182491,0.989039,-0.224158,-0.115214,1.504011,-0.239746
108,0.900000,-0.210654,1.503759,-0.231211,0.178279,1.505377,-0.264491,-0.206904,0.987087,-0.189398,0.182507,0.989043,-0.224153,-0.115216,1.504004,-0.239759
109,0.908333,-0.210660,1.503675,-0.231126,0.178257,1.505335,-0.264581,-0.206822,0.987015,-0.189170,0.182573,0.989014,-0.224101,-0.115226,1.503931,-0.239716
110,0.916667,-0.210660,1.503738,-0.231203,0.178270,1.505350,-0.264514,-0.206914,0.987066,-0.189385,0.182494,0.989017,-0.224171,-0.115223,1.503982,-0.239758
111,0.925000,-0.210660,1.503753,-0.231198,0.178270,1.505354,-0.264510,-0.206930,0.987079,-0.189398,0.182479,0.989020,-0.224185,-0.115223,1.503994,-0.239753
112,0.933333,-0.210651,1.503759,-0.231204,0.178279,1.505368,-0.264511,-0.206911,0.987085,-0.189400,0.182498,0.989034,-0.224181,-0.115214,1.504002,-0.239758
113,0.941667,-0.210645,1.503762,-0.231182,0.178284,1.505362,-0.264511,-0.206912,0.987090,-0.189355,0.182496,0.989030,-0.224159,-0.115208,1.504003,-0.239742
114,0.950000,-0.210648,1.503763,-0.231195,0.178282,1.505359,-0.264498,-0.206924,0.987091,-0.189376,0.182486,0.989026,-0.224153,-0.115211,1.504003,-0.239748
115,0.958333,-0.210637,1.503742,-0.231209,0.178295,1.505341,-0.264498,-0.206910,0.987070,-0.189385,0.182500,0.989008,-0.224149,-0.115199,1.503983,-0.239759
116,0.966667,-0.210624,1.503744,-0.231200,0.178306,1.505337,-0.264518,-0.206902,0.987072,-0.189378,0.182507,0.989004,-0.224171,-0.115187,1.503983,-0.239757
117,0.975000,-0.210631,1.503767,-0.231201,0.178301,1.505364,-0.264497,-0.206907,0.987094,-0.189396,0.182503,0.989030,-0.224168,-0.115193,1.504007,-0.239752
118,0.983333,-0.210627,1.503765,-0.231197,0.178304,1.505359,-0.264501,-0.206905,0.987093,-0.189373,0.182504,0.989026,-0.224152,-0.115190,1.504004,-0.239750
119,0.991667,-0.210622,1.503765,-0.231183,0.178308,1.505363,-0.264497,-0.206894,0.987093,-0.189367,0.182514,0.989030,-0.224154,-0.115185,1.504006,-0.239739
120,1.000000,-0.210617,1.503762,-0.231203,0.178314,1.505352,-0.264509,-0.206900,0.987091,-0.189373,0.182509,0.989019,-0.224154,-0.115179,1.504001,-0.239757
121,1.008333,-0.210623,1.503773,-0.231173,0.178306,1.505359,-0.264495,-0.206911,0.987100,-0.189369,0.182496,0.989025,-0.224166,-0.115186,1.504011,-0.239730
122,1.016667,-0.210607,1.503768,-0.231181,0.178321,1.505351,-0.264519,-0.206895,0.987097,-0.189349,0.182511,0.989019,-0.224163,-0.115170,1.504005,-0.239743
123,1.025000,-0.210607,1.503769,-0.231180,0.178323,1.505355,-0.264495,-0.206896,0.987095,-0.189384,0.182512,0.989020,-0.224174,-0.115170,1.504007,-0.239736
124,1.033333,-0.210577,1.503779,-0.231179,0.178353,1.505352,-0.264494,-0.206886,0.987104,-0.189388,0.182523,0.989016,-0.224178,-0.115140,1.504013,-0.239735
125,1.041667,-0.210589,1.503776,-0.231173,0.178340,1.505349,-0.264503,-0.206894,0.987103,-0.189369,0.182513,0.989014,-0.224174,-0.115152,1.504010,-0.239733
126,1.050000,-0.210595,1.503779,-0.231166,0.178333,1.505353,-0.264506,-0.206895,0.987107,-0.189339,0.182512,0.989020,-0.224154,-0.115158,1.504014,-0.239729
127,1.058333,-0.210575,1.503777,-0.231167,0.178353,1.505345,-0.264503,-0.206887,0.987102,-0.189382,0.182519,0.989009,-0.224193,-0.115138,1.504010,-0.239728
128,1.066667,-0.210557,1.503783,-0.231168,0.178371,1.505350,-0.264508,-0.206870,0.987110,-0.189364,0.182536,0.989015,-0.224178,-0.115121,1.504016,-0.239730
129,1.075000,-0.210578,1.503778,-0.231169,0.178352,1.505358,-0.264483,-0.206877,0.987103,-0.189380,0.182532,0.989022,-0.224169,-0.115141,1.504014,-0.239725
130,1.083333,-0.210576,1.503775,-0.231158,0.178352,1.505348,-0.264495,-0.206880,0.987100,-0.189358,0.182527,0.989013,-0.224170,-0.115139,1.504009,-0.239720
131,1.091667,-0.210565,1.503773,-0.231160,0.178362,1.505331,-0.264506,-0.206886,0.987100,-0.189340,0.182520,0.988998,-0.224160,-0.115129,1.504004,-0.239724
132,1.100000,-0.210573,1.503772,-0.231165,0.178355,1.505346,-0.264502,-0.206876,0.987098,-0.189367,0.182530,0.989011,-0.224179,-0.115137,1.504007,-0.239727
133,1.108333,-0.210571,1.503784,-0.231156,0.178356,1.505361,-0.264503,-0.206869,0.987110,-0.189356,0.182537,0.989026,-0.224177,-0.115135,1.504019,-0.239720
134,1.116667,-0.210591,1.503788,-0.231155,0.178336,1.505365,-0.264497,-0.206889,0.987114,-0.189354,0.182517,0.989031,-0.224170,-0.115155,1.504023,-0.239718
