Format Version,1.2,Take Name,Take 2020-01-06 05.02.58 PM,Capture Frame Rate,120.000000,Export Frame Rate,120.000000,Capture Start Time,2020-01-06 05.02.58.251 PM,Total Frames,378,Rotation Type,Quaternion,Length Units,Meters,Coordinate Space,Global

,,Rigid Body Marker,Rigid Body Marker,Rigid Body Marker,Rigid Body Marker,Rigid Body Marker,Rigid Body Marker,Rigid Body Marker,Rigid Body Marker,Rigid Body Marker,Rigid Body Marker,Rigid Body Marker,Rigid Body Marker,Rigid Body Marker,Rigid Body Marker,Rigid Body Marker
,,Rigid Body 9_1,Rigid Body 9_1,Rigid Body 9_1,Rigid Body 9_2,Rigid Body 9_2,Rigid Body 9_2,Rigid Body 9_3,Rigid Body 9_3,Rigid Body 9_3,Rigid Body 9_4,Rigid Body 9_4,Rigid Body 9_4,Rigid Body 9_5,Rigid Body 9_5,Rigid Body 9_5
,,"7C2917A8304311EAE5BE26CA05685A8D","7C2917A8304311EAE5BE26CA05685A8D","7C2917A8304311EAE5BE26CA05685A8D","7C2917A8304311EAE5BE26CA05685A8D","7C2917A8304311EAE5BE26CA05685A8D","7C2917A8304311EAE5BE26CA05685A8D","7C2917A8304311EAE5BE26CA05685A8D","7C2917A8304311EAE5BE26CA05685A8D","7C2917A8304311EAE5BE26CA05685A8D","7C2917A8304311EAE5BE26CA05685A8D","7C2917A8304311EAE5BE26CA05685A8D","7C2917A8304311EAE5BE26CA05685A8D","7C2917A8304311EAE5BE26CA05685A8D","7C2917A8304311EAE5BE26CA05685A8D","7C2917A8304311EAE5BE26CA05685A8D"
,,Position,Position,Position,Position,Position,Position,Position,Position,Position,Position,Position,Position,Position,Position,Position
Frame,Time,X,Y,Z,X,Y,Z,X,Y,Z,X,Y,Z,X,Y,Z
0,0.000000,-0.269485,1.592464,0.069284,0.120835,1.597363,0.067079,-0.264650,1.077688,0.130074,0.126263,1.082879,0.126425,-0.173675,1.593501,0.068369
1,0.008333,-0.269604,1.592361,0.069265,0.120716,1.597311,0.067120,-0.264712,1.077571,0.129927,0.126200,1.082813,0.126339,-0.173794,1.593411,0.068365
2,0.016667,-0.269681,1.592363,0.069291,0.120639,1.597364,0.067132,-0.264718,1.077578,0.129995,0.126194,1.082872,0.126393,-0.173871,1.593425,0.068387
3,0.025000,-0.269707,1.592389,0.069317,0.120612,1.597385,0.067146,-0.264750,1.077605,0.130025,0.126162,1.082893,0.126411,-0.173897,1.593450,0.068410
4,0.033333,-0.269741,1.592351,0.069325,0.120579,1.597364,0.067210,-0.264770,1.077562,0.129994,0.126142,1.082867,0.126436,-0.173931,1.593416,0.068432
5,0.041667,-0.269788,1.592288,0.069367,0.120531,1.597331,0.067235,-0.264776,1.077491,0.129964,0.126135,1.082826,0.126388,-0.173978,1.593360,0.068470
6,0.050000,-0.269851,1.592342,0.069385,0.120468,1.597389,0.067223,-0.264827,1.077553,0.130051,0.126084,1.082893,0.126445,-0.174041,1.593415,0.068480
7,0.058333,-0.269889,1.592358,0.069410,0.120429,1.597415,0.067238,-0.264851,1.077568,0.130064,0.126059,1.082917,0.126449,-0.174079,1.593433,0.068502
8,0.066667,-0.269927,1.592337,0.069423,0.120392,1.597417,0.067331,-0.264872,1.077539,0.130010,0.126040,1.082912,0.126476,-0.174117,1.593418,0.068535
9,0.075000,-0.269914,1.592339,0.069501,0.120404,1.597435,0.067325,-0.264826,1.077547,0.130130,0.126085,1.082935,0.126511,-0.174105,1.593424,0.068593
10,0.083333,-0.269923,1.592325,0.069507,0.120396,1.597406,0.067368,-0.264860,1.077525,0.130070,0.126051,1.082898,0.126487,-0.174113,1.593407,0.068608
11,0.091667,-0.269931,1.592324,0.069534,0.120387,1.597404,0.067401,-0.264871,1.077523,0.130087,0.126040,1.082895,0.126511,-0.174121,1.593405,0.068636
12,0.100000,-0.269932,1.592328,0.069556,0.120386,1.597406,0.067416,-0.264872,1.077527,0.130117,0.126039,1.082898,0.126533,-0.174122,1.593409,0.068657
13,0.108333,-0.269908,1.592300,0.069567,0.120411,1.597372,0.067454,-0.264859,1.077491,0.130059,0.126052,1.082856,0.126503,-0.174098,1.593380,0.068674
14,0.116667,-0.269884,1.592353,0.069623,0.120434,1.597425,0.067434,-0.264824,1.077556,0.130218,0.126086,1.082920,0.126585,-0.174074,1.593432,0.068712
15,0.125000,-0.269867,1.592366,0.069644,0.120451,1.597428,0.067463,-0.264822,1.077565,0.130208,0.126089,1.082920,0.126583,-0.174057,1.593443,0.068735
16,0.133333,-0.269806,1.592331,0.069629,0.120513,1.597346,0.067505,-0.264833,1.077519,0.130100,0.126079,1.082827,0.126533,-0.173996,1.593397,0.068733
17,0.141667,-0.269763,1.592308,0.069653,0.120556,1.597307,0.067527,-0.264810,1.077493,0.130095,0.126102,1.082785,0.126527,-0.173953,1.593370,0.068757
18,0.150000,-0.269748,1.592303,0.069667,0.120571,1.597303,0.067519,-0.264791,1.077492,0.130143,0.126121,1.082784,0.126552,-0.173938,1.593365,0.068766
19,0.158333,-0.269664,1.592357,0.069667,0.120656,1.597327,0.067509,-0.264743,1.077546,0.130159,0.126169,1.082809,0.126558,-0.173854,1.593411,0.068763
20,0.166667,-0.269579,1.592386,0.069683,0.120741,1.597324,0.067490,-0.264695,1.077574,0.130171,0.126217,1.082806,0.126534,-0.173769,1.593432,0.068771
21,0.175000,-0.269528,1.592386,0.069664,0.120792,1.597317,0.067489,-0.264656,1.077577,0.130173,0.126256,1.082801,0.126555,-0.173718,1.593431,0.068756
22,0.183333,-0.269478,1.592369,0.069668,0.120843,1.597243,0.067492,-0.264681,1.077555,0.130138,0.126232,1.082722,0.126519,-0.173667,1.593400,0.068759
23,0.191667,-0.269410,1.592367,0.069653,0.120911,1.597212,0.067467,-0.264651,1.077553,0.130121,0.126263,1.082691,0.126493,-0.173600,1.593391,0.068742
24,0.200000,-0.269332,1.592382,0.069634,0.120989,1.597225,0.067475,-0.264581,1.077567,0.130093,0.126333,1.082702,0.126491,-0.173522,1.593406,0.068730
25,0.208333,-0.269272,1.592419,0.069629,0.121050,1.597233,0.067453,-0.264555,1.077606,0.130108,0.126359,1.082712,0.126489,-0.173462,1.593436,0.068721
26,0.216667,-0.269232,1.592467,0.069624,0.121090,1.597255,0.067421,-0.264545,1.077657,0.130140,0.126369,1.082738,0.126493,-0.173422,1.593477,0.068709
27,0.225000,-0.269171,1.592449,0.069614,0.121151,1.597204,0.067380,-0.264523,1.077641,0.130145,0.126391,1.082688,0.126468,-0.173360,1.593451,0.068691
28,0.233333,-0.269116,1.592452,0.069581,0.121206,1.597171,0.067339,-0.264515,1.077643,0.130109,0.126400,1.082654,0.126424,-0.173306,1.593445,0.068657
29,0.241667,-0.269124,1.592472,0.069550,0.121199,1.597187,0.067360,-0.264535,1.077663,0.130073,0.126380,1.082670,0.126440,-0.173313,1.593464,0.068638
30,0.250000,-0.269092,1.592457,0.069543,0.121230,1.597180,0.067344,-0.264492,1.077649,0.130074,0.126423,1.082663,0.126432,-0.173282,1.593451,0.068629
31,0.258333,-0.269054,1.592473,0.069515,0.121269,1.597172,0.067294,-0.264481,1.077667,0.130077,0.126434,1.082659,0.126413,-0.173244,1.593461,0.068596
32,0.266667,-0.269048,1.592473,0.069474,0.121275,1.597171,0.067271,-0.264480,1.077668,0.130041,0.126436,1.082659,0.126395,-0.173237,1.593461,0.068559
33,0.275000,-0.269081,1.592491,0.069461,0.121242,1.597189,0.067271,-0.264515,1.077688,0.130038,0.126401,1.082678,0.126405,-0.173270,1.593479,0.068549
34,0.283333,-0.269101,1.592479,0.069445,0.121221,1.597199,0.067267,-0.264507,1.077676,0.130023,0.126408,1.082688,0.126402,-0.173291,1.593472,0.068536
35,0.291667,-0.269091,1.592482,0.069432,0.121232,1.597201,0.067234,-0.264496,1.077678,0.130002,0.126419,1.082689,0.126361,-0.173280,1.593475,0.068518
36,0.300000,-0.269114,1.592477,0.069402,0.121209,1.597216,0.067219,-0.264494,1.077678,0.130007,0.126421,1.082709,0.126380,-0.173303,1.593475,0.068492
37,0.308333,-0.269171,1.592469,0.069394,0.121151,1.597219,0.067215,-0.264538,1.077667,0.129981,0.126377,1.082709,0.126359,-0.173361,1.593469,0.068485
38,0.316667,-0.269222,1.592460,0.069383,0.121100,1.597222,0.067221,-0.264576,1.077659,0.129979,0.126339,1.082713,0.126375,-0.173411,1.593463,0.068478
39,0.325000,-0.269247,1.592430,0.069362,0.121075,1.597206,0.067203,-0.264583,1.077630,0.129953,0.126332,1.082697,0.126351,-0.173437,1.593437,0.068458
40,0.333333,-0.269287,1.592427,0.069344,0.121035,1.597236,0.067224,-0.264584,1.077625,0.129924,0.126331,1.082727,0.126361,-0.173476,1.593442,0.068450
41,0.341667,-0.269354,1.592422,0.069353,0.120968,1.597256,0.067219,-0.264617,1.077621,0.129937,0.126297,1.082747,0.126360,-0.173543,1.593443,0.068455
42,0.350000,-0.269412,1.592395,0.069337,0.120909,1.597254,0.067233,-0.264647,1.077597,0.129948,0.126267,1.082748,0.126401,-0.173602,1.593422,0.068447
43,0.358333,-0.269455,1.592370,0.069356,0.120867,1.597249,0.067225,-0.264657,1.077574,0.129977,0.126256,1.082745,0.126402,-0.173644,1.593402,0.068459
44,0.366667,-0.269501,1.592374,0.069362,0.120820,1.597261,0.067251,-0.264697,1.077573,0.129943,0.126217,1.082753,0.126389,-0.173691,1.593408,0.068469
45,0.375000,-0.269572,1.592351,0.069375,0.120748,1.597284,0.067265,-0.264708,1.077550,0.129952,0.126205,1.082775,0.126399,-0.173762,1.593396,0.068483
46,0.383333,-0.269620,1.592335,0.069375,0.120700,1.597296,0.067277,-0.264720,1.077534,0.129955,0.126192,1.082788,0.126415,-0.173810,1.593387,0.068486
47,0.391667,-0.269656,1.592335,0.069401,0.120664,1.597300,0.067291,-0.264750,1.077533,0.129969,0.126163,1.082791,0.126416,-0.173846,1.593388,0.068509
48,0.400000,-0.269692,1.592322,0.069420,0.120628,1.597299,0.067314,-0.264770,1.077519,0.129976,0.126142,1.082789,0.126427,-0.173882,1.593378,0.068529
49,0.408333,-0.269774,1.592294,0.069429,0.120545,1.597326,0.067344,-0.264783,1.077490,0.129975,0.126129,1.082816,0.126447,-0.173964,1.593363,0.068543
50,0.416667,-0.269802,1.592295,0.069455,0.120518,1.597329,0.067309,-0.264799,1.077500,0.130066,0.126113,1.082826,0.126478,-0.173992,1.593365,0.068554
51,0.425000,-0.269802,1.592284,0.069468,0.120517,1.597315,0.067367,-0.264810,1.077480,0.130005,0.126101,1.082804,0.126462,-0.173992,1.593354,0.068578
52,0.433333,-0.269833,1.592309,0.069502,0.120486,1.597349,0.067376,-0.264827,1.077506,0.130041,0.126085,1.082838,0.126471,-0.174023,1.593381,0.068606
53,0.441667,-0.269836,1.592322,0.069521,0.120483,1.597358,0.067388,-0.264833,1.077514,0.130030,0.126079,1.082843,0.126453,-0.174026,1.593392,0.068623
54,0.450000,-0.269837,1.592332,0.069561,0.120482,1.597369,0.067378,-0.264824,1.077532,0.130136,0.126087,1.082862,0.126509,-0.174027,1.593403,0.068651
55,0.458333,-0.269846,1.592297,0.069535,0.120473,1.597348,0.067418,-0.264825,1.077492,0.130064,0.126086,1.082836,0.126504,-0.174036,1.593372,0.068642
56,0.466667,-0.269855,1.592297,0.069557,0.120464,1.597327,0.067431,-0.264860,1.077489,0.130063,0.126051,1.082812,0.126493,-0.174045,1.593366,0.068661
57,0.475000,-0.269855,1.592268,0.069561,0.120464,1.597314,0.067455,-0.264842,1.077459,0.130062,0.126070,1.082798,0.126512,-0.174045,1.593341,0.068670
58,0.483333,-0.269781,1.592315,0.069593,0.120538,1.597344,0.067402,-0.264777,1.077514,0.130157,0.126134,1.082836,0.126523,-0.173971,1.593384,0.068682
59,0.491667,-0.269781,1.592316,0.069587,0.120539,1.597328,0.067471,-0.264811,1.077505,0.130068,0.126101,1.082810,0.126509,-0.173971,1.593381,0.068694
60,0.500000,-0.269753,1.592306,0.069605,0.120566,1.597305,0.067460,-0.264796,1.077496,0.130098,0.126116,1.082788,0.126510,-0.173943,1.593367,0.068704
61,0.508333,-0.269702,1.592313,0.069587,0.120618,1.597301,0.067467,-0.264763,1.077501,0.130064,0.126149,1.082783,0.126502,-0.173892,1.593372,0.068692
62,0.516667,-0.269650,1.592343,0.069612,0.120669,1.597319,0.067429,-0.264718,1.077539,0.130159,0.126194,1.082808,0.126533,-0.173840,1.593399,0.068702
63,0.525000,-0.269594,1.592353,0.069610,0.120726,1.597288,0.067481,-0.264724,1.077539,0.130077,0.126189,1.082767,0.126505,-0.173784,1.593399,0.068713
64,0.533333,-0.269538,1.592375,0.069608,0.120783,1.597282,0.067474,-0.264705,1.077562,0.130083,0.126209,1.082762,0.126506,-0.173728,1.593414,0.068710
65,0.541667,-0.269504,1.592360,0.069586,0.120817,1.597252,0.067444,-0.264691,1.077546,0.130052,0.126223,1.082730,0.126467,-0.173694,1.593396,0.068686
66,0.550000,-0.269459,1.592374,0.069576,0.120862,1.597249,0.067417,-0.264664,1.077562,0.130065,0.126249,1.082730,0.126463,-0.173648,1.593405,0.068672
67,0.558333,-0.269376,1.592407,0.069564,0.120945,1.597236,0.067419,-0.264645,1.077595,0.130048,0.126269,1.082716,0.126460,-0.173566,1.593427,0.068663
68,0.566667,-0.269346,1.592413,0.069565,0.120975,1.597256,0.067403,-0.264593,1.077603,0.130072,0.126321,1.082739,0.126467,-0.173536,1.593436,0.068660
69,0.575000,-0.269290,1.592439,0.069556,0.121032,1.597229,0.067395,-0.264608,1.077627,0.130049,0.126307,1.082709,0.126445,-0.173479,1.593449,0.068652
70,0.583333,-0.269267,1.592432,0.069547,0.121055,1.597218,0.067369,-0.264587,1.077624,0.130073,0.126328,1.082702,0.126452,-0.173456,1.593441,0.068638
71,0.591667,-0.269218,1.592450,0.069551,0.121104,1.597200,0.067329,-0.264577,1.077643,0.130094,0.126337,1.082686,0.126429,-0.173408,1.593450,0.068632
72,0.600000,-0.269192,1.592433,0.069518,0.121131,1.597193,0.067326,-0.264543,1.077626,0.130063,0.126372,1.082679,0.126429,-0.173381,1.593436,0.068606
73,0.608333,-0.269166,1.592465,0.069523,0.121156,1.597196,0.067310,-0.264553,1.077658,0.130067,0.126362,1.082682,0.126411,-0.173356,1.593461,0.068605
74,0.616667,-0.269149,1.592468,0.069500,0.121173,1.597210,0.067310,-0.264524,1.077664,0.130072,0.126391,1.082699,0.126439,-0.173339,1.593466,0.068588
75,0.625000,-0.269143,1.592473,0.069484,0.121180,1.597206,0.067299,-0.264531,1.077666,0.130027,0.126384,1.082691,0.126399,-0.173332,1.593469,0.068573
76,0.633333,-0.269152,1.592454,0.069458,0.121170,1.597209,0.067289,-0.264514,1.077650,0.130025,0.126400,1.082697,0.126413,-0.173342,1.593456,0.068552
77,0.641667,-0.269158,1.592438,0.069460,0.121164,1.597182,0.067276,-0.264533,1.077634,0.130023,0.126382,1.082670,0.126397,-0.173348,1.593437,0.068550
78,0.650000,-0.269159,1.592446,0.069447,0.121164,1.597197,0.067280,-0.264525,1.077641,0.130002,0.126390,1.082684,0.126392,-0.173348,1.593447,0.068541
79,0.658333,-0.269177,1.592465,0.069432,0.121146,1.597218,0.067264,-0.264541,1.077661,0.130001,0.126374,1.082707,0.126390,-0.173366,1.593466,0.068526
80,0.666667,-0.269190,1.592454,0.069430,0.121132,1.597227,0.067262,-0.264528,1.077654,0.130030,0.126387,1.082719,0.126419,-0.173379,1.593460,0.068524
81,0.675000,-0.269242,1.592444,0.069438,0.121081,1.597221,0.067270,-0.264575,1.077641,0.130011,0.126339,1.082710,0.126400,-0.173431,1.593451,0.068532
82,0.683333,-0.269289,1.592395,0.069425,0.121033,1.597202,0.067265,-0.264583,1.077592,0.129999,0.126331,1.082692,0.126396,-0.173479,1.593409,0.068521
83,0.691667,-0.269331,1.592396,0.069411,0.120991,1.597218,0.067273,-0.264609,1.077594,0.129988,0.126305,1.082708,0.126407,-0.173521,1.593414,0.068512
84,0.700000,-0.269367,1.592398,0.069415,0.120955,1.597239,0.067289,-0.264622,1.077594,0.129978,0.126292,1.082728,0.126410,-0.173557,1.593421,0.068519
85,0.708333,-0.269419,1.592406,0.069421,0.120902,1.597272,0.067301,-0.264641,1.077604,0.129995,0.126273,1.082763,0.126431,-0.173608,1.593435,0.068526
86,0.716667,-0.269427,1.592413,0.069450,0.120894,1.597280,0.067283,-0.264642,1.077614,0.130044,0.126272,1.082773,0.126435,-0.173617,1.593442,0.068544
87,0.725000,-0.269498,1.592378,0.069452,0.120823,1.597269,0.067303,-0.264683,1.077577,0.130030,0.126231,1.082761,0.126438,-0.173688,1.593413,0.068550
88,0.733333,-0.269566,1.592375,0.069458,0.120755,1.597289,0.067320,-0.264722,1.077574,0.130037,0.126191,1.082781,0.126457,-0.173755,1.593416,0.068559
89,0.741667,-0.269624,1.592323,0.069455,0.120697,1.597277,0.067336,-0.264732,1.077519,0.130001,0.126181,1.082765,0.126439,-0.173813,1.593374,0.068561
90,0.750000,-0.269634,1.592358,0.069466,0.120686,1.597297,0.067343,-0.264761,1.077555,0.130024,0.126152,1.082787,0.126458,-0.173824,1.593405,0.068571
91,0.758333,-0.269687,1.592364,0.069506,0.120633,1.597346,0.067308,-0.264744,1.077570,0.130135,0.126167,1.082844,0.126493,-0.173877,1.593421,0.068593
92,0.766667,-0.269730,1.592352,0.069513,0.120589,1.597348,0.067309,-0.264768,1.077558,0.130142,0.126143,1.082847,0.126495,-0.173920,1.593413,0.068598
93,0.775000,-0.269771,1.592340,0.069526,0.120548,1.597341,0.067321,-0.264801,1.077545,0.130148,0.126110,1.082839,0.126499,-0.173961,1.593402,0.068611
94,0.783333,-0.269771,1.592310,0.069523,0.120549,1.597315,0.067339,-0.264800,1.077510,0.130102,0.126111,1.082808,0.126474,-0.173961,1.593373,0.068613
95,0.791667,-0.269811,1.592331,0.069547,0.120508,1.597351,0.067355,-0.264819,1.077531,0.130126,0.126092,1.082844,0.126492,-0.174001,1.593397,0.068635
96,0.800000,-0.269819,1.592326,0.069543,0.120500,1.597354,0.067371,-0.264819,1.077527,0.130132,0.126092,1.082849,0.126516,-0.174009,1.593394,0.068636
97,0.808333,-0.269824,1.592329,0.069549,0.120495,1.597354,0.067372,-0.264828,1.077532,0.130145,0.126083,1.082849,0.126525,-0.174014,1.593397,0.068640
98,0.816667,-0.269832,1.592303,0.069536,0.120488,1.597331,0.067404,-0.264840,1.077498,0.130070,0.126072,1.082819,0.126495,-0.174022,1.593372,0.068639
99,0.825000,-0.269829,1.592322,0.069579,0.120490,1.597351,0.067385,-0.264825,1.077522,0.130154,0.126086,1.082844,0.126516,-0.174019,1.593391,0.068666
100,0.833333,-0.269826,1.592312,0.069552,0.120493,1.597351,0.067369,-0.264810,1.077514,0.130140,0.126101,1.082846,0.126514,-0.174016,1.593383,0.068642
101,0.841667,-0.269803,1.592322,0.069556,0.120516,1.597357,0.067386,-0.264795,1.077523,0.130132,0.126116,1.082850,0.126520,-0.173993,1.593393,0.068649
102,0.850000,-0.269783,1.592315,0.069541,0.120536,1.597330,0.067423,-0.264810,1.077508,0.130064,0.126102,1.082817,0.126503,-0.173973,1.593380,0.068647
103,0.858333,-0.269747,1.592322,0.069563,0.120573,1.597321,0.067420,-0.264791,1.077516,0.130087,0.126121,1.082807,0.126500,-0.173937,1.593383,0.068663
104,0.866667,-0.269685,1.592343,0.069565,0.120634,1.597316,0.067404,-0.264761,1.077542,0.130131,0.126151,1.082807,0.126527,-0.173875,1.593398,0.068661
105,0.875000,-0.269628,1.592352,0.069577,0.120692,1.597299,0.067387,-0.264733,1.077550,0.130143,0.126179,1.082790,0.126511,-0.173818,1.593401,0.068665
106,0.883333,-0.269605,1.592381,0.069597,0.120715,1.597323,0.067378,-0.264713,1.077580,0.130164,0.126199,1.082814,0.126502,-0.173795,1.593429,0.068678
107,0.891667,-0.269556,1.592400,0.069577,0.120765,1.597316,0.067370,-0.264699,1.077600,0.130161,0.126214,1.082809,0.126511,-0.173745,1.593442,0.068662
108,0.900000,-0.269551,1.592373,0.069537,0.120770,1.597289,0.067406,-0.264706,1.077565,0.130057,0.126208,1.082774,0.126482,-0.173741,1.593414,0.068640
109,0.908333,-0.269472,1.592394,0.069534,0.120849,1.597273,0.067376,-0.264671,1.077589,0.130081,0.126242,1.082760,0.126481,-0.173661,1.593426,0.068630
110,0.916667,-0.269428,1.592367,0.069523,0.120893,1.597234,0.067378,-0.264646,1.077555,0.130015,0.126267,1.082715,0.126426,-0.173618,1.593396,0.068622
111,0.925000,-0.269382,1.592417,0.069528,0.120939,1.597250,0.067345,-0.264639,1.077611,0.130072,0.126275,1.082736,0.126446,-0.173572,1.593438,0.068618
112,0.933333,-0.269340,1.592419,0.069541,0.120981,1.597259,0.067310,-0.264580,1.077620,0.130137,0.126333,1.082752,0.126463,-0.173530,1.593442,0.068619
113,0.941667,-0.269295,1.592447,0.069502,0.121026,1.597250,0.067317,-0.264590,1.077645,0.130078,0.126324,1.082741,0.126450,-0.173485,1.593460,0.068592
114,0.950000,-0.269259,1.592451,0.069500,0.121063,1.597229,0.067319,-0.264588,1.077647,0.130070,0.126327,1.082718,0.126446,-0.173449,1.593458,0.068591
115,0.958333,-0.269250,1.592424,0.069499,0.121072,1.597194,0.067297,-0.264588,1.077619,0.130053,0.126327,1.082681,0.126408,-0.173440,1.593429,0.068585
116,0.966667,-0.269222,1.592432,0.069488,0.121100,1.597197,0.067294,-0.264567,1.077629,0.130056,0.126347,1.082686,0.126419,-0.173412,1.593437,0.068576
117,0.975000,-0.269205,1.592454,0.069469,0.121117,1.597198,0.067288,-0.264578,1.077651,0.130048,0.126336,1.082688,0.126424,-0.173395,1.593453,0.068560
118,0.983333,-0.269180,1.592489,0.069494,0.121142,1.597238,0.067292,-0.264543,1.077689,0.130099,0.126371,1.082731,0.126454,-0.173369,1.593489,0.068579
119,0.991667,-0.269186,1.592483,0.069482,0.121137,1.597230,0.067291,-0.264554,1.077682,0.130076,0.126361,1.082721,0.126442,-0.173375,1.593482,0.068571
120,1.000000,-0.269175,1.592473,0.069470,0.121147,1.597219,0.067272,-0.264545,1.077675,0.130088,0.126370,1.082713,0.126448,-0.173364,1.593473,0.068556
121,1.008333,-0.269188,1.592467,0.069468,0.121134,1.597207,0.067259,-0.264563,1.077667,0.130067,0.126352,1.082699,0.126415,-0.173377,1.593465,0.068551
122,1.016667,-0.269216,1.592442,0.069471,0.121106,1.597191,0.067290,-0.264584,1.077636,0.130027,0.126331,1.082678,0.126403,-0.173406,1.593442,0.068562
123,1.025000,-0.269214,1.592431,0.069467,0.121108,1.597210,0.067301,-0.264544,1.077626,0.130027,0.126370,1.082698,0.126419,-0.173404,1.593438,0.068561
124,1.033333,-0.269263,1.592451,0.069464,0.121059,1.597233,0.067309,-0.264592,1.077648,0.130040,0.126323,1.082722,0.126442,-0.173452,1.593459,0.068561
125,1.041667,-0.269274,1.592455,0.069484,0.121048,1.597245,0.067304,-0.264588,1.077652,0.130055,0.126326,1.082734,0.126432,-0.173463,1.593465,0.068575
126,1.050000,-0.269310,1.592438,0.069487,0.121011,1.597251,0.067295,-0.264592,1.077634,0.130051,0.126322,1.082740,0.126416,-0.173500,1.593454,0.068575
127,1.058333,-0.269350,1.592392,0.069490,0.120972,1.597228,0.067329,-0.264605,1.077587,0.130040,0.126309,1.082716,0.126437,-0.173539,1.593413,0.068586
128,1.066667,-0.269401,1.592386,0.069498,0.120920,1.597246,0.067336,-0.264625,1.077582,0.130051,0.126288,1.082734,0.126446,-0.173591,1.593414,0.068593
129,1.075000,-0.269436,1.592374,0.069495,0.120885,1.597248,0.067355,-0.264645,1.077568,0.130034,0.126269,1.082735,0.126451,-0.173626,1.593405,0.068596
130,1.083333,-0.269478,1.592373,0.069505,0.120843,1.597273,0.067353,-0.264650,1.077569,0.130064,0.126263,1.082763,0.126469,-0.173668,1.593410,0.068603
131,1.091667,-0.269526,1.592366,0.069508,0.120794,1.597279,0.067374,-0.264685,1.077561,0.130051,0.126228,1.082767,0.126474,-0.173716,1.593406,0.068610
132,1.100000,-0.269568,1.592346,0.069522,0.120752,1.597271,0.067367,-0.264707,1.077539,0.130045,0.126206,1.082757,0.126447,-0.173758,1.593390,0.068619
133,1.108333,-0.269606,1.592327,0.069526,0.120714,1.597283,0.067379,-0.264707,1.077522,0.130058,0.126205,1.082770,0.126469,-0.173796,1.593378,0.068625
134,1.116667,-0.269647,1.592358,0.069531,0.120673,1.597301,0.067385,-0.264766,1.077554,0.130074,0.126147,1.082789,0.126485,-0.173837,1.593406,0.068630
135,1.125000,-0.269677,1.592347,0.069537,0.120643,1.597297,0.067374,-0.264783,1.077544,0.130093,0.126130,1.082787,0.126487,-0.173867,1.593397,0.068632
136,1.133333,-0.269696,1.592330,0.069541,0.120624,1.597303,0.067383,-0.264771,1.077524,0.130073,0.126141,1.082791,0.126472,-0.173886,1.593385,0.068637
137,1.141667,-0.269720,1.592336,0.069559,0.120599,1.597321,0.067343,-0.264770,1.077539,0.130169,0.126141,1.082818,0.126510,-0.173910,1.593394,0.068641
138,1.150000,-0.269739,1.592339,0.069554,0.120581,1.597326,0.067343,-0.264787,1.077541,0.130151,0.126124,1.082821,0.126497,-0.173929,1.593397,0.068637
139,1.158333,-0.269769,1.592327,0.069531,0.120550,1.597331,0.067381,-0.264807,1.077524,0.130080,0.126105,1.082820,0.126487,-0.173959,1.593390,0.068629
140,1.166667,-0.269772,1.592303,0.069538,0.120547,1.597325,0.067406,-0.264787,1.077494,0.130038,0.126124,1.082809,0.126462,-0.173962,1.593370,0.068641
141,1.175000,-0.269782,1.592323,0.069531,0.120537,1.597328,0.067382,-0.264817,1.077519,0.130077,0.126095,1.082817,0.126485,-0.173972,1.593386,0.068629
142,1.183333,-0.269755,1.592320,0.069546,0.120565,1.597297,0.067371,-0.264822,1.077515,0.130087,0.126089,1.082785,0.126469,-0.173945,1.593376,0.068638
143,1.191667,-0.269768,1.592320,0.069542,0.120552,1.597308,0.067388,-0.264825,1.077515,0.130071,0.126087,1.082795,0.126474,-0.173958,1.593379,0.068639
144,1.200000,-0.269759,1.592345,0.069518,0.120560,1.597326,0.067392,-0.264829,1.077544,0.130091,0.126083,1.082818,0.126522,-0.173949,1.593402,0.068622
145,1.208333,-0.269721,1.592344,0.069520,0.120599,1.597325,0.067380,-0.264789,1.077538,0.130054,0.126123,1.082812,0.126471,-0.173911,1.593401,0.068621
146,1.216667,-0.269709,1.592350,0.069532,0.120611,1.597333,0.067366,-0.264771,1.077546,0.130075,0.126141,1.082822,0.126466,-0.173899,1.593408,0.068626
147,1.225000,-0.269687,1.592355,0.069507,0.120633,1.597325,0.067370,-0.264770,1.077556,0.130091,0.126142,1.082819,0.126512,-0.173877,1.593410,0.068608
148,1.233333,-0.269643,1.592321,0.069504,0.120677,1.597261,0.067369,-0.264767,1.077517,0.130047,0.126146,1.082749,0.126468,-0.173833,1.593368,0.068606
149,1.241667,-0.269606,1.592339,0.069492,0.120715,1.597263,0.067366,-0.264751,1.077533,0.130025,0.126162,1.082750,0.126455,-0.173796,1.593382,0.068596
150,1.250000,-0.269574,1.592353,0.069473,0.120747,1.597279,0.067351,-0.264718,1.077550,0.130025,0.126195,1.082768,0.126460,-0.173764,1.593397,0.068578
151,1.258333,-0.269535,1.592377,0.069493,0.120785,1.597292,0.067356,-0.264692,1.077574,0.130052,0.126221,1.082781,0.126472,-0.173725,1.593418,0.068594
152,1.266667,-0.269472,1.592411,0.069495,0.120849,1.597278,0.067310,-0.264684,1.077611,0.130080,0.126229,1.082769,0.126452,-0.173662,1.593440,0.068585
153,1.275000,-0.269451,1.592411,0.069490,0.120870,1.597279,0.067320,-0.264664,1.077610,0.130073,0.126249,1.082770,0.126459,-0.173641,1.593441,0.068584
154,1.283333,-0.269426,1.592385,0.069467,0.120895,1.597249,0.067328,-0.264647,1.077581,0.130030,0.126266,1.082739,0.126447,-0.173616,1.593413,0.068568
155,1.291667,-0.269366,1.592407,0.069466,0.120956,1.597234,0.067294,-0.264631,1.077606,0.130053,0.126283,1.082726,0.126438,-0.173555,1.593426,0.068559
156,1.300000,-0.269341,1.592409,0.069454,0.120981,1.597227,0.067294,-0.264620,1.077607,0.130037,0.126294,1.082718,0.126435,-0.173530,1.593426,0.068550
157,1.308333,-0.269321,1.592432,0.069455,0.121001,1.597245,0.067311,-0.264610,1.077629,0.130023,0.126304,1.082734,0.126435,-0.173511,1.593448,0.068555
158,1.316667,-0.269307,1.592437,0.069472,0.121015,1.597242,0.067300,-0.264603,1.077635,0.130047,0.126312,1.082731,0.126432,-0.173496,1.593451,0.068565
159,1.325000,-0.269268,1.592427,0.069458,0.121054,1.597227,0.067294,-0.264572,1.077626,0.130040,0.126343,1.082717,0.126434,-0.173457,1.593440,0.068553
160,1.333333,-0.269258,1.592428,0.069456,0.121065,1.597212,0.067287,-0.264580,1.077626,0.130035,0.126334,1.082702,0.126424,-0.173447,1.593437,0.068550
161,1.341667,-0.269251,1.592438,0.069465,0.121071,1.597228,0.067300,-0.264568,1.077635,0.130036,0.126346,1.082717,0.126429,-0.173441,1.593449,0.068559
162,1.350000,-0.269238,1.592439,0.069465,0.121084,1.597215,0.067280,-0.264570,1.077638,0.130055,0.126345,1.082706,0.126428,-0.173428,1.593446,0.068554
163,1.358333,-0.269226,1.592443,0.069493,0.121096,1.597201,0.067292,-0.264579,1.077639,0.130054,0.126336,1.082689,0.126411,-0.173415,1.593446,0.068579
164,1.366667,-0.269234,1.592440,0.069483,0.121089,1.597202,0.067307,-0.264585,1.077636,0.130051,0.126330,1.082690,0.126431,-0.173423,1.593444,0.068575
165,1.375000,-0.269240,1.592456,0.069498,0.121082,1.597220,0.067318,-0.264589,1.077653,0.130069,0.126326,1.082709,0.126445,-0.173430,1.593460,0.068589
166,1.383333,-0.269258,1.592429,0.069504,0.121064,1.597218,0.067317,-0.264573,1.077623,0.130051,0.126342,1.082704,0.126421,-0.173447,1.593439,0.068593
167,1.391667,-0.269272,1.592439,0.069523,0.121049,1.597228,0.067331,-0.264585,1.077634,0.130074,0.126329,1.082715,0.126440,-0.173462,1.593449,0.068611
168,1.400000,-0.269305,1.592411,0.069514,0.121017,1.597224,0.067346,-0.264590,1.077605,0.130061,0.126324,1.082711,0.126450,-0.173494,1.593427,0.068608
169,1.408333,-0.269320,1.592406,0.069526,0.121001,1.597224,0.067363,-0.264601,1.077596,0.130035,0.126313,1.082706,0.126428,-0.173510,1.593423,0.068621
170,1.416667,-0.269352,1.592386,0.069516,0.120969,1.597214,0.067373,-0.264621,1.077578,0.130044,0.126293,1.082699,0.126457,-0.173542,1.593405,0.068616
171,1.425000,-0.269387,1.592398,0.069534,0.120935,1.597239,0.067370,-0.264636,1.077590,0.130059,0.126278,1.082723,0.126452,-0.173576,1.593421,0.068629
172,1.433333,-0.269412,1.592400,0.069539,0.120909,1.597255,0.067390,-0.264646,1.077592,0.130058,0.126268,1.082739,0.126467,-0.173602,1.593426,0.068637
173,1.441667,-0.269454,1.592378,0.069545,0.120866,1.597272,0.067412,-0.264639,1.077570,0.130059,0.126274,1.082756,0.126482,-0.173644,1.593414,0.068648
174,1.450000,-0.269490,1.592381,0.069541,0.120831,1.597268,0.067384,-0.264680,1.077577,0.130094,0.126233,1.082756,0.126494,-0.173680,1.593415,0.068637
175,1.458333,-0.269520,1.592377,0.069547,0.120801,1.597267,0.067395,-0.264706,1.077571,0.130089,0.126208,1.082754,0.126493,-0.173710,1.593412,0.068645
176,1.466667,-0.269572,1.592338,0.069548,0.120748,1.597266,0.067416,-0.264711,1.077532,0.130079,0.126202,1.082753,0.126504,-0.173762,1.593382,0.068651
177,1.475000,-0.269598,1.592332,0.069548,0.120723,1.597263,0.067407,-0.264732,1.077526,0.130076,0.126181,1.082749,0.126492,-0.173787,1.593377,0.068648
178,1.483333,-0.269618,1.592350,0.069544,0.120702,1.597286,0.067408,-0.264746,1.077548,0.130108,0.126167,1.082776,0.126529,-0.173808,1.593396,0.068645
179,1.491667,-0.269656,1.592374,0.069571,0.120664,1.597331,0.067385,-0.264748,1.077576,0.130168,0.126164,1.082825,0.126539,-0.173846,1.593425,0.068661
180,1.500000,-0.269690,1.592306,0.069530,0.120630,1.597288,0.067419,-0.264761,1.077502,0.130080,0.126152,1.082778,0.126526,-0.173880,1.593363,0.068638
181,1.508333,-0.269697,1.592317,0.069524,0.120623,1.597288,0.067391,-0.264779,1.077516,0.130092,0.126134,1.082780,0.126515,-0.173887,1.593372,0.068627
182,1.516667,-0.269721,1.592318,0.069533,0.120599,1.597294,0.067403,-0.264796,1.077515,0.130089,0.126116,1.082784,0.126516,-0.173911,1.593374,0.068636
183,1.525000,-0.269734,1.592327,0.069521,0.120586,1.597307,0.067392,-0.264805,1.077526,0.130093,0.126107,1.082799,0.126521,-0.173924,1.593384,0.068625
184,1.533333,-0.269744,1.592323,0.069507,0.120575,1.597325,0.067376,-0.264786,1.077523,0.130078,0.126126,1.082817,0.126503,-0.173934,1.593386,0.068610
185,1.541667,-0.269732,1.592317,0.069515,0.120588,1.597311,0.067380,-0.264784,1.077515,0.130069,0.126128,1.082801,0.126491,-0.173922,1.593378,0.068617
186,1.550000,-0.269736,1.592305,0.069505,0.120584,1.597293,0.067356,-0.264792,1.077504,0.130076,0.126120,1.082785,0.126484,-0.173926,1.593364,0.068603
187,1.558333,-0.269726,1.592315,0.069489,0.120594,1.597302,0.067372,-0.264790,1.077515,0.130058,0.126123,1.082794,0.126498,-0.173916,1.593374,0.068595
188,1.566667,-0.269713,1.592317,0.069487,0.120606,1.597311,0.067313,-0.264758,1.077525,0.130130,0.126153,1.082811,0.126513,-0.173903,1.593377,0.068579
189,1.575000,-0.269674,1.592341,0.069489,0.120645,1.597322,0.067325,-0.264739,1.077545,0.130101,0.126173,1.082818,0.126494,-0.173864,1.593398,0.068584
190,1.583333,-0.269672,1.592315,0.069459,0.120648,1.597294,0.067353,-0.264747,1.077513,0.130019,0.126165,1.082785,0.126471,-0.173862,1.593372,0.068568
191,1.591667,-0.269645,1.592312,0.069454,0.120675,1.597282,0.067358,-0.264733,1.077509,0.130013,0.126179,1.082773,0.126474,-0.173835,1.593366,0.068566
192,1.600000,-0.269619,1.592345,0.069452,0.120701,1.597283,0.067321,-0.264745,1.077546,0.130047,0.126168,1.082777,0.126473,-0.173809,1.593391,0.068555
193,1.608333,-0.269569,1.592355,0.069442,0.120751,1.597273,0.067318,-0.264723,1.077557,0.130040,0.126190,1.082767,0.126474,-0.173759,1.593397,0.068547
194,1.616667,-0.269556,1.592325,0.069430,0.120765,1.597255,0.067321,-0.264696,1.077523,0.129998,0.126217,1.082745,0.126446,-0.173745,1.593370,0.068538
195,1.625000,-0.269506,1.592349,0.069441,0.120815,1.597259,0.067332,-0.264673,1.077548,0.130018,0.126241,1.082750,0.126466,-0.173695,1.593389,0.068549
196,1.633333,-0.269466,1.592382,0.069450,0.120855,1.597250,0.067307,-0.264683,1.077581,0.130028,0.126230,1.082741,0.126442,-0.173656,1.593412,0.068550
197,1.641667,-0.269443,1.592365,0.069417,0.120878,1.597239,0.067307,-0.264657,1.077565,0.130004,0.126257,1.082732,0.126451,-0.173633,1.593396,0.068525
198,1.650000,-0.269402,1.592376,0.069429,0.120919,1.597236,0.067304,-0.264632,1.077573,0.129995,0.126282,1.082726,0.126427,-0.173592,1.593403,0.068533
199,1.658333,-0.269370,1.592404,0.069442,0.120952,1.597248,0.067300,-0.264618,1.077605,0.130042,0.126296,1.082741,0.126457,-0.173559,1.593427,0.068542
200,1.666667,-0.269343,1.592411,0.069454,0.120979,1.597231,0.067302,-0.264620,1.077609,0.130031,0.126294,1.082722,0.126436,-0.173532,1.593428,0.068552
201,1.675000,-0.269325,1.592391,0.069444,0.120996,1.597220,0.067315,-0.264595,1.077589,0.130018,0.126319,1.082711,0.126446,-0.173515,1.593411,0.068547
202,1.683333,-0.269297,1.592386,0.069448,0.121025,1.597202,0.067310,-0.264583,1.077583,0.130017,0.126332,1.082692,0.126436,-0.173486,1.593403,0.068549
203,1.691667,-0.269275,1.592382,0.069450,0.121047,1.597184,0.067314,-0.264580,1.077578,0.130006,0.126335,1.082672,0.126427,-0.173464,1.593396,0.068552
204,1.700000,-0.269280,1.592404,0.069456,0.121042,1.597205,0.067322,-0.264586,1.077603,0.130040,0.126328,1.082696,0.126463,-0.173470,1.593417,0.068558
205,1.708333,-0.269258,1.592437,0.069474,0.121065,1.597224,0.067319,-0.264578,1.077635,0.130059,0.126336,1.082715,0.126461,-0.173447,1.593446,0.068571
206,1.716667,-0.269240,1.592445,0.069512,0.121082,1.597237,0.067279,-0.264542,1.077649,0.130148,0.126372,1.082734,0.126472,-0.173430,1.593456,0.068590
207,1.725000,-0.269251,1.592406,0.069491,0.121071,1.597201,0.067349,-0.264565,1.077597,0.130012,0.126350,1.082685,0.126427,-0.173441,1.593417,0.068591
208,1.733333,-0.269275,1.592384,0.069500,0.121047,1.597177,0.067335,-0.264588,1.077578,0.130042,0.126327,1.082663,0.126434,-0.173464,1.593395,0.068595
209,1.741667,-0.269274,1.592414,0.069521,0.121048,1.597202,0.067333,-0.264589,1.077610,0.130086,0.126325,1.082691,0.126455,-0.173464,1.593424,0.068610
210,1.750000,-0.269290,1.592399,0.069533,0.121032,1.597201,0.067366,-0.264590,1.077590,0.130058,0.126324,1.082685,0.126448,-0.173479,1.593412,0.068627
211,1.758333,-0.269310,1.592399,0.069535,0.121012,1.597207,0.067366,-0.264601,1.077591,0.130063,0.126314,1.082692,0.126450,-0.173499,1.593414,0.068629
212,1.766667,-0.269328,1.592413,0.069543,0.120994,1.597233,0.067378,-0.264604,1.077607,0.130094,0.126310,1.082721,0.126485,-0.173518,1.593430,0.068638
213,1.775000,-0.269355,1.592395,0.069547,0.120966,1.597224,0.067367,-0.264618,1.077589,0.130090,0.126296,1.082711,0.126467,-0.173545,1.593415,0.068638
214,1.783333,-0.269386,1.592348,0.069564,0.120936,1.597192,0.067408,-0.264632,1.077537,0.130064,0.126282,1.082674,0.126465,-0.173575,1.593372,0.068661
215,1.791667,-0.269409,1.592367,0.069568,0.120912,1.597217,0.067408,-0.264648,1.077559,0.130090,0.126266,1.082701,0.126488,-0.173599,1.593392,0.068663
216,1.800000,-0.269429,1.592372,0.069567,0.120892,1.597237,0.067419,-0.264650,1.077562,0.130070,0.126264,1.082719,0.126480,-0.173618,1.593401,0.068666
217,1.808333,-0.269453,1.592385,0.069592,0.120868,1.597266,0.067384,-0.264643,1.077585,0.130178,0.126270,1.082758,0.126527,-0.173643,1.593418,0.068676
218,1.816667,-0.269489,1.592352,0.069601,0.120831,1.597257,0.067409,-0.264650,1.077548,0.130152,0.126263,1.082745,0.126517,-0.173679,1.593390,0.068689
219,1.825000,-0.269542,1.592346,0.069571,0.120779,1.597247,0.067407,-0.264713,1.077541,0.130112,0.126201,1.082734,0.126505,-0.173732,1.593384,0.068666
220,1.833333,-0.269562,1.592331,0.069573,0.120759,1.597248,0.067425,-0.264715,1.077524,0.130098,0.126198,1.082733,0.126507,-0.173752,1.593373,0.068671
221,1.841667,-0.269601,1.592328,0.069558,0.120720,1.597261,0.067434,-0.264735,1.077520,0.130068,0.126178,1.082745,0.126501,-0.173790,1.593374,0.068663
222,1.850000,-0.269615,1.592332,0.069583,0.120705,1.597293,0.067392,-0.264701,1.077535,0.130185,0.126211,1.082788,0.126550,-0.173805,1.593385,0.068671
223,1.858333,-0.269647,1.592323,0.069567,0.120673,1.597280,0.067412,-0.264744,1.077518,0.130107,0.126169,1.082768,0.126509,-0.173837,1.593374,0.068664
224,1.866667,-0.269656,1.592306,0.069551,0.120663,1.597272,0.067402,-0.264742,1.077500,0.130085,0.126170,1.082760,0.126493,-0.173846,1.593359,0.068649
225,1.875000,-0.269660,1.592324,0.069564,0.120659,1.597286,0.067377,-0.264745,1.077527,0.130163,0.126167,1.082781,0.126533,-0.173850,1.593377,0.068653
226,1.883333,-0.269677,1.592313,0.069542,0.120642,1.597291,0.067356,-0.264742,1.077516,0.130147,0.126170,1.082787,0.126518,-0.173867,1.593370,0.068631
227,1.891667,-0.269698,1.592320,0.069538,0.120621,1.597307,0.067359,-0.264751,1.077523,0.130145,0.126160,1.082804,0.126523,-0.173888,1.593379,0.068629
228,1.900000,-0.269694,1.592320,0.069533,0.120626,1.597296,0.067342,-0.264760,1.077522,0.130127,0.126152,1.082791,0.126493,-0.173884,1.593376,0.068621
229,1.908333,-0.269700,1.592306,0.069480,0.120620,1.597281,0.067362,-0.264780,1.077503,0.130029,0.126133,1.082770,0.126469,-0.173890,1.593362,0.068586
230,1.916667,-0.269700,1.592308,0.069488,0.120620,1.597289,0.067366,-0.264772,1.077507,0.130052,0.126141,1.082780,0.126486,-0.173890,1.593365,0.068593
231,1.925000,-0.269685,1.592320,0.069466,0.120635,1.597284,0.067347,-0.264780,1.077519,0.130039,0.126133,1.082775,0.126477,-0.173875,1.593373,0.068572
232,1.933333,-0.269655,1.592332,0.069487,0.120664,1.597294,0.067299,-0.264741,1.077536,0.130105,0.126171,1.082791,0.126474,-0.173845,1.593384,0.068576
233,1.941667,-0.269658,1.592300,0.069451,0.120662,1.597268,0.067347,-0.264748,1.077496,0.130000,0.126164,1.082757,0.126452,-0.173848,1.593354,0.068561
234,1.950000,-0.269627,1.592322,0.069464,0.120693,1.597286,0.067298,-0.264714,1.077529,0.130101,0.126198,1.082785,0.126492,-0.173817,1.593375,0.068558
235,1.958333,-0.269629,1.592311,0.069421,0.120692,1.597273,0.067338,-0.264730,1.077512,0.130011,0.126183,1.082766,0.126484,-0.173818,1.593363,0.068536
236,1.966667,-0.269582,1.592313,0.069427,0.120739,1.597249,0.067312,-0.264713,1.077511,0.129992,0.126200,1.082740,0.126434,-0.173771,1.593359,0.068534
237,1.975000,-0.269549,1.592326,0.069413,0.120772,1.597252,0.067308,-0.264695,1.077524,0.129982,0.126219,1.082743,0.126435,-0.173739,1.593370,0.068522
238,1.983333,-0.269529,1.592343,0.069403,0.120792,1.597264,0.067307,-0.264683,1.077543,0.129992,0.126231,1.082757,0.126453,-0.173719,1.593385,0.068515
239,1.991667,-0.269510,1.592354,0.069426,0.120810,1.597254,0.067294,-0.264686,1.077554,0.130008,0.126227,1.082746,0.126433,-0.173700,1.593391,0.068528
240,2.000000,-0.269490,1.592345,0.069406,0.120830,1.597247,0.067289,-0.264665,1.077546,0.130004,0.126248,1.082741,0.126443,-0.173680,1.593383,0.068512
241,2.008333,-0.269467,1.592345,0.069415,0.120854,1.597229,0.067308,-0.264668,1.077541,0.129975,0.126245,1.082718,0.126425,-0.173657,1.593378,0.068524
242,2.016667,-0.269425,1.592360,0.069431,0.120896,1.597211,0.067286,-0.264663,1.077559,0.130019,0.126251,1.082703,0.126430,-0.173615,1.593385,0.068530
243,2.025000,-0.269401,1.592360,0.069407,0.120921,1.597219,0.067297,-0.264635,1.077561,0.130003,0.126279,1.082712,0.126450,-0.173590,1.593388,0.068515
244,2.033333,-0.269373,1.592395,0.069460,0.120948,1.597232,0.067246,-0.264619,1.077603,0.130114,0.126294,1.082732,0.126456,-0.173563,1.593417,0.068543
245,2.041667,-0.269355,1.592387,0.069437,0.120966,1.597217,0.067287,-0.264622,1.077586,0.130023,0.126292,1.082708,0.126431,-0.173545,1.593407,0.068535
246,2.050000,-0.269343,1.592371,0.069447,0.120979,1.597201,0.067310,-0.264609,1.077567,0.130011,0.126305,1.082690,0.126430,-0.173532,1.593391,0.068549
247,2.058333,-0.269336,1.592374,0.069458,0.120985,1.597190,0.067293,-0.264617,1.077570,0.130023,0.126297,1.082679,0.126414,-0.173526,1.593391,0.068553
248,2.066667,-0.269317,1.592390,0.069486,0.121005,1.597191,0.067307,-0.264617,1.077586,0.130046,0.126297,1.082679,0.126424,-0.173506,1.593403,0.068577
249,2.075000,-0.269326,1.592393,0.069493,0.120996,1.597213,0.067320,-0.264602,1.077591,0.130069,0.126312,1.082703,0.126453,-0.173515,1.593411,0.068585
250,2.083333,-0.269308,1.592401,0.069495,0.121013,1.597214,0.067326,-0.264594,1.077597,0.130053,0.126321,1.082702,0.126441,-0.173498,1.593417,0.068588
251,2.091667,-0.269322,1.592399,0.069510,0.121000,1.597207,0.067328,-0.264612,1.077595,0.130073,0.126302,1.082695,0.126449,-0.173512,1.593413,0.068600
252,2.100000,-0.269328,1.592390,0.069525,0.120994,1.597202,0.067347,-0.264614,1.077585,0.130072,0.126300,1.082689,0.126450,-0.173518,1.593406,0.068617
253,2.108333,-0.269346,1.592378,0.069525,0.120976,1.597206,0.067355,-0.264612,1.077572,0.130066,0.126302,1.082692,0.126453,-0.173536,1.593398,0.068618
254,2.116667,-0.269355,1.592378,0.069535,0.120966,1.597198,0.067377,-0.264633,1.077569,0.130050,0.126281,1.082682,0.126449,-0.173545,1.593396,0.068631
255,2.125000,-0.269367,1.592386,0.069542,0.120954,1.597211,0.067376,-0.264638,1.077577,0.130064,0.126276,1.082695,0.126454,-0.173557,1.593405,0.068636
256,2.133333,-0.269397,1.592379,0.069549,0.120924,1.597236,0.067396,-0.264627,1.077570,0.130069,0.126287,1.082720,0.126474,-0.173587,1.593406,0.068647
257,2.141667,-0.269408,1.592355,0.069566,0.120913,1.597216,0.067395,-0.264631,1.077545,0.130072,0.126283,1.082698,0.126457,-0.173598,1.593383,0.068659
258,2.150000,-0.269437,1.592363,0.069569,0.120884,1.597228,0.067404,-0.264654,1.077554,0.130084,0.126259,1.082711,0.126476,-0.173626,1.593391,0.068664
259,2.158333,-0.269471,1.592354,0.069568,0.120850,1.597251,0.067430,-0.264650,1.077546,0.130086,0.126263,1.082735,0.126505,-0.173661,1.593390,0.068670
260,2.166667,-0.269493,1.592365,0.069587,0.120828,1.597247,0.067430,-0.264689,1.077556,0.130098,0.126224,1.082730,0.126499,-0.173682,1.593398,0.068683
261,2.175000,-0.269505,1.592369,0.069580,0.120816,1.597250,0.067390,-0.264697,1.077563,0.130117,0.126216,1.082737,0.126484,-0.173695,1.593402,0.068668
262,2.183333,-0.269537,1.592346,0.069571,0.120783,1.597255,0.067399,-0.264696,1.077541,0.130108,0.126217,1.082742,0.126493,-0.173727,1.593386,0.068664
263,2.191667,-0.269578,1.592331,0.069556,0.120742,1.597266,0.067411,-0.264706,1.077528,0.130111,0.126207,1.082755,0.126523,-0.173768,1.593377,0.068656
264,2.200000,-0.269601,1.592338,0.069586,0.120718,1.597277,0.067365,-0.264711,1.077539,0.130181,0.126201,1.082772,0.126517,-0.173791,1.593385,0.068667
265,2.208333,-0.269612,1.592323,0.069549,0.120708,1.597269,0.067406,-0.264725,1.077518,0.130089,0.126188,1.082757,0.126502,-0.173802,1.593372,0.068649
266,2.216667,-0.269615,1.592364,0.069568,0.120705,1.597300,0.067353,-0.264731,1.077567,0.130171,0.126181,1.082795,0.126513,-0.173805,1.593410,0.068650
267,2.225000,-0.269643,1.592355,0.069552,0.120677,1.597296,0.067346,-0.264753,1.077564,0.130214,0.126160,1.082798,0.126566,-0.173833,1.593402,0.068637
268,2.233333,-0.269665,1.592331,0.069526,0.120655,1.597271,0.067359,-0.264783,1.077530,0.130101,0.126129,1.082763,0.126491,-0.173855,1.593378,0.068620
269,2.241667,-0.269678,1.592327,0.069499,0.120643,1.597271,0.067354,-0.264793,1.077527,0.130083,0.126120,1.082764,0.126495,-0.173868,1.593375,0.068598
270,2.250000,-0.269682,1.592329,0.069499,0.120638,1.597289,0.067347,-0.264776,1.077529,0.130081,0.126137,1.082782,0.126486,-0.173872,1.593381,0.068597
271,2.258333,-0.269690,1.592360,0.069501,0.120629,1.597330,0.067289,-0.264761,1.077570,0.130164,0.126151,1.082833,0.126510,-0.173880,1.593415,0.068584
272,2.266667,-0.269699,1.592349,0.069461,0.120621,1.597309,0.067323,-0.264795,1.077549,0.130041,0.126118,1.082802,0.126460,-0.173889,1.593401,0.068562
273,2.275000,-0.269697,1.592333,0.069444,0.120623,1.597287,0.067306,-0.264802,1.077534,0.130033,0.126111,1.082780,0.126452,-0.173887,1.593383,0.068546
274,2.283333,-0.269676,1.592328,0.069442,0.120644,1.597273,0.067303,-0.264791,1.077529,0.130034,0.126121,1.082767,0.126452,-0.173866,1.593376,0.068543
275,2.291667,-0.269682,1.592314,0.069421,0.120638,1.597275,0.067309,-0.264781,1.077513,0.129992,0.126132,1.082767,0.126436,-0.173872,1.593366,0.068529
276,2.300000,-0.269650,1.592347,0.069420,0.120671,1.597286,0.067276,-0.264773,1.077548,0.130007,0.126140,1.082779,0.126420,-0.173840,1.593394,0.068520
277,2.308333,-0.269645,1.592362,0.069385,0.120675,1.597310,0.067262,-0.264759,1.077566,0.130000,0.126154,1.082807,0.126434,-0.173835,1.593411,0.068490
278,2.316667,-0.269627,1.592318,0.069387,0.120693,1.597270,0.067286,-0.264740,1.077518,0.129975,0.126173,1.082763,0.126432,-0.173817,1.593368,0.068497
279,2.325000,-0.269599,1.592367,0.069419,0.120721,1.597291,0.067227,-0.264734,1.077579,0.130110,0.126178,1.082795,0.126475,-0.173789,1.593410,0.068507
280,2.333333,-0.269592,1.592340,0.069380,0.120728,1.597269,0.067273,-0.264734,1.077541,0.129976,0.126180,1.082763,0.126426,-0.173782,1.593385,0.068489
281,2.341667,-0.269562,1.592354,0.069379,0.120758,1.597266,0.067260,-0.264724,1.077557,0.129984,0.126189,1.082761,0.126421,-0.173752,1.593395,0.068485
282,2.350000,-0.269525,1.592376,0.069382,0.120796,1.597268,0.067244,-0.264710,1.077581,0.130010,0.126203,1.082765,0.126429,-0.173714,1.593411,0.068483
283,2.358333,-0.269505,1.592363,0.069399,0.120816,1.597254,0.067272,-0.264695,1.077562,0.129973,0.126219,1.082745,0.126402,-0.173695,1.593398,0.068503
284,2.366667,-0.269481,1.592398,0.069390,0.120840,1.597272,0.067260,-0.264691,1.077601,0.130009,0.126222,1.082768,0.126436,-0.173670,1.593428,0.068493
285,2.375000,-0.269453,1.592401,0.069400,0.120869,1.597250,0.067241,-0.264691,1.077607,0.130038,0.126223,1.082748,0.126436,-0.173642,1.593426,0.068496
286,2.383333,-0.269442,1.592374,0.069390,0.120880,1.597240,0.067282,-0.264667,1.077575,0.129989,0.126247,1.082733,0.126438,-0.173631,1.593403,0.068498
287,2.391667,-0.269417,1.592374,0.069407,0.120905,1.597227,0.067263,-0.264654,1.077573,0.129987,0.126260,1.082718,0.126400,-0.173606,1.593400,0.068507
288,2.400000,-0.269405,1.592387,0.069416,0.120917,1.597238,0.067261,-0.264643,1.077587,0.130005,0.126271,1.082730,0.126407,-0.173594,1.593413,0.068513
289,2.408333,-0.269381,1.592419,0.069432,0.120940,1.597251,0.067274,-0.264643,1.077620,0.130031,0.126271,1.082745,0.126430,-0.173571,1.593440,0.068528
290,2.416667,-0.269376,1.592396,0.069447,0.120946,1.597232,0.067303,-0.264633,1.077594,0.130029,0.126281,1.082723,0.126442,-0.173565,1.593417,0.068546
291,2.425000,-0.269360,1.592392,0.069461,0.120961,1.597228,0.067290,-0.264615,1.077590,0.130039,0.126299,1.082718,0.126425,-0.173550,1.593413,0.068554
292,2.433333,-0.269367,1.592400,0.069469,0.120955,1.597236,0.067312,-0.264623,1.077598,0.130040,0.126291,1.082726,0.126440,-0.173556,1.593422,0.068565
293,2.441667,-0.269348,1.592431,0.069480,0.120974,1.597244,0.067306,-0.264631,1.077630,0.130074,0.126283,1.082736,0.126457,-0.173537,1.593447,0.068573
294,2.450000,-0.269359,1.592393,0.069500,0.120963,1.597221,0.067347,-0.264626,1.077585,0.130029,0.126288,1.082706,0.126433,-0.173548,1.593413,0.068597
295,2.458333,-0.269360,1.592396,0.069525,0.120962,1.597223,0.067346,-0.264625,1.077589,0.130058,0.126289,1.082709,0.126435,-0.173549,1.593416,0.068616
296,2.466667,-0.269384,1.592386,0.069533,0.120937,1.597228,0.067353,-0.264629,1.077577,0.130048,0.126285,1.082712,0.126425,-0.173574,1.593409,0.068624
297,2.475000,-0.269382,1.592394,0.069536,0.120939,1.597236,0.067370,-0.264630,1.077584,0.130043,0.126284,1.082718,0.126434,-0.173572,1.593417,0.068630
298,2.483333,-0.269377,1.592416,0.069548,0.120945,1.597250,0.067382,-0.264635,1.077610,0.130093,0.126279,1.082736,0.126484,-0.173566,1.593437,0.068642
299,2.491667,-0.269398,1.592409,0.069544,0.120923,1.597246,0.067395,-0.264655,1.077605,0.130099,0.126259,1.082734,0.126508,-0.173588,1.593431,0.068642
300,2.500000,-0.269425,1.592368,0.069540,0.120897,1.597223,0.067387,-0.264658,1.077560,0.130058,0.126256,1.082707,0.126462,-0.173614,1.593395,0.068637
301,2.508333,-0.269443,1.592400,0.069563,0.120878,1.597251,0.067385,-0.264677,1.077594,0.130100,0.126237,1.082737,0.126479,-0.173633,1.593425,0.068654
302,2.516667,-0.269464,1.592397,0.069570,0.120857,1.597263,0.067406,-0.264680,1.077589,0.130097,0.126233,1.082748,0.126490,-0.173654,1.593426,0.068665
303,2.525000,-0.269506,1.592378,0.069573,0.120815,1.597269,0.067423,-0.264692,1.077566,0.130061,0.126222,1.082750,0.126468,-0.173696,1.593413,0.068671
304,2.533333,-0.269494,1.592395,0.069562,0.120827,1.597275,0.067405,-0.264693,1.077588,0.130092,0.126221,1.082761,0.126492,-0.173684,1.593428,0.068658
305,2.541667,-0.269528,1.592363,0.069576,0.120793,1.597269,0.067409,-0.264692,1.077555,0.130096,0.126221,1.082754,0.126486,-0.173718,1.593402,0.068670
306,2.550000,-0.269539,1.592356,0.069563,0.120782,1.597260,0.067396,-0.264704,1.077549,0.130086,0.126209,1.082746,0.126476,-0.173728,1.593395,0.068657
307,2.558333,-0.269563,1.592362,0.069578,0.120757,1.597270,0.067403,-0.264723,1.077553,0.130081,0.126190,1.082753,0.126463,-0.173753,1.593401,0.068670
308,2.566667,-0.269578,1.592364,0.069553,0.120743,1.597279,0.067412,-0.264733,1.077556,0.130069,0.126180,1.082764,0.126485,-0.173767,1.593405,0.068653
309,2.575000,-0.269596,1.592381,0.069531,0.120725,1.597299,0.067386,-0.264747,1.077576,0.130075,0.126166,1.082787,0.126488,-0.173786,1.593423,0.068630
310,2.583333,-0.269616,1.592360,0.069540,0.120704,1.597299,0.067401,-0.264739,1.077552,0.130058,0.126174,1.082785,0.126475,-0.173806,1.593407,0.068641
311,2.591667,-0.269624,1.592335,0.069525,0.120697,1.597292,0.067403,-0.264726,1.077524,0.130016,0.126187,1.082775,0.126451,-0.173813,1.593386,0.068630
312,2.600000,-0.269643,1.592354,0.069510,0.120678,1.597291,0.067372,-0.264769,1.077549,0.130050,0.126144,1.082778,0.126469,-0.173832,1.593400,0.068612
313,2.608333,-0.269641,1.592344,0.069494,0.120680,1.597287,0.067359,-0.264760,1.077540,0.130044,0.126153,1.082776,0.126466,-0.173831,1.593392,0.068596
314,2.616667,-0.269640,1.592336,0.069469,0.120680,1.597288,0.067327,-0.264746,1.077532,0.130017,0.126167,1.082777,0.126432,-0.173830,1.593386,0.068569
315,2.625000,-0.269657,1.592326,0.069435,0.120664,1.597285,0.067329,-0.264759,1.077523,0.129989,0.126153,1.082775,0.126440,-0.173846,1.593378,0.068544
316,2.633333,-0.269637,1.592374,0.069474,0.120683,1.597319,0.067271,-0.264742,1.077579,0.130100,0.126170,1.082817,0.126454,-0.173827,1.593422,0.068559
317,2.641667,-0.269644,1.592323,0.069421,0.120676,1.597271,0.067302,-0.264758,1.077519,0.129972,0.126155,1.082760,0.126410,-0.173834,1.593372,0.068527
318,2.650000,-0.269640,1.592321,0.069406,0.120680,1.597280,0.067309,-0.264745,1.077519,0.129968,0.126168,1.082770,0.126428,-0.173830,1.593373,0.068517
319,2.658333,-0.269626,1.592371,0.069393,0.120694,1.597305,0.067285,-0.264762,1.077572,0.129981,0.126151,1.082798,0.126429,-0.173816,1.593417,0.068501
320,2.666667,-0.269622,1.592360,0.069397,0.120698,1.597297,0.067257,-0.264748,1.077560,0.129979,0.126165,1.082790,0.126397,-0.173812,1.593406,0.068497
321,2.675000,-0.269609,1.592368,0.069388,0.120711,1.597307,0.067272,-0.264735,1.077568,0.129972,0.126178,1.082800,0.126413,-0.173799,1.593415,0.068494
322,2.683333,-0.269598,1.592372,0.069399,0.120722,1.597300,0.067265,-0.264736,1.077571,0.129976,0.126177,1.082792,0.126398,-0.173788,1.593416,0.068501
323,2.691667,-0.269569,1.592366,0.069397,0.120751,1.597293,0.067258,-0.264708,1.077568,0.129999,0.126205,1.082788,0.126416,-0.173759,1.593410,0.068498
324,2.700000,-0.269563,1.592352,0.069367,0.120757,1.597271,0.067261,-0.264719,1.077553,0.129960,0.126195,1.082764,0.126412,-0.173753,1.593394,0.068476
325,2.708333,-0.269548,1.592362,0.069377,0.120773,1.597282,0.067257,-0.264701,1.077564,0.129974,0.126213,1.082775,0.126411,-0.173738,1.593404,0.068483
326,2.716667,-0.269526,1.592366,0.069395,0.120795,1.597270,0.067255,-0.264695,1.077565,0.129974,0.126218,1.082761,0.126391,-0.173716,1.593404,0.068495
327,2.725000,-0.269510,1.592359,0.069384,0.120811,1.597268,0.067262,-0.264676,1.077558,0.129963,0.126237,1.082759,0.126397,-0.173700,1.593398,0.068489
328,2.733333,-0.269488,1.592370,0.069382,0.120833,1.597257,0.067266,-0.264683,1.077569,0.129966,0.126230,1.082749,0.126408,-0.173678,1.593404,0.068489
329,2.741667,-0.269466,1.592371,0.069401,0.120856,1.597247,0.067272,-0.264674,1.077570,0.129984,0.126240,1.082738,0.126411,-0.173655,1.593402,0.068504
330,2.750000,-0.269454,1.592412,0.069420,0.120868,1.597265,0.067239,-0.264684,1.077615,0.130037,0.126230,1.082760,0.126414,-0.173643,1.593438,0.068510
331,2.758333,-0.269457,1.592396,0.069419,0.120864,1.597263,0.067284,-0.264676,1.077595,0.129994,0.126237,1.082754,0.126417,-0.173647,1.593425,0.068521
332,2.766667,-0.269413,1.592420,0.069462,0.120908,1.597259,0.067230,-0.264654,1.077627,0.130114,0.126260,1.082758,0.126439,-0.173602,1.593442,0.068540
333,2.775000,-0.269419,1.592409,0.069425,0.120903,1.597251,0.067283,-0.264669,1.077610,0.130031,0.126245,1.082745,0.126446,-0.173608,1.593432,0.068525
334,2.783333,-0.269416,1.592408,0.069451,0.120905,1.597249,0.067282,-0.264663,1.077607,0.130038,0.126250,1.082741,0.126426,-0.173606,1.593431,0.068544
335,2.791667,-0.269405,1.592386,0.069486,0.120916,1.597232,0.067321,-0.264648,1.077579,0.130020,0.126266,1.082718,0.126412,-0.173595,1.593410,0.068581
336,2.800000,-0.269406,1.592387,0.069483,0.120915,1.597254,0.067340,-0.264623,1.077580,0.130020,0.126290,1.082740,0.126433,-0.173596,1.593416,0.068583
337,2.808333,-0.269397,1.592392,0.069486,0.120924,1.597243,0.067342,-0.264637,1.077587,0.130031,0.126277,1.082730,0.126445,-0.173587,1.593417,0.068586
338,2.816667,-0.269408,1.592394,0.069499,0.120913,1.597242,0.067360,-0.264653,1.077589,0.130044,0.126261,1.082729,0.126462,-0.173598,1.593419,0.068600
339,2.825000,-0.269408,1.592383,0.069530,0.120914,1.597228,0.067374,-0.264653,1.077573,0.130032,0.126261,1.082710,0.126433,-0.173597,1.593407,0.068627
340,2.833333,-0.269406,1.592379,0.069531,0.120915,1.597216,0.067378,-0.264663,1.077567,0.130022,0.126251,1.082696,0.126426,-0.173596,1.593401,0.068628
341,2.841667,-0.269417,1.592400,0.069526,0.120904,1.597247,0.067399,-0.264664,1.077590,0.130035,0.126250,1.082730,0.126466,-0.173607,1.593424,0.068630
342,2.850000,-0.269441,1.592393,0.069552,0.120880,1.597251,0.067403,-0.264671,1.077584,0.130064,0.126243,1.082734,0.126472,-0.173631,1.593420,0.068650
343,2.858333,-0.269434,1.592411,0.069555,0.120887,1.597245,0.067383,-0.264691,1.077603,0.130079,0.126223,1.082730,0.126464,-0.173624,1.593432,0.068648
344,2.866667,-0.269465,1.592387,0.069579,0.120856,1.597269,0.067374,-0.264654,1.077584,0.130142,0.126259,1.082758,0.126493,-0.173655,1.593420,0.068664
345,2.875000,-0.269472,1.592394,0.069565,0.120849,1.597257,0.067396,-0.264691,1.077588,0.130106,0.126222,1.082744,0.126494,-0.173661,1.593422,0.068658
346,2.883333,-0.269503,1.592369,0.069544,0.120818,1.597264,0.067415,-0.264686,1.077562,0.130072,0.126227,1.082749,0.126501,-0.173692,1.593405,0.068647
347,2.891667,-0.269504,1.592388,0.069576,0.120816,1.597284,0.067355,-0.264672,1.077588,0.130159,0.126241,1.082776,0.126496,-0.173694,1.593424,0.068657
348,2.900000,-0.269527,1.592376,0.069547,0.120794,1.597267,0.067385,-0.264710,1.077570,0.130081,0.126203,1.082754,0.126476,-0.173716,1.593411,0.068643
349,2.908333,-0.269535,1.592373,0.069547,0.120786,1.597265,0.067394,-0.264718,1.077564,0.130064,0.126196,1.082750,0.126468,-0.173725,1.593408,0.068645
350,2.916667,-0.269573,1.592370,0.069544,0.120748,1.597283,0.067379,-0.264726,1.077565,0.130088,0.126187,1.082771,0.126480,-0.173763,1.593411,0.068639
351,2.925000,-0.269579,1.592369,0.069564,0.120741,1.597282,0.067333,-0.264721,1.077571,0.130168,0.126191,1.082777,0.126493,-0.173769,1.593409,0.068643
352,2.933333,-0.269585,1.592365,0.069530,0.120735,1.597275,0.067365,-0.264743,1.077561,0.130084,0.126170,1.082764,0.126476,-0.173775,1.593405,0.068624
353,2.941667,-0.269607,1.592364,0.069509,0.120713,1.597285,0.067353,-0.264752,1.077561,0.130068,0.126161,1.082775,0.126470,-0.173797,1.593407,0.068606
354,2.950000,-0.269642,1.592355,0.069496,0.120678,1.597301,0.067345,-0.264754,1.077555,0.130081,0.126159,1.082794,0.126486,-0.173832,1.593404,0.068594
355,2.958333,-0.269628,1.592377,0.069509,0.120692,1.597308,0.067293,-0.264749,1.077584,0.130156,0.126163,1.082808,0.126497,-0.173818,1.593422,0.068591
356,2.966667,-0.269637,1.592358,0.069476,0.120683,1.597288,0.067327,-0.264771,1.077557,0.130050,0.126142,1.082780,0.126458,-0.173827,1.593403,0.068575
357,2.975000,-0.269639,1.592360,0.069454,0.120682,1.597288,0.067295,-0.264773,1.077563,0.130063,0.126139,1.082784,0.126461,-0.173828,1.593404,0.068550
358,2.983333,-0.269665,1.592335,0.069439,0.120655,1.597289,0.067313,-0.264772,1.077534,0.130005,0.126141,1.082780,0.126436,-0.173855,1.593386,0.068543
359,2.991667,-0.269670,1.592335,0.069430,0.120650,1.597293,0.067291,-0.264769,1.077533,0.129995,0.126144,1.082783,0.126413,-0.173860,1.593386,0.068531
360,3.000000,-0.269656,1.592326,0.069408,0.120664,1.597266,0.067282,-0.264781,1.077527,0.129994,0.126132,1.082759,0.126425,-0.173846,1.593373,0.068513
361,3.008333,-0.269653,1.592354,0.069393,0.120668,1.597287,0.067266,-0.264785,1.077558,0.130006,0.126128,1.082783,0.126436,-0.173842,1.593400,0.068497
362,3.016667,-0.269660,1.592339,0.069390,0.120660,1.597284,0.067248,-0.264775,1.077540,0.129982,0.126137,1.082778,0.126396,-0.173850,1.593387,0.068490
363,3.025000,-0.269633,1.592386,0.069383,0.120687,1.597319,0.067249,-0.264765,1.077592,0.130017,0.126148,1.082817,0.126440,-0.173823,1.593431,0.068485
364,3.033333,-0.269620,1.592354,0.069378,0.120700,1.597280,0.067263,-0.264765,1.077556,0.129979,0.126149,1.082774,0.126420,-0.173810,1.593397,0.068485
365,3.041667,-0.269599,1.592368,0.069369,0.120721,1.597286,0.067233,-0.264751,1.077572,0.129982,0.126162,1.082782,0.126403,-0.173789,1.593410,0.068471
366,3.050000,-0.269601,1.592341,0.069354,0.120719,1.597271,0.067250,-0.264742,1.077541,0.129939,0.126171,1.082763,0.126392,-0.173791,1.593385,0.068463
367,3.058333,-0.269581,1.592356,0.069370,0.120740,1.597275,0.067259,-0.264735,1.077558,0.129969,0.126179,1.082770,0.126415,-0.173770,1.593398,0.068477
368,3.066667,-0.269573,1.592372,0.069360,0.120748,1.597283,0.067250,-0.264738,1.077574,0.129958,0.126176,1.082777,0.126405,-0.173763,1.593412,0.068468
369,3.075000,-0.269555,1.592366,0.069371,0.120766,1.597281,0.067255,-0.264714,1.077566,0.129957,0.126199,1.082773,0.126398,-0.173745,1.593407,0.068477
370,3.083333,-0.269538,1.592374,0.069355,0.120783,1.597279,0.067254,-0.264712,1.077574,0.129938,0.126202,1.082772,0.126394,-0.173727,1.593413,0.068465
371,3.091667,-0.269534,1.592364,0.069378,0.120787,1.597263,0.067254,-0.264712,1.077563,0.129961,0.126202,1.082755,0.126394,-0.173724,1.593401,0.068483
372,3.100000,-0.269533,1.592362,0.069375,0.120788,1.597263,0.067276,-0.264712,1.077563,0.129970,0.126201,1.082757,0.126428,-0.173723,1.593400,0.068486
373,3.108333,-0.269499,1.592371,0.069385,0.120822,1.597257,0.067261,-0.264695,1.077570,0.129972,0.126219,1.082749,0.126405,-0.173689,1.593405,0.068489
374,3.116667,-0.269492,1.592386,0.069417,0.120829,1.597270,0.067279,-0.264690,1.077586,0.129998,0.126224,1.082761,0.126417,-0.173682,1.593420,0.068518
375,3.125000,-0.269475,1.592393,0.069415,0.120846,1.597278,0.067311,-0.264677,1.077590,0.129978,0.126237,1.082767,0.126431,-0.173665,1.593427,0.068524
376,3.133333,-0.269472,1.592382,0.069427,0.120849,1.597253,0.067306,-0.264687,1.077577,0.129978,0.126227,1.082741,0.126414,-0.173662,1.593412,0.068533
377,3.141667,-0.269470,1.592388,0.069438,0.120851,1.597256,0.067323,-0.264691,1.077585,0.130001,0.126223,1.082745,0.126442,-0.173659,1.593418,0.068545
