Format Version,1.2,Take Name,Take 2020-01-06 04.53.01 PM,Capture Frame Rate,120.000000,Export Frame Rate,120.000000,Capture Start Time,2020-01-06 04.53.01.697 PM,Total Frames,691,Rotation Type,Quaternion,Length Units,Meters,Coordinate Space,Global

,,Rigid Body Marker,Rigid Body Marker,Rigid Body Marker,Rigid Body Marker,Rigid Body Marker,Rigid Body Marker,Rigid Body Marker,Rigid Body Marker,Rigid Body Marker
,,Rigid Body 10_1,Rigid Body 10_1,Rigid Body 10_1,Rigid Body 10_2,Rigid Body 10_2,Rigid Body 10_2,Rigid Body 10_3,Rigid Body 10_3,Rigid Body 10_3
,,"BF28107B304811EAE5BE26CA05685A8D","BF28107B304811EAE5BE26CA05685A8D","BF28107B304811EAE5BE26CA05685A8D","BF28107B304811EAE5BE26CA05685A8D","BF28107B304811EAE5BE26CA05685A8D","BF28107B304811EAE5BE26CA05685A8D","BF28107B304811EAE5BE26CA05685A8D","BF28107B304811EAE5BE26CA05685A8D","BF28107B304811EAE5BE26CA05685A8D"
,,Position,Position,Position,Position,Position,Position,Position,Position,Position
Frame,Time,X,Y,Z,X,Y,Z,X,Y,Z
0,0.000000,0.193957,0.138854,0.981614,-0.380870,0.137069,0.939524,-0.079116,1.607177,0.825251
1,0.008333,0.193972,0.138870,0.981655,-0.380852,0.137082,0.939535,-0.079101,1.607190,0.825266
2,0.016667,0.193983,0.138874,0.981643,-0.380842,0.137085,0.939533,-0.079094,1.607195,0.825271
3,0.025000,0.194001,0.138920,0.981712,-0.380819,0.137110,0.939536,-0.079109,1.607228,0.825280
4,0.033333,0.193973,0.138897,0.981686,-0.380849,0.137102,0.939535,-0.079106,1.607213,0.825272
5,0.041667,0.193990,0.138870,0.981641,-0.380836,0.137075,0.939537,-0.079103,1.607186,0.825249
6,0.050000,0.193970,0.138860,0.981642,-0.380856,0.137079,0.939542,-0.079088,1.607183,0.825266
7,0.058333,0.193976,0.138878,0.981668,-0.380846,0.137083,0.939521,-0.079107,1.607197,0.825282
8,0.066667,0.193962,0.138883,0.981651,-0.380861,0.137099,0.939516,-0.079096,1.607207,0.825281
9,0.075000,0.193982,0.138888,0.981668,-0.380842,0.137095,0.939531,-0.079098,1.607207,0.825283
10,0.083333,0.193982,0.138888,0.981664,-0.380843,0.137093,0.939555,-0.079109,1.607203,0.825256
11,0.091667,0.193964,0.138880,0.981644,-0.380861,0.137097,0.939532,-0.079098,1.607204,0.825271
12,0.100000,0.193956,0.138886,0.981651,-0.380869,0.137098,0.939535,-0.079114,1.607205,0.825257
13,0.108333,0.193949,0.138871,0.981636,-0.380878,0.137103,0.939553,-0.079080,1.607201,0.825262
14,0.116667,0.193972,0.138877,0.981642,-0.380854,0.137091,0.939545,-0.079102,1.607198,0.825265
15,0.125000,0.193960,0.138887,0.981675,-0.380863,0.137101,0.939536,-0.079103,1.607208,0.825276
16,0.133333,0.193939,0.138881,0.981642,-0.380886,0.137099,0.939539,-0.079122,1.607205,0.825274
17,0.141667,0.193987,0.138904,0.981645,-0.380837,0.137108,0.939526,-0.079104,1.607223,0.825282
18,0.150000,0.193978,0.138893,0.981630,-0.380848,0.137104,0.939535,-0.079105,1.607215,0.825276
19,0.158333,0.193957,0.138898,0.981672,-0.380867,0.137116,0.939544,-0.079098,1.607222,0.825295
20,0.166667,0.193976,0.138906,0.981653,-0.380849,0.137111,0.939551,-0.079115,1.607222,0.825264
21,0.175000,0.193963,0.138870,0.981622,-0.380865,0.137087,0.939547,-0.079107,1.607193,0.825252
22,0.183333,0.193968,0.138892,0.981658,-0.380857,0.137104,0.939550,-0.079107,1.607212,0.825269
23,0.191667,0.193979,0.138900,0.981680,-0.380844,0.137097,0.939540,-0.079125,1.607211,0.825262
24,0.200000,0.193959,0.138873,0.981658,-0.380865,0.137087,0.939543,-0.079108,1.607194,0.825277
25,0.208333,0.193941,0.138874,0.981633,-0.380885,0.137098,0.939537,-0.079108,1.607202,0.825277
26,0.216667,0.193971,0.138896,0.981666,-0.380853,0.137104,0.939542,-0.079109,1.607213,0.825260
27,0.225000,0.193962,0.138898,0.981672,-0.380862,0.137106,0.939546,-0.079119,1.607215,0.825274
28,0.233333,0.193946,0.138866,0.981630,-0.380880,0.137088,0.939538,-0.079109,1.607193,0.825278
29,0.241667,0.193953,0.138870,0.981627,-0.380874,0.137093,0.939539,-0.079099,1.607195,0.825258
30,0.250000,0.193979,0.138898,0.981653,-0.380845,0.137107,0.939529,-0.079099,1.607219,0.825288
31,0.258333,0.193963,0.138903,0.981667,-0.380863,0.137121,0.939574,-0.079101,1.607226,0.825287
32,0.266667,0.193955,0.138882,0.981646,-0.380872,0.137097,0.939559,-0.079114,1.607201,0.825253
33,0.275000,0.193952,0.138890,0.981661,-0.380873,0.137104,0.939546,-0.079113,1.607210,0.825262
34,0.283333,0.193968,0.138884,0.981668,-0.380856,0.137097,0.939534,-0.079098,1.607204,0.825265
35,0.291667,0.193936,0.138869,0.981618,-0.380891,0.137096,0.939535,-0.079109,1.607198,0.825268
36,0.300000,0.193960,0.138881,0.981667,-0.380865,0.137097,0.939553,-0.079102,1.607201,0.825265
37,0.308333,0.193941,0.138867,0.981638,-0.380888,0.137095,0.939573,-0.079105,1.607193,0.825259
38,0.316667,0.193939,0.138875,0.981629,-0.380887,0.137092,0.939528,-0.079124,1.607199,0.825267
39,0.325000,0.193970,0.138894,0.981689,-0.380853,0.137098,0.939552,-0.079115,1.607209,0.825272
40,0.333333,0.193929,0.138843,0.981591,-0.380899,0.137081,0.939524,-0.079094,1.607179,0.825268
41,0.341667,0.193960,0.138876,0.981646,-0.380866,0.137094,0.939535,-0.079098,1.607198,0.825249
42,0.350000,0.193956,0.138880,0.981670,-0.380868,0.137096,0.939548,-0.079103,1.607199,0.825245
43,0.358333,0.193963,0.138878,0.981670,-0.380861,0.137093,0.939550,-0.079099,1.607197,0.825258
44,0.366667,0.193964,0.138871,0.981665,-0.380860,0.137083,0.939541,-0.079105,1.607190,0.825257
45,0.375000,0.193973,0.138874,0.981646,-0.380852,0.137081,0.939531,-0.079112,1.607192,0.825267
46,0.383333,0.193999,0.138904,0.981688,-0.380823,0.137094,0.939540,-0.079118,1.607210,0.825240
47,0.391667,0.193968,0.138891,0.981700,-0.380853,0.137087,0.939525,-0.079127,1.607202,0.825266
48,0.400000,0.193963,0.138871,0.981672,-0.380859,0.137077,0.939529,-0.079116,1.607188,0.825272
49,0.408333,0.193981,0.138864,0.981632,-0.380844,0.137069,0.939521,-0.079112,1.607183,0.825268
50,0.416667,0.193975,0.138870,0.981637,-0.380849,0.137073,0.939518,-0.079121,1.607188,0.825281
51,0.425000,0.193964,0.138885,0.981650,-0.380861,0.137095,0.939530,-0.079111,1.607204,0.825263
52,0.433333,0.193956,0.138879,0.981662,-0.380869,0.137095,0.939549,-0.079105,1.607200,0.825265
53,0.441667,0.193976,0.138867,0.981661,-0.380849,0.137077,0.939544,-0.079101,1.607185,0.825268
54,0.450000,0.193964,0.138867,0.981663,-0.380858,0.137077,0.939509,-0.079103,1.607186,0.825257
55,0.458333,0.193966,0.138859,0.981660,-0.380857,0.137070,0.939522,-0.079104,1.607179,0.825261
56,0.466667,0.193956,0.138862,0.981631,-0.380870,0.137076,0.939528,-0.079116,1.607185,0.825272
57,0.475000,0.193972,0.138876,0.981654,-0.380853,0.137082,0.939534,-0.079115,1.607195,0.825285
58,0.483333,0.193968,0.138867,0.981668,-0.380854,0.137075,0.939520,-0.079108,1.607186,0.825280
59,0.491667,0.193965,0.138882,0.981659,-0.380857,0.137083,0.939508,-0.079128,1.607199,0.825280
60,0.500000,0.193953,0.138849,0.981632,-0.380873,0.137064,0.939522,-0.079116,1.607173,0.825275
61,0.508333,0.193955,0.138882,0.981667,-0.380868,0.137090,0.939535,-0.079122,1.607201,0.825284
62,0.516667,0.193975,0.138878,0.981660,-0.380849,0.137085,0.939531,-0.079105,1.607196,0.825273
63,0.525000,0.193946,0.138880,0.981674,-0.380877,0.137099,0.939534,-0.079101,1.607203,0.825267
64,0.533333,0.193947,0.138851,0.981631,-0.380879,0.137074,0.939540,-0.079105,1.607178,0.825275
65,0.541667,0.193930,0.138852,0.981655,-0.380895,0.137083,0.939543,-0.079096,1.607182,0.825279
66,0.550000,0.193947,0.138900,0.981709,-0.380873,0.137114,0.939532,-0.079104,1.607219,0.825276
67,0.558333,0.193916,0.138867,0.981619,-0.380913,0.137103,0.939564,-0.079113,1.607201,0.825279
68,0.566667,0.193948,0.138886,0.981636,-0.380878,0.137104,0.939537,-0.079116,1.607212,0.825289
69,0.575000,0.193916,0.138849,0.981624,-0.380911,0.137087,0.939540,-0.079102,1.607184,0.825277
70,0.583333,0.193962,0.138873,0.981639,-0.380864,0.137088,0.939537,-0.079107,1.607197,0.825279
71,0.591667,0.193932,0.138874,0.981641,-0.380893,0.137094,0.939532,-0.079121,1.607200,0.825278
72,0.600000,0.193943,0.138873,0.981648,-0.380881,0.137089,0.939528,-0.079121,1.607196,0.825274
73,0.608333,0.193959,0.138877,0.981673,-0.380863,0.137090,0.939526,-0.079101,1.607197,0.825264
74,0.616667,0.193958,0.138885,0.981680,-0.380865,0.137093,0.939542,-0.079116,1.607201,0.825262
75,0.625000,0.193956,0.138868,0.981638,-0.380868,0.137079,0.939515,-0.079121,1.607191,0.825281
76,0.633333,0.194000,0.138905,0.981698,-0.380821,0.137088,0.939540,-0.079134,1.607210,0.825276
77,0.641667,0.193921,0.138853,0.981612,-0.380906,0.137085,0.939536,-0.079113,1.607185,0.825273
78,0.650000,0.193949,0.138858,0.981636,-0.380876,0.137077,0.939520,-0.079108,1.607185,0.825280
79,0.658333,0.193954,0.138894,0.981718,-0.380865,0.137092,0.939522,-0.079130,1.607206,0.825274
80,0.666667,0.193956,0.138879,0.981710,-0.380866,0.137077,0.939545,-0.079136,1.607190,0.825266
81,0.675000,0.193963,0.138855,0.981649,-0.380861,0.137071,0.939531,-0.079097,1.607176,0.825255
82,0.683333,0.193928,0.138844,0.981631,-0.380899,0.137078,0.939543,-0.079097,1.607175,0.825257
83,0.691667,0.193963,0.138882,0.981662,-0.380860,0.137089,0.939521,-0.079116,1.607201,0.825274
84,0.700000,0.193966,0.138869,0.981656,-0.380857,0.137069,0.939508,-0.079130,1.607186,0.825278
85,0.708333,0.193948,0.138857,0.981640,-0.380877,0.137076,0.939532,-0.079106,1.607180,0.825252
86,0.716667,0.193934,0.138858,0.981656,-0.380890,0.137085,0.939523,-0.079095,1.607185,0.825262
87,0.725000,0.193968,0.138892,0.981728,-0.380851,0.137094,0.939529,-0.079102,1.607203,0.825255
88,0.733333,0.193962,0.138882,0.981706,-0.380860,0.137083,0.939550,-0.079124,1.607194,0.825272
89,0.741667,0.193932,0.138848,0.981630,-0.380896,0.137078,0.939557,-0.079107,1.607177,0.825268
90,0.750000,0.193943,0.138886,0.981697,-0.380879,0.137101,0.939543,-0.079110,1.607205,0.825268
91,0.758333,0.193970,0.138874,0.981660,-0.380856,0.137087,0.939551,-0.079101,1.607194,0.825275
92,0.766667,0.193935,0.138869,0.981661,-0.380889,0.137084,0.939537,-0.079126,1.607190,0.825269
93,0.775000,0.193949,0.138871,0.981677,-0.380873,0.137084,0.939530,-0.079111,1.607193,0.825288
94,0.783333,0.193948,0.138864,0.981641,-0.380877,0.137083,0.939523,-0.079105,1.607188,0.825266
95,0.791667,0.193976,0.138920,0.981749,-0.380841,0.137118,0.939535,-0.079101,1.607229,0.825273
96,0.800000,0.193954,0.138892,0.981694,-0.380868,0.137105,0.939541,-0.079103,1.607210,0.825263
97,0.808333,0.193951,0.138893,0.981642,-0.380874,0.137111,0.939524,-0.079106,1.607217,0.825262
98,0.816667,0.193964,0.138886,0.981681,-0.380858,0.137092,0.939536,-0.079114,1.607202,0.825259
99,0.825000,0.193940,0.138882,0.981666,-0.380884,0.137098,0.939535,-0.079120,1.607204,0.825278
100,0.833333,0.193945,0.138866,0.981670,-0.380878,0.137080,0.939532,-0.079115,1.607188,0.825280
101,0.841667,0.193979,0.138888,0.981689,-0.380844,0.137091,0.939540,-0.079107,1.607203,0.825280
102,0.850000,0.193977,0.138870,0.981669,-0.380846,0.137076,0.939534,-0.079106,1.607187,0.825271
103,0.858333,0.193947,0.138884,0.981667,-0.380877,0.137097,0.939546,-0.079118,1.607204,0.825268
104,0.866667,0.193963,0.138897,0.981688,-0.380859,0.137104,0.939546,-0.079114,1.607214,0.825278
105,0.875000,0.193944,0.138844,0.981591,-0.380884,0.137071,0.939526,-0.079105,1.607176,0.825273
106,0.883333,0.193999,0.138903,0.981680,-0.380823,0.137091,0.939528,-0.079123,1.607211,0.825273
107,0.891667,0.193958,0.138887,0.981676,-0.380864,0.137092,0.939525,-0.079123,1.607205,0.825277
108,0.900000,0.193983,0.138886,0.981677,-0.380840,0.137086,0.939536,-0.079111,1.607199,0.825269
109,0.908333,0.193982,0.138861,0.981650,-0.380842,0.137065,0.939528,-0.079108,1.607177,0.825261
110,0.916667,0.193979,0.138859,0.981638,-0.380845,0.137065,0.939516,-0.079106,1.607179,0.825275
111,0.925000,0.194003,0.138887,0.981700,-0.380817,0.137063,0.939515,-0.079143,1.607190,0.825289
112,0.933333,0.193972,0.138873,0.981667,-0.380850,0.137072,0.939511,-0.079123,1.607188,0.825278
113,0.941667,0.193967,0.138852,0.981616,-0.380859,0.137063,0.939506,-0.079111,1.607174,0.825258
114,0.950000,0.193981,0.138893,0.981667,-0.380842,0.137096,0.939533,-0.079109,1.607209,0.825280
115,0.958333,0.193984,0.138908,0.981695,-0.380837,0.137098,0.939530,-0.079130,1.607216,0.825273
116,0.966667,0.193966,0.138874,0.981655,-0.380859,0.137079,0.939533,-0.079123,1.607190,0.825261
117,0.975000,0.193971,0.138872,0.981677,-0.380850,0.137077,0.939510,-0.079107,1.607191,0.825283
118,0.983333,0.193980,0.138877,0.981692,-0.380841,0.137081,0.939524,-0.079100,1.607193,0.825275
119,0.991667,0.193972,0.138906,0.981704,-0.380849,0.137100,0.939535,-0.079130,1.607216,0.825281
120,1.000000,0.193970,0.138899,0.981682,-0.380853,0.137099,0.939544,-0.079127,1.607212,0.825272
121,1.008333,0.193953,0.138874,0.981663,-0.380870,0.137090,0.939523,-0.079103,1.607197,0.825280
122,1.016667,0.193994,0.138907,0.981715,-0.380824,0.137094,0.939519,-0.079120,1.607216,0.825296
123,1.025000,0.193968,0.138895,0.981697,-0.380853,0.137091,0.939528,-0.079128,1.607206,0.825262
124,1.033333,0.193964,0.138899,0.981705,-0.380857,0.137107,0.939531,-0.079101,1.607216,0.825284
125,1.041667,0.193971,0.138883,0.981674,-0.380852,0.137091,0.939528,-0.079102,1.607201,0.825266
126,1.050000,0.193969,0.138884,0.981698,-0.380849,0.137089,0.939501,-0.079099,1.607202,0.825282
127,1.058333,0.193947,0.138865,0.981651,-0.380877,0.137078,0.939517,-0.079119,1.607188,0.825279
128,1.066667,0.193951,0.138872,0.981680,-0.380871,0.137087,0.939526,-0.079103,1.607193,0.825270
129,1.075000,0.193989,0.138898,0.981709,-0.380831,0.137098,0.939523,-0.079095,1.607212,0.825289
130,1.083333,0.193960,0.138883,0.981661,-0.380865,0.137099,0.939537,-0.079102,1.607207,0.825297
131,1.091667,0.193969,0.138886,0.981656,-0.380856,0.137095,0.939533,-0.079109,1.607206,0.825276
132,1.100000,0.193939,0.138870,0.981651,-0.380886,0.137097,0.939538,-0.079096,1.607199,0.825280
133,1.108333,0.193955,0.138862,0.981658,-0.380869,0.137078,0.939527,-0.079104,1.607185,0.825274
134,1.116667,0.193947,0.138876,0.981672,-0.380876,0.137090,0.939534,-0.079114,1.607197,0.825274
135,1.125000,0.193978,0.138898,0.981718,-0.380841,0.137096,0.939532,-0.079108,1.607209,0.825273
136,1.133333,0.193929,0.138852,0.981623,-0.380900,0.137086,0.939562,-0.079101,1.607184,0.825272
137,1.141667,0.193981,0.138906,0.981696,-0.380842,0.137107,0.939554,-0.079112,1.607220,0.825291
138,1.150000,0.193967,0.138896,0.981693,-0.380856,0.137102,0.939561,-0.079113,1.607212,0.825278
139,1.158333,0.193958,0.138887,0.981682,-0.380865,0.137100,0.939549,-0.079105,1.607208,0.825286
140,1.166667,0.193944,0.138863,0.981624,-0.380884,0.137101,0.939558,-0.079075,1.607197,0.825280
141,1.175000,0.193929,0.138861,0.981608,-0.380900,0.137097,0.939553,-0.079099,1.607195,0.825278
142,1.183333,0.193940,0.138859,0.981645,-0.380887,0.137087,0.939558,-0.079100,1.607187,0.825271
143,1.191667,0.193954,0.138872,0.981665,-0.380870,0.137089,0.939529,-0.079101,1.607194,0.825265
144,1.200000,0.193963,0.138865,0.981656,-0.380860,0.137076,0.939527,-0.079107,1.607186,0.825272
145,1.208333,0.193952,0.138882,0.981649,-0.380873,0.137096,0.939543,-0.079118,1.607205,0.825285
146,1.216667,0.193950,0.138882,0.981694,-0.380872,0.137096,0.939541,-0.079104,1.607203,0.825286
147,1.225000,0.193941,0.138883,0.981653,-0.380885,0.137112,0.939561,-0.079092,1.607211,0.825277
148,1.233333,0.193941,0.138863,0.981647,-0.380885,0.137098,0.939557,-0.079079,1.607196,0.825290
149,1.241667,0.193931,0.138853,0.981653,-0.380896,0.137087,0.939569,-0.079092,1.607183,0.825277
150,1.250000,0.193953,0.138894,0.981695,-0.380870,0.137109,0.939556,-0.079105,1.607215,0.825297
151,1.258333,0.193959,0.138873,0.981683,-0.380865,0.137089,0.939556,-0.079096,1.607192,0.825258
152,1.266667,0.193953,0.138854,0.981634,-0.380873,0.137085,0.939543,-0.079079,1.607187,0.825294
153,1.275000,0.193966,0.138864,0.981663,-0.380858,0.137073,0.939536,-0.079113,1.607185,0.825293
154,1.283333,0.193970,0.138880,0.981707,-0.380851,0.137084,0.939540,-0.079107,1.607195,0.825279
155,1.291667,0.193947,0.138879,0.981658,-0.380879,0.137093,0.939552,-0.079124,1.607202,0.825291
156,1.300000,0.193986,0.138868,0.981681,-0.380837,0.137069,0.939536,-0.079105,1.607183,0.825280
157,1.308333,0.194025,0.138891,0.981722,-0.380793,0.137065,0.939516,-0.079120,1.607193,0.825284
158,1.316667,0.193971,0.138840,0.981639,-0.380854,0.137048,0.939526,-0.079113,1.607160,0.825272
159,1.325000,0.193967,0.138860,0.981679,-0.380855,0.137065,0.939527,-0.079115,1.607177,0.825277
160,1.333333,0.193972,0.138851,0.981674,-0.380851,0.137055,0.939536,-0.079117,1.607169,0.825290
161,1.341667,0.193955,0.138846,0.981645,-0.380869,0.137070,0.939510,-0.079085,1.607176,0.825291
162,1.350000,0.193963,0.138828,0.981595,-0.380864,0.137054,0.939516,-0.079087,1.607160,0.825279
163,1.358333,0.193990,0.138879,0.981697,-0.380830,0.137080,0.939515,-0.079092,1.607195,0.825284
164,1.366667,0.193990,0.138865,0.981685,-0.380831,0.137066,0.939524,-0.079098,1.607181,0.825292
165,1.375000,0.193970,0.138848,0.981655,-0.380853,0.137061,0.939519,-0.079096,1.607171,0.825283
166,1.383333,0.193972,0.138850,0.981640,-0.380853,0.137064,0.939529,-0.079098,1.607174,0.825284
167,1.391667,0.193981,0.138860,0.981678,-0.380839,0.137061,0.939499,-0.079102,1.607176,0.825273
168,1.400000,0.193989,0.138872,0.981713,-0.380830,0.137070,0.939521,-0.079097,1.607185,0.825286
169,1.408333,0.193960,0.138831,0.981634,-0.380865,0.137055,0.939522,-0.079083,1.607160,0.825284
170,1.416667,0.193983,0.138887,0.981677,-0.380840,0.137094,0.939535,-0.079095,1.607205,0.825279
171,1.425000,0.193978,0.138870,0.981692,-0.380843,0.137074,0.939518,-0.079098,1.607186,0.825272
172,1.433333,0.193965,0.138819,0.981623,-0.380862,0.137049,0.939535,-0.079073,1.607152,0.825294
173,1.441667,0.193981,0.138867,0.981676,-0.380840,0.137075,0.939511,-0.079089,1.607186,0.825280
174,1.450000,0.193951,0.138857,0.981647,-0.380875,0.137079,0.939538,-0.079098,1.607182,0.825261
175,1.458333,0.193965,0.138851,0.981626,-0.380863,0.137078,0.939551,-0.079082,1.607180,0.825282
176,1.466667,0.193980,0.138859,0.981636,-0.380846,0.137068,0.939535,-0.079105,1.607180,0.825281
177,1.475000,0.194004,0.138867,0.981652,-0.380819,0.137063,0.939516,-0.079104,1.607180,0.825261
178,1.483333,0.193983,0.138853,0.981671,-0.380839,0.137060,0.939518,-0.079093,1.607173,0.825293
179,1.491667,0.193975,0.138831,0.981670,-0.380848,0.137043,0.939527,-0.079091,1.607153,0.825294
180,1.500000,0.193990,0.138838,0.981632,-0.380834,0.137046,0.939520,-0.079096,1.607161,0.825299
181,1.508333,0.193985,0.138855,0.981663,-0.380839,0.137061,0.939533,-0.079100,1.607174,0.825289
182,1.516667,0.193996,0.138867,0.981680,-0.380824,0.137058,0.939507,-0.079116,1.607179,0.825284
183,1.525000,0.193987,0.138856,0.981658,-0.380837,0.137056,0.939535,-0.079112,1.607170,0.825261
184,1.533333,0.193995,0.138858,0.981650,-0.380830,0.137062,0.939533,-0.079098,1.607175,0.825264
185,1.541667,0.193992,0.138890,0.981694,-0.380830,0.137084,0.939549,-0.079115,1.607198,0.825254
186,1.550000,0.193982,0.138863,0.981657,-0.380842,0.137071,0.939534,-0.079097,1.607180,0.825260
187,1.558333,0.193968,0.138847,0.981624,-0.380858,0.137071,0.939532,-0.079083,1.607176,0.825282
188,1.566667,0.193981,0.138828,0.981602,-0.380847,0.137046,0.939525,-0.079091,1.607156,0.825291
189,1.575000,0.194012,0.138856,0.981646,-0.380810,0.137048,0.939495,-0.079105,1.607169,0.825270
190,1.583333,0.193984,0.138837,0.981613,-0.380843,0.137051,0.939527,-0.079094,1.607161,0.825278
191,1.591667,0.193965,0.138826,0.981588,-0.380864,0.137054,0.939536,-0.079086,1.607158,0.825277
192,1.600000,0.193987,0.138866,0.981611,-0.380841,0.137076,0.939545,-0.079105,1.607187,0.825266
193,1.608333,0.193993,0.138852,0.981632,-0.380833,0.137061,0.939535,-0.079094,1.607172,0.825264
194,1.616667,0.193976,0.138848,0.981631,-0.380849,0.137065,0.939526,-0.079091,1.607175,0.825297
195,1.625000,0.194001,0.138885,0.981670,-0.380823,0.137086,0.939547,-0.079097,1.607199,0.825269
196,1.633333,0.193965,0.138871,0.981630,-0.380861,0.137093,0.939538,-0.079088,1.607198,0.825274
197,1.641667,0.193996,0.138888,0.981649,-0.380830,0.137095,0.939544,-0.079092,1.607207,0.825280
198,1.650000,0.193973,0.138862,0.981587,-0.380856,0.137083,0.939535,-0.079096,1.607190,0.825277
199,1.658333,0.193967,0.138872,0.981645,-0.380860,0.137089,0.939566,-0.079101,1.607194,0.825269
200,1.666667,0.193994,0.138885,0.981704,-0.380829,0.137079,0.939569,-0.079115,1.607193,0.825273
201,1.675000,0.193979,0.138860,0.981639,-0.380846,0.137073,0.939528,-0.079093,1.607183,0.825276
202,1.683333,0.193979,0.138866,0.981640,-0.380847,0.137082,0.939549,-0.079093,1.607190,0.825283
203,1.691667,0.193992,0.138874,0.981655,-0.380835,0.137080,0.939560,-0.079103,1.607191,0.825273
204,1.700000,0.193987,0.138889,0.981674,-0.380838,0.137091,0.939557,-0.079109,1.607204,0.825280
205,1.708333,0.193993,0.138877,0.981659,-0.380834,0.137077,0.939569,-0.079117,1.607191,0.825283
206,1.716667,0.193989,0.138882,0.981674,-0.380837,0.137091,0.939575,-0.079093,1.607198,0.825264
207,1.725000,0.193964,0.138864,0.981642,-0.380864,0.137083,0.939568,-0.079102,1.607187,0.825268
208,1.733333,0.193969,0.138858,0.981629,-0.380861,0.137079,0.939581,-0.079096,1.607179,0.825248
209,1.741667,0.193988,0.138893,0.981675,-0.380837,0.137093,0.939562,-0.079112,1.607206,0.825272
210,1.750000,0.193979,0.138867,0.981630,-0.380849,0.137081,0.939557,-0.079100,1.607189,0.825268
211,1.758333,0.193997,0.138879,0.981640,-0.380828,0.137077,0.939527,-0.079115,1.607194,0.825268
212,1.766667,0.193986,0.138865,0.981654,-0.380841,0.137071,0.939570,-0.079112,1.607183,0.825287
213,1.775000,0.193959,0.138851,0.981641,-0.380868,0.137076,0.939554,-0.079091,1.607180,0.825291
214,1.783333,0.193948,0.138861,0.981645,-0.380879,0.137092,0.939558,-0.079085,1.607190,0.825273
215,1.791667,0.193942,0.138866,0.981649,-0.380884,0.137098,0.939560,-0.079085,1.607195,0.825272
216,1.800000,0.193945,0.138843,0.981615,-0.380884,0.137080,0.939547,-0.079081,1.607179,0.825289
217,1.808333,0.193942,0.138862,0.981654,-0.380884,0.137087,0.939553,-0.079102,1.607187,0.825261
218,1.816667,0.193952,0.138889,0.981687,-0.380872,0.137104,0.939557,-0.079108,1.607208,0.825273
219,1.825000,0.193944,0.138849,0.981642,-0.380882,0.137076,0.939545,-0.079093,1.607177,0.825274
220,1.833333,0.193958,0.138857,0.981676,-0.380866,0.137079,0.939555,-0.079085,1.607181,0.825276
221,1.841667,0.193944,0.138851,0.981663,-0.380881,0.137077,0.939549,-0.079094,1.607178,0.825283
222,1.850000,0.193981,0.138843,0.981671,-0.380842,0.137048,0.939533,-0.079101,1.607160,0.825276
223,1.858333,0.193974,0.138837,0.981624,-0.380853,0.137055,0.939538,-0.079091,1.607161,0.825257
224,1.866667,0.193962,0.138850,0.981645,-0.380864,0.137074,0.939547,-0.079085,1.607175,0.825264
225,1.875000,0.193944,0.138850,0.981603,-0.380885,0.137086,0.939550,-0.079083,1.607183,0.825265
226,1.883333,0.193953,0.138868,0.981617,-0.380877,0.137101,0.939564,-0.079086,1.607201,0.825292
227,1.891667,0.193933,0.138852,0.981624,-0.380896,0.137091,0.939567,-0.079086,1.607187,0.825284
228,1.900000,0.193970,0.138867,0.981653,-0.380855,0.137078,0.939544,-0.079104,1.607187,0.825270
229,1.908333,0.193968,0.138824,0.981595,-0.380861,0.137041,0.939530,-0.079108,1.607150,0.825273
230,1.916667,0.193997,0.138858,0.981649,-0.380829,0.137052,0.939547,-0.079125,1.607169,0.825267
231,1.925000,0.193964,0.138832,0.981626,-0.380862,0.137045,0.939519,-0.079108,1.607155,0.825269
232,1.933333,0.193961,0.138853,0.981615,-0.380866,0.137072,0.939543,-0.079105,1.607178,0.825269
233,1.941667,0.193940,0.138846,0.981615,-0.380889,0.137076,0.939555,-0.079103,1.607177,0.825274
234,1.950000,0.193966,0.138854,0.981665,-0.380859,0.137068,0.939547,-0.079100,1.607174,0.825271
235,1.958333,0.193952,0.138840,0.981572,-0.380880,0.137071,0.939554,-0.079102,1.607174,0.825285
236,1.966667,0.193935,0.138851,0.981612,-0.380895,0.137086,0.939567,-0.079100,1.607184,0.825279
237,1.975000,0.193936,0.138846,0.981612,-0.380892,0.137079,0.939553,-0.079100,1.607179,0.825283
238,1.983333,0.193939,0.138852,0.981607,-0.380891,0.137082,0.939553,-0.079106,1.607184,0.825291
239,1.991667,0.193941,0.138841,0.981593,-0.380890,0.137071,0.939565,-0.079111,1.607174,0.825298
240,2.000000,0.193959,0.138870,0.981621,-0.380869,0.137090,0.939554,-0.079109,1.607196,0.825283
241,2.008333,0.193929,0.138841,0.981603,-0.380901,0.137073,0.939562,-0.079114,1.607174,0.825282
242,2.016667,0.193927,0.138838,0.981612,-0.380903,0.137068,0.939570,-0.079120,1.607170,0.825292
243,2.025000,0.193944,0.138830,0.981591,-0.380887,0.137058,0.939558,-0.079112,1.607160,0.825271
244,2.033333,0.193960,0.138859,0.981644,-0.380868,0.137075,0.939571,-0.079112,1.607181,0.825278
245,2.041667,0.193970,0.138866,0.981627,-0.380859,0.137077,0.939573,-0.079123,1.607186,0.825268
246,2.050000,0.193948,0.138850,0.981630,-0.380880,0.137072,0.939555,-0.079110,1.607175,0.825270
247,2.058333,0.193926,0.138820,0.981575,-0.380906,0.137062,0.939550,-0.079097,1.607157,0.825262
248,2.066667,0.193956,0.138856,0.981645,-0.380872,0.137068,0.939565,-0.079124,1.607176,0.825269
249,2.075000,0.193965,0.138874,0.981690,-0.380858,0.137083,0.939556,-0.079106,1.607189,0.825256
250,2.083333,0.193947,0.138839,0.981608,-0.380884,0.137067,0.939574,-0.079106,1.607167,0.825259
251,2.091667,0.193941,0.138854,0.981625,-0.380888,0.137081,0.939562,-0.079107,1.607182,0.825267
252,2.100000,0.193970,0.138884,0.981677,-0.380856,0.137088,0.939565,-0.079123,1.607198,0.825270
253,2.108333,0.193963,0.138853,0.981660,-0.380865,0.137062,0.939576,-0.079124,1.607169,0.825265
254,2.116667,0.193985,0.138883,0.981678,-0.380840,0.137085,0.939566,-0.079110,1.607196,0.825265
255,2.125000,0.193980,0.138885,0.981697,-0.380845,0.137084,0.939573,-0.079122,1.607196,0.825275
256,2.133333,0.193963,0.138865,0.981668,-0.380860,0.137069,0.939539,-0.079124,1.607180,0.825261
257,2.141667,0.193961,0.138857,0.981665,-0.380864,0.137063,0.939545,-0.079123,1.607172,0.825253
258,2.150000,0.193965,0.138869,0.981674,-0.380860,0.137082,0.939561,-0.079104,1.607188,0.825265
259,2.158333,0.193975,0.138875,0.981667,-0.380849,0.137080,0.939540,-0.079110,1.607190,0.825254
260,2.166667,0.193996,0.138912,0.981710,-0.380826,0.137100,0.939546,-0.079122,1.607218,0.825270
261,2.175000,0.193964,0.138887,0.981661,-0.380862,0.137095,0.939558,-0.079120,1.607204,0.825269
262,2.183333,0.193986,0.138882,0.981699,-0.380835,0.137083,0.939540,-0.079100,1.607195,0.825266
263,2.191667,0.193952,0.138875,0.981676,-0.380872,0.137086,0.939551,-0.079117,1.607193,0.825269
264,2.200000,0.193971,0.138882,0.981702,-0.380852,0.137085,0.939558,-0.079114,1.607195,0.825271
265,2.208333,0.193948,0.138875,0.981672,-0.380876,0.137095,0.939545,-0.079100,1.607199,0.825281
266,2.216667,0.193972,0.138893,0.981676,-0.380852,0.137093,0.939551,-0.079128,1.607207,0.825276
267,2.225000,0.193967,0.138885,0.981689,-0.380856,0.137089,0.939546,-0.079119,1.607200,0.825275
268,2.233333,0.193966,0.138881,0.981662,-0.380861,0.137097,0.939568,-0.079103,1.607203,0.825285
269,2.241667,0.193971,0.138891,0.981715,-0.380850,0.137099,0.939554,-0.079094,1.607203,0.825236
270,2.250000,0.193994,0.138894,0.981692,-0.380829,0.137089,0.939555,-0.079110,1.607201,0.825236
271,2.258333,0.193947,0.138864,0.981679,-0.380878,0.137091,0.939564,-0.079085,1.607188,0.825257
272,2.266667,0.193951,0.138884,0.981703,-0.380871,0.137104,0.939544,-0.079087,1.607204,0.825252
273,2.275000,0.193978,0.138896,0.981713,-0.380843,0.137102,0.939546,-0.079090,1.607208,0.825246
274,2.283333,0.193960,0.138872,0.981678,-0.380864,0.137090,0.939556,-0.079092,1.607193,0.825261
275,2.291667,0.193974,0.138883,0.981697,-0.380849,0.137099,0.939559,-0.079081,1.607203,0.825278
276,2.300000,0.193960,0.138881,0.981683,-0.380865,0.137104,0.939562,-0.079083,1.607206,0.825286
277,2.308333,0.193959,0.138863,0.981657,-0.380867,0.137091,0.939555,-0.079076,1.607192,0.825289
278,2.316667,0.193953,0.138863,0.981665,-0.380870,0.137088,0.939530,-0.079082,1.607190,0.825275
279,2.325000,0.193976,0.138886,0.981709,-0.380847,0.137090,0.939563,-0.079103,1.607198,0.825260
280,2.333333,0.193954,0.138875,0.981648,-0.380872,0.137102,0.939551,-0.079085,1.607201,0.825264
281,2.341667,0.193970,0.138873,0.981658,-0.380855,0.137086,0.939544,-0.079100,1.607193,0.825261
282,2.350000,0.193959,0.138864,0.981624,-0.380869,0.137084,0.939543,-0.079104,1.607189,0.825269
283,2.358333,0.193968,0.138869,0.981661,-0.380858,0.137088,0.939561,-0.079090,1.607194,0.825299
284,2.366667,0.193981,0.138861,0.981664,-0.380844,0.137075,0.939551,-0.079087,1.607183,0.825283
285,2.375000,0.193988,0.138879,0.981694,-0.380834,0.137086,0.939545,-0.079086,1.607195,0.825272
286,2.383333,0.193978,0.138881,0.981684,-0.380845,0.137088,0.939539,-0.079098,1.607198,0.825269
287,2.391667,0.193983,0.138863,0.981662,-0.380841,0.137075,0.939541,-0.079087,1.607183,0.825266
288,2.400000,0.193983,0.138848,0.981641,-0.380844,0.137062,0.939547,-0.079093,1.607170,0.825270
289,2.408333,0.193977,0.138868,0.981673,-0.380847,0.137074,0.939535,-0.079106,1.607185,0.825277
290,2.416667,0.194004,0.138873,0.981701,-0.380818,0.137070,0.939547,-0.079094,1.607184,0.825279
291,2.425000,0.193981,0.138837,0.981640,-0.380843,0.137047,0.939517,-0.079097,1.607160,0.825284
292,2.433333,0.193972,0.138863,0.981651,-0.380852,0.137071,0.939521,-0.079108,1.607183,0.825275
293,2.441667,0.193996,0.138862,0.981665,-0.380828,0.137054,0.939536,-0.079124,1.607174,0.825288
294,2.450000,0.194003,0.138889,0.981671,-0.380821,0.137081,0.939550,-0.079117,1.607200,0.825290
295,2.458333,0.193982,0.138845,0.981613,-0.380844,0.137047,0.939520,-0.079124,1.607164,0.825282
296,2.466667,0.194012,0.138904,0.981721,-0.380807,0.137081,0.939528,-0.079126,1.607204,0.825262
297,2.475000,0.193994,0.138866,0.981666,-0.380829,0.137056,0.939522,-0.079127,1.607177,0.825283
298,2.483333,0.193992,0.138858,0.981631,-0.380833,0.137052,0.939524,-0.079129,1.607172,0.825278
299,2.491667,0.194015,0.138868,0.981677,-0.380804,0.137045,0.939492,-0.079128,1.607174,0.825280
300,2.500000,0.194009,0.138878,0.981666,-0.380813,0.137059,0.939518,-0.079133,1.607184,0.825262
301,2.508333,0.193995,0.138864,0.981672,-0.380827,0.137063,0.939512,-0.079101,1.607180,0.825287
302,2.516667,0.193980,0.138841,0.981620,-0.380848,0.137049,0.939541,-0.079114,1.607161,0.825276
303,2.525000,0.194011,0.138869,0.981693,-0.380810,0.137060,0.939520,-0.079100,1.607180,0.825288
304,2.533333,0.194008,0.138890,0.981675,-0.380814,0.137078,0.939523,-0.079114,1.607198,0.825266
305,2.541667,0.194002,0.138878,0.981657,-0.380822,0.137063,0.939528,-0.079134,1.607185,0.825258
306,2.550000,0.194000,0.138864,0.981658,-0.380824,0.137058,0.939532,-0.079116,1.607176,0.825268
307,2.558333,0.194006,0.138900,0.981734,-0.380812,0.137079,0.939530,-0.079125,1.607202,0.825276
308,2.566667,0.193993,0.138869,0.981655,-0.380831,0.137069,0.939529,-0.079108,1.607185,0.825280
309,2.575000,0.193983,0.138866,0.981647,-0.380842,0.137068,0.939536,-0.079117,1.607183,0.825282
310,2.583333,0.194012,0.138906,0.981710,-0.380809,0.137090,0.939540,-0.079116,1.607210,0.825268
311,2.591667,0.193990,0.138889,0.981684,-0.380832,0.137087,0.939534,-0.079109,1.607202,0.825278
312,2.600000,0.193964,0.138884,0.981662,-0.380860,0.137094,0.939530,-0.079108,1.607203,0.825272
313,2.608333,0.193986,0.138887,0.981669,-0.380838,0.137088,0.939544,-0.079111,1.607201,0.825271
314,2.616667,0.193994,0.138905,0.981695,-0.380829,0.137094,0.939550,-0.079127,1.607211,0.825262
315,2.625000,0.193970,0.138875,0.981642,-0.380856,0.137083,0.939548,-0.079116,1.607193,0.825264
316,2.633333,0.193979,0.138898,0.981691,-0.380843,0.137088,0.939536,-0.079136,1.607204,0.825244
317,2.641667,0.193973,0.138883,0.981673,-0.380852,0.137090,0.939556,-0.079113,1.607200,0.825281
318,2.650000,0.193963,0.138890,0.981676,-0.380860,0.137094,0.939535,-0.079123,1.607206,0.825276
319,2.658333,0.193962,0.138882,0.981645,-0.380864,0.137091,0.939546,-0.079123,1.607200,0.825263
320,2.666667,0.193967,0.138870,0.981617,-0.380862,0.137081,0.939562,-0.079125,1.607190,0.825262
321,2.675000,0.193977,0.138890,0.981669,-0.380846,0.137082,0.939528,-0.079137,1.607199,0.825253
322,2.683333,0.193964,0.138882,0.981665,-0.380861,0.137087,0.939556,-0.079125,1.607197,0.825263
323,2.691667,0.193960,0.138879,0.981691,-0.380863,0.137088,0.939559,-0.079114,1.607196,0.825274
324,2.700000,0.193968,0.138881,0.981683,-0.380856,0.137088,0.939557,-0.079112,1.607197,0.825266
325,2.708333,0.193966,0.138892,0.981652,-0.380861,0.137105,0.939570,-0.079112,1.607213,0.825283
326,2.716667,0.193968,0.138874,0.981631,-0.380860,0.137086,0.939552,-0.079114,1.607195,0.825271
327,2.725000,0.193981,0.138889,0.981711,-0.380839,0.137086,0.939540,-0.079114,1.607199,0.825270
328,2.733333,0.193986,0.138878,0.981626,-0.380843,0.137088,0.939562,-0.079107,1.607197,0.825267
329,2.741667,0.193976,0.138895,0.981666,-0.380849,0.137095,0.939549,-0.079124,1.607209,0.825272
330,2.750000,0.193987,0.138886,0.981677,-0.380838,0.137080,0.939558,-0.079126,1.607194,0.825255
331,2.758333,0.193966,0.138872,0.981628,-0.380862,0.137082,0.939555,-0.079125,1.607192,0.825265
332,2.766667,0.194000,0.138892,0.981639,-0.380828,0.137089,0.939567,-0.079123,1.607204,0.825264
333,2.775000,0.193981,0.138888,0.981662,-0.380845,0.137092,0.939555,-0.079115,1.607204,0.825276
334,2.783333,0.193992,0.138895,0.981669,-0.380831,0.137090,0.939533,-0.079118,1.607207,0.825277
335,2.791667,0.193969,0.138890,0.981675,-0.380854,0.137089,0.939529,-0.079126,1.607204,0.825272
336,2.800000,0.193967,0.138879,0.981645,-0.380857,0.137088,0.939521,-0.079112,1.607198,0.825258
337,2.808333,0.193974,0.138878,0.981652,-0.380853,0.137090,0.939557,-0.079104,1.607196,0.825257
338,2.816667,0.193965,0.138887,0.981636,-0.380861,0.137099,0.939541,-0.079113,1.607208,0.825273
339,2.825000,0.193997,0.138898,0.981668,-0.380828,0.137083,0.939554,-0.079143,1.607203,0.825263
340,2.833333,0.193980,0.138877,0.981644,-0.380847,0.137084,0.939557,-0.079112,1.607194,0.825261
341,2.841667,0.193983,0.138874,0.981653,-0.380842,0.137078,0.939541,-0.079114,1.607191,0.825277
342,2.850000,0.193967,0.138862,0.981653,-0.380859,0.137072,0.939554,-0.079115,1.607182,0.825279
343,2.858333,0.193960,0.138865,0.981659,-0.380865,0.137073,0.939549,-0.079123,1.607184,0.825289
344,2.866667,0.193988,0.138886,0.981641,-0.380839,0.137092,0.939568,-0.079112,1.607203,0.825275
345,2.875000,0.193963,0.138864,0.981618,-0.380864,0.137078,0.939538,-0.079115,1.607187,0.825274
346,2.883333,0.193975,0.138886,0.981657,-0.380851,0.137091,0.939562,-0.079119,1.607202,0.825269
347,2.891667,0.193972,0.138880,0.981684,-0.380851,0.137084,0.939547,-0.079114,1.607195,0.825276
348,2.900000,0.193981,0.138867,0.981637,-0.380845,0.137071,0.939543,-0.079116,1.607183,0.825255
349,2.908333,0.193986,0.138857,0.981608,-0.380843,0.137069,0.939547,-0.079102,1.607179,0.825268
350,2.916667,0.193987,0.138912,0.981706,-0.380835,0.137107,0.939553,-0.079117,1.607221,0.825271
351,2.925000,0.193961,0.138871,0.981668,-0.380864,0.137083,0.939556,-0.079110,1.607190,0.825266
352,2.933333,0.193964,0.138837,0.981597,-0.380867,0.137060,0.939560,-0.079102,1.607164,0.825268
353,2.941667,0.193997,0.138882,0.981658,-0.380829,0.137078,0.939552,-0.079118,1.607194,0.825270
354,2.950000,0.193980,0.138895,0.981699,-0.380842,0.137091,0.939539,-0.079119,1.607205,0.825271
355,2.958333,0.193967,0.138855,0.981634,-0.380859,0.137065,0.939537,-0.079115,1.607174,0.825255
356,2.966667,0.194006,0.138879,0.981644,-0.380820,0.137081,0.939544,-0.079097,1.607195,0.825276
357,2.975000,0.193972,0.138862,0.981643,-0.380853,0.137069,0.939527,-0.079113,1.607180,0.825265
358,2.983333,0.193985,0.138877,0.981685,-0.380838,0.137077,0.939544,-0.079110,1.607189,0.825267
359,2.991667,0.193989,0.138872,0.981649,-0.380838,0.137082,0.939561,-0.079094,1.607190,0.825262
360,3.000000,0.193968,0.138852,0.981627,-0.380859,0.137076,0.939539,-0.079080,1.607178,0.825257
361,3.008333,0.193997,0.138900,0.981661,-0.380828,0.137087,0.939545,-0.079137,1.607206,0.825249
362,3.016667,0.193999,0.138903,0.981684,-0.380824,0.137094,0.939548,-0.079116,1.607210,0.825251
363,3.025000,0.193995,0.138878,0.981650,-0.380830,0.137082,0.939541,-0.079098,1.607192,0.825244
364,3.033333,0.193989,0.138879,0.981621,-0.380839,0.137091,0.939555,-0.079098,1.607200,0.825267
365,3.041667,0.193999,0.138886,0.981662,-0.380826,0.137083,0.939551,-0.079111,1.607198,0.825275
366,3.050000,0.193984,0.138880,0.981646,-0.380841,0.137088,0.939540,-0.079101,1.607200,0.825285
367,3.058333,0.193992,0.138869,0.981645,-0.380833,0.137070,0.939533,-0.079110,1.607185,0.825273
368,3.066667,0.193979,0.138862,0.981655,-0.380847,0.137069,0.939553,-0.079108,1.607178,0.825262
369,3.075000,0.193991,0.138860,0.981635,-0.380835,0.137064,0.939536,-0.079108,1.607177,0.825270
370,3.083333,0.193987,0.138871,0.981689,-0.380834,0.137070,0.939524,-0.079101,1.607182,0.825242
371,3.091667,0.194003,0.138889,0.981682,-0.380819,0.137081,0.939532,-0.079108,1.607197,0.825252
372,3.100000,0.193961,0.138859,0.981610,-0.380868,0.137085,0.939549,-0.079090,1.607186,0.825246
373,3.108333,0.194006,0.138882,0.981681,-0.380817,0.137076,0.939537,-0.079105,1.607192,0.825268
374,3.116667,0.194000,0.138876,0.981680,-0.380823,0.137073,0.939543,-0.079104,1.607187,0.825258
375,3.125000,0.194004,0.138911,0.981732,-0.380814,0.137092,0.939528,-0.079119,1.607210,0.825237
376,3.133333,0.193993,0.138878,0.981658,-0.380831,0.137086,0.939528,-0.079088,1.607197,0.825268
377,3.141667,0.194018,0.138876,0.981660,-0.380805,0.137063,0.939530,-0.079113,1.607184,0.825259
378,3.150000,0.193994,0.138891,0.981673,-0.380827,0.137082,0.939513,-0.079120,1.607200,0.825252
379,3.158333,0.194004,0.138868,0.981664,-0.380819,0.137061,0.939525,-0.079111,1.607179,0.825269
380,3.166667,0.194005,0.138874,0.981681,-0.380817,0.137068,0.939529,-0.079104,1.607185,0.825268
381,3.175000,0.193999,0.138871,0.981626,-0.380827,0.137066,0.939518,-0.079120,1.607183,0.825244
382,3.183333,0.193982,0.138873,0.981628,-0.380843,0.137072,0.939518,-0.079124,1.607187,0.825239
383,3.191667,0.193979,0.138874,0.981655,-0.380845,0.137082,0.939530,-0.079101,1.607193,0.825271
384,3.200000,0.193998,0.138878,0.981636,-0.380827,0.137072,0.939525,-0.079121,1.607189,0.825253
385,3.208333,0.193976,0.138861,0.981633,-0.380849,0.137065,0.939526,-0.079119,1.607179,0.825269
386,3.216667,0.193990,0.138903,0.981679,-0.380833,0.137093,0.939540,-0.079130,1.607210,0.825249
387,3.225000,0.193986,0.138885,0.981673,-0.380837,0.137080,0.939528,-0.079121,1.607194,0.825241
388,3.233333,0.193959,0.138842,0.981611,-0.380868,0.137063,0.939528,-0.079102,1.607169,0.825264
389,3.241667,0.193985,0.138879,0.981659,-0.380839,0.137076,0.939534,-0.079123,1.607193,0.825275
390,3.250000,0.193985,0.138917,0.981719,-0.380835,0.137105,0.939546,-0.079131,1.607222,0.825268
391,3.258333,0.193982,0.138883,0.981630,-0.380847,0.137098,0.939564,-0.079094,1.607203,0.825255
392,3.266667,0.193971,0.138869,0.981651,-0.380854,0.137080,0.939539,-0.079105,1.607188,0.825256
393,3.275000,0.193961,0.138891,0.981675,-0.380862,0.137094,0.939540,-0.079126,1.607205,0.825264
394,3.283333,0.193964,0.138851,0.981626,-0.380864,0.137061,0.939551,-0.079125,1.607170,0.825264
395,3.291667,0.193953,0.138840,0.981571,-0.380878,0.137062,0.939542,-0.079119,1.607167,0.825253
396,3.300000,0.193958,0.138856,0.981607,-0.380871,0.137071,0.939554,-0.079125,1.607177,0.825251
397,3.308333,0.193968,0.138878,0.981645,-0.380857,0.137077,0.939535,-0.079138,1.607192,0.825257
398,3.316667,0.193959,0.138876,0.981654,-0.380866,0.137088,0.939530,-0.079111,1.607195,0.825252
399,3.325000,0.193972,0.138852,0.981583,-0.380859,0.137068,0.939554,-0.079116,1.607175,0.825251
400,3.333333,0.193978,0.138882,0.981637,-0.380848,0.137087,0.939544,-0.079117,1.607198,0.825258
401,3.341667,0.193978,0.138902,0.981683,-0.380846,0.137090,0.939550,-0.079148,1.607206,0.825238
402,3.350000,0.193969,0.138867,0.981647,-0.380856,0.137073,0.939532,-0.079117,1.607183,0.825248
403,3.358333,0.193968,0.138857,0.981616,-0.380860,0.137070,0.939538,-0.079109,1.607177,0.825237
404,3.366667,0.193945,0.138868,0.981584,-0.380886,0.137090,0.939549,-0.079125,1.607196,0.825271
405,3.375000,0.194006,0.138919,0.981680,-0.380818,0.137105,0.939559,-0.079132,1.607225,0.825271
406,3.383333,0.193980,0.138868,0.981623,-0.380849,0.137073,0.939559,-0.079124,1.607183,0.825243
407,3.391667,0.193969,0.138867,0.981616,-0.380859,0.137077,0.939545,-0.079120,1.607184,0.825228
408,3.400000,0.193964,0.138891,0.981650,-0.380861,0.137095,0.939538,-0.079129,1.607205,0.825242
409,3.408333,0.193983,0.138913,0.981673,-0.380842,0.137108,0.939567,-0.079132,1.607222,0.825256
410,3.416667,0.193953,0.138867,0.981646,-0.380873,0.137085,0.939548,-0.079106,1.607189,0.825250
411,3.425000,0.193968,0.138897,0.981637,-0.380858,0.137101,0.939537,-0.079129,1.607212,0.825248
412,3.433333,0.193988,0.138915,0.981674,-0.380835,0.137105,0.939536,-0.079130,1.607220,0.825231
413,3.441667,0.193975,0.138887,0.981671,-0.380849,0.137081,0.939540,-0.079137,1.607196,0.825252
414,3.450000,0.193951,0.138866,0.981605,-0.380878,0.137091,0.939548,-0.079105,1.607193,0.825257
415,3.458333,0.193953,0.138887,0.981617,-0.380875,0.137110,0.939553,-0.079108,1.607214,0.825270
416,3.466667,0.193967,0.138880,0.981648,-0.380858,0.137092,0.939545,-0.079107,1.607198,0.825241
417,3.475000,0.193965,0.138881,0.981609,-0.380864,0.137097,0.939543,-0.079109,1.607202,0.825235
418,3.483333,0.193976,0.138878,0.981626,-0.380849,0.137087,0.939518,-0.079107,1.607198,0.825255
419,3.491667,0.193973,0.138905,0.981672,-0.380850,0.137105,0.939544,-0.079122,1.607215,0.825237
420,3.500000,0.193946,0.138853,0.981606,-0.380883,0.137082,0.939545,-0.079097,1.607182,0.825250
421,3.508333,0.193962,0.138889,0.981664,-0.380862,0.137107,0.939540,-0.079094,1.607211,0.825257
422,3.516667,0.193969,0.138896,0.981649,-0.380856,0.137106,0.939543,-0.079109,1.607215,0.825260
423,3.525000,0.193940,0.138879,0.981651,-0.380886,0.137103,0.939549,-0.079104,1.607204,0.825257
424,3.533333,0.193938,0.138875,0.981635,-0.380890,0.137107,0.939553,-0.079093,1.607204,0.825260
425,3.541667,0.193949,0.138880,0.981672,-0.380875,0.137103,0.939543,-0.079089,1.607202,0.825244
426,3.550000,0.193971,0.138890,0.981654,-0.380855,0.137105,0.939563,-0.079098,1.607208,0.825248
427,3.558333,0.193948,0.138866,0.981600,-0.380881,0.137100,0.939539,-0.079084,1.607197,0.825242
428,3.566667,0.193920,0.138842,0.981577,-0.380911,0.137094,0.939546,-0.079073,1.607182,0.825235
429,3.575000,0.193941,0.138875,0.981638,-0.380886,0.137105,0.939544,-0.079092,1.607202,0.825243
430,3.583333,0.193956,0.138880,0.981658,-0.380868,0.137097,0.939523,-0.079098,1.607202,0.825263
431,3.591667,0.193960,0.138859,0.981620,-0.380867,0.137087,0.939543,-0.079082,1.607189,0.825279
432,3.600000,0.193979,0.138886,0.981647,-0.380845,0.137098,0.939527,-0.079090,1.607205,0.825246
433,3.608333,0.193969,0.138861,0.981633,-0.380855,0.137073,0.939518,-0.079104,1.607182,0.825256
434,3.616667,0.193955,0.138860,0.981613,-0.380871,0.137072,0.939522,-0.079124,1.607181,0.825252
435,3.625000,0.193967,0.138857,0.981642,-0.380858,0.137070,0.939536,-0.079102,1.607175,0.825235
436,3.633333,0.193980,0.138855,0.981608,-0.380848,0.137068,0.939533,-0.079101,1.607176,0.825244
437,3.641667,0.193963,0.138858,0.981621,-0.380863,0.137077,0.939524,-0.079100,1.607184,0.825267
438,3.650000,0.193969,0.138879,0.981645,-0.380856,0.137090,0.939535,-0.079110,1.607201,0.825284
439,3.658333,0.193984,0.138870,0.981643,-0.380840,0.137079,0.939519,-0.079096,1.607191,0.825280
440,3.666667,0.193958,0.138863,0.981619,-0.380867,0.137086,0.939511,-0.079092,1.607191,0.825261
441,3.675000,0.193972,0.138881,0.981662,-0.380852,0.137099,0.939538,-0.079081,1.607203,0.825261
442,3.683333,0.193969,0.138877,0.981679,-0.380854,0.137093,0.939543,-0.079087,1.607198,0.825274
443,3.691667,0.193943,0.138843,0.981610,-0.380885,0.137087,0.939545,-0.079061,1.607179,0.825261
444,3.700000,0.193939,0.138850,0.981627,-0.380887,0.137086,0.939526,-0.079077,1.607182,0.825254
445,3.708333,0.193971,0.138866,0.981645,-0.380854,0.137084,0.939538,-0.079089,1.607189,0.825265
446,3.716667,0.193960,0.138884,0.981692,-0.380862,0.137100,0.939540,-0.079091,1.607204,0.825268
447,3.725000,0.193968,0.138856,0.981622,-0.380859,0.137085,0.939542,-0.079071,1.607186,0.825275
448,3.733333,0.193955,0.138856,0.981612,-0.380873,0.137087,0.939541,-0.079080,1.607187,0.825267
449,3.741667,0.193964,0.138884,0.981661,-0.380860,0.137106,0.939535,-0.079080,1.607209,0.825279
450,3.750000,0.193983,0.138883,0.981682,-0.380838,0.137091,0.939504,-0.079084,1.607201,0.825267
451,3.758333,0.193949,0.138833,0.981617,-0.380879,0.137074,0.939545,-0.079063,1.607167,0.825248
452,3.766667,0.193972,0.138875,0.981647,-0.380853,0.137088,0.939527,-0.079095,1.607195,0.825248
453,3.775000,0.193956,0.138881,0.981644,-0.380869,0.137099,0.939537,-0.079102,1.607203,0.825251
454,3.783333,0.193950,0.138858,0.981629,-0.380875,0.137084,0.939524,-0.079091,1.607185,0.825253
455,3.791667,0.193952,0.138842,0.981602,-0.380877,0.137072,0.939540,-0.079089,1.607173,0.825264
456,3.800000,0.193950,0.138879,0.981665,-0.380875,0.137098,0.939544,-0.079102,1.607200,0.825249
457,3.808333,0.193969,0.138879,0.981660,-0.380853,0.137083,0.939505,-0.079113,1.607194,0.825247
458,3.816667,0.193953,0.138866,0.981646,-0.380871,0.137090,0.939524,-0.079087,1.607192,0.825250
459,3.825000,0.193975,0.138873,0.981628,-0.380850,0.137088,0.939520,-0.079092,1.607197,0.825267
460,3.833333,0.193967,0.138877,0.981646,-0.380856,0.137082,0.939509,-0.079118,1.607196,0.825271
461,3.841667,0.193989,0.138875,0.981637,-0.380836,0.137082,0.939524,-0.079097,1.607194,0.825263
462,3.850000,0.193962,0.138852,0.981621,-0.380866,0.137075,0.939543,-0.079094,1.607177,0.825247
463,3.858333,0.193975,0.138871,0.981638,-0.380849,0.137073,0.939517,-0.079119,1.607186,0.825245
464,3.866667,0.193983,0.138879,0.981675,-0.380838,0.137085,0.939515,-0.079094,1.607197,0.825284
465,3.875000,0.193980,0.138860,0.981637,-0.380845,0.137076,0.939530,-0.079084,1.607180,0.825236
466,3.883333,0.193971,0.138838,0.981612,-0.380856,0.137052,0.939520,-0.079103,1.607162,0.825263
467,3.891667,0.193993,0.138877,0.981652,-0.380830,0.137074,0.939510,-0.079110,1.607190,0.825252
468,3.900000,0.194029,0.138909,0.981714,-0.380791,0.137088,0.939527,-0.079105,1.607209,0.825241
469,3.908333,0.193967,0.138850,0.981607,-0.380860,0.137070,0.939510,-0.079090,1.607175,0.825239
470,3.916667,0.193960,0.138840,0.981599,-0.380868,0.137072,0.939524,-0.079073,1.607170,0.825233
471,3.925000,0.193985,0.138894,0.981678,-0.380837,0.137100,0.939528,-0.079089,1.607207,0.825235
472,3.933333,0.193994,0.138872,0.981673,-0.380828,0.137074,0.939529,-0.079095,1.607186,0.825264
473,3.941667,0.193990,0.138869,0.981643,-0.380835,0.137076,0.939525,-0.079094,1.607184,0.825227
474,3.950000,0.193963,0.138857,0.981648,-0.380860,0.137072,0.939510,-0.079093,1.607176,0.825225
475,3.958333,0.193991,0.138893,0.981693,-0.380830,0.137092,0.939530,-0.079099,1.607204,0.825259
476,3.966667,0.193981,0.138880,0.981663,-0.380842,0.137085,0.939523,-0.079101,1.607196,0.825252
477,3.975000,0.193953,0.138852,0.981587,-0.380877,0.137087,0.939540,-0.079080,1.607183,0.825230
478,3.983333,0.193969,0.138867,0.981623,-0.380858,0.137082,0.939531,-0.079102,1.607188,0.825239
479,3.991667,0.193994,0.138915,0.981669,-0.380829,0.137103,0.939526,-0.079130,1.607223,0.825265
480,4.000000,0.193970,0.138875,0.981640,-0.380855,0.137090,0.939528,-0.079094,1.607195,0.825238
481,4.008333,0.193950,0.138863,0.981613,-0.380878,0.137086,0.939541,-0.079104,1.607188,0.825247
482,4.016667,0.193965,0.138872,0.981615,-0.380863,0.137087,0.939535,-0.079110,1.607194,0.825254
483,4.025000,0.193983,0.138899,0.981681,-0.380840,0.137098,0.939545,-0.079115,1.607210,0.825248
484,4.033333,0.193952,0.138842,0.981597,-0.380878,0.137062,0.939544,-0.079119,1.607168,0.825261
485,4.041667,0.193955,0.138871,0.981627,-0.380871,0.137089,0.939517,-0.079106,1.607195,0.825250
486,4.050000,0.193982,0.138899,0.981658,-0.380842,0.137097,0.939533,-0.079125,1.607212,0.825266
487,4.058333,0.193988,0.138902,0.981691,-0.380835,0.137095,0.939544,-0.079122,1.607210,0.825257
488,4.066667,0.193968,0.138874,0.981651,-0.380857,0.137085,0.939540,-0.079108,1.607193,0.825261
489,4.075000,0.193973,0.138888,0.981645,-0.380853,0.137100,0.939557,-0.079105,1.607207,0.825262
490,4.083333,0.193979,0.138912,0.981683,-0.380843,0.137106,0.939532,-0.079128,1.607222,0.825270
491,4.091667,0.193981,0.138897,0.981677,-0.380841,0.137086,0.939529,-0.079139,1.607204,0.825252
492,4.100000,0.193963,0.138875,0.981622,-0.380865,0.137094,0.939557,-0.079104,1.607198,0.825257
493,4.108333,0.193981,0.138911,0.981675,-0.380843,0.137110,0.939553,-0.079122,1.607224,0.825267
494,4.116667,0.193978,0.138906,0.981678,-0.380846,0.137106,0.939543,-0.079117,1.607218,0.825264
495,4.125000,0.193977,0.138889,0.981633,-0.380849,0.137094,0.939540,-0.079120,1.607206,0.825261
496,4.133333,0.193971,0.138904,0.981689,-0.380849,0.137104,0.939514,-0.079115,1.607218,0.825267
497,4.141667,0.193989,0.138911,0.981661,-0.380834,0.137107,0.939529,-0.079122,1.607224,0.825272
498,4.150000,0.193986,0.138905,0.981675,-0.380835,0.137098,0.939514,-0.079122,1.607216,0.825265
499,4.158333,0.193977,0.138891,0.981644,-0.380849,0.137099,0.939548,-0.079111,1.607209,0.825273
500,4.166667,0.194006,0.138927,0.981722,-0.380813,0.137106,0.939523,-0.079125,1.607227,0.825249
501,4.175000,0.194002,0.138902,0.981681,-0.380820,0.137097,0.939541,-0.079105,1.607212,0.825263
502,4.183333,0.193981,0.138892,0.981659,-0.380843,0.137094,0.939532,-0.079113,1.607207,0.825267
503,4.191667,0.193968,0.138881,0.981655,-0.380857,0.137086,0.939532,-0.079122,1.607199,0.825276
504,4.200000,0.194006,0.138924,0.981732,-0.380812,0.137101,0.939520,-0.079128,1.607226,0.825287
505,4.208333,0.193976,0.138892,0.981649,-0.380848,0.137095,0.939519,-0.079114,1.607208,0.825252
506,4.216667,0.193986,0.138863,0.981619,-0.380840,0.137073,0.939521,-0.079099,1.607186,0.825282
507,4.225000,0.193986,0.138882,0.981652,-0.380838,0.137083,0.939529,-0.079113,1.607198,0.825277
508,4.233333,0.194002,0.138915,0.981726,-0.380817,0.137101,0.939532,-0.079114,1.607221,0.825279
509,4.241667,0.193987,0.138883,0.981628,-0.380839,0.137096,0.939537,-0.079087,1.607203,0.825246
510,4.250000,0.193991,0.138877,0.981649,-0.380834,0.137090,0.939534,-0.079080,1.607197,0.825254
511,4.258333,0.194000,0.138905,0.981681,-0.380822,0.137098,0.939531,-0.079110,1.607213,0.825245
512,4.266667,0.193990,0.138908,0.981698,-0.380832,0.137103,0.939541,-0.079111,1.607216,0.825248
513,4.275000,0.193991,0.138867,0.981638,-0.380834,0.137078,0.939531,-0.079086,1.607188,0.825270
514,4.283333,0.193984,0.138856,0.981587,-0.380845,0.137076,0.939537,-0.079085,1.607181,0.825242
515,4.291667,0.193989,0.138905,0.981682,-0.380833,0.137104,0.939538,-0.079107,1.607217,0.825258
516,4.300000,0.193989,0.138891,0.981659,-0.380836,0.137090,0.939549,-0.079117,1.607203,0.825251
517,4.308333,0.194005,0.138881,0.981662,-0.380821,0.137086,0.939563,-0.079086,1.607194,0.825238
518,4.316667,0.194002,0.138886,0.981647,-0.380824,0.137086,0.939543,-0.079104,1.607199,0.825249
519,4.325000,0.193992,0.138910,0.981679,-0.380832,0.137108,0.939551,-0.079110,1.607222,0.825275
520,4.333333,0.194010,0.138928,0.981712,-0.380812,0.137115,0.939558,-0.079114,1.607234,0.825284
521,4.341667,0.193990,0.138884,0.981628,-0.380836,0.137092,0.939536,-0.079101,1.607203,0.825265
522,4.350000,0.193985,0.138897,0.981624,-0.380841,0.137098,0.939533,-0.079122,1.607213,0.825263
523,4.358333,0.193982,0.138907,0.981704,-0.380839,0.137103,0.939543,-0.079117,1.607217,0.825273
524,4.366667,0.193982,0.138906,0.981683,-0.380841,0.137104,0.939545,-0.079118,1.607219,0.825282
525,4.375000,0.193987,0.138886,0.981658,-0.380839,0.137103,0.939561,-0.079078,1.607209,0.825287
526,4.383333,0.193987,0.138874,0.981616,-0.380840,0.137081,0.939529,-0.079108,1.607195,0.825283
527,4.391667,0.193991,0.138893,0.981666,-0.380833,0.137091,0.939551,-0.079117,1.607206,0.825279
528,4.400000,0.193997,0.138894,0.981701,-0.380825,0.137084,0.939549,-0.079120,1.607202,0.825281
529,4.408333,0.193982,0.138866,0.981617,-0.380847,0.137077,0.939556,-0.079108,1.607187,0.825275
530,4.416667,0.193976,0.138892,0.981664,-0.380849,0.137100,0.939548,-0.079106,1.607210,0.825276
531,4.425000,0.193996,0.138902,0.981695,-0.380827,0.137094,0.939545,-0.079117,1.607211,0.825272
532,4.433333,0.193980,0.138915,0.981680,-0.380845,0.137117,0.939567,-0.079116,1.607229,0.825274
533,4.441667,0.193994,0.138891,0.981676,-0.380829,0.137092,0.939538,-0.079102,1.607206,0.825275
534,4.450000,0.193994,0.138883,0.981678,-0.380829,0.137085,0.939541,-0.079098,1.607198,0.825274
535,4.458333,0.194013,0.138877,0.981681,-0.380808,0.137060,0.939529,-0.079122,1.607182,0.825260
536,4.466667,0.194001,0.138905,0.981700,-0.380820,0.137095,0.939535,-0.079112,1.607213,0.825273
537,4.475000,0.193995,0.138884,0.981635,-0.380830,0.137091,0.939528,-0.079091,1.607203,0.825260
538,4.483333,0.193986,0.138883,0.981649,-0.380840,0.137090,0.939551,-0.079102,1.607200,0.825267
539,4.491667,0.193982,0.138912,0.981708,-0.380839,0.137104,0.939532,-0.079122,1.607221,0.825279
540,4.500000,0.193983,0.138895,0.981684,-0.380839,0.137093,0.939531,-0.079115,1.607208,0.825275
541,4.508333,0.193979,0.138865,0.981619,-0.380849,0.137084,0.939541,-0.079087,1.607190,0.825260
542,4.516667,0.193982,0.138869,0.981636,-0.380844,0.137082,0.939543,-0.079095,1.607190,0.825271
543,4.525000,0.193963,0.138893,0.981643,-0.380864,0.137107,0.939553,-0.079110,1.607213,0.825256
544,4.533333,0.193952,0.138866,0.981629,-0.380875,0.137093,0.939548,-0.079092,1.607194,0.825266
545,4.541667,0.193948,0.138845,0.981595,-0.380882,0.137080,0.939548,-0.079088,1.607178,0.825261
546,4.550000,0.193959,0.138875,0.981645,-0.380867,0.137096,0.939546,-0.079095,1.607199,0.825263
547,4.558333,0.193975,0.138904,0.981671,-0.380849,0.137108,0.939546,-0.079113,1.607219,0.825270
548,4.566667,0.193983,0.138888,0.981638,-0.380843,0.137095,0.939541,-0.079108,1.607207,0.825276
549,4.575000,0.193969,0.138872,0.981640,-0.380857,0.137092,0.939544,-0.079088,1.607197,0.825278
550,4.583333,0.193962,0.138877,0.981668,-0.380864,0.137098,0.939567,-0.079089,1.607199,0.825260
551,4.591667,0.193948,0.138877,0.981634,-0.380881,0.137098,0.939567,-0.079115,1.607202,0.825282
552,4.600000,0.193966,0.138874,0.981626,-0.380862,0.137087,0.939559,-0.079118,1.607195,0.825268
553,4.608333,0.193949,0.138851,0.981609,-0.380880,0.137075,0.939552,-0.079109,1.607180,0.825282
554,4.616667,0.193974,0.138892,0.981673,-0.380850,0.137096,0.939542,-0.079113,1.607208,0.825272
555,4.625000,0.193945,0.138888,0.981678,-0.380880,0.137104,0.939567,-0.079118,1.607208,0.825274
556,4.633333,0.193959,0.138887,0.981668,-0.380867,0.137098,0.939563,-0.079119,1.607207,0.825290
557,4.641667,0.193960,0.138845,0.981618,-0.380869,0.137070,0.939558,-0.079097,1.607174,0.825284
558,4.650000,0.193981,0.138871,0.981637,-0.380844,0.137077,0.939527,-0.079108,1.607190,0.825268
559,4.658333,0.193960,0.138898,0.981682,-0.380864,0.137101,0.939545,-0.079129,1.607211,0.825256
560,4.666667,0.193951,0.138857,0.981642,-0.380875,0.137074,0.939542,-0.079113,1.607179,0.825259
561,4.675000,0.193957,0.138868,0.981682,-0.380866,0.137084,0.939538,-0.079097,1.607190,0.825279
562,4.683333,0.193961,0.138857,0.981621,-0.380867,0.137079,0.939557,-0.079101,1.607183,0.825267
563,4.691667,0.193952,0.138866,0.981640,-0.380875,0.137082,0.939556,-0.079120,1.607189,0.825287
564,4.700000,0.193965,0.138873,0.981666,-0.380860,0.137079,0.939562,-0.079123,1.607189,0.825274
565,4.708333,0.193977,0.138877,0.981666,-0.380848,0.137078,0.939548,-0.079121,1.607192,0.825280
566,4.716667,0.193959,0.138872,0.981650,-0.380867,0.137085,0.939545,-0.079113,1.607194,0.825282
567,4.725000,0.193951,0.138881,0.981628,-0.380875,0.137096,0.939526,-0.079119,1.607205,0.825270
568,4.733333,0.193977,0.138914,0.981650,-0.380847,0.137116,0.939524,-0.079119,1.607230,0.825266
569,4.741667,0.193958,0.138886,0.981636,-0.380867,0.137102,0.939522,-0.079107,1.607210,0.825273
570,4.750000,0.193979,0.138897,0.981671,-0.380844,0.137098,0.939521,-0.079113,1.607213,0.825277
571,4.758333,0.193971,0.138890,0.981651,-0.380854,0.137098,0.939536,-0.079112,1.607209,0.825278
572,4.766667,0.193972,0.138906,0.981682,-0.380850,0.137107,0.939538,-0.079119,1.607219,0.825258
573,4.775000,0.193978,0.138876,0.981639,-0.380846,0.137073,0.939513,-0.079127,1.607189,0.825247
574,4.783333,0.193989,0.138874,0.981678,-0.380832,0.137073,0.939523,-0.079104,1.607188,0.825270
575,4.791667,0.193979,0.138888,0.981669,-0.380843,0.137083,0.939514,-0.079126,1.607202,0.825281
576,4.800000,0.193966,0.138871,0.981641,-0.380859,0.137084,0.939534,-0.079107,1.607193,0.825272
577,4.808333,0.193990,0.138864,0.981616,-0.380836,0.137074,0.939518,-0.079095,1.607188,0.825289
578,4.816667,0.193972,0.138871,0.981649,-0.380852,0.137079,0.939519,-0.079108,1.607190,0.825263
579,4.825000,0.193969,0.138890,0.981674,-0.380854,0.137095,0.939528,-0.079114,1.607206,0.825269
580,4.833333,0.193974,0.138880,0.981674,-0.380850,0.137089,0.939546,-0.079102,1.607198,0.825274
581,4.841667,0.193964,0.138866,0.981640,-0.380862,0.137085,0.939540,-0.079095,1.607191,0.825275
582,4.850000,0.193968,0.138888,0.981676,-0.380855,0.137095,0.939542,-0.079110,1.607204,0.825268
583,4.858333,0.193984,0.138906,0.981699,-0.380838,0.137100,0.939546,-0.079122,1.607214,0.825260
584,4.866667,0.193966,0.138876,0.981661,-0.380858,0.137093,0.939535,-0.079091,1.607198,0.825263
585,4.875000,0.193969,0.138885,0.981674,-0.380855,0.137095,0.939549,-0.079105,1.607204,0.825280
586,4.883333,0.193957,0.138887,0.981647,-0.380869,0.137101,0.939545,-0.079114,1.607207,0.825263
587,4.891667,0.193975,0.138901,0.981702,-0.380845,0.137104,0.939527,-0.079101,1.607214,0.825259
588,4.900000,0.193951,0.138872,0.981639,-0.380875,0.137096,0.939540,-0.079095,1.607198,0.825258
589,4.908333,0.193951,0.138839,0.981630,-0.380875,0.137067,0.939525,-0.079087,1.607169,0.825273
590,4.916667,0.193954,0.138863,0.981658,-0.380869,0.137079,0.939531,-0.079103,1.607185,0.825262
591,4.925000,0.193959,0.138884,0.981684,-0.380864,0.137092,0.939541,-0.079113,1.607199,0.825253
592,4.933333,0.193956,0.138866,0.981656,-0.380868,0.137082,0.939532,-0.079101,1.607187,0.825248
593,4.941667,0.193938,0.138834,0.981615,-0.380888,0.137063,0.939521,-0.079100,1.607166,0.825273
594,4.950000,0.193953,0.138865,0.981634,-0.380873,0.137090,0.939538,-0.079093,1.607193,0.825273
595,4.958333,0.193960,0.138878,0.981682,-0.380863,0.137086,0.939534,-0.079110,1.607194,0.825258
596,4.966667,0.193957,0.138855,0.981618,-0.380870,0.137080,0.939540,-0.079094,1.607183,0.825276
597,4.975000,0.193975,0.138868,0.981639,-0.380851,0.137078,0.939533,-0.079105,1.607188,0.825262
598,4.983333,0.193962,0.138886,0.981659,-0.380862,0.137097,0.939527,-0.079106,1.607205,0.825254
599,4.991667,0.193948,0.138884,0.981703,-0.380873,0.137097,0.939538,-0.079104,1.607202,0.825262
600,5.000000,0.193955,0.138862,0.981635,-0.380873,0.137086,0.939553,-0.079095,1.607188,0.825259
601,5.008333,0.193940,0.138851,0.981644,-0.380886,0.137082,0.939542,-0.079087,1.607181,0.825276
602,5.016667,0.193984,0.138898,0.981665,-0.380840,0.137097,0.939536,-0.079116,1.607210,0.825253
603,5.025000,0.193948,0.138899,0.981705,-0.380874,0.137117,0.939544,-0.079096,1.607220,0.825275
604,5.033333,0.193973,0.138884,0.981669,-0.380850,0.137097,0.939528,-0.079090,1.607204,0.825268
605,5.041667,0.193949,0.138854,0.981639,-0.380876,0.137073,0.939525,-0.079105,1.607177,0.825245
606,5.050000,0.193973,0.138895,0.981699,-0.380849,0.137095,0.939538,-0.079116,1.607207,0.825262
607,5.058333,0.193972,0.138892,0.981691,-0.380851,0.137092,0.939543,-0.079117,1.607202,0.825239
608,5.066667,0.193947,0.138864,0.981632,-0.380881,0.137090,0.939556,-0.079102,1.607192,0.825274
609,5.075000,0.193975,0.138893,0.981666,-0.380848,0.137094,0.939531,-0.079118,1.607207,0.825260
610,5.083333,0.193953,0.138896,0.981711,-0.380868,0.137107,0.939543,-0.079103,1.607213,0.825265
611,5.091667,0.193965,0.138886,0.981699,-0.380856,0.137096,0.939542,-0.079100,1.607203,0.825274
612,5.100000,0.193959,0.138874,0.981660,-0.380866,0.137091,0.939545,-0.079099,1.607195,0.825265
613,5.108333,0.193983,0.138890,0.981688,-0.380840,0.137096,0.939536,-0.079094,1.607204,0.825252
614,5.116667,0.193932,0.138880,0.981667,-0.380892,0.137111,0.939541,-0.079089,1.607209,0.825274
615,5.125000,0.193963,0.138890,0.981689,-0.380861,0.137107,0.939554,-0.079089,1.607209,0.825258
616,5.133333,0.193951,0.138867,0.981642,-0.380875,0.137090,0.939544,-0.079095,1.607190,0.825235
617,5.141667,0.193948,0.138886,0.981679,-0.380876,0.137104,0.939552,-0.079104,1.607206,0.825254
618,5.150000,0.193984,0.138902,0.981723,-0.380836,0.137101,0.939553,-0.079104,1.607213,0.825273
619,5.158333,0.193970,0.138879,0.981677,-0.380854,0.137092,0.939550,-0.079094,1.607197,0.825253
620,5.166667,0.193982,0.138891,0.981695,-0.380840,0.137100,0.939538,-0.079084,1.607207,0.825263
621,5.175000,0.193973,0.138896,0.981698,-0.380849,0.137103,0.939547,-0.079099,1.607210,0.825261
622,5.183333,0.193955,0.138866,0.981643,-0.380872,0.137083,0.939557,-0.079111,1.607188,0.825264
623,5.191667,0.193973,0.138897,0.981672,-0.380853,0.137104,0.939563,-0.079110,1.607213,0.825270
624,5.200000,0.193973,0.138879,0.981691,-0.380848,0.137086,0.939529,-0.079098,1.607197,0.825282
625,5.208333,0.193974,0.138899,0.981687,-0.380847,0.137101,0.939524,-0.079111,1.607214,0.825275
626,5.216667,0.193971,0.138879,0.981663,-0.380854,0.137085,0.939549,-0.079117,1.607196,0.825272
627,5.225000,0.193969,0.138875,0.981674,-0.380854,0.137089,0.939540,-0.079093,1.607196,0.825276
628,5.233333,0.193983,0.138888,0.981679,-0.380840,0.137096,0.939539,-0.079092,1.607207,0.825287
629,5.241667,0.193974,0.138888,0.981683,-0.380849,0.137094,0.939543,-0.079103,1.607203,0.825263
630,5.250000,0.193983,0.138915,0.981712,-0.380837,0.137110,0.939531,-0.079110,1.607223,0.825246
631,5.258333,0.193983,0.138891,0.981701,-0.380838,0.137094,0.939544,-0.079099,1.607204,0.825259
632,5.266667,0.193969,0.138870,0.981700,-0.380852,0.137079,0.939525,-0.079091,1.607186,0.825257
633,5.275000,0.193979,0.138886,0.981704,-0.380841,0.137089,0.939524,-0.079099,1.607202,0.825284
634,5.283333,0.193953,0.138858,0.981643,-0.380871,0.137087,0.939526,-0.079076,1.607186,0.825256
635,5.291667,0.193981,0.138898,0.981706,-0.380840,0.137103,0.939539,-0.079093,1.607212,0.825261
636,5.300000,0.193957,0.138866,0.981641,-0.380869,0.137092,0.939537,-0.079085,1.607194,0.825273
637,5.308333,0.193985,0.138886,0.981699,-0.380837,0.137090,0.939543,-0.079094,1.607199,0.825257
638,5.316667,0.193967,0.138886,0.981676,-0.380856,0.137094,0.939529,-0.079107,1.607201,0.825247
639,5.325000,0.193974,0.138876,0.981668,-0.380850,0.137087,0.939538,-0.079097,1.607196,0.825277
640,5.333333,0.193965,0.138884,0.981671,-0.380859,0.137099,0.939546,-0.079095,1.607204,0.825262
641,5.341667,0.193968,0.138855,0.981607,-0.380861,0.137081,0.939543,-0.079085,1.607184,0.825272
642,5.350000,0.193963,0.138869,0.981627,-0.380863,0.137088,0.939532,-0.079098,1.607194,0.825272
643,5.358333,0.193970,0.138888,0.981650,-0.380856,0.137103,0.939550,-0.079099,1.607209,0.825270
644,5.366667,0.193962,0.138856,0.981638,-0.380865,0.137075,0.939545,-0.079099,1.607180,0.825271
645,5.375000,0.193961,0.138857,0.981645,-0.380864,0.137075,0.939531,-0.079100,1.607182,0.825279
646,5.383333,0.193999,0.138880,0.981668,-0.380826,0.137078,0.939545,-0.079107,1.607193,0.825268
647,5.391667,0.193987,0.138904,0.981718,-0.380834,0.137101,0.939548,-0.079107,1.607213,0.825265
648,5.400000,0.193948,0.138866,0.981620,-0.380879,0.137087,0.939542,-0.079112,1.607192,0.825269
649,5.408333,0.193956,0.138865,0.981621,-0.380873,0.137092,0.939560,-0.079095,1.607195,0.825288
650,5.416667,0.193952,0.138872,0.981652,-0.380873,0.137094,0.939542,-0.079094,1.607195,0.825248
651,5.425000,0.193961,0.138867,0.981649,-0.380865,0.137083,0.939551,-0.079107,1.607191,0.825291
652,5.433333,0.193943,0.138851,0.981621,-0.380886,0.137081,0.939555,-0.079098,1.607181,0.825277
653,5.441667,0.193936,0.138861,0.981622,-0.380893,0.137095,0.939558,-0.079095,1.607192,0.825271
654,5.450000,0.193968,0.138894,0.981681,-0.380855,0.137106,0.939548,-0.079099,1.607213,0.825270
655,5.458333,0.193962,0.138867,0.981649,-0.380863,0.137094,0.939536,-0.079076,1.607196,0.825285
656,5.466667,0.193982,0.138895,0.981666,-0.380841,0.137095,0.939530,-0.079114,1.607209,0.825266
657,5.475000,0.193962,0.138888,0.981624,-0.380864,0.137102,0.939531,-0.079109,1.607209,0.825247
658,5.483333,0.193996,0.138893,0.981674,-0.380827,0.137089,0.939539,-0.079114,1.607206,0.825279
659,5.491667,0.193980,0.138881,0.981667,-0.380844,0.137086,0.939544,-0.079107,1.607198,0.825280
660,5.500000,0.193997,0.138890,0.981669,-0.380827,0.137087,0.939540,-0.079107,1.607201,0.825255
661,5.508333,0.193981,0.138876,0.981632,-0.380845,0.137081,0.939532,-0.079113,1.607195,0.825274
662,5.516667,0.194004,0.138880,0.981656,-0.380820,0.137077,0.939530,-0.079103,1.607193,0.825269
663,5.525000,0.193972,0.138857,0.981609,-0.380858,0.137076,0.939555,-0.079102,1.607181,0.825262
664,5.533333,0.193997,0.138870,0.981649,-0.380827,0.137066,0.939535,-0.079115,1.607181,0.825253
665,5.541667,0.194016,0.138888,0.981669,-0.380808,0.137079,0.939530,-0.079101,1.607197,0.825251
666,5.550000,0.194007,0.138884,0.981647,-0.380817,0.137080,0.939524,-0.079104,1.607197,0.825266
667,5.558333,0.193978,0.138872,0.981647,-0.380846,0.137084,0.939529,-0.079091,1.607191,0.825251
668,5.566667,0.193978,0.138878,0.981645,-0.380848,0.137093,0.939542,-0.079088,1.607198,0.825247
669,5.575000,0.194004,0.138876,0.981635,-0.380821,0.137072,0.939530,-0.079113,1.607189,0.825257
670,5.583333,0.193990,0.138881,0.981650,-0.380834,0.137086,0.939522,-0.079096,1.607196,0.825245
671,5.591667,0.193983,0.138878,0.981672,-0.380840,0.137088,0.939530,-0.079088,1.607196,0.825256
672,5.600000,0.193983,0.138849,0.981625,-0.380843,0.137066,0.939535,-0.079085,1.607173,0.825269
673,5.608333,0.193982,0.138879,0.981672,-0.380842,0.137087,0.939545,-0.079095,1.607194,0.825244
674,5.616667,0.193979,0.138870,0.981646,-0.380847,0.137084,0.939539,-0.079090,1.607191,0.825264
675,5.625000,0.193962,0.138854,0.981628,-0.380866,0.137086,0.939546,-0.079067,1.607183,0.825255
676,5.633333,0.193973,0.138857,0.981621,-0.380855,0.137081,0.939549,-0.079083,1.607184,0.825272
677,5.641667,0.193977,0.138865,0.981633,-0.380850,0.137083,0.939548,-0.079088,1.607188,0.825265
678,5.650000,0.193983,0.138860,0.981629,-0.380844,0.137076,0.939547,-0.079089,1.607183,0.825266
679,5.658333,0.193980,0.138862,0.981638,-0.380846,0.137080,0.939548,-0.079083,1.607185,0.825260
680,5.666667,0.193961,0.138863,0.981648,-0.380866,0.137091,0.939549,-0.079076,1.607189,0.825257
681,5.675000,0.193958,0.138855,0.981610,-0.380869,0.137077,0.939527,-0.079098,1.607182,0.825258
682,5.683333,0.193953,0.138844,0.981598,-0.380876,0.137080,0.939544,-0.079076,1.607178,0.825266
683,5.691667,0.193964,0.138873,0.981642,-0.380862,0.137093,0.939541,-0.079093,1.607197,0.825261
684,5.700000,0.193961,0.138883,0.981629,-0.380867,0.137100,0.939557,-0.079110,1.607205,0.825258
685,5.708333,0.193989,0.138877,0.981651,-0.380837,0.137083,0.939558,-0.079104,1.607194,0.825271
686,5.716667,0.193969,0.138857,0.981638,-0.380858,0.137073,0.939558,-0.079102,1.607178,0.825261
687,5.725000,0.193961,0.138874,0.981629,-0.380867,0.137099,0.939552,-0.079088,1.607201,0.825271
688,5.733333,0.193981,0.138877,0.981647,-0.380845,0.137084,0.939548,-0.079109,1.607196,0.825275
689,5.741667,0.193962,0.138865,0.981643,-0.380866,0.137086,0.939575,-0.079100,1.607189,0.825274
690,5.750000,,,,,,,,,
