Format Version,1.2,Take Name,Take 2020-02-07 05.22.12 PM,Capture Frame Rate,120.000000,Export Frame Rate,120.000000,Capture Start Time,2020-02-07 05.22.12.323 PM,Total Frames,651,Rotation Type,Quaternion,Length Units,Meters,Coordinate Space,Global

,,Rigid Body Marker,Rigid Body Marker,Rigid Body Marker,Rigid Body Marker,Rigid Body Marker,Rigid Body Marker,Rigid Body Marker,Rigid Body Marker,Rigid Body Marker,Rigid Body Marker,Rigid Body Marker,Rigid Body Marker,Rigid Body Marker,Rigid Body Marker,Rigid Body Marker
,,Rigid Body 1_1,Rigid Body 1_1,Rigid Body 1_1,Rigid Body 1_2,Rigid Body 1_2,Rigid Body 1_2,Rigid Body 1_3,Rigid Body 1_3,Rigid Body 1_3,Rigid Body 1_4,Rigid Body 1_4,Rigid Body 1_4,Rigid Body 1_5,Rigid Body 1_5,Rigid Body 1_5
,,"FB1F47AA496A11EAE5BE26CA05685A8D","FB1F47AA496A11EAE5BE26CA05685A8D","FB1F47AA496A11EAE5BE26CA05685A8D","FB1F47AA496A11EAE5BE26CA05685A8D","FB1F47AA496A11EAE5BE26CA05685A8D","FB1F47AA496A11EAE5BE26CA05685A8D","FB1F47AA496A11EAE5BE26CA05685A8D","FB1F47AA496A11EAE5BE26CA05685A8D","FB1F47AA496A11EAE5BE26CA05685A8D","FB1F47AA496A11EAE5BE26CA05685A8D","FB1F47AA496A11EAE5BE26CA05685A8D","FB1F47AA496A11EAE5BE26CA05685A8D","FB1F47AA496A11EAE5BE26CA05685A8D","FB1F47AA496A11EAE5BE26CA05685A8D","FB1F47AA496A11EAE5BE26CA05685A8D"
,,Position,Position,Position,Position,Position,Position,Position,Position,Position,Position,Position,Position,Position,Position,Position
Frame,Time,X,Y,Z,X,Y,Z,X,Y,Z,X,Y,Z,X,Y,Z
0,0.000000,0.392076,1.481112,0.869003,0.454751,1.478988,1.252874,0.398896,0.964498,0.865123,0.461848,0.963736,1.248871,0.405197,1.480312,0.963236
1,0.008333,0.392069,1.481119,0.868999,0.454739,1.478992,1.252870,0.398895,0.964506,0.865114,0.461843,0.963741,1.248863,0.405189,1.480318,0.963232
2,0.016667,0.392070,1.481120,0.869004,0.454729,1.478999,1.252878,0.398877,0.964506,0.865131,0.461814,0.963747,1.248881,0.405188,1.480320,0.963238
3,0.025000,0.392084,1.481080,0.868977,0.454742,1.478974,1.252850,0.398966,0.964467,0.865111,0.461902,0.963723,1.248862,0.405201,1.480284,0.963210
4,0.033333,0.392081,1.481078,0.868986,0.454757,1.478974,1.252857,0.398963,0.964465,0.865122,0.461917,0.963723,1.248870,0.405202,1.480282,0.963219
5,0.041667,0.392082,1.481110,0.869003,0.454732,1.478992,1.252878,0.398888,0.964496,0.865134,0.461816,0.963741,1.248886,0.405197,1.480311,0.963237
6,0.050000,0.392088,1.481115,0.869008,0.454735,1.478986,1.252883,0.398897,0.964501,0.865123,0.461822,0.963734,1.248876,0.405202,1.480313,0.963242
7,0.058333,0.392079,1.481117,0.869009,0.454729,1.478988,1.252884,0.398895,0.964502,0.865124,0.461823,0.963737,1.248876,0.405194,1.480315,0.963243
8,0.066667,0.392336,1.481330,0.869004,0.454389,1.478984,1.252975,0.398776,0.964713,0.864900,0.461108,0.963729,1.248749,0.405304,1.480476,0.963258
9,0.075000,0.392075,1.481114,0.869006,0.454729,1.478999,1.252880,0.398891,0.964500,0.865139,0.461823,0.963747,1.248890,0.405191,1.480316,0.963240
10,0.083333,0.392315,1.481324,0.869002,0.454414,1.478995,1.252966,0.398768,0.964707,0.864917,0.461146,0.963740,1.248759,0.405295,1.480474,0.963255
11,0.091667,0.392081,1.481122,0.869007,0.454746,1.479004,1.252880,0.398910,0.964508,0.865135,0.461853,0.963753,1.248884,0.405200,1.480323,0.963241
12,0.100000,0.392080,1.481126,0.869009,0.454731,1.479012,1.252884,0.398928,0.964512,0.865139,0.461857,0.963761,1.248891,0.405195,1.480327,0.963243
13,0.108333,0.392082,1.481120,0.869011,0.454743,1.478991,1.252884,0.398885,0.964506,0.865128,0.461824,0.963740,1.248878,0.405200,1.480318,0.963244
14,0.116667,0.392086,1.481107,0.869000,0.454740,1.478992,1.252874,0.398902,0.964492,0.865134,0.461833,0.963740,1.248886,0.405202,1.480308,0.963234
15,0.125000,0.392084,1.481109,0.869000,0.454733,1.478991,1.252875,0.398891,0.964495,0.865131,0.461818,0.963739,1.248883,0.405199,1.480310,0.963234
16,0.133333,0.392088,1.481081,0.868995,0.454754,1.478984,1.252868,0.398965,0.964468,0.865143,0.461909,0.963733,1.248892,0.405207,1.480287,0.963229
17,0.141667,0.392091,1.481111,0.869007,0.454744,1.478992,1.252882,0.398917,0.964497,0.865134,0.461848,0.963741,1.248885,0.405206,1.480312,0.963241
18,0.150000,0.392317,1.481328,0.869009,0.454415,1.478986,1.252973,0.398775,0.964711,0.864906,0.461151,0.963732,1.248748,0.405296,1.480476,0.963262
19,0.158333,0.392080,1.481125,0.869000,0.454730,1.478998,1.252875,0.398887,0.964511,0.865120,0.461816,0.963747,1.248872,0.405195,1.480324,0.963234
20,0.166667,0.392079,1.481116,0.869006,0.454740,1.478994,1.252879,0.398882,0.964502,0.865131,0.461822,0.963742,1.248881,0.405196,1.480316,0.963240
21,0.175000,0.392077,1.481102,0.868997,0.454730,1.478981,1.252871,0.398913,0.964489,0.865119,0.461844,0.963730,1.248870,0.405192,1.480302,0.963231
22,0.183333,0.392074,1.481105,0.869008,0.454731,1.478991,1.252882,0.398927,0.964491,0.865137,0.461863,0.963740,1.248888,0.405190,1.480307,0.963242
23,0.191667,0.392080,1.481117,0.868998,0.454751,1.479005,1.252869,0.398917,0.964504,0.865131,0.461866,0.963754,1.248880,0.405200,1.480320,0.963231
24,0.200000,0.392074,1.481093,0.868987,0.454769,1.478993,1.252854,0.398963,0.964480,0.865128,0.461935,0.963743,1.248873,0.405200,1.480298,0.963219
25,0.208333,0.392088,1.481079,0.868986,0.454759,1.478979,1.252858,0.398951,0.964466,0.865132,0.461899,0.963728,1.248881,0.405208,1.480284,0.963219
26,0.216667,0.392072,1.481113,0.869011,0.454733,1.478998,1.252885,0.398902,0.964499,0.865142,0.461841,0.963746,1.248892,0.405190,1.480314,0.963245
27,0.225000,0.392073,1.481109,0.869003,0.454744,1.478996,1.252874,0.398899,0.964495,0.865136,0.461848,0.963744,1.248885,0.405193,1.480311,0.963236
28,0.233333,0.392088,1.481115,0.869005,0.454748,1.478992,1.252878,0.398896,0.964501,0.865129,0.461834,0.963740,1.248879,0.405205,1.480314,0.963239
29,0.241667,0.392080,1.481115,0.869000,0.454745,1.478997,1.252873,0.398907,0.964501,0.865129,0.461850,0.963746,1.248878,0.405199,1.480316,0.963234
30,0.250000,0.392074,1.481112,0.869013,0.454731,1.478994,1.252887,0.398895,0.964498,0.865141,0.461829,0.963742,1.248892,0.405191,1.480313,0.963247
31,0.258333,0.392073,1.481113,0.869010,0.454741,1.478985,1.252882,0.398894,0.964499,0.865125,0.461840,0.963734,1.248874,0.405192,1.480311,0.963243
32,0.266667,0.392083,1.481082,0.868986,0.454749,1.478975,1.252859,0.398981,0.964469,0.865117,0.461925,0.963725,1.248867,0.405202,1.480285,0.963220
33,0.275000,0.392082,1.481113,0.868998,0.454741,1.478987,1.252871,0.398908,0.964499,0.865115,0.461845,0.963736,1.248866,0.405199,1.480312,0.963231
34,0.283333,0.392073,1.481118,0.869008,0.454730,1.478988,1.252882,0.398891,0.964504,0.865122,0.461825,0.963737,1.248873,0.405190,1.480316,0.963242
35,0.291667,0.392074,1.481114,0.869007,0.454737,1.479000,1.252880,0.398888,0.964500,0.865142,0.461829,0.963749,1.248892,0.405192,1.480316,0.963240
36,0.300000,0.392053,1.481142,0.869023,0.454748,1.479015,1.252891,0.398965,0.964530,0.865123,0.461937,0.963765,1.248868,0.405179,1.480340,0.963256
37,0.308333,0.392072,1.481111,0.869004,0.454741,1.478984,1.252876,0.398896,0.964497,0.865121,0.461842,0.963733,1.248870,0.405191,1.480309,0.963237
38,0.316667,0.392079,1.481089,0.868987,0.454744,1.478986,1.252860,0.398962,0.964476,0.865125,0.461904,0.963735,1.248875,0.405198,1.480293,0.963220
39,0.325000,0.392343,1.481309,0.868989,0.454404,1.478988,1.252959,0.398783,0.964692,0.864917,0.461123,0.963733,1.248765,0.405313,1.480462,0.963243
40,0.333333,0.392075,1.481092,0.868994,0.454764,1.478984,1.252863,0.398958,0.964478,0.865126,0.461925,0.963733,1.248871,0.405199,1.480295,0.963227
41,0.341667,0.392064,1.481112,0.869010,0.454723,1.478993,1.252883,0.398864,0.964498,0.865140,0.461801,0.963741,1.248890,0.405181,1.480313,0.963244
42,0.350000,0.392074,1.481113,0.869004,0.454721,1.478991,1.252879,0.398891,0.964498,0.865128,0.461816,0.963740,1.248881,0.405188,1.480313,0.963238
43,0.358333,0.392312,1.481311,0.869003,0.454411,1.478984,1.252966,0.398799,0.964694,0.864915,0.461177,0.963730,1.248757,0.405292,1.480462,0.963255
44,0.366667,0.392078,1.481118,0.869001,0.454736,1.478994,1.252875,0.398914,0.964504,0.865120,0.461849,0.963743,1.248871,0.405195,1.480317,0.963235
45,0.375000,0.392075,1.481124,0.869006,0.454734,1.479003,1.252879,0.398871,0.964509,0.865134,0.461809,0.963751,1.248885,0.405192,1.480324,0.963239
46,0.383333,0.392066,1.481118,0.869007,0.454744,1.478988,1.252877,0.398887,0.964504,0.865119,0.461843,0.963737,1.248867,0.405188,1.480316,0.963240
47,0.391667,0.392065,1.481078,0.868986,0.454748,1.478976,1.252855,0.398947,0.964465,0.865125,0.461907,0.963725,1.248872,0.405188,1.480283,0.963219
48,0.400000,0.392060,1.481114,0.869002,0.454718,1.478993,1.252875,0.398873,0.964500,0.865128,0.461808,0.963742,1.248879,0.405177,1.480314,0.963235
49,0.408333,0.392070,1.481110,0.869000,0.454729,1.478992,1.252874,0.398895,0.964496,0.865128,0.461832,0.963740,1.248879,0.405187,1.480311,0.963234
50,0.416667,0.392076,1.481111,0.868998,0.454755,1.478993,1.252868,0.398909,0.964497,0.865125,0.461867,0.963742,1.248872,0.405198,1.480312,0.963231
51,0.425000,0.392332,1.481318,0.868985,0.454399,1.478992,1.252954,0.398765,0.964700,0.864909,0.461111,0.963737,1.248756,0.405303,1.480469,0.963239
52,0.433333,0.392058,1.481125,0.869015,0.454737,1.478996,1.252885,0.398872,0.964511,0.865129,0.461828,0.963744,1.248876,0.405180,1.480323,0.963248
53,0.441667,0.392069,1.481110,0.869006,0.454730,1.478992,1.252880,0.398894,0.964496,0.865134,0.461833,0.963741,1.248884,0.405187,1.480311,0.963240
54,0.450000,0.392072,1.481077,0.868981,0.454756,1.478978,1.252851,0.398950,0.964464,0.865125,0.461911,0.963727,1.248872,0.405195,1.480282,0.963214
55,0.458333,0.392072,1.481107,0.868997,0.454727,1.478999,1.252872,0.398899,0.964493,0.865139,0.461831,0.963747,1.248890,0.405188,1.480310,0.963231
56,0.466667,0.392077,1.481112,0.869004,0.454729,1.478999,1.252879,0.398907,0.964499,0.865138,0.461838,0.963748,1.248890,0.405192,1.480314,0.963238
57,0.475000,0.392079,1.481084,0.868990,0.454756,1.478987,1.252861,0.398971,0.964471,0.865134,0.461925,0.963736,1.248882,0.405201,1.480290,0.963223
58,0.483333,0.392068,1.481117,0.869000,0.454729,1.479001,1.252873,0.398879,0.964503,0.865134,0.461818,0.963750,1.248884,0.405185,1.480319,0.963234
59,0.491667,0.392062,1.481119,0.869008,0.454713,1.478992,1.252883,0.398867,0.964504,0.865128,0.461796,0.963741,1.248880,0.405177,1.480317,0.963242
60,0.500000,0.392068,1.481108,0.868999,0.454733,1.478995,1.252872,0.398879,0.964494,0.865135,0.461822,0.963743,1.248885,0.405187,1.480310,0.963233
61,0.508333,0.392075,1.481108,0.868995,0.454736,1.478993,1.252868,0.398915,0.964495,0.865125,0.461853,0.963742,1.248875,0.405193,1.480310,0.963229
62,0.516667,0.392067,1.481121,0.869000,0.454743,1.479009,1.252871,0.398912,0.964507,0.865134,0.461866,0.963758,1.248882,0.405189,1.480323,0.963233
63,0.525000,0.392327,1.481312,0.868995,0.454378,1.478990,1.252967,0.398771,0.964695,0.864923,0.461101,0.963736,1.248772,0.405295,1.480465,0.963249
64,0.533333,0.392318,1.481327,0.869002,0.454400,1.478997,1.252968,0.398765,0.964710,0.864917,0.461126,0.963742,1.248761,0.405294,1.480477,0.963255
65,0.541667,0.392074,1.481081,0.868983,0.454741,1.478981,1.252855,0.398973,0.964467,0.865124,0.461917,0.963731,1.248873,0.405193,1.480286,0.963216
66,0.550000,0.392069,1.481110,0.869000,0.454737,1.478994,1.252872,0.398893,0.964496,0.865131,0.461839,0.963743,1.248880,0.405188,1.480311,0.963234
67,0.558333,0.392073,1.481116,0.869006,0.454731,1.478999,1.252879,0.398894,0.964502,0.865136,0.461830,0.963748,1.248887,0.405190,1.480317,0.963239
68,0.566667,0.392083,1.481115,0.869002,0.454722,1.479001,1.252879,0.398904,0.964501,0.865136,0.461821,0.963750,1.248890,0.405195,1.480317,0.963237
69,0.575000,0.392065,1.481083,0.868988,0.454754,1.478984,1.252856,0.398966,0.964470,0.865129,0.461932,0.963734,1.248875,0.405190,1.480288,0.963220
70,0.583333,0.392082,1.481083,0.868988,0.454749,1.478984,1.252860,0.398964,0.964470,0.865131,0.461909,0.963733,1.248881,0.405201,1.480289,0.963221
71,0.591667,0.392069,1.481118,0.869006,0.454732,1.478990,1.252879,0.398888,0.964504,0.865121,0.461829,0.963738,1.248871,0.405187,1.480316,0.963239
72,0.600000,0.392070,1.481108,0.869012,0.454738,1.478985,1.252884,0.398889,0.964494,0.865134,0.461835,0.963734,1.248883,0.405189,1.480308,0.963245
73,0.608333,0.392072,1.481081,0.868986,0.454753,1.478980,1.252856,0.398978,0.964468,0.865124,0.461937,0.963730,1.248871,0.405195,1.480285,0.963219
74,0.616667,0.392060,1.481114,0.869002,0.454731,1.478998,1.252873,0.398885,0.964500,0.865132,0.461833,0.963747,1.248881,0.405180,1.480315,0.963235
75,0.625000,0.392066,1.481115,0.869004,0.454727,1.478995,1.252877,0.398878,0.964501,0.865131,0.461818,0.963743,1.248881,0.405183,1.480315,0.963237
76,0.633333,0.392079,1.481110,0.869007,0.454739,1.478983,1.252880,0.398919,0.964497,0.865119,0.461857,0.963732,1.248869,0.405197,1.480309,0.963240
77,0.641667,0.392071,1.481105,0.868999,0.454742,1.478994,1.252870,0.398919,0.964492,0.865131,0.461868,0.963742,1.248880,0.405191,1.480308,0.963232
78,0.650000,0.392069,1.481115,0.869009,0.454741,1.478991,1.252880,0.398897,0.964501,0.865129,0.461848,0.963740,1.248877,0.405189,1.480314,0.963242
79,0.658333,0.392057,1.481113,0.869010,0.454728,1.478991,1.252881,0.398886,0.964499,0.865132,0.461835,0.963740,1.248881,0.405177,1.480313,0.963243
80,0.666667,0.392069,1.481077,0.868984,0.454749,1.478975,1.252854,0.398953,0.964464,0.865122,0.461911,0.963724,1.248870,0.405192,1.480282,0.963217
81,0.675000,0.392079,1.481099,0.868999,0.454742,1.478976,1.252872,0.398910,0.964486,0.865118,0.461851,0.963724,1.248868,0.405197,1.480299,0.963233
82,0.683333,0.392073,1.481104,0.869004,0.454738,1.478989,1.252876,0.398899,0.964490,0.865134,0.461843,0.963737,1.248884,0.405191,1.480306,0.963237
83,0.691667,0.392076,1.481111,0.868998,0.454723,1.478994,1.252874,0.398918,0.964498,0.865124,0.461842,0.963742,1.248877,0.405190,1.480312,0.963232
84,0.700000,0.392077,1.481116,0.869001,0.454731,1.478990,1.252875,0.398903,0.964502,0.865118,0.461836,0.963739,1.248869,0.405193,1.480315,0.963235
85,0.708333,0.392069,1.481113,0.869001,0.454729,1.478994,1.252875,0.398882,0.964499,0.865129,0.461820,0.963742,1.248880,0.405186,1.480313,0.963235
86,0.716667,0.392069,1.481108,0.869001,0.454726,1.478994,1.252874,0.398889,0.964494,0.865136,0.461824,0.963743,1.248886,0.405186,1.480310,0.963234
87,0.725000,0.392065,1.481103,0.869005,0.454726,1.478989,1.252878,0.398880,0.964489,0.865139,0.461818,0.963737,1.248889,0.405183,1.480305,0.963239
88,0.733333,0.392071,1.481095,0.868995,0.454741,1.478983,1.252867,0.398906,0.964481,0.865130,0.461854,0.963732,1.248878,0.405191,1.480297,0.963229
89,0.741667,0.392077,1.481085,0.868984,0.454745,1.478987,1.252856,0.398984,0.964472,0.865125,0.461929,0.963736,1.248874,0.405197,1.480290,0.963217
90,0.750000,0.392078,1.481119,0.869003,0.454721,1.478999,1.252879,0.398920,0.964505,0.865126,0.461841,0.963748,1.248879,0.405191,1.480319,0.963237
91,0.758333,0.392062,1.481113,0.869004,0.454730,1.478990,1.252876,0.398900,0.964499,0.865122,0.461846,0.963739,1.248872,0.405182,1.480313,0.963237
92,0.766667,0.392070,1.481074,0.868983,0.454747,1.478978,1.252854,0.398938,0.964460,0.865133,0.461892,0.963727,1.248881,0.405192,1.480280,0.963216
93,0.775000,0.392063,1.481071,0.868987,0.454744,1.478975,1.252857,0.398951,0.964458,0.865134,0.461909,0.963724,1.248881,0.405186,1.480277,0.963220
94,0.783333,0.392077,1.481106,0.868997,0.454733,1.478990,1.252871,0.398918,0.964492,0.865125,0.461852,0.963739,1.248877,0.405194,1.480307,0.963231
95,0.791667,0.392066,1.481111,0.868991,0.454729,1.479000,1.252864,0.398901,0.964497,0.865127,0.461842,0.963749,1.248877,0.405184,1.480314,0.963225
96,0.800000,0.392067,1.481105,0.868996,0.454725,1.478994,1.252870,0.398900,0.964491,0.865132,0.461835,0.963743,1.248883,0.405184,1.480308,0.963230
97,0.808333,0.392324,1.481305,0.868994,0.454398,1.478992,1.252961,0.398820,0.964689,0.864924,0.461174,0.963738,1.248769,0.405297,1.480460,0.963247
98,0.816667,0.392070,1.481112,0.869003,0.454721,1.478987,1.252878,0.398905,0.964498,0.865120,0.461834,0.963736,1.248872,0.405185,1.480311,0.963237
99,0.825000,0.392060,1.481110,0.869001,0.454727,1.478992,1.252874,0.398890,0.964496,0.865128,0.461834,0.963741,1.248878,0.405179,1.480311,0.963235
100,0.833333,0.392077,1.481101,0.869003,0.454731,1.478983,1.252877,0.398912,0.964487,0.865130,0.461844,0.963732,1.248881,0.405193,1.480301,0.963237
101,0.841667,0.392085,1.481099,0.868998,0.454741,1.478988,1.252872,0.398917,0.964485,0.865134,0.461851,0.963737,1.248885,0.405201,1.480302,0.963232
102,0.850000,0.392085,1.481105,0.869002,0.454736,1.478982,1.252877,0.398912,0.964491,0.865122,0.461841,0.963731,1.248874,0.405200,1.480305,0.963236
103,0.858333,0.392075,1.481099,0.869001,0.454722,1.478990,1.252877,0.398906,0.964485,0.865141,0.461831,0.963739,1.248894,0.405189,1.480302,0.963235
104,0.866667,0.392069,1.481104,0.869002,0.454734,1.478989,1.252874,0.398907,0.964490,0.865131,0.461850,0.963737,1.248880,0.405188,1.480305,0.963235
105,0.875000,0.392089,1.481110,0.868999,0.454729,1.478990,1.252875,0.398913,0.964496,0.865124,0.461831,0.963739,1.248878,0.405202,1.480311,0.963233
106,0.883333,0.392083,1.481111,0.869000,0.454730,1.478999,1.252876,0.398892,0.964497,0.865138,0.461816,0.963747,1.248891,0.405197,1.480314,0.963234
107,0.891667,0.392076,1.481102,0.869004,0.454730,1.478982,1.252879,0.398901,0.964488,0.865130,0.461833,0.963731,1.248881,0.405192,1.480302,0.963238
108,0.900000,0.392088,1.481087,0.869000,0.454746,1.478974,1.252873,0.398915,0.964473,0.865135,0.461851,0.963723,1.248885,0.405205,1.480289,0.963233
109,0.908333,0.392340,1.481310,0.869001,0.454423,1.478991,1.252967,0.398820,0.964693,0.864926,0.461182,0.963737,1.248770,0.405316,1.480463,0.963253
110,0.916667,0.392080,1.481081,0.868991,0.454752,1.478987,1.252862,0.398975,0.964467,0.865140,0.461924,0.963736,1.248888,0.405200,1.480287,0.963224
111,0.925000,0.392082,1.481104,0.869004,0.454749,1.478993,1.252876,0.398916,0.964490,0.865139,0.461861,0.963741,1.248889,0.405201,1.480306,0.963237
112,0.933333,0.392098,1.481078,0.868986,0.454757,1.478977,1.252860,0.398997,0.964465,0.865125,0.461933,0.963727,1.248876,0.405215,1.480283,0.963220
113,0.941667,0.392078,1.481066,0.868990,0.454748,1.478970,1.252862,0.398964,0.964453,0.865138,0.461911,0.963720,1.248887,0.405198,1.480272,0.963223
114,0.950000,0.392087,1.481099,0.869004,0.454728,1.478976,1.252881,0.398905,0.964485,0.865126,0.461824,0.963724,1.248880,0.405199,1.480299,0.963238
115,0.958333,0.392083,1.481101,0.869003,0.454741,1.478988,1.252877,0.398918,0.964487,0.865137,0.461853,0.963737,1.248888,0.405200,1.480303,0.963237
116,0.966667,0.392336,1.481308,0.868992,0.454415,1.478985,1.252958,0.398804,0.964691,0.864913,0.461163,0.963730,1.248757,0.405311,1.480460,0.963245
117,0.975000,0.392327,1.481297,0.869001,0.454403,1.478989,1.252968,0.398800,0.964680,0.864941,0.461155,0.963734,1.248786,0.405301,1.480453,0.963254
118,0.983333,0.392081,1.481102,0.869000,0.454731,1.478987,1.252875,0.398913,0.964488,0.865131,0.461841,0.963736,1.248883,0.405196,1.480303,0.963234
119,0.991667,0.392083,1.481069,0.868978,0.454741,1.478977,1.252852,0.398979,0.964456,0.865129,0.461914,0.963726,1.248880,0.405200,1.480276,0.963212
120,1.000000,0.392070,1.481068,0.868984,0.454750,1.478979,1.252855,0.398975,0.964455,0.865137,0.461932,0.963728,1.248884,0.405192,1.480276,0.963217
121,1.008333,0.392073,1.481107,0.869002,0.454737,1.478993,1.252875,0.398899,0.964493,0.865136,0.461841,0.963742,1.248886,0.405192,1.480309,0.963236
122,1.016667,0.392045,1.481370,0.869147,0.454530,1.479107,1.253048,0.399123,0.964761,0.865042,0.461885,0.963861,1.248821,0.405120,1.480534,0.963387
123,1.025000,0.392160,1.481277,0.869071,0.454504,1.479039,1.252996,0.399080,0.964665,0.865029,0.461702,0.963790,1.248831,0.405200,1.480448,0.963316
124,1.033333,0.392085,1.481079,0.868982,0.454746,1.478990,1.252855,0.398966,0.964466,0.865140,0.461905,0.963740,1.248890,0.405202,1.480287,0.963215
125,1.041667,0.392065,1.481109,0.869006,0.454735,1.478988,1.252878,0.398888,0.964495,0.865131,0.461836,0.963737,1.248880,0.405185,1.480309,0.963240
126,1.050000,0.392075,1.481101,0.869000,0.454729,1.478985,1.252875,0.398907,0.964487,0.865130,0.461839,0.963734,1.248881,0.405191,1.480303,0.963234
127,1.058333,0.392086,1.481069,0.868989,0.454753,1.478966,1.252862,0.398973,0.964456,0.865128,0.461918,0.963716,1.248878,0.405206,1.480273,0.963223
128,1.066667,0.392086,1.481074,0.868993,0.454738,1.478984,1.252868,0.398976,0.964461,0.865148,0.461906,0.963733,1.248900,0.405202,1.480281,0.963227
129,1.075000,0.392073,1.481109,0.869007,0.454716,1.478995,1.252884,0.398897,0.964495,0.865142,0.461817,0.963744,1.248895,0.405187,1.480311,0.963242
130,1.083333,0.392082,1.481075,0.868984,0.454733,1.478988,1.252859,0.398969,0.964461,0.865144,0.461898,0.963737,1.248896,0.405197,1.480283,0.963218
131,1.091667,0.392084,1.481078,0.868978,0.454740,1.478974,1.252852,0.398959,0.964464,0.865117,0.461893,0.963723,1.248868,0.405200,1.480282,0.963212
132,1.100000,0.392083,1.481100,0.869000,0.454733,1.478985,1.252875,0.398891,0.964486,0.865134,0.461819,0.963733,1.248886,0.405198,1.480301,0.963234
133,1.108333,0.392080,1.481103,0.869009,0.454724,1.478989,1.252885,0.398902,0.964489,0.865143,0.461824,0.963737,1.248896,0.405194,1.480305,0.963243
134,1.116667,0.392084,1.481073,0.868992,0.454742,1.478976,1.252866,0.398965,0.964460,0.865138,0.461901,0.963726,1.248889,0.405201,1.480279,0.963225
135,1.125000,0.392079,1.481104,0.869006,0.454730,1.478993,1.252881,0.398904,0.964490,0.865143,0.461834,0.963741,1.248895,0.405194,1.480306,0.963240
136,1.133333,0.392070,1.481113,0.869006,0.454736,1.478993,1.252878,0.398894,0.964499,0.865131,0.461837,0.963742,1.248881,0.405189,1.480313,0.963239
137,1.141667,0.392077,1.481109,0.869001,0.454719,1.478991,1.252877,0.398893,0.964494,0.865131,0.461813,0.963740,1.248885,0.405190,1.480310,0.963235
138,1.150000,0.392061,1.481132,0.869027,0.454747,1.479003,1.252897,0.398970,0.964519,0.865126,0.461934,0.963753,1.248873,0.405184,1.480330,0.963260
139,1.158333,0.392081,1.481103,0.869006,0.454741,1.478992,1.252880,0.398888,0.964488,0.865147,0.461827,0.963740,1.248897,0.405198,1.480305,0.963240
140,1.166667,0.392078,1.481110,0.869007,0.454727,1.478990,1.252882,0.398916,0.964497,0.865130,0.461843,0.963739,1.248882,0.405193,1.480310,0.963241
141,1.175000,0.392084,1.481076,0.868987,0.454741,1.478985,1.252861,0.398963,0.964462,0.865143,0.461898,0.963734,1.248894,0.405201,1.480283,0.963221
142,1.183333,0.392089,1.481103,0.868995,0.454726,1.478986,1.252872,0.398898,0.964489,0.865128,0.461814,0.963735,1.248882,0.405201,1.480304,0.963230
143,1.191667,0.392088,1.481109,0.869008,0.454746,1.478988,1.252882,0.398904,0.964495,0.865135,0.461839,0.963737,1.248885,0.405205,1.480309,0.963242
144,1.200000,0.392081,1.481111,0.869015,0.454742,1.478993,1.252888,0.398903,0.964497,0.865143,0.461842,0.963742,1.248894,0.405199,1.480312,0.963249
145,1.208333,0.392078,1.481109,0.869009,0.454733,1.478998,1.252883,0.398880,0.964495,0.865150,0.461813,0.963746,1.248901,0.405194,1.480312,0.963243
146,1.216667,0.392337,1.481305,0.868995,0.454398,1.478976,1.252964,0.398790,0.964688,0.864911,0.461130,0.963722,1.248759,0.405307,1.480456,0.963248
147,1.225000,0.392080,1.481096,0.868998,0.454730,1.478984,1.252873,0.398912,0.964482,0.865133,0.461839,0.963733,1.248886,0.405195,1.480298,0.963232
148,1.233333,0.392085,1.481097,0.869001,0.454737,1.478992,1.252876,0.398932,0.964483,0.865143,0.461862,0.963741,1.248895,0.405201,1.480301,0.963235
149,1.241667,0.392078,1.481079,0.868990,0.454744,1.478983,1.252863,0.398975,0.964466,0.865136,0.461919,0.963733,1.248886,0.405197,1.480285,0.963224
150,1.250000,0.392074,1.481115,0.869010,0.454729,1.478997,1.252884,0.398887,0.964501,0.865140,0.461821,0.963745,1.248891,0.405190,1.480316,0.963244
151,1.258333,0.392085,1.481104,0.868999,0.454730,1.478982,1.252875,0.398887,0.964490,0.865126,0.461810,0.963731,1.248879,0.405198,1.480304,0.963234
152,1.266667,0.392086,1.481101,0.868993,0.454731,1.478981,1.252869,0.398915,0.964487,0.865119,0.461839,0.963730,1.248871,0.405200,1.480301,0.963228
153,1.275000,0.392074,1.481096,0.868997,0.454739,1.478987,1.252870,0.398911,0.964482,0.865134,0.461854,0.963735,1.248884,0.405192,1.480299,0.963230
154,1.283333,0.392077,1.481107,0.869004,0.454742,1.478988,1.252877,0.398898,0.964493,0.865131,0.461841,0.963736,1.248881,0.405195,1.480307,0.963238
155,1.291667,0.392083,1.481078,0.868984,0.454745,1.478982,1.252857,0.398964,0.964465,0.865132,0.461903,0.963731,1.248882,0.405201,1.480284,0.963217
156,1.300000,0.392076,1.481105,0.868994,0.454731,1.478986,1.252868,0.398907,0.964491,0.865119,0.461840,0.963735,1.248870,0.405192,1.480306,0.963228
157,1.308333,0.392075,1.481109,0.868997,0.454726,1.478988,1.252872,0.398892,0.964495,0.865123,0.461820,0.963737,1.248875,0.405190,1.480309,0.963232
158,1.316667,0.392069,1.481097,0.868999,0.454719,1.478976,1.252874,0.398907,0.964483,0.865122,0.461834,0.963725,1.248874,0.405184,1.480297,0.963233
159,1.325000,0.392070,1.481100,0.869000,0.454739,1.478980,1.252872,0.398901,0.964487,0.865123,0.461848,0.963729,1.248872,0.405190,1.480301,0.963233
160,1.333333,0.392343,1.481303,0.868992,0.454401,1.478996,1.252962,0.398827,0.964686,0.864932,0.461163,0.963741,1.248780,0.405313,1.480459,0.963245
161,1.341667,0.392057,1.481090,0.868989,0.454738,1.478984,1.252859,0.398941,0.964477,0.865123,0.461899,0.963733,1.248870,0.405180,1.480294,0.963222
162,1.350000,0.392078,1.481103,0.869002,0.454743,1.478988,1.252874,0.398876,0.964489,0.865137,0.461819,0.963736,1.248887,0.405197,1.480305,0.963235
163,1.358333,0.392103,1.481094,0.868997,0.454710,1.478901,1.252879,0.398839,0.964480,0.865040,0.461724,0.963649,1.248798,0.405208,1.480277,0.963232
164,1.366667,0.392077,1.481101,0.869005,0.454744,1.478984,1.252877,0.398904,0.964487,0.865134,0.461848,0.963733,1.248884,0.405196,1.480302,0.963238
165,1.375000,0.392073,1.481115,0.868994,0.454724,1.479001,1.252869,0.398882,0.964501,0.865130,0.461811,0.963749,1.248882,0.405188,1.480317,0.963228
166,1.383333,0.392076,1.481108,0.868997,0.454731,1.478991,1.252872,0.398874,0.964493,0.865132,0.461807,0.963740,1.248883,0.405192,1.480309,0.963231
167,1.391667,0.392049,1.481354,0.869138,0.454535,1.479096,1.253039,0.399106,0.964745,0.865043,0.461869,0.963850,1.248822,0.405124,1.480520,0.963377
168,1.400000,0.392075,1.481097,0.869002,0.454733,1.478984,1.252876,0.398910,0.964483,0.865135,0.461846,0.963733,1.248885,0.405192,1.480299,0.963236
169,1.408333,0.392071,1.481104,0.869004,0.454726,1.478988,1.252878,0.398887,0.964490,0.865137,0.461820,0.963737,1.248888,0.405187,1.480305,0.963238
170,1.416667,0.392082,1.481106,0.868995,0.454736,1.478988,1.252869,0.398900,0.964492,0.865124,0.461832,0.963736,1.248876,0.405198,1.480307,0.963229
171,1.425000,0.392087,1.481111,0.868998,0.454737,1.478994,1.252873,0.398899,0.964497,0.865129,0.461827,0.963742,1.248881,0.405202,1.480312,0.963232
172,1.433333,0.392074,1.481117,0.869006,0.454738,1.479001,1.252878,0.398903,0.964503,0.865136,0.461845,0.963750,1.248886,0.405193,1.480318,0.963239
173,1.441667,0.392080,1.481105,0.869005,0.454728,1.478993,1.252881,0.398886,0.964491,0.865145,0.461812,0.963741,1.248897,0.405195,1.480307,0.963240
174,1.450000,0.392092,1.481097,0.868995,0.454739,1.478984,1.252871,0.398905,0.964483,0.865131,0.461830,0.963732,1.248884,0.405206,1.480299,0.963229
175,1.458333,0.392092,1.481075,0.868981,0.454752,1.478968,1.252854,0.398982,0.964462,0.865113,0.461919,0.963718,1.248864,0.405210,1.480278,0.963214
176,1.466667,0.392076,1.481114,0.868998,0.454733,1.478999,1.252872,0.398885,0.964500,0.865132,0.461820,0.963747,1.248883,0.405193,1.480316,0.963232
177,1.475000,0.392064,1.481117,0.869010,0.454736,1.478995,1.252882,0.398890,0.964503,0.865133,0.461840,0.963744,1.248882,0.405184,1.480317,0.963244
178,1.483333,0.392092,1.481072,0.868995,0.454757,1.478971,1.252867,0.398966,0.964459,0.865137,0.461910,0.963720,1.248887,0.405210,1.480277,0.963229
179,1.491667,0.392074,1.481063,0.868987,0.454765,1.478975,1.252855,0.398970,0.964450,0.865142,0.461939,0.963724,1.248887,0.405199,1.480271,0.963220
180,1.500000,0.392069,1.481103,0.869007,0.454717,1.478981,1.252883,0.398894,0.964489,0.865130,0.461820,0.963730,1.248882,0.405183,1.480303,0.963242
181,1.508333,0.392078,1.481107,0.869008,0.454732,1.478993,1.252882,0.398889,0.964493,0.865143,0.461821,0.963741,1.248895,0.405194,1.480309,0.963242
182,1.516667,0.392335,1.481308,0.868993,0.454414,1.478993,1.252960,0.398802,0.964691,0.864925,0.461160,0.963738,1.248769,0.405310,1.480462,0.963246
183,1.525000,0.392052,1.481143,0.869029,0.454737,1.479013,1.252898,0.398986,0.964531,0.865122,0.461950,0.963763,1.248868,0.405175,1.480341,0.963262
184,1.533333,0.392081,1.481110,0.869017,0.454711,1.478910,1.252895,0.398814,0.964496,0.865051,0.461723,0.963658,1.248806,0.405191,1.480291,0.963252
185,1.541667,0.392082,1.481100,0.869011,0.454741,1.478980,1.252884,0.398888,0.964486,0.865139,0.461824,0.963729,1.248890,0.405199,1.480301,0.963244
186,1.550000,0.392087,1.481098,0.868998,0.454737,1.478987,1.252873,0.398931,0.964484,0.865132,0.461859,0.963736,1.248884,0.405202,1.480300,0.963232
187,1.558333,0.392074,1.481100,0.869012,0.454735,1.478986,1.252885,0.398914,0.964486,0.865143,0.461853,0.963735,1.248893,0.405192,1.480301,0.963245
188,1.566667,0.392073,1.481116,0.869018,0.454739,1.478995,1.252891,0.398891,0.964502,0.865143,0.461835,0.963743,1.248893,0.405192,1.480316,0.963252
189,1.575000,0.392075,1.481109,0.869010,0.454741,1.478985,1.252883,0.398896,0.964495,0.865132,0.461840,0.963734,1.248881,0.405194,1.480308,0.963244
190,1.583333,0.392081,1.481102,0.869007,0.454739,1.478987,1.252880,0.398893,0.964487,0.865141,0.461828,0.963735,1.248892,0.405198,1.480303,0.963240
191,1.591667,0.392064,1.481098,0.869011,0.454729,1.478986,1.252884,0.398895,0.964484,0.865146,0.461837,0.963735,1.248896,0.405183,1.480300,0.963244
192,1.600000,0.392084,1.481100,0.869007,0.454716,1.478984,1.252885,0.398915,0.964486,0.865138,0.461824,0.963733,1.248893,0.405195,1.480301,0.963241
193,1.608333,0.392088,1.481070,0.868988,0.454749,1.478980,1.252861,0.398980,0.964456,0.865143,0.461918,0.963730,1.248894,0.405205,1.480277,0.963222
194,1.616667,0.392328,1.481301,0.868995,0.454396,1.478984,1.252963,0.398798,0.964684,0.864924,0.461145,0.963729,1.248770,0.405300,1.480454,0.963248
195,1.625000,0.392069,1.481111,0.869014,0.454726,1.478979,1.252888,0.398878,0.964497,0.865127,0.461813,0.963728,1.248878,0.405186,1.480309,0.963248
196,1.633333,0.392086,1.481097,0.869007,0.454734,1.478984,1.252882,0.398891,0.964483,0.865145,0.461817,0.963732,1.248898,0.405201,1.480299,0.963241
197,1.641667,0.392106,1.481095,0.868998,0.454707,1.478903,1.252880,0.398850,0.964481,0.865040,0.461730,0.963651,1.248800,0.405209,1.480278,0.963233
198,1.650000,0.392071,1.481105,0.869007,0.454722,1.478996,1.252882,0.398897,0.964491,0.865147,0.461826,0.963744,1.248899,0.405186,1.480308,0.963241
199,1.658333,0.392078,1.481117,0.869009,0.454720,1.478996,1.252885,0.398889,0.964502,0.865136,0.461809,0.963744,1.248889,0.405191,1.480317,0.963243
200,1.666667,0.392085,1.481106,0.869006,0.454730,1.478988,1.252882,0.398898,0.964491,0.865136,0.461821,0.963736,1.248889,0.405199,1.480307,0.963240
201,1.675000,0.392072,1.481104,0.868998,0.454730,1.478978,1.252872,0.398909,0.964490,0.865114,0.461845,0.963727,1.248864,0.405189,1.480302,0.963232
202,1.683333,0.392078,1.481104,0.869003,0.454720,1.478988,1.252879,0.398911,0.964490,0.865134,0.461830,0.963737,1.248887,0.405191,1.480305,0.963237
203,1.691667,0.392081,1.481108,0.869010,0.454728,1.478995,1.252885,0.398904,0.964494,0.865144,0.461828,0.963743,1.248897,0.405196,1.480310,0.963244
204,1.700000,0.392091,1.481099,0.869003,0.454725,1.478988,1.252881,0.398910,0.964485,0.865142,0.461822,0.963736,1.248896,0.405202,1.480302,0.963238
205,1.708333,0.392079,1.481077,0.868988,0.454742,1.478981,1.252861,0.398955,0.964463,0.865138,0.461897,0.963731,1.248888,0.405197,1.480283,0.963222
206,1.716667,0.392068,1.481108,0.869005,0.454727,1.478986,1.252879,0.398901,0.964494,0.865126,0.461838,0.963734,1.248876,0.405185,1.480308,0.963239
207,1.725000,0.392093,1.481103,0.869006,0.454732,1.478981,1.252883,0.398901,0.964488,0.865132,0.461818,0.963729,1.248886,0.405205,1.480302,0.963241
208,1.733333,0.392097,1.481101,0.869003,0.454739,1.478987,1.252880,0.398917,0.964487,0.865138,0.461836,0.963735,1.248891,0.405210,1.480303,0.963238
209,1.741667,0.392091,1.481077,0.868988,0.454734,1.478983,1.252864,0.398968,0.964464,0.865140,0.461888,0.963732,1.248893,0.405205,1.480284,0.963222
210,1.750000,0.392080,1.481113,0.869003,0.454711,1.478993,1.252881,0.398892,0.964499,0.865130,0.461801,0.963741,1.248886,0.405190,1.480313,0.963238
211,1.758333,0.392089,1.481110,0.869005,0.454736,1.478990,1.252880,0.398882,0.964495,0.865136,0.461807,0.963738,1.248888,0.405203,1.480310,0.963239
212,1.766667,0.392082,1.481102,0.869002,0.454732,1.478979,1.252877,0.398902,0.964488,0.865125,0.461830,0.963728,1.248877,0.405197,1.480302,0.963236
213,1.775000,0.392083,1.481101,0.869001,0.454724,1.478985,1.252877,0.398912,0.964487,0.865132,0.461830,0.963734,1.248886,0.405196,1.480302,0.963235
214,1.783333,0.392088,1.481102,0.869002,0.454740,1.478982,1.252876,0.398914,0.964488,0.865127,0.461843,0.963731,1.248878,0.405203,1.480303,0.963235
215,1.791667,0.392100,1.481083,0.868984,0.454757,1.478993,1.252858,0.398966,0.964469,0.865143,0.461901,0.963742,1.248894,0.405217,1.480291,0.963218
216,1.800000,0.392082,1.481085,0.868994,0.454744,1.478980,1.252867,0.398950,0.964472,0.865132,0.461890,0.963730,1.248882,0.405200,1.480289,0.963227
217,1.808333,0.392073,1.481108,0.869014,0.454720,1.478985,1.252890,0.398893,0.964494,0.865136,0.461818,0.963733,1.248888,0.405187,1.480308,0.963249
218,1.816667,0.392076,1.481067,0.868996,0.454739,1.478970,1.252869,0.398978,0.964454,0.865140,0.461919,0.963720,1.248890,0.405194,1.480273,0.963229
219,1.825000,0.392085,1.481097,0.868993,0.454725,1.478983,1.252870,0.398926,0.964483,0.865124,0.461844,0.963732,1.248878,0.405197,1.480299,0.963227
220,1.833333,0.392090,1.481106,0.869000,0.454709,1.478989,1.252880,0.398910,0.964492,0.865131,0.461807,0.963737,1.248888,0.405197,1.480307,0.963235
221,1.841667,0.392081,1.481089,0.868988,0.454729,1.478984,1.252864,0.398972,0.964476,0.865124,0.461897,0.963734,1.248876,0.405196,1.480293,0.963222
222,1.850000,0.392082,1.481080,0.868990,0.454734,1.478978,1.252865,0.398962,0.964466,0.865131,0.461891,0.963728,1.248883,0.405198,1.480284,0.963224
223,1.858333,0.392084,1.481107,0.869001,0.454730,1.478985,1.252877,0.398907,0.964493,0.865125,0.461831,0.963734,1.248878,0.405198,1.480307,0.963235
224,1.866667,0.392074,1.481096,0.868997,0.454726,1.478987,1.252872,0.398897,0.964482,0.865137,0.461826,0.963735,1.248889,0.405190,1.480299,0.963231
225,1.875000,0.392074,1.481093,0.869003,0.454717,1.478984,1.252879,0.398906,0.964479,0.865143,0.461827,0.963733,1.248896,0.405187,1.480296,0.963237
226,1.883333,0.392339,1.481294,0.869002,0.454394,1.478963,1.252972,0.398777,0.964677,0.864917,0.461111,0.963708,1.248766,0.405308,1.480444,0.963256
227,1.891667,0.392090,1.481108,0.869002,0.454720,1.478977,1.252881,0.398920,0.964495,0.865113,0.461828,0.963726,1.248868,0.405200,1.480306,0.963237
228,1.900000,0.392082,1.481079,0.868987,0.454724,1.478974,1.252863,0.398960,0.964465,0.865125,0.461879,0.963724,1.248879,0.405195,1.480283,0.963221
229,1.908333,0.392336,1.481281,0.868996,0.454387,1.478972,1.252967,0.398798,0.964663,0.864938,0.461128,0.963717,1.248787,0.405304,1.480436,0.963250
230,1.916667,0.392080,1.481100,0.868999,0.454723,1.478980,1.252875,0.398897,0.964486,0.865127,0.461819,0.963729,1.248880,0.405193,1.480300,0.963234
231,1.925000,0.392334,1.481296,0.868994,0.454410,1.478968,1.252961,0.398789,0.964679,0.864909,0.461144,0.963713,1.248755,0.405308,1.480447,0.963247
232,1.933333,0.392078,1.481076,0.868984,0.454726,1.478980,1.252859,0.398987,0.964463,0.865127,0.461912,0.963730,1.248880,0.405193,1.480282,0.963218
233,1.941667,0.392320,1.481286,0.869001,0.454397,1.478966,1.252968,0.398792,0.964669,0.864926,0.461147,0.963712,1.248771,0.405294,1.480439,0.963254
234,1.950000,0.392322,1.481294,0.869005,0.454402,1.478968,1.252972,0.398815,0.964677,0.864919,0.461174,0.963714,1.248763,0.405297,1.480445,0.963259
235,1.958333,0.392077,1.481062,0.868975,0.454731,1.478970,1.252850,0.398969,0.964449,0.865127,0.461901,0.963719,1.248879,0.405193,1.480269,0.963209
236,1.966667,0.392064,1.481102,0.868999,0.454725,1.478990,1.252873,0.398916,0.964489,0.865131,0.461854,0.963739,1.248881,0.405182,1.480304,0.963233
237,1.975000,0.392078,1.481096,0.869000,0.454709,1.478980,1.252878,0.398912,0.964482,0.865130,0.461821,0.963728,1.248885,0.405188,1.480297,0.963235
238,1.983333,0.392077,1.481096,0.869002,0.454729,1.478980,1.252877,0.398894,0.964482,0.865134,0.461824,0.963728,1.248886,0.405192,1.480297,0.963236
239,1.991667,0.392070,1.481067,0.868977,0.454736,1.478967,1.252849,0.398956,0.964453,0.865119,0.461899,0.963716,1.248869,0.405189,1.480272,0.963210
240,2.000000,0.392080,1.481092,0.868987,0.454715,1.478974,1.252864,0.398910,0.964478,0.865115,0.461823,0.963723,1.248870,0.405192,1.480293,0.963221
241,2.008333,0.392084,1.481089,0.868991,0.454719,1.478978,1.252868,0.398908,0.964475,0.865129,0.461821,0.963727,1.248884,0.405195,1.480291,0.963225
242,2.016667,0.392334,1.481304,0.868983,0.454395,1.478967,1.252953,0.398779,0.964687,0.864890,0.461118,0.963713,1.248738,0.405304,1.480453,0.963237
243,2.025000,0.392077,1.481105,0.868995,0.454726,1.478988,1.252870,0.398911,0.964491,0.865124,0.461838,0.963737,1.248876,0.405192,1.480306,0.963229
244,2.033333,0.392065,1.481101,0.869001,0.454714,1.478986,1.252876,0.398898,0.964487,0.865132,0.461825,0.963735,1.248884,0.405180,1.480303,0.963235
245,2.041667,0.392313,1.481287,0.868995,0.454403,1.478964,1.252959,0.398770,0.964670,0.864917,0.461138,0.963709,1.248760,0.405290,1.480439,0.963247
246,2.050000,0.392073,1.481092,0.868989,0.454724,1.478973,1.252864,0.398910,0.964478,0.865114,0.461838,0.963722,1.248866,0.405188,1.480292,0.963223
247,2.058333,0.392085,1.481097,0.868994,0.454726,1.478989,1.252871,0.398920,0.964483,0.865134,0.461838,0.963737,1.248887,0.405198,1.480300,0.963229
248,2.066667,0.392316,1.481300,0.868998,0.454414,1.478971,1.252962,0.398772,0.964683,0.864912,0.461149,0.963717,1.248754,0.405295,1.480451,0.963250
249,2.075000,0.392083,1.481100,0.869003,0.454716,1.478980,1.252880,0.398911,0.964486,0.865127,0.461821,0.963728,1.248882,0.405194,1.480300,0.963237
250,2.083333,0.392090,1.481072,0.868986,0.454730,1.478971,1.252863,0.398974,0.964459,0.865127,0.461892,0.963720,1.248881,0.405203,1.480277,0.963220
251,2.091667,0.392076,1.481099,0.869000,0.454714,1.478973,1.252877,0.398885,0.964485,0.865120,0.461801,0.963722,1.248874,0.405188,1.480298,0.963234
252,2.100000,0.392081,1.481096,0.869000,0.454722,1.478977,1.252876,0.398907,0.964482,0.865127,0.461825,0.963725,1.248881,0.405194,1.480296,0.963234
253,2.108333,0.392081,1.481098,0.868999,0.454717,1.478973,1.252876,0.398921,0.964485,0.865115,0.461835,0.963722,1.248869,0.405193,1.480297,0.963234
254,2.116667,0.392086,1.481100,0.869005,0.454720,1.478977,1.252882,0.398912,0.964486,0.865127,0.461823,0.963726,1.248882,0.405197,1.480300,0.963239
255,2.125000,0.392082,1.481068,0.868993,0.454741,1.478967,1.252867,0.398966,0.964455,0.865134,0.461902,0.963716,1.248885,0.405199,1.480273,0.963227
256,2.133333,0.392076,1.481092,0.869002,0.454707,1.478971,1.252881,0.398900,0.964478,0.865128,0.461808,0.963720,1.248883,0.405187,1.480292,0.963237
257,2.141667,0.392079,1.481092,0.868996,0.454725,1.478979,1.252872,0.398916,0.964478,0.865130,0.461840,0.963728,1.248883,0.405193,1.480294,0.963231
258,2.150000,0.392081,1.481099,0.869004,0.454721,1.478975,1.252881,0.398905,0.964485,0.865124,0.461822,0.963723,1.248878,0.405194,1.480299,0.963239
259,2.158333,0.392083,1.481090,0.869002,0.454720,1.478973,1.252879,0.398913,0.964476,0.865131,0.461828,0.963722,1.248885,0.405195,1.480291,0.963236
260,2.166667,0.392087,1.481099,0.868999,0.454732,1.478978,1.252874,0.398908,0.964485,0.865124,0.461831,0.963727,1.248876,0.405201,1.480299,0.963233
261,2.175000,0.392069,1.481107,0.869010,0.454724,1.478983,1.252885,0.398899,0.964494,0.865129,0.461832,0.963732,1.248880,0.405185,1.480307,0.963244
262,2.183333,0.392070,1.481098,0.869005,0.454721,1.478979,1.252880,0.398902,0.964485,0.865131,0.461830,0.963728,1.248883,0.405185,1.480299,0.963239
263,2.191667,0.392083,1.481096,0.869005,0.454721,1.478966,1.252882,0.398911,0.964482,0.865117,0.461827,0.963715,1.248871,0.405195,1.480294,0.963239
264,2.200000,0.392083,1.481094,0.868998,0.454725,1.478976,1.252874,0.398919,0.964480,0.865125,0.461838,0.963725,1.248878,0.405196,1.480294,0.963232
265,2.208333,0.392075,1.481077,0.868999,0.454733,1.478974,1.252873,0.398961,0.964464,0.865137,0.461897,0.963723,1.248888,0.405192,1.480281,0.963233
266,2.216667,0.392072,1.481106,0.869013,0.454713,1.478980,1.252889,0.398899,0.964492,0.865129,0.461818,0.963728,1.248883,0.405185,1.480305,0.963247
267,2.225000,0.392076,1.481070,0.868989,0.454729,1.478969,1.252864,0.398963,0.964457,0.865130,0.461893,0.963718,1.248882,0.405192,1.480275,0.963223
268,2.233333,0.392041,1.481123,0.869015,0.454740,1.479003,1.252882,0.398940,0.964510,0.865127,0.461917,0.963753,1.248871,0.405168,1.480323,0.963247
269,2.241667,0.392077,1.481103,0.869010,0.454711,1.478986,1.252887,0.398914,0.964489,0.865138,0.461826,0.963735,1.248892,0.405189,1.480304,0.963244
270,2.250000,0.392070,1.481110,0.869017,0.454714,1.478989,1.252893,0.398902,0.964496,0.865140,0.461824,0.963738,1.248893,0.405183,1.480310,0.963251
271,2.258333,0.392325,1.481302,0.869004,0.454393,1.478973,1.252972,0.398793,0.964686,0.864917,0.461140,0.963719,1.248763,0.405297,1.480453,0.963257
272,2.266667,0.392083,1.481066,0.868991,0.454734,1.478961,1.252865,0.398974,0.964452,0.865126,0.461904,0.963711,1.248878,0.405198,1.480269,0.963225
273,2.275000,0.392094,1.481103,0.869006,0.454687,1.478903,1.252890,0.398839,0.964488,0.865038,0.461710,0.963651,1.248799,0.405195,1.480284,0.963242
274,2.283333,0.392071,1.481101,0.869004,0.454708,1.478985,1.252881,0.398902,0.964487,0.865134,0.461817,0.963733,1.248888,0.405183,1.480302,0.963238
275,2.291667,0.392073,1.481085,0.868994,0.454733,1.478978,1.252868,0.398974,0.964472,0.865126,0.461911,0.963728,1.248876,0.405191,1.480288,0.963228
276,2.300000,0.392074,1.481079,0.868993,0.454730,1.478977,1.252868,0.398951,0.964466,0.865135,0.461885,0.963727,1.248886,0.405190,1.480284,0.963227
277,2.308333,0.392312,1.481315,0.869002,0.454404,1.478984,1.252967,0.398760,0.964697,0.864916,0.461131,0.963729,1.248758,0.405290,1.480465,0.963255
278,2.316667,0.392075,1.481094,0.868998,0.454721,1.478977,1.252874,0.398900,0.964480,0.865128,0.461823,0.963726,1.248881,0.405189,1.480295,0.963232
279,2.325000,0.392331,1.481298,0.869001,0.454382,1.478960,1.252972,0.398776,0.964680,0.864906,0.461106,0.963705,1.248755,0.405299,1.480446,0.963255
280,2.333333,0.392076,1.481103,0.869004,0.454716,1.478981,1.252881,0.398900,0.964489,0.865128,0.461818,0.963730,1.248881,0.405189,1.480303,0.963238
281,2.341667,0.392073,1.481106,0.869004,0.454717,1.478990,1.252880,0.398903,0.964492,0.865135,0.461824,0.963739,1.248888,0.405186,1.480307,0.963239
282,2.350000,0.392080,1.481109,0.869001,0.454711,1.478982,1.252879,0.398898,0.964495,0.865118,0.461807,0.963731,1.248873,0.405190,1.480308,0.963236
283,2.358333,0.392068,1.481068,0.868989,0.454734,1.478969,1.252861,0.398937,0.964454,0.865134,0.461881,0.963718,1.248884,0.405187,1.480273,0.963222
284,2.366667,0.392081,1.481074,0.868999,0.454727,1.478967,1.252875,0.398968,0.964461,0.865133,0.461891,0.963717,1.248886,0.405195,1.480277,0.963233
285,2.375000,0.392076,1.481102,0.869006,0.454714,1.478981,1.252883,0.398902,0.964488,0.865129,0.461817,0.963729,1.248883,0.405188,1.480302,0.963240
286,2.383333,0.391956,1.480864,0.868919,0.455140,1.478915,1.252707,0.398815,0.964249,0.865259,0.462276,0.963663,1.248924,0.405202,1.480106,0.963135
287,2.391667,0.392074,1.481098,0.869006,0.454728,1.478974,1.252880,0.398887,0.964484,0.865128,0.461818,0.963722,1.248879,0.405190,1.480297,0.963240
288,2.400000,0.392076,1.481105,0.869004,0.454722,1.478987,1.252880,0.398919,0.964491,0.865130,0.461842,0.963736,1.248882,0.405190,1.480306,0.963238
289,2.408333,0.392072,1.481078,0.868998,0.454729,1.478971,1.252872,0.398945,0.964464,0.865134,0.461880,0.963721,1.248885,0.405189,1.480281,0.963232
290,2.416667,0.392069,1.481070,0.868990,0.454721,1.478975,1.252865,0.398943,0.964456,0.865141,0.461872,0.963724,1.248893,0.405185,1.480276,0.963224
291,2.425000,0.392072,1.481101,0.869004,0.454715,1.478983,1.252881,0.398896,0.964486,0.865134,0.461816,0.963732,1.248887,0.405186,1.480301,0.963239
292,2.433333,0.392075,1.481108,0.868999,0.454719,1.478986,1.252875,0.398894,0.964494,0.865123,0.461815,0.963735,1.248876,0.405189,1.480308,0.963233
293,2.441667,0.392083,1.481081,0.868995,0.454720,1.478972,1.252872,0.398965,0.964467,0.865127,0.461879,0.963722,1.248882,0.405195,1.480283,0.963229
294,2.450000,0.392097,1.481107,0.869015,0.454689,1.478903,1.252899,0.398842,0.964493,0.865041,0.461712,0.963651,1.248802,0.405197,1.480287,0.963250
295,2.458333,0.392074,1.481075,0.868996,0.454732,1.478969,1.252870,0.398947,0.964462,0.865131,0.461882,0.963718,1.248882,0.405191,1.480279,0.963230
296,2.466667,0.392074,1.481078,0.868994,0.454729,1.478970,1.252868,0.398947,0.964465,0.865127,0.461880,0.963719,1.248878,0.405190,1.480281,0.963228
297,2.475000,0.392081,1.481085,0.868998,0.454723,1.478973,1.252874,0.398975,0.964472,0.865123,0.461895,0.963723,1.248877,0.405194,1.480287,0.963232
298,2.483333,0.392076,1.481077,0.868992,0.454718,1.478973,1.252869,0.398959,0.964464,0.865130,0.461878,0.963723,1.248883,0.405189,1.480281,0.963227
299,2.491667,0.392319,1.481300,0.869019,0.454416,1.478988,1.252983,0.398835,0.964684,0.864947,0.461210,0.963734,1.248789,0.405298,1.480455,0.963271
300,2.500000,0.392078,1.481074,0.868992,0.454736,1.478968,1.252866,0.398977,0.964461,0.865124,0.461913,0.963718,1.248875,0.405195,1.480278,0.963226
301,2.508333,0.392075,1.481086,0.869001,0.454724,1.478978,1.252876,0.398976,0.964474,0.865130,0.461902,0.963728,1.248882,0.405190,1.480289,0.963235
302,2.516667,0.392077,1.481081,0.868990,0.454728,1.478979,1.252865,0.398958,0.964467,0.865132,0.461886,0.963728,1.248884,0.405193,1.480285,0.963224
303,2.525000,0.392069,1.481076,0.868998,0.454731,1.478967,1.252871,0.398970,0.964463,0.865126,0.461910,0.963717,1.248876,0.405187,1.480279,0.963232
304,2.533333,0.392075,1.481071,0.868999,0.454724,1.478970,1.252874,0.398975,0.964458,0.865138,0.461902,0.963719,1.248890,0.405189,1.480275,0.963233
305,2.541667,0.392334,1.481296,0.869003,0.454388,1.478966,1.252973,0.398779,0.964679,0.864919,0.461113,0.963712,1.248768,0.405303,1.480446,0.963257
306,2.550000,0.392077,1.481081,0.868994,0.454720,1.478975,1.252870,0.398973,0.964467,0.865127,0.461894,0.963724,1.248880,0.405190,1.480284,0.963228
307,2.558333,0.392344,1.481309,0.869002,0.454376,1.478976,1.252976,0.398801,0.964692,0.864911,0.461112,0.963721,1.248763,0.405307,1.480459,0.963256
308,2.566667,0.392073,1.481083,0.868995,0.454740,1.478976,1.252868,0.398954,0.964469,0.865129,0.461899,0.963725,1.248878,0.405192,1.480286,0.963229
309,2.575000,0.392069,1.481107,0.869013,0.454712,1.478986,1.252889,0.398900,0.964493,0.865136,0.461821,0.963734,1.248890,0.405182,1.480307,0.963247
310,2.583333,0.392067,1.481080,0.868988,0.454712,1.478974,1.252864,0.398949,0.964467,0.865123,0.461873,0.963723,1.248876,0.405181,1.480283,0.963223
311,2.591667,0.392069,1.481072,0.868997,0.454718,1.478962,1.252872,0.398948,0.964458,0.865127,0.461874,0.963711,1.248879,0.405184,1.480274,0.963231
312,2.600000,0.392326,1.481301,0.869007,0.454387,1.478958,1.252977,0.398803,0.964684,0.864901,0.461143,0.963704,1.248749,0.405296,1.480448,0.963261
313,2.608333,0.392062,1.481070,0.868993,0.454737,1.478973,1.252864,0.398964,0.964457,0.865136,0.461917,0.963722,1.248884,0.405183,1.480275,0.963226
314,2.616667,0.392086,1.481082,0.868995,0.454720,1.478980,1.252873,0.398977,0.964469,0.865134,0.461889,0.963729,1.248889,0.405197,1.480286,0.963230
315,2.625000,0.392067,1.481082,0.868998,0.454740,1.478973,1.252870,0.398953,0.964469,0.865128,0.461903,0.963723,1.248877,0.405188,1.480285,0.963232
316,2.633333,0.392063,1.481081,0.868995,0.454721,1.478972,1.252869,0.398935,0.964467,0.865127,0.461870,0.963721,1.248878,0.405180,1.480284,0.963229
317,2.641667,0.392063,1.481104,0.869009,0.454702,1.478971,1.252886,0.398898,0.964491,0.865115,0.461815,0.963720,1.248868,0.405175,1.480301,0.963243
318,2.650000,0.392067,1.481070,0.868992,0.454728,1.478964,1.252865,0.398967,0.964457,0.865123,0.461906,0.963713,1.248874,0.405185,1.480273,0.963225
319,2.658333,0.392072,1.481072,0.868998,0.454734,1.478974,1.252871,0.398975,0.964459,0.865140,0.461915,0.963724,1.248890,0.405190,1.480278,0.963232
320,2.666667,0.392071,1.481135,0.869029,0.454697,1.479002,1.252908,0.398981,0.964523,0.865123,0.461884,0.963752,1.248879,0.405180,1.480332,0.963264
321,2.675000,0.392095,1.481121,0.869009,0.454667,1.478995,1.252896,0.398998,0.964508,0.865115,0.461848,0.963745,1.248880,0.405191,1.480319,0.963245
322,2.683333,0.392067,1.481107,0.869012,0.454712,1.478968,1.252888,0.398902,0.964493,0.865110,0.461824,0.963717,1.248863,0.405181,1.480303,0.963246
323,2.691667,0.392068,1.481103,0.869013,0.454710,1.478972,1.252889,0.398903,0.964490,0.865121,0.461823,0.963721,1.248875,0.405181,1.480301,0.963247
324,2.700000,0.392063,1.481080,0.868998,0.454735,1.478972,1.252870,0.398965,0.964467,0.865127,0.461914,0.963722,1.248875,0.405183,1.480283,0.963232
325,2.708333,0.392063,1.481132,0.869029,0.454696,1.478992,1.252907,0.398983,0.964519,0.865113,0.461893,0.963742,1.248868,0.405174,1.480327,0.963263
326,2.716667,0.392074,1.481138,0.869024,0.454687,1.478997,1.252904,0.399003,0.964526,0.865105,0.461894,0.963748,1.248863,0.405180,1.480333,0.963259
327,2.725000,0.392068,1.481077,0.868996,0.454727,1.478971,1.252870,0.398951,0.964464,0.865130,0.461889,0.963720,1.248880,0.405185,1.480281,0.963230
328,2.733333,0.392069,1.481126,0.869024,0.454681,1.478989,1.252905,0.398983,0.964514,0.865112,0.461872,0.963739,1.248870,0.405175,1.480322,0.963259
329,2.741667,0.392068,1.481103,0.869014,0.454715,1.478979,1.252889,0.398889,0.964489,0.865134,0.461814,0.963727,1.248886,0.405182,1.480303,0.963248
330,2.750000,0.392070,1.481079,0.868999,0.454734,1.478972,1.252872,0.398945,0.964466,0.865133,0.461886,0.963721,1.248883,0.405188,1.480283,0.963233
331,2.758333,0.392322,1.481333,0.869013,0.454410,1.478988,1.252978,0.398775,0.964716,0.864906,0.461142,0.963733,1.248749,0.405299,1.480480,0.963266
332,2.766667,0.392072,1.481105,0.869013,0.454700,1.478981,1.252892,0.398922,0.964491,0.865130,0.461828,0.963730,1.248886,0.405182,1.480304,0.963248
333,2.775000,0.392083,1.481107,0.869022,0.454691,1.478903,1.252903,0.398846,0.964493,0.865046,0.461732,0.963652,1.248805,0.405188,1.480287,0.963257
334,2.783333,0.392059,1.481145,0.869033,0.454715,1.479006,1.252907,0.398969,0.964532,0.865119,0.461902,0.963756,1.248871,0.405176,1.480340,0.963267
335,2.791667,0.392063,1.481086,0.869001,0.454731,1.478968,1.252873,0.398947,0.964473,0.865119,0.461893,0.963718,1.248868,0.405182,1.480286,0.963234
336,2.800000,0.392082,1.481112,0.869017,0.454695,1.478901,1.252897,0.398825,0.964498,0.865034,0.461716,0.963650,1.248791,0.405188,1.480291,0.963252
337,2.808333,0.392066,1.481103,0.869018,0.454721,1.478975,1.252892,0.398890,0.964489,0.865133,0.461823,0.963724,1.248884,0.405182,1.480301,0.963252
338,2.816667,0.392076,1.481106,0.869018,0.454717,1.478981,1.252894,0.398904,0.964492,0.865137,0.461822,0.963730,1.248890,0.405189,1.480305,0.963252
339,2.825000,0.392063,1.481110,0.869017,0.454720,1.478981,1.252891,0.398899,0.964496,0.865128,0.461834,0.963730,1.248879,0.405180,1.480308,0.963251
340,2.833333,0.392071,1.481107,0.869012,0.454727,1.478976,1.252886,0.398909,0.964493,0.865122,0.461843,0.963725,1.248873,0.405187,1.480304,0.963246
341,2.841667,0.392053,1.481148,0.869045,0.454707,1.479010,1.252919,0.398972,0.964535,0.865130,0.461904,0.963760,1.248882,0.405169,1.480343,0.963279
342,2.850000,0.392065,1.481115,0.869016,0.454719,1.478993,1.252890,0.398898,0.964501,0.865137,0.461830,0.963742,1.248889,0.405181,1.480315,0.963250
343,2.858333,0.392046,1.481139,0.869036,0.454706,1.478998,1.252909,0.398956,0.964526,0.865119,0.461892,0.963748,1.248869,0.405164,1.480334,0.963269
344,2.866667,0.392060,1.481104,0.869008,0.454718,1.478974,1.252882,0.398885,0.964490,0.865119,0.461821,0.963722,1.248870,0.405177,1.480302,0.963242
345,2.875000,0.392069,1.481103,0.869016,0.454719,1.478971,1.252891,0.398885,0.964489,0.865126,0.461812,0.963719,1.248878,0.405184,1.480300,0.963250
346,2.883333,0.392331,1.481313,0.869006,0.454417,1.478989,1.252971,0.398793,0.964696,0.864926,0.461158,0.963735,1.248770,0.405307,1.480465,0.963259
347,2.891667,0.392072,1.481116,0.869011,0.454717,1.478982,1.252887,0.398902,0.964503,0.865117,0.461824,0.963731,1.248870,0.405186,1.480313,0.963246
348,2.900000,0.392067,1.481110,0.869019,0.454727,1.478981,1.252892,0.398896,0.964497,0.865131,0.461833,0.963730,1.248882,0.405185,1.480309,0.963252
349,2.908333,0.392066,1.481113,0.869019,0.454708,1.478983,1.252896,0.398895,0.964499,0.865131,0.461814,0.963732,1.248884,0.405179,1.480311,0.963254
350,2.916667,0.392057,1.481077,0.868998,0.454741,1.478967,1.252867,0.398940,0.964463,0.865126,0.461902,0.963716,1.248873,0.405180,1.480279,0.963230
351,2.925000,0.392051,1.481071,0.868992,0.454745,1.478963,1.252860,0.398943,0.964458,0.865122,0.461915,0.963713,1.248867,0.405177,1.480274,0.963225
352,2.933333,0.392078,1.481105,0.869013,0.454723,1.478975,1.252889,0.398895,0.964491,0.865126,0.461818,0.963723,1.248879,0.405192,1.480303,0.963247
353,2.941667,0.392072,1.481085,0.868994,0.454732,1.478979,1.252868,0.398978,0.964472,0.865126,0.461916,0.963729,1.248876,0.405190,1.480288,0.963228
354,2.950000,0.392063,1.481084,0.868991,0.454734,1.478977,1.252862,0.398954,0.964471,0.865122,0.461903,0.963726,1.248870,0.405183,1.480287,0.963224
355,2.958333,0.392055,1.481140,0.869029,0.454713,1.478996,1.252903,0.398968,0.964527,0.865108,0.461904,0.963746,1.248858,0.405172,1.480334,0.963263
356,2.966667,0.392062,1.481109,0.869010,0.454723,1.478977,1.252883,0.398894,0.964495,0.865118,0.461833,0.963726,1.248868,0.405180,1.480307,0.963243
357,2.975000,0.392059,1.481105,0.869013,0.454728,1.478972,1.252885,0.398895,0.964491,0.865118,0.461842,0.963721,1.248867,0.405179,1.480302,0.963246
358,2.983333,0.392062,1.481135,0.869035,0.454721,1.478998,1.252908,0.398990,0.964522,0.865120,0.461926,0.963748,1.248871,0.405179,1.480330,0.963268
359,2.991667,0.392069,1.481072,0.869000,0.454743,1.478963,1.252872,0.398952,0.964458,0.865132,0.461903,0.963713,1.248880,0.405190,1.480275,0.963234
360,3.000000,0.392064,1.481110,0.869008,0.454725,1.478973,1.252881,0.398897,0.964496,0.865110,0.461836,0.963722,1.248860,0.405181,1.480306,0.963242
361,3.008333,0.392176,1.481339,0.869108,0.454524,1.479085,1.253031,0.399106,0.964728,0.865043,0.461733,0.963837,1.248844,0.405217,1.480506,0.963352
362,3.016667,0.392054,1.481075,0.869003,0.454745,1.478966,1.252871,0.398953,0.964462,0.865130,0.461922,0.963716,1.248875,0.405179,1.480278,0.963235
363,3.025000,0.392337,1.481311,0.869011,0.454404,1.478973,1.252980,0.398769,0.964694,0.864919,0.461115,0.963719,1.248765,0.405309,1.480460,0.963265
364,3.033333,0.392319,1.481322,0.869019,0.454407,1.478977,1.252984,0.398780,0.964706,0.864910,0.461148,0.963722,1.248753,0.405296,1.480469,0.963271
365,3.041667,0.392077,1.481073,0.868998,0.454747,1.478964,1.252870,0.398977,0.964460,0.865125,0.461925,0.963714,1.248874,0.405197,1.480276,0.963232
366,3.050000,0.392061,1.481127,0.869039,0.454721,1.478994,1.252912,0.398988,0.964515,0.865130,0.461926,0.963745,1.248880,0.405178,1.480324,0.963272
367,3.058333,0.392066,1.481074,0.868995,0.454743,1.478974,1.252866,0.398974,0.964461,0.865133,0.461929,0.963723,1.248881,0.405187,1.480278,0.963229
368,3.066667,0.392065,1.481112,0.869016,0.454734,1.478992,1.252888,0.398915,0.964498,0.865137,0.461862,0.963741,1.248886,0.405185,1.480312,0.963249
369,3.075000,0.392075,1.481099,0.869015,0.454732,1.478970,1.252889,0.398930,0.964486,0.865124,0.461864,0.963720,1.248875,0.405192,1.480297,0.963249
370,3.083333,0.392077,1.481108,0.869015,0.454728,1.478974,1.252890,0.398907,0.964494,0.865121,0.461836,0.963723,1.248873,0.405193,1.480305,0.963249
371,3.091667,0.392331,1.481298,0.869008,0.454427,1.478980,1.252972,0.398814,0.964681,0.864933,0.461188,0.963726,1.248775,0.405310,1.480451,0.963260
372,3.100000,0.392051,1.481136,0.869036,0.454736,1.479002,1.252905,0.398963,0.964523,0.865127,0.461926,0.963752,1.248873,0.405174,1.480332,0.963269
373,3.108333,0.392335,1.481297,0.869008,0.454403,1.478968,1.252976,0.398822,0.964680,0.864918,0.461169,0.963714,1.248765,0.405307,1.480447,0.963261
374,3.116667,0.392076,1.481085,0.869005,0.454762,1.478973,1.252874,0.398969,0.964472,0.865130,0.461932,0.963723,1.248876,0.405200,1.480287,0.963238
375,3.125000,0.392060,1.481115,0.869022,0.454725,1.478997,1.252895,0.398904,0.964501,0.865147,0.461846,0.963746,1.248897,0.405179,1.480315,0.963256
376,3.133333,0.392066,1.481107,0.869027,0.454731,1.478971,1.252899,0.398892,0.964493,0.865130,0.461836,0.963720,1.248880,0.405185,1.480303,0.963260
377,3.141667,0.392074,1.481065,0.869003,0.454732,1.478956,1.252877,0.398980,0.964453,0.865129,0.461915,0.963706,1.248880,0.405191,1.480268,0.963237
378,3.150000,0.392066,1.481098,0.869016,0.454738,1.478974,1.252888,0.398909,0.964484,0.865133,0.461859,0.963723,1.248882,0.405186,1.480297,0.963250
379,3.158333,0.392075,1.481081,0.869000,0.454754,1.478970,1.252870,0.398980,0.964468,0.865123,0.461937,0.963719,1.248870,0.405197,1.480283,0.963233
380,3.166667,0.392076,1.481080,0.869001,0.454742,1.478976,1.252874,0.398969,0.964467,0.865136,0.461912,0.963725,1.248886,0.405195,1.480284,0.963235
381,3.175000,0.392071,1.481083,0.869000,0.454760,1.478978,1.252869,0.398971,0.964470,0.865133,0.461937,0.963728,1.248879,0.405196,1.480286,0.963233
382,3.183333,0.392069,1.481106,0.869015,0.454723,1.478977,1.252890,0.398900,0.964493,0.865126,0.461831,0.963726,1.248878,0.405185,1.480304,0.963249
383,3.191667,0.392069,1.481106,0.869016,0.454733,1.478978,1.252888,0.398918,0.964493,0.865126,0.461860,0.963727,1.248875,0.405187,1.480304,0.963249
384,3.200000,0.392071,1.481098,0.869019,0.454734,1.478970,1.252892,0.398927,0.964485,0.865129,0.461868,0.963719,1.248879,0.405189,1.480296,0.963253
385,3.208333,0.392076,1.481101,0.869016,0.454744,1.478973,1.252888,0.398928,0.964487,0.865126,0.461874,0.963722,1.248875,0.405195,1.480299,0.963250
386,3.216667,0.392079,1.481107,0.869017,0.454746,1.478981,1.252889,0.398916,0.964494,0.865131,0.461861,0.963730,1.248881,0.405198,1.480306,0.963250
387,3.225000,0.392066,1.481144,0.869035,0.454720,1.479005,1.252909,0.398974,0.964532,0.865121,0.461906,0.963755,1.248872,0.405182,1.480340,0.963269
388,3.233333,0.392352,1.481305,0.869012,0.454393,1.478966,1.252984,0.398797,0.964688,0.864917,0.461118,0.963712,1.248767,0.405317,1.480453,0.963266
389,3.241667,0.392070,1.481102,0.869014,0.454722,1.478974,1.252889,0.398911,0.964488,0.865126,0.461841,0.963723,1.248878,0.405185,1.480300,0.963248
390,3.250000,0.392351,1.481297,0.869006,0.454399,1.478959,1.252977,0.398808,0.964680,0.864909,0.461135,0.963705,1.248758,0.405318,1.480446,0.963260
391,3.258333,0.392071,1.481107,0.869016,0.454737,1.478980,1.252889,0.398911,0.964493,0.865130,0.461855,0.963729,1.248880,0.405190,1.480305,0.963250
392,3.266667,0.392066,1.481079,0.868997,0.454754,1.478975,1.252866,0.398963,0.964465,0.865132,0.461928,0.963724,1.248878,0.405191,1.480283,0.963230
393,3.275000,0.392069,1.481103,0.869012,0.454739,1.478979,1.252884,0.398907,0.964489,0.865130,0.461854,0.963728,1.248878,0.405189,1.480302,0.963246
394,3.283333,0.392341,1.481306,0.869006,0.454410,1.478988,1.252974,0.398830,0.964689,0.864930,0.461177,0.963734,1.248777,0.405313,1.480459,0.963259
395,3.291667,0.392063,1.481104,0.869015,0.454741,1.478976,1.252886,0.398913,0.964491,0.865124,0.461869,0.963725,1.248872,0.405185,1.480302,0.963248
396,3.300000,0.392066,1.481105,0.869016,0.454729,1.478974,1.252889,0.398904,0.964491,0.865125,0.461845,0.963723,1.248875,0.405184,1.480302,0.963250
397,3.308333,0.392070,1.481109,0.869010,0.454728,1.478979,1.252884,0.398908,0.964495,0.865121,0.461845,0.963728,1.248872,0.405187,1.480307,0.963244
398,3.316667,0.392068,1.481107,0.869009,0.454739,1.478973,1.252880,0.398883,0.964493,0.865116,0.461832,0.963722,1.248865,0.405188,1.480304,0.963242
399,3.325000,0.392060,1.481079,0.868999,0.454762,1.478973,1.252865,0.398946,0.964466,0.865132,0.461927,0.963723,1.248875,0.405188,1.480283,0.963231
400,3.333333,0.392071,1.481107,0.869014,0.454734,1.478981,1.252887,0.398889,0.964493,0.865132,0.461829,0.963729,1.248882,0.405189,1.480306,0.963248
401,3.341667,0.392070,1.481077,0.869000,0.454754,1.478963,1.252869,0.398972,0.964464,0.865120,0.461934,0.963713,1.248867,0.405193,1.480279,0.963233
402,3.350000,0.392334,1.481315,0.869017,0.454395,1.478973,1.252987,0.398788,0.964698,0.864916,0.461128,0.963719,1.248763,0.405304,1.480463,0.963271
403,3.358333,0.392066,1.481099,0.869012,0.454721,1.478975,1.252886,0.398901,0.964485,0.865130,0.461834,0.963724,1.248881,0.405183,1.480298,0.963246
404,3.366667,0.392070,1.481068,0.868994,0.454749,1.478964,1.252864,0.398973,0.964455,0.865127,0.461929,0.963714,1.248875,0.405192,1.480272,0.963227
405,3.375000,0.392063,1.481073,0.869001,0.454753,1.478966,1.252869,0.398946,0.964460,0.865133,0.461914,0.963715,1.248878,0.405188,1.480276,0.963233
406,3.383333,0.392062,1.481081,0.869009,0.454749,1.478959,1.252878,0.398956,0.964468,0.865119,0.461921,0.963709,1.248865,0.405186,1.480281,0.963242
407,3.391667,0.392080,1.481084,0.868999,0.454740,1.478972,1.252873,0.398971,0.964471,0.865124,0.461909,0.963721,1.248874,0.405198,1.480286,0.963233
408,3.400000,0.392065,1.481079,0.869003,0.454747,1.478968,1.252873,0.398948,0.964466,0.865129,0.461907,0.963717,1.248876,0.405188,1.480281,0.963236
409,3.408333,0.392079,1.481081,0.868995,0.454722,1.478970,1.252871,0.398963,0.964468,0.865124,0.461884,0.963720,1.248877,0.405192,1.480283,0.963229
410,3.416667,0.392060,1.481074,0.869003,0.454747,1.478962,1.252872,0.398949,0.964461,0.865128,0.461913,0.963711,1.248874,0.405184,1.480276,0.963236
411,3.425000,0.392076,1.481105,0.869018,0.454738,1.478971,1.252891,0.398905,0.964491,0.865124,0.461845,0.963720,1.248874,0.405194,1.480302,0.963251
412,3.433333,0.392324,1.481315,0.869017,0.454410,1.478984,1.252982,0.398794,0.964698,0.864926,0.461159,0.963730,1.248770,0.405300,1.480465,0.963270
413,3.441667,0.392159,1.481366,0.869121,0.454534,1.479106,1.253040,0.399143,0.964756,0.865038,0.461797,0.963858,1.248834,0.405206,1.480531,0.963364
414,3.450000,0.392329,1.481322,0.869023,0.454398,1.478994,1.252991,0.398786,0.964705,0.864938,0.461134,0.963739,1.248785,0.405302,1.480473,0.963277
415,3.458333,0.392074,1.481076,0.869000,0.454743,1.478971,1.252872,0.398947,0.964462,0.865138,0.461893,0.963720,1.248888,0.405194,1.480279,0.963233
416,3.466667,0.392070,1.481073,0.869001,0.454750,1.478957,1.252871,0.398940,0.964459,0.865124,0.461898,0.963706,1.248871,0.405192,1.480274,0.963234
417,3.475000,0.392074,1.481100,0.869015,0.454739,1.478967,1.252888,0.398902,0.964487,0.865122,0.461845,0.963716,1.248871,0.405193,1.480297,0.963249
418,3.483333,0.392076,1.481108,0.869015,0.454741,1.478976,1.252888,0.398871,0.964493,0.865130,0.461813,0.963725,1.248880,0.405195,1.480305,0.963249
419,3.491667,0.392083,1.481079,0.869001,0.454752,1.478975,1.252873,0.398951,0.964465,0.865142,0.461897,0.963725,1.248891,0.405203,1.480283,0.963235
420,3.500000,0.392062,1.481072,0.868999,0.454755,1.478975,1.252867,0.398950,0.964459,0.865144,0.461920,0.963725,1.248890,0.405188,1.480278,0.963231
421,3.508333,0.392075,1.481078,0.868999,0.454755,1.478968,1.252869,0.398935,0.964464,0.865131,0.461893,0.963717,1.248879,0.405198,1.480281,0.963232
422,3.516667,0.392059,1.481106,0.869014,0.454729,1.478984,1.252885,0.398895,0.964493,0.865134,0.461844,0.963733,1.248883,0.405179,1.480306,0.963247
423,3.525000,0.392059,1.481136,0.869030,0.454718,1.478999,1.252904,0.398967,0.964524,0.865119,0.461904,0.963750,1.248870,0.405176,1.480332,0.963264
424,3.533333,0.392065,1.481099,0.869009,0.454733,1.478976,1.252881,0.398910,0.964485,0.865128,0.461856,0.963726,1.248877,0.405185,1.480299,0.963243
425,3.541667,0.392081,1.481078,0.868994,0.454753,1.478972,1.252866,0.398975,0.964464,0.865128,0.461925,0.963722,1.248876,0.405201,1.480281,0.963227
426,3.550000,0.392145,1.481363,0.869123,0.454522,1.479083,1.253042,0.399143,0.964753,0.865011,0.461798,0.963836,1.248807,0.405193,1.480523,0.963366
427,3.558333,0.392077,1.481112,0.869018,0.454736,1.478979,1.252892,0.398905,0.964499,0.865125,0.461842,0.963728,1.248876,0.405194,1.480309,0.963252
428,3.566667,0.392067,1.481074,0.868996,0.454748,1.478966,1.252866,0.398953,0.964461,0.865127,0.461911,0.963715,1.248874,0.405190,1.480277,0.963229
429,3.575000,0.392073,1.481080,0.869002,0.454745,1.478972,1.252874,0.398955,0.964467,0.865134,0.461904,0.963721,1.248883,0.405194,1.480283,0.963235
430,3.583333,0.392075,1.481077,0.869000,0.454745,1.478975,1.252871,0.398972,0.964464,0.865137,0.461921,0.963724,1.248886,0.405195,1.480281,0.963233
431,3.591667,0.392074,1.481075,0.868993,0.454745,1.478973,1.252865,0.398967,0.964462,0.865131,0.461915,0.963722,1.248880,0.405194,1.480279,0.963227
432,3.600000,0.392069,1.481101,0.869009,0.454742,1.478977,1.252881,0.398899,0.964487,0.865128,0.461849,0.963725,1.248876,0.405190,1.480300,0.963243
433,3.608333,0.392076,1.481078,0.869004,0.454749,1.478964,1.252875,0.398956,0.964465,0.865128,0.461907,0.963714,1.248877,0.405197,1.480280,0.963237
434,3.616667,0.392069,1.481077,0.869002,0.454754,1.478969,1.252871,0.398950,0.964463,0.865133,0.461912,0.963718,1.248880,0.405192,1.480280,0.963235
435,3.625000,0.392224,1.481306,0.869099,0.454491,1.479062,1.253035,0.399162,0.964695,0.865047,0.461707,0.963814,1.248861,0.405245,1.480476,0.963345
436,3.633333,0.392065,1.481133,0.869031,0.454715,1.478997,1.252906,0.398983,0.964520,0.865121,0.461911,0.963748,1.248873,0.405180,1.480329,0.963265
437,3.641667,0.392063,1.481107,0.869020,0.454733,1.478974,1.252891,0.398897,0.964493,0.865126,0.461845,0.963723,1.248875,0.405183,1.480304,0.963253
438,3.650000,0.392064,1.481103,0.869015,0.454724,1.478971,1.252888,0.398892,0.964489,0.865124,0.461830,0.963720,1.248875,0.405181,1.480301,0.963249
439,3.658333,0.392076,1.481079,0.869000,0.454748,1.478973,1.252871,0.398971,0.964466,0.865132,0.461921,0.963722,1.248880,0.405196,1.480283,0.963233
440,3.666667,0.392070,1.481108,0.869018,0.454726,1.478981,1.252892,0.398901,0.964494,0.865133,0.461835,0.963730,1.248884,0.405187,1.480306,0.963251
441,3.675000,0.392327,1.481323,0.869020,0.454412,1.478990,1.252986,0.398815,0.964707,0.864924,0.461179,0.963736,1.248768,0.405303,1.480473,0.963273
442,3.683333,0.392065,1.481102,0.869022,0.454733,1.478974,1.252894,0.398895,0.964488,0.865135,0.461841,0.963723,1.248884,0.405184,1.480300,0.963255
443,3.691667,0.392069,1.481098,0.869016,0.454724,1.478967,1.252890,0.398873,0.964484,0.865129,0.461807,0.963715,1.248881,0.405185,1.480296,0.963250
444,3.700000,0.392114,1.481376,0.869140,0.454534,1.479077,1.253051,0.399053,0.964766,0.865010,0.461751,0.963830,1.248800,0.405173,1.480532,0.963381
445,3.708333,0.392071,1.481107,0.869023,0.454742,1.478979,1.252895,0.398895,0.964493,0.865137,0.461844,0.963727,1.248886,0.405191,1.480305,0.963257
446,3.716667,0.392068,1.481140,0.869034,0.454708,1.479015,1.252911,0.398987,0.964527,0.865138,0.461906,0.963765,1.248892,0.405180,1.480338,0.963269
447,3.725000,0.392328,1.481320,0.869015,0.454409,1.478983,1.252982,0.398797,0.964703,0.864918,0.461156,0.963728,1.248762,0.405303,1.480468,0.963268
448,3.733333,0.392067,1.481109,0.869013,0.454735,1.478983,1.252886,0.398897,0.964495,0.865130,0.461842,0.963732,1.248879,0.405187,1.480308,0.963247
449,3.741667,0.392072,1.481094,0.869015,0.454737,1.478970,1.252887,0.398900,0.964480,0.865133,0.461843,0.963718,1.248883,0.405191,1.480293,0.963248
450,3.750000,0.392074,1.481093,0.869014,0.454747,1.478974,1.252886,0.398910,0.964479,0.865138,0.461860,0.963723,1.248887,0.405195,1.480294,0.963248
451,3.758333,0.392078,1.481113,0.869022,0.454745,1.478987,1.252894,0.398901,0.964499,0.865140,0.461846,0.963736,1.248889,0.405198,1.480312,0.963255
452,3.766667,0.392067,1.481114,0.869016,0.454742,1.478988,1.252887,0.398907,0.964500,0.865131,0.461860,0.963737,1.248879,0.405188,1.480312,0.963249
453,3.775000,0.392064,1.481084,0.869002,0.454759,1.478977,1.252869,0.398946,0.964471,0.865135,0.461919,0.963727,1.248880,0.405190,1.480287,0.963234
454,3.783333,0.392062,1.481101,0.869014,0.454738,1.478974,1.252885,0.398890,0.964487,0.865130,0.461844,0.963723,1.248878,0.405183,1.480299,0.963247
455,3.791667,0.392066,1.481104,0.869017,0.454727,1.478985,1.252890,0.398911,0.964491,0.865140,0.461849,0.963734,1.248891,0.405184,1.480305,0.963250
456,3.800000,0.392076,1.481074,0.869000,0.454754,1.478970,1.252870,0.398970,0.964461,0.865135,0.461925,0.963720,1.248882,0.405198,1.480278,0.963233
457,3.808333,0.392067,1.481079,0.869004,0.454761,1.478978,1.252872,0.398959,0.964465,0.865144,0.461930,0.963728,1.248889,0.405193,1.480283,0.963237
458,3.816667,0.392073,1.481082,0.868995,0.454760,1.478977,1.252864,0.398955,0.964468,0.865131,0.461919,0.963726,1.248878,0.405197,1.480285,0.963228
459,3.825000,0.392091,1.481079,0.868998,0.454738,1.478970,1.252873,0.398965,0.964465,0.865130,0.461889,0.963719,1.248883,0.405205,1.480282,0.963232
460,3.833333,0.392081,1.481075,0.868998,0.454749,1.478967,1.252870,0.398982,0.964462,0.865127,0.461927,0.963717,1.248877,0.405200,1.480278,0.963232
461,3.841667,0.392080,1.481076,0.869004,0.454752,1.478971,1.252876,0.398947,0.964463,0.865143,0.461896,0.963720,1.248891,0.405200,1.480280,0.963238
462,3.850000,0.392069,1.481080,0.869002,0.454746,1.478969,1.252872,0.398953,0.964467,0.865129,0.461908,0.963718,1.248877,0.405190,1.480282,0.963235
463,3.858333,0.392073,1.481103,0.869008,0.454729,1.478982,1.252882,0.398909,0.964489,0.865131,0.461843,0.963731,1.248882,0.405190,1.480303,0.963242
464,3.866667,0.392074,1.481066,0.868994,0.454762,1.478974,1.252863,0.398969,0.964453,0.865144,0.461933,0.963723,1.248890,0.405199,1.480273,0.963227
465,3.875000,0.392080,1.481098,0.869016,0.454747,1.478979,1.252889,0.398919,0.964484,0.865140,0.461863,0.963727,1.248890,0.405199,1.480298,0.963250
466,3.883333,0.392338,1.481300,0.869006,0.454415,1.478971,1.252973,0.398802,0.964683,0.864919,0.461158,0.963716,1.248764,0.405312,1.480451,0.963259
467,3.891667,0.392347,1.481308,0.869015,0.454397,1.478968,1.252986,0.398782,0.964691,0.864919,0.461111,0.963713,1.248769,0.405315,1.480456,0.963269
468,3.900000,0.392332,1.481296,0.869005,0.454398,1.478977,1.252974,0.398809,0.964679,0.864931,0.461153,0.963723,1.248778,0.405304,1.480449,0.963259
469,3.908333,0.392079,1.481073,0.869000,0.454740,1.478965,1.252873,0.398964,0.964460,0.865132,0.461903,0.963715,1.248882,0.405197,1.480276,0.963233
470,3.916667,0.392063,1.481071,0.869003,0.454744,1.478966,1.252873,0.398957,0.964457,0.865138,0.461915,0.963716,1.248885,0.405186,1.480274,0.963236
471,3.925000,0.392058,1.481074,0.869001,0.454767,1.478968,1.252866,0.398954,0.964461,0.865133,0.461941,0.963718,1.248875,0.405187,1.480277,0.963233
472,3.933333,0.392066,1.481086,0.868996,0.454728,1.478973,1.252869,0.398963,0.964473,0.865120,0.461903,0.963723,1.248870,0.405184,1.480288,0.963230
473,3.941667,0.392066,1.481075,0.868993,0.454745,1.478976,1.252863,0.398957,0.964462,0.865135,0.461914,0.963726,1.248883,0.405188,1.480280,0.963226
474,3.950000,0.392057,1.481078,0.869003,0.454743,1.478974,1.252872,0.398970,0.964465,0.865135,0.461934,0.963724,1.248881,0.405181,1.480282,0.963236
475,3.958333,0.392064,1.481078,0.869007,0.454726,1.478963,1.252880,0.398960,0.964465,0.865128,0.461899,0.963713,1.248878,0.405182,1.480279,0.963241
476,3.966667,0.392078,1.481103,0.869017,0.454698,1.478897,1.252896,0.398837,0.964489,0.865037,0.461735,0.963645,1.248794,0.405186,1.480283,0.963252
477,3.975000,0.392063,1.481108,0.869015,0.454722,1.478974,1.252889,0.398881,0.964494,0.865123,0.461817,0.963723,1.248874,0.405180,1.480305,0.963249
478,3.983333,0.392064,1.481115,0.869017,0.454727,1.478981,1.252890,0.398901,0.964502,0.865121,0.461842,0.963730,1.248871,0.405183,1.480312,0.963251
479,3.991667,0.392063,1.481082,0.868996,0.454733,1.478971,1.252868,0.398956,0.964469,0.865122,0.461903,0.963721,1.248871,0.405183,1.480284,0.963229
480,4.000000,0.392058,1.481082,0.869002,0.454735,1.478970,1.252873,0.398946,0.964469,0.865128,0.461902,0.963720,1.248876,0.405179,1.480284,0.963236
481,4.008333,0.392332,1.481307,0.869006,0.454409,1.478971,1.252973,0.398784,0.964690,0.864914,0.461140,0.963717,1.248759,0.405306,1.480456,0.963259
482,4.016667,0.392060,1.481073,0.869003,0.454747,1.478969,1.252872,0.398945,0.964460,0.865139,0.461910,0.963718,1.248885,0.405184,1.480277,0.963235
483,4.025000,0.392068,1.481085,0.868997,0.454739,1.478976,1.252869,0.398965,0.964472,0.865124,0.461913,0.963725,1.248873,0.405188,1.480288,0.963230
484,4.033333,0.392078,1.481075,0.868993,0.454729,1.478969,1.252868,0.398963,0.964461,0.865128,0.461892,0.963718,1.248880,0.405194,1.480278,0.963227
485,4.041667,0.392074,1.481082,0.869006,0.454740,1.478976,1.252878,0.398957,0.964469,0.865141,0.461900,0.963726,1.248890,0.405193,1.480286,0.963239
486,4.050000,0.392075,1.481077,0.868996,0.454752,1.478968,1.252866,0.398971,0.964464,0.865123,0.461926,0.963717,1.248871,0.405197,1.480280,0.963229
487,4.058333,0.392070,1.481079,0.868997,0.454746,1.478967,1.252868,0.398936,0.964465,0.865127,0.461890,0.963716,1.248875,0.405192,1.480281,0.963230
488,4.066667,0.392066,1.481118,0.869018,0.454727,1.478988,1.252891,0.398886,0.964504,0.865131,0.461825,0.963737,1.248882,0.405184,1.480316,0.963252
489,4.075000,0.392074,1.481110,0.869015,0.454735,1.478980,1.252888,0.398901,0.964496,0.865126,0.461839,0.963729,1.248877,0.405192,1.480308,0.963248
490,4.083333,0.392072,1.481080,0.868997,0.454745,1.478979,1.252869,0.398962,0.964466,0.865138,0.461912,0.963728,1.248887,0.405193,1.480284,0.963231
491,4.091667,0.392052,1.481139,0.869041,0.454717,1.478998,1.252913,0.398974,0.964527,0.865121,0.461916,0.963748,1.248871,0.405171,1.480334,0.963274
492,4.100000,0.392071,1.481085,0.869007,0.454755,1.478973,1.252876,0.398948,0.964472,0.865133,0.461909,0.963722,1.248879,0.405194,1.480287,0.963239
493,4.108333,0.392085,1.481080,0.868995,0.454748,1.478966,1.252868,0.398959,0.964467,0.865119,0.461900,0.963715,1.248869,0.405203,1.480282,0.963229
494,4.116667,0.392072,1.481088,0.868997,0.454757,1.478980,1.252866,0.398955,0.964474,0.865129,0.461918,0.963730,1.248876,0.405196,1.480291,0.963230
495,4.125000,0.392062,1.481107,0.869020,0.454727,1.478974,1.252893,0.398891,0.964493,0.865127,0.461834,0.963723,1.248877,0.405181,1.480304,0.963253
496,4.133333,0.392052,1.481137,0.869030,0.454727,1.479007,1.252901,0.398963,0.964524,0.865127,0.461915,0.963757,1.248875,0.405174,1.480334,0.963263
497,4.141667,0.392072,1.481077,0.868996,0.454749,1.478968,1.252867,0.398965,0.964464,0.865125,0.461921,0.963718,1.248872,0.405193,1.480280,0.963229
498,4.150000,0.392071,1.481072,0.868989,0.454763,1.478972,1.252857,0.398950,0.964458,0.865133,0.461920,0.963721,1.248878,0.405196,1.480277,0.963222
499,4.158333,0.392339,1.481305,0.869000,0.454412,1.478977,1.252968,0.398790,0.964688,0.864917,0.461142,0.963722,1.248763,0.405312,1.480456,0.963253
500,4.166667,0.392079,1.481111,0.869017,0.454739,1.478983,1.252890,0.398890,0.964496,0.865135,0.461828,0.963732,1.248885,0.405196,1.480309,0.963250
501,4.175000,0.392065,1.481080,0.869007,0.454760,1.478969,1.252875,0.398958,0.964467,0.865133,0.461931,0.963719,1.248878,0.405191,1.480282,0.963240
502,4.183333,0.392064,1.481077,0.868997,0.454746,1.478972,1.252867,0.398960,0.964464,0.865131,0.461920,0.963722,1.248878,0.405187,1.480281,0.963230
503,4.191667,0.392081,1.481074,0.868995,0.454758,1.478973,1.252866,0.398964,0.964461,0.865137,0.461919,0.963723,1.248885,0.405202,1.480279,0.963229
504,4.200000,0.392078,1.481082,0.869002,0.454755,1.478975,1.252872,0.398972,0.964469,0.865133,0.461927,0.963725,1.248881,0.405200,1.480285,0.963235
505,4.208333,0.392067,1.481083,0.869006,0.454759,1.478976,1.252874,0.398955,0.964470,0.865138,0.461924,0.963726,1.248883,0.405193,1.480286,0.963239
506,4.216667,0.392074,1.481091,0.869001,0.454754,1.478979,1.252871,0.398952,0.964478,0.865127,0.461910,0.963728,1.248874,0.405196,1.480293,0.963234
507,4.225000,0.392068,1.481080,0.869003,0.454760,1.478973,1.252871,0.398947,0.964466,0.865137,0.461917,0.963723,1.248882,0.405193,1.480283,0.963235
508,4.233333,0.392073,1.481077,0.869002,0.454754,1.478964,1.252872,0.398954,0.964464,0.865126,0.461913,0.963713,1.248873,0.405195,1.480279,0.963235
509,4.241667,0.392101,1.481105,0.869014,0.454715,1.478902,1.252895,0.398829,0.964491,0.865044,0.461722,0.963650,1.248802,0.405207,1.480285,0.963249
510,4.250000,0.392338,1.481303,0.869020,0.454421,1.478976,1.252986,0.398804,0.964686,0.864936,0.461166,0.963722,1.248780,0.405314,1.480454,0.963273
511,4.258333,0.392079,1.481087,0.869005,0.454761,1.478987,1.252875,0.398939,0.964474,0.865150,0.461899,0.963736,1.248897,0.405201,1.480292,0.963238
512,4.266667,0.392070,1.481153,0.869045,0.454717,1.479015,1.252920,0.398985,0.964541,0.865131,0.461909,0.963765,1.248883,0.405185,1.480349,0.963279
513,4.275000,0.392078,1.481137,0.869035,0.454714,1.479004,1.252912,0.398970,0.964524,0.865132,0.461883,0.963753,1.248887,0.405190,1.480333,0.963269
514,4.283333,0.392085,1.481069,0.869004,0.454753,1.478963,1.252876,0.398969,0.964456,0.865137,0.461914,0.963712,1.248886,0.405205,1.480273,0.963237
515,4.291667,0.392082,1.481111,0.869026,0.454746,1.478975,1.252899,0.398897,0.964497,0.865132,0.461839,0.963724,1.248882,0.405200,1.480308,0.963260
516,4.300000,0.392086,1.481081,0.869005,0.454756,1.478966,1.252877,0.398962,0.964468,0.865127,0.461909,0.963715,1.248876,0.405206,1.480283,0.963238
517,4.308333,0.392187,1.481367,0.869142,0.454513,1.479093,1.253069,0.399173,0.964756,0.865041,0.461775,0.963845,1.248845,0.405223,1.480528,0.963387
518,4.316667,0.392068,1.481087,0.869004,0.454751,1.478981,1.252874,0.398954,0.964473,0.865138,0.461914,0.963731,1.248885,0.405191,1.480290,0.963237
519,4.325000,0.392071,1.481079,0.869002,0.454764,1.478974,1.252870,0.398939,0.964466,0.865140,0.461910,0.963723,1.248885,0.405197,1.480283,0.963235
520,4.333333,0.392073,1.481113,0.869018,0.454735,1.478984,1.252891,0.398889,0.964499,0.865131,0.461829,0.963732,1.248882,0.405191,1.480311,0.963251
521,4.341667,0.392075,1.481109,0.869019,0.454748,1.478983,1.252891,0.398904,0.964495,0.865137,0.461854,0.963732,1.248885,0.405196,1.480308,0.963253
522,4.350000,0.392171,1.481340,0.869116,0.454516,1.479081,1.253040,0.399150,0.964730,0.865034,0.461772,0.963833,1.248836,0.405211,1.480506,0.963360
523,4.358333,0.392049,1.481089,0.869013,0.454779,1.478976,1.252875,0.398923,0.964476,0.865138,0.461931,0.963725,1.248877,0.405184,1.480291,0.963244
524,4.366667,0.392064,1.481087,0.869010,0.454760,1.478970,1.252877,0.398942,0.964474,0.865130,0.461916,0.963719,1.248874,0.405190,1.480288,0.963242
525,4.375000,0.392078,1.481079,0.869000,0.454748,1.478974,1.252872,0.398959,0.964466,0.865135,0.461906,0.963723,1.248884,0.405198,1.480283,0.963234
526,4.383333,0.392074,1.481105,0.869016,0.454742,1.478984,1.252888,0.398901,0.964491,0.865140,0.461848,0.963733,1.248889,0.405194,1.480305,0.963250
527,4.391667,0.392059,1.481076,0.869001,0.454769,1.478973,1.252866,0.398950,0.964463,0.865136,0.461937,0.963722,1.248879,0.405189,1.480280,0.963233
528,4.400000,0.392069,1.481110,0.869015,0.454730,1.478979,1.252888,0.398895,0.964496,0.865125,0.461834,0.963728,1.248876,0.405187,1.480307,0.963248
529,4.408333,0.392053,1.481081,0.869009,0.454765,1.478973,1.252874,0.398941,0.964468,0.865140,0.461931,0.963723,1.248881,0.405183,1.480284,0.963241
530,4.416667,0.392075,1.481067,0.869000,0.454753,1.478969,1.252871,0.398966,0.964454,0.865144,0.461922,0.963718,1.248891,0.405197,1.480273,0.963234
531,4.425000,0.392333,1.481313,0.868998,0.454396,1.478972,1.252967,0.398796,0.964696,0.864897,0.461138,0.963718,1.248744,0.405304,1.480460,0.963251
532,4.433333,0.392066,1.481143,0.869030,0.454723,1.479006,1.252904,0.398962,0.964530,0.865120,0.461895,0.963755,1.248871,0.405183,1.480339,0.963264
533,4.441667,0.392066,1.481085,0.869003,0.454745,1.478983,1.252873,0.398945,0.964471,0.865143,0.461902,0.963732,1.248891,0.405188,1.480289,0.963236
534,4.450000,0.392342,1.481328,0.869030,0.454415,1.478988,1.252998,0.398808,0.964711,0.864929,0.461160,0.963734,1.248774,0.405315,1.480476,0.963283
535,4.458333,0.392074,1.481079,0.869002,0.454752,1.478970,1.252873,0.398936,0.964466,0.865136,0.461891,0.963720,1.248884,0.405196,1.480282,0.963235
536,4.466667,0.392343,1.481319,0.869018,0.454404,1.478979,1.252987,0.398793,0.964702,0.864920,0.461133,0.963725,1.248767,0.405313,1.480467,0.963271
537,4.475000,0.392076,1.481077,0.868999,0.454753,1.478971,1.252870,0.398952,0.964463,0.865135,0.461907,0.963720,1.248882,0.405198,1.480280,0.963232
538,4.483333,0.392081,1.481086,0.869003,0.454765,1.478975,1.252872,0.398974,0.964472,0.865128,0.461936,0.963724,1.248875,0.405204,1.480288,0.963235
539,4.491667,0.392075,1.481121,0.869018,0.454744,1.478987,1.252890,0.398903,0.964507,0.865123,0.461850,0.963735,1.248872,0.405194,1.480318,0.963251
540,4.500000,0.392041,1.481081,0.869013,0.454782,1.478974,1.252874,0.398935,0.964468,0.865143,0.461952,0.963724,1.248881,0.405179,1.480284,0.963244
541,4.508333,0.392072,1.481066,0.869007,0.454758,1.478968,1.252876,0.398956,0.964453,0.865151,0.461919,0.963717,1.248898,0.405196,1.480272,0.963240
542,4.516667,0.392072,1.481100,0.869021,0.454747,1.478975,1.252891,0.398911,0.964487,0.865135,0.461864,0.963724,1.248883,0.405193,1.480299,0.963254
543,4.525000,0.392088,1.481081,0.869006,0.454758,1.478974,1.252878,0.398985,0.964468,0.865136,0.461932,0.963723,1.248885,0.405208,1.480284,0.963240
544,4.533333,0.392086,1.481084,0.869006,0.454763,1.478970,1.252877,0.398967,0.964471,0.865129,0.461922,0.963719,1.248877,0.405207,1.480286,0.963239
545,4.541667,0.392058,1.481084,0.869008,0.454781,1.478976,1.252871,0.398940,0.964471,0.865139,0.461941,0.963726,1.248880,0.405191,1.480287,0.963239
546,4.550000,0.392069,1.481140,0.869041,0.454725,1.479006,1.252916,0.398984,0.964527,0.865134,0.461917,0.963756,1.248885,0.405186,1.480336,0.963275
547,4.558333,0.392086,1.481064,0.868998,0.454759,1.478952,1.252869,0.398971,0.964451,0.865124,0.461922,0.963702,1.248872,0.405207,1.480266,0.963231
548,4.566667,0.392079,1.481104,0.869020,0.454745,1.478973,1.252893,0.398911,0.964490,0.865129,0.461855,0.963722,1.248879,0.405198,1.480302,0.963254
549,4.575000,0.392082,1.481079,0.869003,0.454757,1.478970,1.252874,0.398963,0.964466,0.865134,0.461916,0.963720,1.248882,0.405203,1.480282,0.963236
550,4.583333,0.392344,1.481314,0.869014,0.454401,1.478976,1.252984,0.398784,0.964697,0.864920,0.461120,0.963721,1.248768,0.405313,1.480462,0.963268
551,4.591667,0.392069,1.481077,0.869012,0.454772,1.478963,1.252878,0.398954,0.964464,0.865134,0.461935,0.963713,1.248878,0.405197,1.480279,0.963244
552,4.600000,0.392065,1.481074,0.869005,0.454754,1.478968,1.252874,0.398969,0.964461,0.865137,0.461935,0.963718,1.248883,0.405190,1.480277,0.963238
553,4.608333,0.392074,1.481099,0.869024,0.454745,1.478973,1.252896,0.398894,0.964486,0.865141,0.461842,0.963722,1.248890,0.405194,1.480298,0.963257
554,4.616667,0.392080,1.481068,0.869008,0.454756,1.478965,1.252879,0.398965,0.964455,0.865146,0.461919,0.963715,1.248894,0.405201,1.480272,0.963242
555,4.625000,0.392082,1.481074,0.869003,0.454758,1.478965,1.252874,0.398979,0.964461,0.865131,0.461933,0.963714,1.248879,0.405203,1.480276,0.963236
556,4.633333,0.392091,1.481080,0.869012,0.454761,1.478971,1.252884,0.398961,0.964467,0.865145,0.461909,0.963720,1.248893,0.405211,1.480283,0.963245
557,4.641667,0.392066,1.481077,0.869011,0.454764,1.478968,1.252878,0.398958,0.964464,0.865139,0.461934,0.963717,1.248883,0.405192,1.480280,0.963243
558,4.650000,0.392083,1.481073,0.869000,0.454760,1.478968,1.252870,0.398959,0.964459,0.865137,0.461914,0.963717,1.248884,0.405205,1.480276,0.963233
559,4.658333,0.392354,1.481305,0.869013,0.454414,1.478976,1.252983,0.398811,0.964688,0.864929,0.461150,0.963722,1.248776,0.405324,1.480456,0.963267
560,4.666667,0.392075,1.481107,0.869023,0.454741,1.478987,1.252895,0.398901,0.964493,0.865147,0.461845,0.963735,1.248897,0.405194,1.480307,0.963256
561,4.675000,0.392078,1.481113,0.869026,0.454747,1.478983,1.252898,0.398889,0.964499,0.865141,0.461837,0.963732,1.248890,0.405198,1.480311,0.963260
562,4.683333,0.392180,1.481351,0.869118,0.454520,1.479089,1.253042,0.399154,0.964740,0.865034,0.461771,0.963841,1.248837,0.405219,1.480515,0.963362
563,4.691667,0.392086,1.481081,0.869000,0.454764,1.478959,1.252871,0.398970,0.964468,0.865113,0.461926,0.963709,1.248860,0.405208,1.480281,0.963233
564,4.700000,0.392078,1.481113,0.869016,0.454740,1.478986,1.252889,0.398889,0.964499,0.865134,0.461830,0.963735,1.248884,0.405196,1.480312,0.963250
565,4.708333,0.392088,1.481108,0.869019,0.454749,1.478982,1.252893,0.398900,0.964494,0.865139,0.461839,0.963731,1.248890,0.405206,1.480307,0.963253
566,4.716667,0.392074,1.481112,0.869020,0.454750,1.478983,1.252891,0.398909,0.964498,0.865131,0.461862,0.963732,1.248879,0.405195,1.480310,0.963253
567,4.725000,0.392066,1.481080,0.869000,0.454749,1.478973,1.252869,0.398956,0.964466,0.865131,0.461917,0.963722,1.248878,0.405189,1.480283,0.963233
568,4.733333,0.392087,1.481078,0.868998,0.454751,1.478969,1.252871,0.398949,0.964465,0.865132,0.461891,0.963719,1.248882,0.405206,1.480281,0.963231
569,4.741667,0.392078,1.481106,0.869010,0.454748,1.478974,1.252882,0.398879,0.964492,0.865122,0.461827,0.963722,1.248871,0.405198,1.480304,0.963243
570,4.750000,0.392096,1.481072,0.868991,0.454779,1.478976,1.252861,0.398986,0.964459,0.865139,0.461946,0.963726,1.248886,0.405219,1.480278,0.963224
571,4.758333,0.392083,1.481076,0.869003,0.454785,1.478968,1.252870,0.398960,0.964463,0.865134,0.461940,0.963717,1.248878,0.405211,1.480279,0.963235
572,4.766667,0.392066,1.481109,0.869021,0.454742,1.478983,1.252892,0.398887,0.964495,0.865138,0.461840,0.963732,1.248886,0.405188,1.480308,0.963254
573,4.775000,0.392082,1.481073,0.869000,0.454759,1.478963,1.252871,0.398953,0.964460,0.865131,0.461908,0.963712,1.248879,0.405204,1.480276,0.963233
574,4.783333,0.392079,1.481076,0.868996,0.454761,1.478966,1.252866,0.398963,0.964462,0.865125,0.461923,0.963715,1.248872,0.405202,1.480278,0.963229
575,4.791667,0.392083,1.481108,0.869019,0.454754,1.478979,1.252890,0.398916,0.964494,0.865131,0.461866,0.963728,1.248880,0.405203,1.480306,0.963252
576,4.800000,0.392090,1.481106,0.869015,0.454751,1.478983,1.252888,0.398910,0.964492,0.865137,0.461849,0.963732,1.248888,0.405208,1.480306,0.963249
577,4.808333,0.392084,1.481112,0.869024,0.454752,1.478990,1.252896,0.398917,0.964498,0.865146,0.461863,0.963739,1.248895,0.405203,1.480312,0.963258
578,4.816667,0.392074,1.481079,0.869010,0.454778,1.478975,1.252876,0.398956,0.964465,0.865147,0.461937,0.963725,1.248890,0.405203,1.480283,0.963242
579,4.825000,0.392073,1.481072,0.869003,0.454769,1.478964,1.252871,0.398951,0.964459,0.865135,0.461925,0.963714,1.248880,0.405199,1.480275,0.963235
580,4.833333,0.392081,1.481104,0.869015,0.454738,1.478981,1.252889,0.398908,0.964491,0.865135,0.461843,0.963730,1.248886,0.405198,1.480304,0.963249
581,4.841667,0.392087,1.481106,0.869020,0.454747,1.478974,1.252893,0.398924,0.964492,0.865127,0.461862,0.963723,1.248877,0.405205,1.480303,0.963254
582,4.850000,0.392080,1.481110,0.869021,0.454758,1.478981,1.252892,0.398923,0.964496,0.865132,0.461878,0.963731,1.248879,0.405202,1.480308,0.963254
583,4.858333,0.392358,1.481322,0.869027,0.454421,1.478988,1.252997,0.398817,0.964705,0.864935,0.461158,0.963733,1.248783,0.405329,1.480472,0.963281
584,4.866667,0.392065,1.481075,0.869007,0.454756,1.478972,1.252876,0.398970,0.964462,0.865142,0.461939,0.963722,1.248888,0.405190,1.480279,0.963240
585,4.875000,0.392068,1.481068,0.869000,0.454774,1.478966,1.252867,0.398962,0.964455,0.865137,0.461945,0.963716,1.248881,0.405197,1.480273,0.963233
586,4.883333,0.392077,1.481101,0.869021,0.454741,1.478975,1.252894,0.398909,0.964487,0.865137,0.461850,0.963724,1.248887,0.405196,1.480300,0.963255
587,4.891667,0.392080,1.481107,0.869023,0.454749,1.478976,1.252895,0.398905,0.964493,0.865133,0.461853,0.963724,1.248882,0.405200,1.480304,0.963256
588,4.900000,0.392083,1.481085,0.869004,0.454772,1.478972,1.252873,0.398978,0.964472,0.865128,0.461944,0.963722,1.248874,0.405208,1.480287,0.963237
589,4.908333,0.392081,1.481086,0.869012,0.454758,1.478976,1.252883,0.398967,0.964473,0.865140,0.461923,0.963725,1.248888,0.405202,1.480289,0.963246
590,4.916667,0.392081,1.481073,0.869007,0.454766,1.478967,1.252877,0.398976,0.964460,0.865140,0.461938,0.963717,1.248886,0.405205,1.480276,0.963240
591,4.925000,0.392081,1.481100,0.869015,0.454737,1.478977,1.252889,0.398923,0.964487,0.865133,0.461857,0.963726,1.248884,0.405198,1.480300,0.963249
592,4.933333,0.392069,1.481108,0.869016,0.454743,1.478976,1.252887,0.398913,0.964494,0.865122,0.461865,0.963726,1.248871,0.405190,1.480305,0.963249
593,4.941667,0.392077,1.481110,0.869025,0.454755,1.478986,1.252896,0.398921,0.964496,0.865142,0.461877,0.963735,1.248889,0.405199,1.480309,0.963259
594,4.950000,0.392351,1.481304,0.869013,0.454403,1.478978,1.252984,0.398840,0.964687,0.864928,0.461171,0.963724,1.248777,0.405319,1.480455,0.963267
595,4.958333,0.392079,1.481065,0.868992,0.454755,1.478967,1.252863,0.398966,0.964451,0.865138,0.461919,0.963716,1.248886,0.405201,1.480270,0.963226
596,4.966667,0.392346,1.481318,0.869014,0.454417,1.478980,1.252981,0.398817,0.964702,0.864914,0.461167,0.963726,1.248760,0.405319,1.480467,0.963267
597,4.975000,0.392078,1.481078,0.868996,0.454757,1.478972,1.252867,0.398995,0.964465,0.865124,0.461952,0.963722,1.248872,0.405200,1.480281,0.963229
598,4.983333,0.392070,1.481082,0.868998,0.454761,1.478978,1.252867,0.398989,0.964469,0.865129,0.461957,0.963728,1.248875,0.405195,1.480286,0.963231
599,4.991667,0.392068,1.481108,0.869017,0.454743,1.478986,1.252888,0.398896,0.964494,0.865138,0.461849,0.963735,1.248886,0.405189,1.480308,0.963250
600,5.000000,0.392095,1.481110,0.869017,0.454726,1.478906,1.252894,0.398830,0.964496,0.865043,0.461740,0.963654,1.248798,0.405205,1.480290,0.963251
601,5.008333,0.392087,1.481072,0.868993,0.454752,1.478964,1.252866,0.398994,0.964459,0.865121,0.461937,0.963714,1.248871,0.405206,1.480275,0.963227
602,5.016667,0.392080,1.481101,0.869012,0.454755,1.478967,1.252882,0.398892,0.964487,0.865120,0.461845,0.963716,1.248868,0.405201,1.480298,0.963245
603,5.025000,0.392072,1.481110,0.869014,0.454761,1.478989,1.252883,0.398920,0.964496,0.865134,0.461887,0.963738,1.248880,0.405197,1.480310,0.963247
604,5.033333,0.392085,1.481081,0.868996,0.454761,1.478977,1.252867,0.398974,0.964468,0.865132,0.461928,0.963726,1.248880,0.405207,1.480285,0.963229
605,5.041667,0.392086,1.481075,0.868994,0.454772,1.478969,1.252863,0.398963,0.964462,0.865130,0.461927,0.963719,1.248876,0.405210,1.480279,0.963227
606,5.050000,0.392075,1.481073,0.868998,0.454763,1.478966,1.252867,0.398958,0.964459,0.865131,0.461924,0.963716,1.248877,0.405199,1.480276,0.963231
607,5.058333,0.392072,1.481102,0.869023,0.454754,1.478971,1.252893,0.398909,0.964488,0.865131,0.461868,0.963720,1.248878,0.405195,1.480299,0.963256
608,5.066667,0.392093,1.481074,0.868995,0.454744,1.478965,1.252869,0.398973,0.964461,0.865126,0.461902,0.963714,1.248878,0.405208,1.480277,0.963229
609,5.075000,0.392089,1.481079,0.868993,0.454763,1.478978,1.252865,0.398985,0.964466,0.865133,0.461936,0.963728,1.248881,0.405210,1.480284,0.963227
610,5.083333,0.392075,1.481115,0.869018,0.454753,1.478987,1.252889,0.398913,0.964502,0.865131,0.461869,0.963736,1.248878,0.405197,1.480314,0.963251
611,5.091667,0.392070,1.481106,0.869020,0.454754,1.478982,1.252889,0.398915,0.964492,0.865137,0.461877,0.963731,1.248883,0.405193,1.480305,0.963253
612,5.100000,0.392069,1.481072,0.868999,0.454771,1.478970,1.252865,0.398965,0.964459,0.865136,0.461943,0.963720,1.248879,0.405197,1.480277,0.963231
613,5.108333,0.392082,1.481063,0.869001,0.454770,1.478959,1.252870,0.398976,0.964450,0.865135,0.461942,0.963708,1.248881,0.405206,1.480267,0.963234
614,5.116667,0.392074,1.481103,0.869015,0.454763,1.478983,1.252883,0.398914,0.964489,0.865137,0.461882,0.963732,1.248883,0.405198,1.480303,0.963247
615,5.125000,0.392090,1.481075,0.868997,0.454753,1.478977,1.252870,0.398980,0.964462,0.865143,0.461921,0.963727,1.248893,0.405208,1.480280,0.963231
616,5.133333,0.392072,1.481082,0.869003,0.454766,1.478979,1.252871,0.398968,0.964469,0.865139,0.461940,0.963729,1.248883,0.405198,1.480286,0.963235
617,5.141667,0.392056,1.481078,0.869002,0.454765,1.478977,1.252867,0.398958,0.964464,0.865141,0.461945,0.963727,1.248883,0.405186,1.480282,0.963234
618,5.150000,0.392073,1.481109,0.869017,0.454739,1.478977,1.252889,0.398906,0.964495,0.865125,0.461850,0.963726,1.248875,0.405192,1.480306,0.963250
619,5.158333,0.392081,1.481071,0.868995,0.454768,1.478969,1.252864,0.398987,0.964458,0.865132,0.461951,0.963719,1.248878,0.405205,1.480275,0.963228
620,5.166667,0.392072,1.481107,0.869018,0.454746,1.478985,1.252889,0.398894,0.964492,0.865141,0.461847,0.963733,1.248889,0.405193,1.480306,0.963251
621,5.175000,0.392331,1.481316,0.869023,0.454401,1.478983,1.252991,0.398813,0.964699,0.864930,0.461162,0.963729,1.248776,0.405304,1.480465,0.963276
622,5.183333,0.392075,1.481108,0.869017,0.454745,1.478982,1.252888,0.398903,0.964494,0.865133,0.461851,0.963731,1.248882,0.405195,1.480307,0.963250
623,5.191667,0.392070,1.481105,0.869023,0.454745,1.478980,1.252894,0.398905,0.964492,0.865139,0.461858,0.963729,1.248887,0.405191,1.480304,0.963256
624,5.200000,0.392065,1.481108,0.869019,0.454758,1.478987,1.252887,0.398894,0.964494,0.865141,0.461865,0.963736,1.248886,0.405191,1.480308,0.963252
625,5.208333,0.392348,1.481308,0.869002,0.454400,1.478967,1.252973,0.398789,0.964690,0.864904,0.461121,0.963712,1.248753,0.405316,1.480456,0.963256
626,5.216667,0.392081,1.481111,0.869018,0.454740,1.478980,1.252891,0.398911,0.964497,0.865128,0.461848,0.963729,1.248879,0.405198,1.480308,0.963251
627,5.225000,0.392079,1.481077,0.869000,0.454759,1.478981,1.252870,0.398965,0.964464,0.865148,0.461923,0.963731,1.248895,0.405201,1.480283,0.963233
628,5.233333,0.392083,1.481070,0.868993,0.454752,1.478967,1.252865,0.398964,0.964456,0.865132,0.461910,0.963716,1.248881,0.405203,1.480274,0.963227
629,5.241667,0.392083,1.481107,0.869015,0.454750,1.478979,1.252887,0.398915,0.964494,0.865127,0.461861,0.963728,1.248877,0.405202,1.480306,0.963248
630,5.250000,0.392075,1.481112,0.869007,0.454742,1.478984,1.252879,0.398904,0.964499,0.865120,0.461849,0.963733,1.248870,0.405194,1.480311,0.963240
631,5.258333,0.392080,1.481116,0.869019,0.454755,1.478990,1.252890,0.398906,0.964502,0.865136,0.461859,0.963739,1.248884,0.405201,1.480315,0.963252
632,5.266667,0.392084,1.481111,0.869015,0.454741,1.478978,1.252889,0.398921,0.964497,0.865122,0.461856,0.963727,1.248873,0.405201,1.480308,0.963249
633,5.275000,0.392069,1.481076,0.868997,0.454762,1.478978,1.252865,0.398970,0.964463,0.865137,0.461941,0.963727,1.248883,0.405195,1.480282,0.963229
634,5.283333,0.392076,1.481103,0.869007,0.454737,1.478987,1.252881,0.398908,0.964489,0.865136,0.461846,0.963735,1.248886,0.405194,1.480304,0.963241
635,5.291667,0.392337,1.481310,0.869003,0.454414,1.478989,1.252970,0.398830,0.964693,0.864923,0.461185,0.963734,1.248768,0.405311,1.480462,0.963256
636,5.300000,0.392091,1.481109,0.869014,0.454752,1.478984,1.252887,0.398915,0.964495,0.865132,0.461853,0.963732,1.248883,0.405209,1.480308,0.963247
637,5.308333,0.392087,1.481114,0.869012,0.454743,1.478984,1.252886,0.398924,0.964501,0.865121,0.461859,0.963733,1.248873,0.405204,1.480312,0.963246
638,5.316667,0.392073,1.481079,0.869002,0.454764,1.478979,1.252870,0.398962,0.964466,0.865142,0.461931,0.963728,1.248888,0.405198,1.480284,0.963234
639,5.325000,0.392076,1.481070,0.868998,0.454760,1.478968,1.252868,0.398983,0.964457,0.865134,0.461945,0.963718,1.248881,0.405199,1.480274,0.963231
640,5.333333,0.392085,1.481107,0.869015,0.454745,1.478973,1.252889,0.398916,0.964493,0.865122,0.461853,0.963722,1.248872,0.405203,1.480304,0.963249
641,5.341667,0.392077,1.481106,0.869018,0.454752,1.478987,1.252889,0.398940,0.964493,0.865138,0.461892,0.963736,1.248886,0.405198,1.480307,0.963251
642,5.350000,0.392083,1.481107,0.869011,0.454752,1.478991,1.252883,0.398913,0.964493,0.865140,0.461860,0.963739,1.248889,0.405203,1.480308,0.963244
643,5.358333,0.392085,1.481117,0.869015,0.454756,1.478986,1.252887,0.398910,0.964504,0.865125,0.461858,0.963735,1.248873,0.405205,1.480315,0.963248
644,5.366667,0.392071,1.481080,0.869001,0.454776,1.478963,1.252867,0.398963,0.964467,0.865119,0.461945,0.963713,1.248862,0.405200,1.480281,0.963233
645,5.375000,0.392098,1.481109,0.869020,0.454712,1.478898,1.252900,0.398834,0.964494,0.865038,0.461725,0.963646,1.248796,0.405204,1.480287,0.963255
646,5.383333,0.392078,1.481101,0.869020,0.454739,1.478982,1.252893,0.398919,0.964488,0.865143,0.461858,0.963731,1.248893,0.405196,1.480302,0.963254
647,5.391667,0.392082,1.481108,0.869018,0.454754,1.478983,1.252890,0.398929,0.964494,0.865133,0.461879,0.963732,1.248881,0.405202,1.480307,0.963251
648,5.400000,0.392084,1.481115,0.869017,0.454756,1.478979,1.252888,0.398912,0.964501,0.865120,0.461862,0.963728,1.248868,0.405204,1.480311,0.963250
649,5.408333,0.392077,1.481114,0.869019,0.454732,1.478985,1.252893,0.398907,0.964500,0.865132,0.461839,0.963734,1.248883,0.405193,1.480312,0.963253
650,5.416667,0.392076,1.481112,0.869020,0.454746,1.478981,1.252892,0.398914,0.964498,0.865128,0.461862,0.963730,1.248877,0.405196,1.480310,0.963253
