Format Version,1.2,Take Name,Take 2020-01-17 02.00.07 PM,Capture Frame Rate,120.000000,Export Frame Rate,120.000000,Capture Start Time,2020-01-17 02.00.07.656 PM,Total Frames,650,Rotation Type,Quaternion,Length Units,Meters,Coordinate Space,Global

,,Rigid Body Marker,Rigid Body Marker,Rigid Body Marker,Rigid Body Marker,Rigid Body Marker,Rigid Body Marker,Rigid Body Marker,Rigid Body Marker,Rigid Body Marker,Rigid Body Marker,Rigid Body Marker,Rigid Body Marker,Rigid Body Marker,Rigid Body Marker,Rigid Body Marker
,,Rigid Body 1_1,Rigid Body 1_1,Rigid Body 1_1,Rigid Body 1_2,Rigid Body 1_2,Rigid Body 1_2,Rigid Body 1_3,Rigid Body 1_3,Rigid Body 1_3,Rigid Body 1_4,Rigid Body 1_4,Rigid Body 1_4,Rigid Body 1_5,Rigid Body 1_5,Rigid Body 1_5
,,"C92F0D0838D411EAE5BE26CA05685A8D","C92F0D0838D411EAE5BE26CA05685A8D","C92F0D0838D411EAE5BE26CA05685A8D","C92F0D0838D411EAE5BE26CA05685A8D","C92F0D0838D411EAE5BE26CA05685A8D","C92F0D0838D411EAE5BE26CA05685A8D","C92F0D0838D411EAE5BE26CA05685A8D","C92F0D0838D411EAE5BE26CA05685A8D","C92F0D0838D411EAE5BE26CA05685A8D","C92F0D0838D411EAE5BE26CA05685A8D","C92F0D0838D411EAE5BE26CA05685A8D","C92F0D0838D411EAE5BE26CA05685A8D","C92F0D0838D411EAE5BE26CA05685A8D","C92F0D0838D411EAE5BE26CA05685A8D","C92F0D0838D411EAE5BE26CA05685A8D"
,,Position,Position,Position,Position,Position,Position,Position,Position,Position,Position,Position,Position,Position,Position,Position
Frame,Time,X,Y,Z,X,Y,Z,X,Y,Z,X,Y,Z,X,Y,Z
0,0.000000,2.153597,1.864175,1.474565,1.853749,1.867870,1.721477,2.064437,1.360720,1.370976,1.765295,1.367804,1.620398,2.078443,1.865227,1.534757
1,0.008333,2.153628,1.864144,1.474517,1.853822,1.868064,1.721477,2.064222,1.360693,1.371123,1.765124,1.368002,1.620591,2.078484,1.865252,1.534721
2,0.016667,2.153638,1.864166,1.474445,1.853808,1.867911,1.721379,2.064430,1.360707,1.370918,1.765307,1.367841,1.620360,2.078488,1.865230,1.534643
3,0.025000,2.153441,1.863809,1.474386,1.853365,1.867740,1.721019,2.064070,1.360386,1.370823,1.764701,1.367707,1.619965,2.078231,1.864920,1.534508
4,0.033333,2.153694,1.864148,1.474366,1.853862,1.867912,1.721298,2.064476,1.360685,1.370864,1.765351,1.367839,1.620304,2.078544,1.865217,1.534563
5,0.041667,2.153590,1.863976,1.474469,1.853528,1.868067,1.721115,2.064042,1.360559,1.371028,1.764688,1.368040,1.620183,2.078384,1.865126,1.534595
6,0.050000,2.153757,1.864095,1.474353,1.853958,1.868094,1.721322,2.064204,1.360672,1.370949,1.765115,1.368060,1.620426,2.078614,1.865222,1.534559
7,0.058333,2.153788,1.864137,1.474258,1.853959,1.867945,1.721191,2.064534,1.360671,1.370803,1.765412,1.367869,1.620245,2.078639,1.865216,1.534455
8,0.066667,2.153653,1.863765,1.474335,1.853581,1.867729,1.720970,2.064093,1.360409,1.370609,1.764728,1.367761,1.619755,2.078444,1.864884,1.534457
9,0.075000,2.153832,1.864086,1.474166,1.853957,1.867936,1.721043,2.064585,1.360608,1.370764,1.765417,1.367847,1.620149,2.078671,1.865176,1.534349
10,0.083333,2.153713,1.863698,1.474263,1.853656,1.867703,1.720916,2.064080,1.360353,1.370546,1.764731,1.367746,1.619709,2.078508,1.864827,1.534390
11,0.091667,2.153881,1.864224,1.474140,1.854141,1.868199,1.721180,2.064669,1.360654,1.371155,1.765637,1.368021,1.620700,2.078753,1.865344,1.534364
12,0.100000,2.153968,1.864041,1.474174,1.854154,1.868135,1.721122,2.064409,1.360584,1.370942,1.765304,1.368068,1.620396,2.078822,1.865192,1.534375
13,0.108333,2.153974,1.864072,1.474133,1.854083,1.867965,1.720991,2.064663,1.360606,1.370727,1.765479,1.367889,1.620092,2.078809,1.865173,1.534312
14,0.116667,2.153844,1.863707,1.474240,1.853782,1.867736,1.720887,2.064172,1.360369,1.370521,1.764818,1.367786,1.619678,2.078637,1.864842,1.534365
15,0.125000,2.154059,1.864086,1.474192,1.854185,1.867989,1.721071,2.064708,1.360629,1.370774,1.765543,1.367922,1.620161,2.078898,1.865189,1.534375
16,0.133333,2.154284,1.864051,1.474427,1.854027,1.868853,1.720824,2.063812,1.360769,1.371136,1.764267,1.368961,1.620039,2.079030,1.865379,1.534490
17,0.141667,2.154133,1.864054,1.474198,1.854247,1.867978,1.721060,2.064752,1.360604,1.370773,1.765573,1.367918,1.620143,2.078970,1.865162,1.534377
18,0.150000,2.154147,1.864025,1.474210,1.854307,1.868165,1.721125,2.064532,1.360577,1.370980,1.765401,1.368107,1.620401,2.078995,1.865187,1.534403
19,0.158333,2.154183,1.864062,1.474242,1.854296,1.867991,1.721104,2.064780,1.360620,1.370800,1.765600,1.367939,1.620170,2.079020,1.865172,1.534421
20,0.166667,2.154204,1.864008,1.474252,1.854379,1.868135,1.721186,2.064574,1.360568,1.370994,1.765459,1.368086,1.620435,2.079055,1.865167,1.534449
21,0.175000,2.154223,1.864053,1.474301,1.854324,1.867988,1.721148,2.064817,1.360610,1.370861,1.765626,1.367936,1.620216,2.079056,1.865164,1.534477
22,0.183333,2.154083,1.863697,1.474523,1.853931,1.867741,1.721060,2.064369,1.360388,1.370703,1.764925,1.367820,1.619751,2.078855,1.864837,1.534621
23,0.191667,2.154254,1.864057,1.474354,1.854362,1.867982,1.721209,2.064827,1.360627,1.370871,1.765642,1.367942,1.620235,2.079089,1.865166,1.534532
24,0.200000,2.154022,1.863726,1.474376,1.853887,1.867821,1.720933,2.064458,1.360328,1.370857,1.765030,1.367812,1.619923,2.078798,1.864877,1.534479
25,0.208333,2.154273,1.864058,1.474427,1.854388,1.867964,1.721291,2.064851,1.360633,1.370916,1.765674,1.367929,1.620289,2.079110,1.865162,1.534607
26,0.216667,2.154194,1.863890,1.474598,1.854065,1.868126,1.721161,2.064424,1.360520,1.371123,1.765003,1.368145,1.620194,2.078971,1.865077,1.534703
27,0.225000,2.154278,1.864019,1.474497,1.854436,1.868113,1.721412,2.064644,1.360598,1.371150,1.765512,1.368082,1.620572,2.079125,1.865170,1.534690
28,0.233333,2.154274,1.864054,1.474536,1.854379,1.867948,1.721388,2.064838,1.360641,1.370978,1.765651,1.367925,1.620339,2.079108,1.865155,1.534713
29,0.241667,2.154153,1.863896,1.474715,1.854021,1.868099,1.721274,2.064413,1.360527,1.371205,1.764989,1.368120,1.620273,2.078930,1.865074,1.534818
30,0.250000,2.154260,1.864075,1.474624,1.854369,1.867947,1.721482,2.064846,1.360661,1.371050,1.765663,1.367923,1.620418,2.079095,1.865171,1.534802
31,0.258333,2.154144,1.863899,1.474848,1.853987,1.868074,1.721378,2.064405,1.360547,1.371262,1.764956,1.368110,1.620301,2.078914,1.865071,1.534944
32,0.266667,2.154224,1.864045,1.474739,1.854359,1.868081,1.721626,2.064613,1.360643,1.371281,1.765457,1.368068,1.620676,2.079066,1.865181,1.534925
33,0.275000,2.154184,1.864102,1.474791,1.854272,1.867908,1.721624,2.064819,1.360699,1.371124,1.765614,1.367894,1.620466,2.079015,1.865182,1.534963
34,0.283333,2.154029,1.863829,1.474970,1.853873,1.867807,1.721505,2.064333,1.360541,1.371035,1.764886,1.367906,1.620082,2.078800,1.864953,1.535067
35,0.291667,2.154145,1.864120,1.474864,1.854231,1.867908,1.721695,2.064788,1.360722,1.371167,1.765580,1.367898,1.620507,2.078975,1.865195,1.535036
36,0.300000,2.154020,1.863927,1.475039,1.853855,1.868026,1.721560,2.064340,1.360583,1.371361,1.764882,1.368070,1.620392,2.078789,1.865080,1.535133
37,0.308333,2.154081,1.864120,1.474916,1.854180,1.867884,1.721763,2.064737,1.360724,1.371198,1.765543,1.367876,1.620555,2.078914,1.865189,1.535092
38,0.316667,2.153905,1.863831,1.475068,1.853756,1.867765,1.721612,2.064253,1.360540,1.371106,1.764813,1.367861,1.620162,2.078677,1.864943,1.535168
39,0.325000,2.153998,1.864138,1.474951,1.854109,1.867883,1.721813,2.064675,1.360739,1.371230,1.765493,1.367872,1.620603,2.078834,1.865202,1.535130
40,0.333333,2.153842,1.863851,1.475105,1.853692,1.867759,1.721647,2.064212,1.360563,1.371112,1.764769,1.367858,1.620167,2.078614,1.864957,1.535204
41,0.341667,2.153943,1.864156,1.474986,1.854051,1.867876,1.721845,2.064645,1.360756,1.371244,1.765460,1.367865,1.620614,2.078778,1.865214,1.535165
42,0.350000,2.153762,1.863866,1.475131,1.853615,1.867746,1.721678,2.064155,1.360579,1.371112,1.764715,1.367845,1.620171,2.078535,1.864965,1.535232
43,0.358333,2.153874,1.864156,1.474984,1.853989,1.867852,1.721853,2.064592,1.360759,1.371219,1.765415,1.367843,1.620598,2.078711,1.865209,1.535165
44,0.366667,2.153686,1.863868,1.475129,1.853542,1.867741,1.721679,2.064091,1.360578,1.371114,1.764654,1.367838,1.620176,2.078460,1.864965,1.535231
45,0.375000,2.154002,1.864141,1.475239,1.853679,1.868691,1.721560,2.063681,1.360912,1.371559,1.764069,1.368849,1.620390,2.078732,1.865407,1.535283
46,0.383333,2.153780,1.864187,1.474970,1.853902,1.867858,1.721847,2.064536,1.360782,1.371206,1.765365,1.367842,1.620593,2.078618,1.865233,1.535153
47,0.391667,2.153598,1.863902,1.475092,1.853464,1.867745,1.721655,2.064053,1.360602,1.371083,1.764626,1.367832,1.620159,2.078374,1.864992,1.535197
48,0.400000,2.153736,1.864191,1.474933,1.853860,1.867863,1.721813,2.064504,1.360781,1.371187,1.765335,1.367841,1.620577,2.078575,1.865237,1.535117
49,0.408333,2.153545,1.863902,1.475050,1.853414,1.867746,1.721618,2.064015,1.360594,1.371066,1.764591,1.367825,1.620145,2.078322,1.864992,1.535156
50,0.416667,2.153683,1.864197,1.474896,1.853806,1.867879,1.721774,2.064457,1.360781,1.371176,1.765288,1.367851,1.620565,2.078522,1.865246,1.535079
51,0.425000,2.153505,1.863911,1.474999,1.853383,1.867758,1.721577,2.063985,1.360596,1.371042,1.764570,1.367830,1.620131,2.078284,1.865002,1.535107
52,0.433333,2.153651,1.864209,1.474836,1.853781,1.867891,1.721724,2.064440,1.360785,1.371142,1.765278,1.367855,1.620539,2.078491,1.865258,1.535022
53,0.441667,2.153512,1.864013,1.474976,1.853359,1.867999,1.721513,2.063999,1.360642,1.371283,1.764553,1.368016,1.620330,2.078284,1.865138,1.535074
54,0.450000,2.153638,1.864193,1.474764,1.853758,1.867877,1.721638,2.064437,1.360765,1.371077,1.765264,1.367838,1.620461,2.078476,1.865242,1.534947
55,0.458333,2.153490,1.864004,1.474898,1.853342,1.867993,1.721441,2.064004,1.360619,1.371249,1.764562,1.367997,1.620302,2.078263,1.865129,1.534997
56,0.466667,2.153651,1.864177,1.474686,1.853814,1.868101,1.721608,2.064217,1.360742,1.371239,1.765088,1.368055,1.620669,2.078500,1.865286,1.534880
57,0.475000,2.153647,1.864206,1.474661,1.853763,1.867924,1.721530,2.064443,1.360766,1.371036,1.765266,1.367873,1.620414,2.078484,1.865263,1.534842
58,0.483333,2.153435,1.863846,1.474621,1.853299,1.867749,1.721179,2.064070,1.360443,1.370955,1.764640,1.367735,1.620023,2.078211,1.864950,1.534724
59,0.491667,2.153683,1.864156,1.474529,1.853818,1.867925,1.721420,2.064439,1.360708,1.370975,1.765281,1.367867,1.620375,2.078524,1.865226,1.534715
60,0.500000,2.153476,1.863804,1.474491,1.853348,1.867754,1.721060,2.064099,1.360385,1.370913,1.764676,1.367724,1.619991,2.078254,1.864919,1.534597
61,0.508333,2.153718,1.864144,1.474452,1.853862,1.867943,1.721354,2.064459,1.360689,1.370950,1.765311,1.367877,1.620360,2.078562,1.865222,1.534642
62,0.516667,2.153608,1.863987,1.474580,1.853509,1.868080,1.721181,2.064047,1.360582,1.371095,1.764656,1.368064,1.620205,2.078393,1.865138,1.534694
63,0.525000,2.153755,1.864140,1.474398,1.853904,1.867960,1.721305,2.064465,1.360688,1.370903,1.765322,1.367898,1.620319,2.078600,1.865223,1.534589
64,0.533333,2.153666,1.863977,1.474516,1.853568,1.868106,1.721117,2.064082,1.360567,1.371075,1.764691,1.368085,1.620185,2.078451,1.865137,1.534630
65,0.541667,2.153807,1.864120,1.474345,1.853952,1.867959,1.721247,2.064513,1.360663,1.370880,1.765365,1.367892,1.620291,2.078651,1.865207,1.534535
66,0.550000,2.153721,1.863951,1.474476,1.853620,1.868098,1.721075,2.064111,1.360544,1.371041,1.764718,1.368080,1.620148,2.078505,1.865115,1.534590
67,0.558333,2.153880,1.864109,1.474302,1.854018,1.867979,1.721195,2.064550,1.360655,1.370852,1.765396,1.367915,1.620254,2.078722,1.865204,1.534489
68,0.566667,2.153792,1.863957,1.474429,1.853706,1.868131,1.721044,2.064157,1.360547,1.371029,1.764778,1.368111,1.620152,2.078580,1.865128,1.534546
69,0.575000,2.153926,1.864099,1.474278,1.854064,1.867976,1.721172,2.064595,1.360643,1.370841,1.765441,1.367910,1.620243,2.078769,1.865196,1.534466
70,0.583333,2.153853,1.863932,1.474428,1.853745,1.868116,1.721017,2.064212,1.360524,1.371023,1.764812,1.368098,1.620120,2.078636,1.865105,1.534539
71,0.591667,2.153995,1.864083,1.474259,1.854133,1.867980,1.721152,2.064646,1.360626,1.370840,1.765492,1.367913,1.620241,2.078838,1.865184,1.534446
72,0.600000,2.153923,1.863931,1.474417,1.853799,1.868139,1.720986,2.064261,1.360525,1.371022,1.764845,1.368124,1.620098,2.078702,1.865110,1.534523
73,0.608333,2.154058,1.864085,1.474282,1.854171,1.867987,1.721144,2.064690,1.360639,1.370829,1.765510,1.367931,1.620199,2.078894,1.865188,1.534462
74,0.616667,2.153915,1.863716,1.474502,1.853765,1.867763,1.721042,2.064217,1.360398,1.370710,1.764775,1.367833,1.619761,2.078688,1.864856,1.534601
75,0.625000,2.154110,1.864063,1.474295,1.854221,1.867979,1.721155,2.064725,1.360618,1.370849,1.765544,1.367924,1.620216,2.078946,1.865169,1.534474
76,0.633333,2.154035,1.863895,1.474450,1.853913,1.868126,1.721021,2.064314,1.360504,1.371031,1.764901,1.368125,1.620110,2.078815,1.865080,1.534556
77,0.641667,2.154152,1.864057,1.474324,1.854262,1.867974,1.721182,2.064759,1.360616,1.370867,1.765577,1.367922,1.620233,2.078988,1.865164,1.534502
78,0.650000,2.154093,1.863914,1.474493,1.853966,1.868144,1.721059,2.064366,1.360527,1.371061,1.764948,1.368146,1.620134,2.078871,1.865099,1.534598
79,0.658333,2.154205,1.864069,1.474370,1.854315,1.867989,1.721228,2.064793,1.360634,1.370898,1.765611,1.367944,1.620265,2.079040,1.865176,1.534548
80,0.666667,2.154051,1.863709,1.474610,1.853890,1.867746,1.721137,2.064327,1.360409,1.370755,1.764874,1.367833,1.619793,2.078821,1.864847,1.534706
81,0.675000,2.154235,1.864052,1.474422,1.854335,1.867960,1.721268,2.064812,1.360629,1.370902,1.765619,1.367927,1.620257,2.079068,1.865157,1.534598
82,0.683333,2.154079,1.863689,1.474675,1.853911,1.867738,1.721192,2.064326,1.360398,1.370803,1.764865,1.367834,1.619831,2.078847,1.864830,1.534768
83,0.691667,2.154210,1.864026,1.474432,1.854350,1.868192,1.721323,2.064568,1.360582,1.371206,1.765418,1.368138,1.620603,2.079053,1.865194,1.534618
84,0.700000,2.154236,1.864074,1.474528,1.854342,1.867959,1.721381,2.064821,1.360656,1.370975,1.765634,1.367930,1.620338,2.079071,1.865173,1.534705
85,0.708333,2.154241,1.864084,1.474573,1.854332,1.867974,1.721409,2.064817,1.360670,1.371009,1.765616,1.367950,1.620354,2.079072,1.865184,1.534746
86,0.716667,2.154077,1.863716,1.474802,1.853900,1.867733,1.721310,2.064340,1.360433,1.370878,1.764872,1.367837,1.619898,2.078843,1.864849,1.534893
87,0.725000,2.154224,1.864072,1.474626,1.854324,1.867942,1.721473,2.064803,1.360664,1.371032,1.765612,1.367923,1.620389,2.079057,1.865168,1.534802
88,0.733333,2.153962,1.863729,1.474725,1.853762,1.867762,1.721204,2.064410,1.360363,1.371040,1.764916,1.367785,1.620029,2.078722,1.864865,1.534808
89,0.741667,2.154200,1.864106,1.474750,1.854282,1.867946,1.721576,2.064801,1.360704,1.371107,1.765591,1.367933,1.620442,2.079029,1.865194,1.534920
90,0.750000,2.154116,1.863901,1.474930,1.853944,1.868072,1.721441,2.064358,1.360560,1.371299,1.764894,1.368120,1.620320,2.078883,1.865072,1.535022
91,0.758333,2.154160,1.864127,1.474823,1.854223,1.867946,1.721625,2.064785,1.360728,1.371147,1.765555,1.367935,1.620459,2.078984,1.865210,1.534987
92,0.766667,2.154000,1.863816,1.474983,1.853828,1.867815,1.721496,2.064303,1.360522,1.371073,1.764838,1.367908,1.620098,2.078767,1.864944,1.535075
93,0.775000,2.154114,1.864117,1.474872,1.854190,1.867915,1.721691,2.064746,1.360720,1.371176,1.765530,1.367908,1.620505,2.078941,1.865194,1.535041
94,0.783333,2.153933,1.863828,1.475044,1.853750,1.867797,1.721545,2.064262,1.360537,1.371098,1.764787,1.367893,1.620112,2.078697,1.864949,1.535133
95,0.791667,2.154058,1.864144,1.474923,1.854132,1.867907,1.721741,2.064723,1.360749,1.371193,1.765504,1.367900,1.620521,2.078885,1.865213,1.535092
96,0.800000,2.153884,1.863845,1.475083,1.853715,1.867794,1.721601,2.064216,1.360559,1.371110,1.764755,1.367895,1.620140,2.078652,1.864961,1.535176
97,0.808333,2.153997,1.864146,1.474951,1.854091,1.867886,1.721792,2.064680,1.360749,1.371213,1.765480,1.367878,1.620564,2.078829,1.865209,1.535125
98,0.816667,2.153816,1.863846,1.475106,1.853655,1.867766,1.721635,2.064182,1.360556,1.371125,1.764728,1.367864,1.620165,2.078586,1.864955,1.535203
99,0.825000,2.153933,1.864146,1.474975,1.854020,1.867881,1.721808,2.064621,1.360750,1.371228,1.765416,1.367874,1.620572,2.078763,1.865208,1.535147
100,0.833333,2.153924,1.864133,1.474978,1.854048,1.868062,1.721853,2.064391,1.360744,1.371390,1.765224,1.368062,1.620774,2.078763,1.865243,1.535161
101,0.841667,2.153876,1.864169,1.474978,1.853962,1.867888,1.721812,2.064586,1.360770,1.371225,1.765380,1.367878,1.620569,2.078705,1.865227,1.535151
102,0.850000,2.153850,1.864181,1.474981,1.853935,1.867882,1.721813,2.064595,1.360775,1.371233,1.765388,1.367865,1.620576,2.078679,1.865235,1.535153
103,0.858333,2.153812,1.864139,1.474931,1.853891,1.868095,1.721751,2.064341,1.360720,1.371433,1.765128,1.368066,1.620761,2.078640,1.865255,1.535100
104,0.866667,2.153718,1.864162,1.474877,1.853966,1.867930,1.721905,2.064496,1.360685,1.371447,1.765452,1.367843,1.620984,2.078587,1.865232,1.535098
105,0.875000,2.153701,1.864172,1.474856,1.853964,1.867947,1.721902,2.064467,1.360695,1.371437,1.765438,1.367860,1.620991,2.078574,1.865243,1.535081
106,0.883333,2.153675,1.864183,1.474842,1.853930,1.867948,1.721880,2.064454,1.360705,1.371415,1.765417,1.367861,1.620960,2.078546,1.865252,1.535066
107,0.891667,2.153661,1.864193,1.474826,1.853921,1.867954,1.721868,2.064462,1.360707,1.371419,1.765429,1.367859,1.620970,2.078533,1.865261,1.535050
108,0.900000,2.153641,1.864180,1.474794,1.853899,1.867953,1.721834,2.064435,1.360692,1.371403,1.765402,1.367855,1.620951,2.078513,1.865250,1.535018
109,0.908333,2.153643,1.864167,1.474761,1.853901,1.867949,1.721802,2.064429,1.360679,1.371379,1.765395,1.367851,1.620927,2.078514,1.865240,1.534986
110,0.916667,2.153623,1.864174,1.474745,1.853880,1.867955,1.721783,2.064423,1.360681,1.371376,1.765387,1.367852,1.620922,2.078495,1.865247,1.534968
111,0.925000,2.153620,1.864185,1.474699,1.853885,1.867970,1.721748,2.064418,1.360689,1.371344,1.765391,1.367864,1.620900,2.078493,1.865258,1.534925
112,0.933333,2.153615,1.864195,1.474694,1.853873,1.867985,1.721733,2.064422,1.360695,1.371351,1.765387,1.367875,1.620898,2.078487,1.865269,1.534918
113,0.941667,2.153617,1.864180,1.474641,1.853890,1.867977,1.721700,2.064415,1.360679,1.371315,1.765396,1.367866,1.620881,2.078492,1.865257,1.534870
114,0.950000,2.153614,1.864167,1.474607,1.853873,1.867976,1.721649,2.064413,1.360662,1.371295,1.765380,1.367861,1.620844,2.078486,1.865246,1.534832
115,0.958333,2.153612,1.864167,1.474564,1.853887,1.867975,1.721624,2.064413,1.360659,1.371265,1.765395,1.367858,1.620833,2.078488,1.865246,1.534793
116,0.966667,2.153639,1.864160,1.474534,1.853909,1.867995,1.721589,2.064411,1.360653,1.371253,1.765390,1.367879,1.620815,2.078513,1.865246,1.534762
117,0.975000,2.153651,1.864162,1.474506,1.853918,1.868015,1.721556,2.064409,1.360654,1.371243,1.765384,1.367898,1.620800,2.078525,1.865252,1.534733
118,0.983333,2.153667,1.864176,1.474457,1.853902,1.868100,1.721467,2.064349,1.360677,1.371216,1.765291,1.367992,1.620732,2.078533,1.865284,1.534674
119,0.991667,2.153702,1.864147,1.474410,1.853944,1.868098,1.721429,2.064359,1.360646,1.371201,1.765310,1.367988,1.620727,2.078569,1.865261,1.534629
120,1.000000,2.153712,1.864145,1.474369,1.853966,1.868092,1.721403,2.064361,1.360648,1.371150,1.765324,1.367985,1.620691,2.078583,1.865259,1.534591
121,1.008333,2.153770,1.864144,1.474395,1.853987,1.868123,1.721382,2.064379,1.360656,1.371163,1.765304,1.368026,1.620657,2.078631,1.865265,1.534605
122,1.016667,2.153762,1.864149,1.474326,1.854021,1.868118,1.721365,2.064404,1.360645,1.371148,1.765372,1.368004,1.620693,2.078634,1.865268,1.534550
123,1.025000,2.153798,1.864149,1.474320,1.854044,1.868140,1.721343,2.064414,1.360649,1.371145,1.765369,1.368031,1.620674,2.078666,1.865274,1.534540
124,1.033333,2.153815,1.864140,1.474286,1.854075,1.868140,1.721325,2.064423,1.360637,1.371130,1.765391,1.368028,1.620675,2.078687,1.865267,1.534510
125,1.041667,2.153833,1.864140,1.474266,1.854100,1.868141,1.721314,2.064440,1.360635,1.371118,1.765416,1.368027,1.620673,2.078707,1.865267,1.534492
126,1.050000,2.153872,1.864125,1.474260,1.854138,1.868141,1.721306,2.064462,1.360621,1.371122,1.765437,1.368029,1.620673,2.078746,1.865255,1.534486
127,1.058333,2.153900,1.864121,1.474252,1.854165,1.868147,1.721297,2.064478,1.360619,1.371117,1.765452,1.368036,1.620668,2.078773,1.865255,1.534477
128,1.066667,2.153933,1.864118,1.474240,1.854202,1.868155,1.721289,2.064504,1.360613,1.371125,1.765482,1.368042,1.620680,2.078807,1.865254,1.534466
129,1.075000,2.153965,1.864118,1.474234,1.854218,1.868161,1.721265,2.064506,1.360626,1.371081,1.765469,1.368060,1.620617,2.078835,1.865256,1.534456
130,1.083333,2.154041,1.864054,1.474279,1.854203,1.868153,1.721199,2.064470,1.360603,1.371024,1.765342,1.368093,1.620450,2.078889,1.865206,1.534473
131,1.091667,2.154053,1.864089,1.474300,1.854164,1.868001,1.721160,2.064689,1.360637,1.370870,1.765508,1.367939,1.620238,2.078889,1.865194,1.534479
132,1.100000,2.153915,1.863724,1.474525,1.853755,1.867763,1.721052,2.064233,1.360404,1.370727,1.764780,1.367831,1.619765,2.078685,1.864862,1.534620
133,1.108333,2.154115,1.864052,1.474320,1.854258,1.868178,1.721215,2.064516,1.360605,1.371067,1.765368,1.368122,1.620469,2.078959,1.865210,1.534508
134,1.116667,2.154126,1.864094,1.474341,1.854232,1.868006,1.721194,2.064757,1.360645,1.370899,1.765571,1.367947,1.620261,2.078961,1.865199,1.534518
135,1.125000,2.153983,1.863726,1.474556,1.853820,1.867771,1.721080,2.064286,1.360410,1.370751,1.764831,1.367843,1.619785,2.078752,1.864865,1.534651
136,1.133333,2.154166,1.864075,1.474369,1.854271,1.867986,1.721222,2.064788,1.360630,1.370916,1.765601,1.367931,1.620276,2.079000,1.865180,1.534546
137,1.141667,2.154020,1.863723,1.474603,1.853848,1.867755,1.721117,2.064333,1.360411,1.370774,1.764868,1.367830,1.619798,2.078787,1.864859,1.534696
138,1.150000,2.154188,1.864092,1.474415,1.854291,1.867992,1.721264,2.064818,1.360650,1.370946,1.765628,1.367939,1.620303,2.079022,1.865195,1.534591
139,1.158333,2.153947,1.863740,1.474440,1.853787,1.867816,1.720968,2.064401,1.360346,1.370886,1.764949,1.367812,1.619923,2.078717,1.864887,1.534536
140,1.166667,2.154208,1.864090,1.474473,1.854313,1.867980,1.721325,2.064827,1.360656,1.370971,1.765639,1.367936,1.620332,2.079043,1.865190,1.534649
141,1.175000,2.154137,1.863908,1.474622,1.853996,1.868137,1.721170,2.064398,1.360529,1.371160,1.764966,1.368147,1.620217,2.078911,1.865092,1.534722
142,1.183333,2.154213,1.864085,1.474522,1.854325,1.867967,1.721383,2.064839,1.360651,1.371017,1.765658,1.367922,1.620386,2.079049,1.865183,1.534701
143,1.191667,2.153972,1.863737,1.474558,1.853816,1.867785,1.721090,2.064423,1.360357,1.370943,1.764973,1.367793,1.619984,2.078743,1.864877,1.534655
144,1.200000,2.154205,1.864111,1.474645,1.854280,1.867969,1.721462,2.064839,1.360689,1.371071,1.765621,1.367936,1.620397,2.079032,1.865203,1.534814
145,1.208333,2.154128,1.863907,1.474815,1.853945,1.868106,1.721312,2.064392,1.360548,1.371257,1.764917,1.368136,1.620263,2.078892,1.865085,1.534903
146,1.216667,2.154211,1.864099,1.474651,1.854300,1.867957,1.721485,2.064834,1.360680,1.371075,1.765631,1.367926,1.620418,2.079041,1.865191,1.534824
147,1.225000,2.154106,1.863909,1.474879,1.853925,1.868074,1.721379,2.064389,1.360555,1.371278,1.764916,1.368109,1.620288,2.078871,1.865078,1.534967
148,1.233333,2.154172,1.864115,1.474773,1.854237,1.867938,1.721577,2.064820,1.360704,1.371135,1.765591,1.367916,1.620448,2.078997,1.865199,1.534938
149,1.241667,2.154047,1.863917,1.474961,1.853844,1.868050,1.721435,2.064359,1.360568,1.371311,1.764863,1.368090,1.620294,2.078806,1.865078,1.535043
150,1.250000,2.154148,1.864139,1.474823,1.854210,1.867935,1.721625,2.064813,1.360733,1.371149,1.765582,1.367917,1.620460,2.078972,1.865216,1.534988
151,1.258333,2.153983,1.863843,1.474984,1.853799,1.867818,1.721484,2.064307,1.360552,1.371043,1.764832,1.367914,1.620055,2.078747,1.864965,1.535073
152,1.266667,2.154113,1.864132,1.474883,1.854163,1.867921,1.721671,2.064764,1.360736,1.371169,1.765522,1.367913,1.620466,2.078933,1.865207,1.535044
153,1.275000,2.153920,1.863851,1.475024,1.853744,1.867798,1.721534,2.064280,1.360555,1.371076,1.764811,1.367889,1.620098,2.078686,1.864967,1.535115
154,1.283333,2.154047,1.864145,1.474907,1.854119,1.867900,1.721722,2.064729,1.360745,1.371181,1.765508,1.367890,1.620506,2.078873,1.865212,1.535075
155,1.291667,2.153862,1.863866,1.475059,1.853685,1.867790,1.721569,2.064239,1.360572,1.371086,1.764769,1.367884,1.620107,2.078627,1.864976,1.535151
156,1.300000,2.153996,1.864172,1.474928,1.854067,1.867919,1.721741,2.064685,1.360774,1.371191,1.765462,1.367909,1.620514,2.078822,1.865237,1.535095
157,1.308333,2.153812,1.863882,1.475073,1.853639,1.867794,1.721587,2.064199,1.360589,1.371089,1.764733,1.367888,1.620114,2.078579,1.864989,1.535165
158,1.316667,2.153943,1.864173,1.474937,1.854024,1.867894,1.721763,2.064655,1.360773,1.371185,1.765443,1.367883,1.620522,2.078771,1.865231,1.535107
159,1.325000,2.153753,1.863879,1.475074,1.853591,1.867769,1.721602,2.064164,1.360582,1.371085,1.764709,1.367859,1.620125,2.078522,1.864980,1.535170
160,1.333333,2.153878,1.864180,1.474922,1.853973,1.867893,1.721765,2.064602,1.360777,1.371180,1.765404,1.367879,1.620534,2.078710,1.865237,1.535096
161,1.341667,2.153709,1.863889,1.475066,1.853541,1.867786,1.721587,2.064119,1.360591,1.371085,1.764659,1.367875,1.620118,2.078477,1.864992,1.535160
162,1.350000,2.153826,1.864179,1.474904,1.853918,1.867891,1.721743,2.064559,1.360773,1.371168,1.765357,1.367873,1.620517,2.078657,1.865235,1.535078
163,1.358333,2.153817,1.864160,1.474951,1.853941,1.868078,1.721826,2.064259,1.360787,1.371307,1.765092,1.368093,1.620692,2.078656,1.865268,1.535134
164,1.366667,2.153788,1.864181,1.474877,1.853881,1.867887,1.721718,2.064542,1.360769,1.371154,1.765341,1.367863,1.620505,2.078619,1.865236,1.535051
165,1.375000,2.153770,1.864180,1.474856,1.853860,1.867893,1.721693,2.064521,1.360766,1.371143,1.765318,1.367868,1.620489,2.078601,1.865237,1.535029
166,1.383333,2.153665,1.863972,1.474973,1.853508,1.868008,1.721505,2.064058,1.360621,1.371265,1.764609,1.368046,1.620307,2.078436,1.865110,1.535070
167,1.391667,2.153741,1.864200,1.474825,1.853832,1.867903,1.721665,2.064511,1.360782,1.371117,1.765310,1.367874,1.620466,2.078572,1.865254,1.534999
168,1.400000,2.153723,1.864199,1.474783,1.853828,1.867913,1.721639,2.064496,1.360773,1.371112,1.765307,1.367876,1.620477,2.078558,1.865256,1.534961
169,1.408333,2.153727,1.864166,1.474818,1.853858,1.868091,1.721702,2.064190,1.360779,1.371223,1.765030,1.368093,1.620616,2.078568,1.865275,1.535004
170,1.416667,2.153704,1.864184,1.474746,1.853802,1.867891,1.721593,2.064488,1.360757,1.371068,1.765293,1.367853,1.620425,2.078537,1.865239,1.534922
171,1.425000,2.153719,1.864161,1.474698,1.853871,1.868072,1.721607,2.064304,1.360724,1.371241,1.765164,1.368025,1.620658,2.078565,1.865266,1.534890
172,1.433333,2.153716,1.864183,1.474692,1.853810,1.867918,1.721534,2.064486,1.360752,1.371048,1.765287,1.367875,1.620400,2.078548,1.865245,1.534866
173,1.441667,2.153594,1.864275,1.474652,1.853937,1.867744,1.721801,2.065062,1.360612,1.371536,1.766109,1.367473,1.621190,2.078486,1.865268,1.534903
174,1.450000,2.153723,1.864166,1.474620,1.853830,1.867909,1.721477,2.064501,1.360725,1.371016,1.765315,1.367857,1.620383,2.078558,1.865230,1.534798
175,1.458333,2.153752,1.864091,1.474525,1.853923,1.868056,1.721457,2.064299,1.360644,1.371149,1.765179,1.367999,1.620589,2.078602,1.865210,1.534722
176,1.466667,2.153757,1.864143,1.474511,1.853886,1.867931,1.721395,2.064485,1.360701,1.370955,1.765321,1.367878,1.620347,2.078598,1.865218,1.534696
177,1.475000,2.153762,1.864110,1.474473,1.853901,1.868152,1.721364,2.064240,1.360666,1.371141,1.765089,1.368098,1.620540,2.078605,1.865248,1.534660
178,1.483333,2.153755,1.864149,1.474425,1.853981,1.868099,1.721424,2.064403,1.360656,1.371187,1.765337,1.367997,1.620692,2.078619,1.865264,1.534639
179,1.491667,2.153775,1.864127,1.474408,1.854004,1.868094,1.721410,2.064400,1.360636,1.371180,1.765337,1.367994,1.620689,2.078640,1.865246,1.534622
180,1.500000,2.153790,1.864123,1.474386,1.854010,1.868096,1.721377,2.064419,1.360630,1.371165,1.765348,1.367993,1.620663,2.078652,1.865243,1.534597
181,1.508333,2.153809,1.864121,1.474369,1.854050,1.868104,1.721386,2.064446,1.360615,1.371200,1.765396,1.367989,1.620724,2.078676,1.865243,1.534588
182,1.516667,2.153836,1.864125,1.474343,1.854069,1.868127,1.721350,2.064432,1.360630,1.371156,1.765375,1.368023,1.620670,2.078701,1.865252,1.534559
183,1.525000,2.153857,1.864149,1.474351,1.854107,1.868147,1.721379,2.064433,1.360662,1.371144,1.765392,1.368050,1.620678,2.078726,1.865275,1.534572
184,1.533333,2.153875,1.864141,1.474313,1.854120,1.868148,1.721334,2.064453,1.360650,1.371122,1.765407,1.368048,1.620650,2.078744,1.865269,1.534532
185,1.541667,2.153903,1.864123,1.474297,1.854156,1.868143,1.721328,2.064442,1.360642,1.371094,1.765405,1.368053,1.620631,2.078773,1.865255,1.534519
186,1.550000,2.153928,1.864125,1.474300,1.854182,1.868148,1.721333,2.064486,1.360633,1.371129,1.765450,1.368048,1.620668,2.078798,1.865257,1.534522
187,1.558333,2.153960,1.864112,1.474299,1.854213,1.868150,1.721329,2.064510,1.360619,1.371144,1.765472,1.368048,1.620681,2.078830,1.865249,1.534520
188,1.566667,2.153974,1.864120,1.474295,1.854221,1.868155,1.721318,2.064527,1.360627,1.371134,1.765483,1.368053,1.620664,2.078843,1.865255,1.534515
189,1.575000,2.154009,1.864114,1.474302,1.854233,1.868147,1.721297,2.064559,1.360628,1.371112,1.765492,1.368052,1.620614,2.078873,1.865249,1.534515
190,1.583333,2.154025,1.864106,1.474313,1.854266,1.868156,1.721328,2.064560,1.360617,1.371155,1.765510,1.368057,1.620676,2.078893,1.865245,1.534530
191,1.591667,2.154034,1.864118,1.474312,1.854279,1.868156,1.721332,2.064535,1.360648,1.371090,1.765490,1.368076,1.620617,2.078903,1.865255,1.534531
192,1.600000,2.154058,1.864107,1.474318,1.854307,1.868153,1.721344,2.064575,1.360625,1.371138,1.765534,1.368062,1.620670,2.078928,1.865245,1.534539
193,1.608333,2.154077,1.864105,1.474350,1.854312,1.868149,1.721358,2.064597,1.360626,1.371154,1.765541,1.368060,1.620669,2.078943,1.865243,1.534566
194,1.616667,2.154096,1.864118,1.474370,1.854325,1.868165,1.721372,2.064601,1.360644,1.371160,1.765541,1.368082,1.620668,2.078960,1.865257,1.534585
195,1.625000,2.154117,1.864105,1.474373,1.854363,1.868163,1.721394,2.064607,1.360630,1.371181,1.765563,1.368079,1.620709,2.078986,1.865247,1.534592
196,1.633333,2.154125,1.864112,1.474403,1.854354,1.868154,1.721404,2.064604,1.360653,1.371148,1.765543,1.368084,1.620657,2.078990,1.865250,1.534617
197,1.641667,2.154127,1.864107,1.474426,1.854344,1.868152,1.721413,2.064615,1.360644,1.371179,1.765542,1.368079,1.620673,2.078989,1.865245,1.534637
198,1.650000,2.154133,1.864117,1.474460,1.854381,1.868159,1.721484,2.064596,1.360660,1.371203,1.765554,1.368092,1.620734,2.079003,1.865254,1.534680
199,1.658333,2.154151,1.864112,1.474486,1.854370,1.868142,1.721475,2.064634,1.360657,1.371205,1.765563,1.368077,1.620701,2.079013,1.865246,1.534697
200,1.666667,2.154140,1.864125,1.474509,1.854361,1.868148,1.721500,2.064617,1.360675,1.371208,1.765547,1.368089,1.620706,2.079003,1.865258,1.534721
201,1.675000,2.154148,1.864134,1.474625,1.854313,1.868129,1.721548,2.064679,1.360683,1.371282,1.765553,1.368068,1.620713,2.078997,1.865260,1.534819
202,1.683333,2.154136,1.864130,1.474618,1.854322,1.868127,1.721567,2.064633,1.360689,1.371256,1.765528,1.368075,1.620713,2.078990,1.865257,1.534820
203,1.691667,2.154133,1.864146,1.474663,1.854289,1.868124,1.721576,2.064684,1.360695,1.371303,1.765548,1.368063,1.620723,2.078980,1.865268,1.534856
204,1.700000,2.154155,1.864134,1.474705,1.854291,1.868119,1.721594,2.064714,1.360680,1.371352,1.765558,1.368056,1.620748,2.078996,1.865258,1.534891
205,1.708333,2.154086,1.864151,1.474689,1.854313,1.868045,1.721690,2.064721,1.360686,1.371323,1.765656,1.367970,1.620832,2.078950,1.865252,1.534903
206,1.716667,2.154095,1.864148,1.474699,1.854261,1.868110,1.721625,2.064722,1.360670,1.371407,1.765596,1.368022,1.620840,2.078944,1.865266,1.534895
207,1.725000,2.154067,1.864149,1.474752,1.854288,1.868025,1.721746,2.064720,1.360685,1.371367,1.765650,1.367951,1.620869,2.078929,1.865245,1.534965
208,1.733333,2.154037,1.864151,1.474758,1.854267,1.868024,1.721762,2.064699,1.360683,1.371385,1.765637,1.367946,1.620896,2.078902,1.865246,1.534973
209,1.741667,2.154031,1.864154,1.474782,1.854252,1.868019,1.721776,2.064694,1.360690,1.371387,1.765623,1.367945,1.620889,2.078893,1.865247,1.534994
210,1.750000,2.154018,1.864164,1.474815,1.854237,1.868016,1.721807,2.064677,1.360708,1.371385,1.765604,1.367950,1.620885,2.078880,1.865254,1.535027
211,1.758333,2.153989,1.864169,1.474817,1.854216,1.868009,1.721819,2.064675,1.360705,1.371403,1.765610,1.367934,1.620913,2.078853,1.865256,1.535031
212,1.766667,2.153960,1.864179,1.474826,1.854199,1.868007,1.721841,2.064652,1.360716,1.371404,1.765599,1.367934,1.620928,2.078827,1.865264,1.535043
213,1.775000,2.153932,1.864168,1.474832,1.854171,1.867985,1.721850,2.064636,1.360703,1.371405,1.765584,1.367910,1.620930,2.078799,1.865250,1.535051
214,1.783333,2.153925,1.864159,1.474833,1.854163,1.867987,1.721848,2.064611,1.360697,1.371405,1.765557,1.367916,1.620928,2.078792,1.865243,1.535051
215,1.791667,2.153894,1.864177,1.474847,1.854132,1.867983,1.721863,2.064610,1.360713,1.371410,1.765556,1.367909,1.620933,2.078761,1.865256,1.535065
216,1.800000,2.153880,1.864187,1.474848,1.854119,1.867991,1.721865,2.064593,1.360724,1.371405,1.765541,1.367918,1.620931,2.078747,1.865265,1.535066
217,1.808333,2.153863,1.864175,1.474842,1.854102,1.867982,1.721859,2.064578,1.360710,1.371408,1.765526,1.367907,1.620933,2.078730,1.865254,1.535060
218,1.816667,2.153833,1.864173,1.474836,1.854072,1.867978,1.721852,2.064561,1.360704,1.371412,1.765508,1.367899,1.620936,2.078700,1.865252,1.535054
219,1.825000,2.153805,1.864175,1.474826,1.854037,1.867970,1.721835,2.064547,1.360705,1.371394,1.765488,1.367890,1.620912,2.078670,1.865251,1.535042
220,1.833333,2.153789,1.864173,1.474815,1.854032,1.867970,1.721836,2.064531,1.360701,1.371394,1.765482,1.367887,1.620924,2.078657,1.865250,1.535034
221,1.841667,2.153774,1.864179,1.474794,1.854018,1.867974,1.721817,2.064525,1.360703,1.371382,1.765477,1.367888,1.620913,2.078642,1.865255,1.535014
222,1.850000,2.153686,1.864198,1.474772,1.854046,1.867870,1.721937,2.064537,1.360710,1.371333,1.765605,1.367772,1.621006,2.078583,1.865244,1.535028
223,1.858333,2.153741,1.864189,1.474769,1.853981,1.867985,1.721787,2.064499,1.360710,1.371365,1.765447,1.367896,1.620891,2.078608,1.865265,1.534987
224,1.866667,2.153738,1.864163,1.474744,1.853979,1.867969,1.721763,2.064482,1.360687,1.371342,1.765431,1.367882,1.620869,2.078606,1.865242,1.534963
225,1.875000,2.153718,1.864167,1.474735,1.853953,1.867970,1.721747,2.064473,1.360687,1.371337,1.765417,1.367880,1.620857,2.078584,1.865245,1.534952
226,1.883333,2.153594,1.864195,1.474679,1.853979,1.867856,1.721875,2.064495,1.360686,1.371299,1.765588,1.367738,1.621002,2.078497,1.865238,1.534942
227,1.891667,2.153711,1.864180,1.474676,1.853955,1.867994,1.721699,2.064478,1.360690,1.371321,1.765429,1.367894,1.620851,2.078579,1.865261,1.534896
228,1.900000,2.153724,1.864184,1.474679,1.853902,1.868065,1.721620,2.064406,1.360714,1.371299,1.765291,1.367985,1.620748,2.078576,1.865282,1.534878
229,1.908333,2.153721,1.864184,1.474661,1.853895,1.868063,1.721599,2.064426,1.360705,1.371303,1.765309,1.367974,1.620749,2.078572,1.865281,1.534859
230,1.916667,2.153619,1.864166,1.474588,1.853971,1.867867,1.721743,2.064488,1.360660,1.371221,1.765548,1.367751,1.620884,2.078514,1.865219,1.534841
231,1.925000,2.153640,1.864139,1.474545,1.854002,1.867860,1.721712,2.064525,1.360615,1.371250,1.765594,1.367728,1.620924,2.078537,1.865196,1.534801
232,1.933333,2.153721,1.864182,1.474580,1.853911,1.868082,1.721536,2.064381,1.360712,1.371223,1.765279,1.368001,1.620686,2.078576,1.865284,1.534783
233,1.941667,2.153738,1.864168,1.474555,1.853929,1.868089,1.721512,2.064393,1.360689,1.371238,1.765292,1.368001,1.620702,2.078593,1.865275,1.534758
234,1.950000,2.153750,1.864144,1.474463,1.853987,1.868088,1.721475,2.064375,1.360661,1.371194,1.765320,1.367996,1.620713,2.078617,1.865257,1.534680
235,1.958333,2.153768,1.864138,1.474445,1.854016,1.868088,1.721470,2.064381,1.360655,1.371184,1.765338,1.367996,1.620717,2.078637,1.865252,1.534665
236,1.966667,2.153774,1.864131,1.474414,1.854020,1.868085,1.721437,2.064391,1.360646,1.371164,1.765345,1.367990,1.620694,2.078642,1.865247,1.534634
237,1.975000,2.153790,1.864151,1.474394,1.854031,1.868112,1.721410,2.064406,1.360664,1.371153,1.765356,1.368016,1.620676,2.078658,1.865268,1.534612
238,1.983333,2.153806,1.864137,1.474375,1.854037,1.868108,1.721380,2.064417,1.360651,1.371138,1.765356,1.368012,1.620650,2.078671,1.865257,1.534591
239,1.991667,2.153832,1.864129,1.474366,1.854085,1.868119,1.721397,2.064405,1.360645,1.371144,1.765367,1.368027,1.620681,2.078702,1.865253,1.534588
240,2.000000,2.153850,1.864129,1.474356,1.854113,1.868122,1.721399,2.064388,1.360658,1.371106,1.765360,1.368042,1.620656,2.078723,1.865254,1.534581
241,2.008333,2.153874,1.864108,1.474341,1.854126,1.868116,1.721370,2.064454,1.360615,1.371160,1.765415,1.368014,1.620696,2.078744,1.865237,1.534562
242,2.016667,2.153890,1.864123,1.474333,1.854148,1.868136,1.721369,2.064433,1.360643,1.371123,1.765400,1.368047,1.620666,2.078762,1.865254,1.534556
243,2.025000,2.153912,1.864117,1.474327,1.854166,1.868125,1.721359,2.064476,1.360631,1.371130,1.765438,1.368029,1.620667,2.078783,1.865246,1.534549
244,2.033333,2.153935,1.864121,1.474323,1.854182,1.868149,1.721346,2.064478,1.360636,1.371134,1.765434,1.368055,1.620663,2.078804,1.865255,1.534543
245,2.041667,2.153973,1.864108,1.474321,1.854214,1.868132,1.721338,2.064524,1.360622,1.371130,1.765474,1.368037,1.620653,2.078840,1.865241,1.534539
246,2.050000,2.153988,1.864096,1.474328,1.854230,1.868140,1.721345,2.064509,1.360615,1.371142,1.765460,1.368049,1.620665,2.078856,1.865234,1.534546
247,2.058333,2.154012,1.864097,1.474337,1.854252,1.868135,1.721350,2.064521,1.360624,1.371121,1.765470,1.368053,1.620641,2.078879,1.865234,1.534554
248,2.066667,2.154027,1.864105,1.474361,1.854255,1.868151,1.721360,2.064531,1.360632,1.371147,1.765468,1.368069,1.620653,2.078891,1.865243,1.534575
249,2.075000,2.154055,1.864108,1.474361,1.854321,1.868154,1.721406,2.064549,1.360633,1.371166,1.765524,1.368070,1.620718,2.078929,1.865247,1.534586
250,2.083333,2.154068,1.864097,1.474374,1.854305,1.868146,1.721384,2.064549,1.360632,1.371144,1.765495,1.368071,1.620661,2.078935,1.865236,1.534591
251,2.091667,2.154095,1.864079,1.474387,1.854327,1.868135,1.721391,2.064566,1.360616,1.371156,1.765508,1.368062,1.620667,2.078960,1.865220,1.534602
252,2.100000,2.154102,1.864094,1.474391,1.854322,1.868158,1.721382,2.064571,1.360631,1.371163,1.765501,1.368085,1.620660,2.078964,1.865237,1.534603
253,2.108333,2.154114,1.864089,1.474427,1.854346,1.868138,1.721431,2.064598,1.360624,1.371195,1.765539,1.368063,1.620705,2.078979,1.865229,1.534642
254,2.116667,2.154130,1.864092,1.474448,1.854353,1.868140,1.721441,2.064594,1.360637,1.371181,1.765526,1.368075,1.620681,2.078994,1.865231,1.534660
255,2.125000,2.154141,1.864095,1.474468,1.854357,1.868143,1.721453,2.064612,1.360638,1.371206,1.765538,1.368076,1.620698,2.079002,1.865234,1.534678
256,2.133333,2.154146,1.864086,1.474494,1.854364,1.868134,1.721480,2.064624,1.360626,1.371240,1.765550,1.368064,1.620734,2.079008,1.865225,1.534704
257,2.141667,2.154145,1.864084,1.474524,1.854338,1.868110,1.721482,2.064635,1.360633,1.371220,1.765537,1.368049,1.620684,2.079001,1.865218,1.534728
258,2.150000,2.154144,1.864087,1.474564,1.854319,1.868108,1.721500,2.064641,1.360638,1.371243,1.765525,1.368049,1.620685,2.078995,1.865219,1.534762
259,2.158333,2.154161,1.864107,1.474645,1.854329,1.868104,1.721573,2.064687,1.360657,1.371304,1.765564,1.368044,1.620739,2.079011,1.865234,1.534841
260,2.166667,2.154027,1.864104,1.474626,1.854351,1.867906,1.721746,2.064778,1.360611,1.371298,1.765810,1.367804,1.620925,2.078915,1.865182,1.534870
261,2.175000,2.154135,1.864121,1.474679,1.854305,1.868102,1.721610,2.064679,1.360669,1.371329,1.765558,1.368040,1.620768,2.078985,1.865243,1.534876
262,2.183333,2.154017,1.864109,1.474667,1.854336,1.867903,1.721781,2.064755,1.360626,1.371304,1.765784,1.367810,1.620926,2.078903,1.865185,1.534909
263,2.191667,2.154130,1.864120,1.474740,1.854288,1.868085,1.721657,2.064697,1.360667,1.371375,1.765564,1.368022,1.620800,2.078977,1.865239,1.534933
264,2.200000,2.154022,1.864102,1.474706,1.854359,1.867885,1.721842,2.064756,1.360622,1.371330,1.765802,1.367794,1.620973,2.078912,1.865175,1.534954
265,2.208333,2.154084,1.864122,1.474754,1.854302,1.868015,1.721744,2.064717,1.360660,1.371375,1.765643,1.367944,1.620872,2.078946,1.865223,1.534966
266,2.216667,2.154076,1.864120,1.474777,1.854290,1.868010,1.721762,2.064703,1.360663,1.371382,1.765626,1.367943,1.620875,2.078937,1.865220,1.534987
267,2.225000,2.154072,1.864128,1.474773,1.854226,1.868075,1.721684,2.064711,1.360651,1.371458,1.765574,1.367990,1.620877,2.078918,1.865242,1.534964
268,2.233333,2.154038,1.864117,1.474810,1.854245,1.867991,1.721787,2.064686,1.360659,1.371401,1.765602,1.367923,1.620886,2.078897,1.865213,1.535018
269,2.241667,2.153937,1.864116,1.474799,1.854255,1.867846,1.721913,2.064689,1.360653,1.371320,1.765715,1.367773,1.620943,2.078823,1.865176,1.535042
270,2.250000,2.154007,1.864125,1.474823,1.854220,1.867984,1.721806,2.064666,1.360667,1.371401,1.765587,1.367916,1.620893,2.078868,1.865217,1.535033
271,2.258333,2.153983,1.864135,1.474839,1.854199,1.867988,1.721827,2.064648,1.360676,1.371416,1.765572,1.367919,1.620912,2.078844,1.865225,1.535050
272,2.266667,2.153967,1.864132,1.474841,1.854188,1.867972,1.721835,2.064644,1.360672,1.371411,1.765573,1.367903,1.620914,2.078830,1.865219,1.535053
273,2.275000,2.153938,1.864144,1.474853,1.854154,1.867978,1.721841,2.064629,1.360683,1.371421,1.765552,1.367907,1.620917,2.078800,1.865230,1.535064
274,2.283333,2.153916,1.864137,1.474841,1.854142,1.867972,1.721842,2.064603,1.360675,1.371417,1.765537,1.367900,1.620925,2.078780,1.865224,1.535055
275,2.291667,2.153915,1.864146,1.474823,1.854083,1.868040,1.721751,2.064606,1.360668,1.371472,1.765481,1.367952,1.620908,2.078765,1.865247,1.535019
276,2.300000,2.153885,1.864149,1.474837,1.854107,1.867972,1.721833,2.064589,1.360686,1.371405,1.765520,1.367898,1.620910,2.078748,1.865232,1.535050
277,2.308333,2.153876,1.864143,1.474831,1.854097,1.867973,1.721825,2.064572,1.360680,1.371403,1.765501,1.367900,1.620905,2.078739,1.865228,1.535044
278,2.316667,2.153848,1.864142,1.474819,1.854073,1.867975,1.721817,2.064543,1.360677,1.371398,1.765475,1.367900,1.620905,2.078712,1.865227,1.535032
279,2.325000,2.153828,1.864148,1.474799,1.854048,1.867961,1.721793,2.064553,1.360681,1.371370,1.765482,1.367882,1.620873,2.078690,1.865229,1.535012
280,2.333333,2.153812,1.864149,1.474783,1.854045,1.867974,1.721792,2.064530,1.360677,1.371381,1.765470,1.367892,1.620898,2.078677,1.865233,1.534999
281,2.341667,2.153801,1.864162,1.474771,1.854021,1.867981,1.721764,2.064529,1.360690,1.371358,1.765456,1.367899,1.620859,2.078664,1.865244,1.534983
282,2.350000,2.153670,1.864171,1.474705,1.854029,1.867866,1.721869,2.064516,1.360675,1.371307,1.765583,1.367760,1.620979,2.078566,1.865222,1.534961
283,2.358333,2.153791,1.864167,1.474710,1.853962,1.868051,1.721643,2.064527,1.360673,1.371398,1.765405,1.367948,1.620838,2.078642,1.865265,1.534907
284,2.366667,2.153699,1.864152,1.474671,1.854041,1.867861,1.721814,2.064513,1.360668,1.371245,1.765563,1.367766,1.620896,2.078591,1.865207,1.534921
285,2.375000,2.153767,1.864143,1.474679,1.853997,1.867977,1.721685,2.064495,1.360662,1.371308,1.765433,1.367887,1.620822,2.078631,1.865229,1.534895
286,2.383333,2.153773,1.864130,1.474660,1.853993,1.867966,1.721653,2.064514,1.360646,1.371298,1.765441,1.367872,1.620798,2.078635,1.865216,1.534872
287,2.391667,2.153773,1.864144,1.474632,1.854007,1.867989,1.721642,2.064508,1.360656,1.371293,1.765450,1.367892,1.620811,2.078639,1.865233,1.534849
288,2.400000,2.153778,1.864190,1.474643,1.853966,1.868077,1.721596,2.064463,1.360714,1.371288,1.765358,1.367991,1.620749,2.078633,1.865289,1.534845
289,2.408333,2.153798,1.864175,1.474636,1.853963,1.868088,1.721561,2.064483,1.360693,1.371313,1.765355,1.367996,1.620746,2.078647,1.865280,1.534832
290,2.416667,2.153796,1.864169,1.474608,1.853979,1.868081,1.721555,2.064457,1.360693,1.371273,1.765348,1.367996,1.620727,2.078649,1.865274,1.534809
291,2.425000,2.153700,1.864131,1.474523,1.854033,1.867869,1.721655,2.064527,1.360631,1.371165,1.765568,1.367759,1.620804,2.078590,1.865193,1.534770
292,2.433333,2.153816,1.864147,1.474523,1.854005,1.868093,1.721478,2.064469,1.360660,1.371252,1.765366,1.367996,1.620714,2.078671,1.865261,1.534726
293,2.441667,2.153831,1.864154,1.474519,1.854028,1.868137,1.721481,2.064455,1.360662,1.371294,1.765360,1.368036,1.620764,2.078688,1.865276,1.534723
294,2.450000,2.153841,1.864158,1.474470,1.854057,1.868124,1.721456,2.064460,1.360672,1.371222,1.765384,1.368029,1.620714,2.078702,1.865277,1.534680
295,2.458333,2.153841,1.864149,1.474440,1.854082,1.868119,1.721456,2.064441,1.360665,1.371197,1.765391,1.368025,1.620720,2.078708,1.865268,1.534658
296,2.466667,2.153850,1.864137,1.474427,1.854048,1.868144,1.721391,2.064479,1.360633,1.371258,1.765385,1.368031,1.620728,2.078707,1.865265,1.534632
297,2.475000,2.153884,1.864125,1.474417,1.854111,1.868124,1.721416,2.064464,1.360640,1.371199,1.765400,1.368030,1.620704,2.078748,1.865252,1.534631
298,2.483333,2.153896,1.864133,1.474404,1.854132,1.868128,1.721414,2.064489,1.360643,1.371199,1.765434,1.368028,1.620716,2.078762,1.865259,1.534621
299,2.491667,2.153924,1.864123,1.474380,1.854162,1.868142,1.721392,2.064490,1.360634,1.371192,1.765437,1.368043,1.620711,2.078791,1.865255,1.534597
300,2.500000,2.153929,1.864125,1.474373,1.854166,1.868130,1.721383,2.064492,1.360643,1.371153,1.765438,1.368039,1.620671,2.078796,1.865253,1.534589
301,2.508333,2.153961,1.864117,1.474374,1.854197,1.868140,1.721384,2.064510,1.360634,1.371172,1.765455,1.368047,1.620688,2.078828,1.865250,1.534591
302,2.516667,2.153970,1.864113,1.474371,1.854200,1.868142,1.721374,2.064517,1.360629,1.371176,1.765456,1.368049,1.620685,2.078835,1.865247,1.534585
303,2.525000,2.153986,1.864114,1.474370,1.854227,1.868153,1.721385,2.064506,1.360635,1.371170,1.765456,1.368065,1.620692,2.078854,1.865250,1.534588
304,2.533333,2.154014,1.864106,1.474367,1.854250,1.868144,1.721376,2.064514,1.360637,1.371138,1.765459,1.368066,1.620653,2.078881,1.865243,1.534583
305,2.541667,2.154045,1.864108,1.474389,1.854270,1.868149,1.721384,2.064556,1.360636,1.371167,1.765489,1.368067,1.620669,2.078909,1.865245,1.534602
306,2.550000,2.154061,1.864101,1.474377,1.854293,1.868154,1.721382,2.064559,1.360627,1.371172,1.765501,1.368071,1.620684,2.078926,1.865241,1.534592
307,2.558333,2.154070,1.864094,1.474398,1.854296,1.868137,1.721395,2.064572,1.360624,1.371171,1.765507,1.368057,1.620675,2.078933,1.865232,1.534611
308,2.566667,2.154084,1.864102,1.474416,1.854305,1.868144,1.721406,2.064580,1.360636,1.371175,1.765510,1.368068,1.620673,2.078947,1.865239,1.534627
309,2.575000,2.154105,1.864116,1.474428,1.854328,1.868157,1.721422,2.064589,1.360655,1.371174,1.765521,1.368087,1.620674,2.078968,1.865253,1.534641
310,2.583333,2.154110,1.864125,1.474443,1.854334,1.868164,1.721437,2.064590,1.360667,1.371179,1.765523,1.368096,1.620681,2.078973,1.865262,1.534655
311,2.591667,2.154039,1.864057,1.474426,1.854326,1.867925,1.721499,2.064832,1.360525,1.371250,1.765826,1.367784,1.620829,2.078918,1.865151,1.534658
312,2.600000,2.154133,1.864103,1.474472,1.854361,1.868138,1.721471,2.064622,1.360641,1.371215,1.765559,1.368067,1.620721,2.078997,1.865239,1.534686
313,2.608333,2.154148,1.864095,1.474502,1.854351,1.868137,1.721471,2.064633,1.360637,1.371233,1.765546,1.368069,1.620709,2.079006,1.865233,1.534708
314,2.616667,2.154148,1.864132,1.474573,1.854324,1.868168,1.721510,2.064645,1.360676,1.371284,1.765530,1.368102,1.620728,2.079000,1.865268,1.534772
315,2.625000,2.154151,1.864127,1.474539,1.854360,1.868145,1.721516,2.064623,1.360683,1.371211,1.765541,1.368092,1.620696,2.079011,1.865259,1.534747
316,2.633333,2.154154,1.864114,1.474580,1.854328,1.868124,1.721515,2.064649,1.360671,1.371232,1.765532,1.368070,1.620674,2.079005,1.865244,1.534778
317,2.641667,2.154148,1.864123,1.474674,1.854293,1.868108,1.721573,2.064685,1.360677,1.371300,1.765538,1.368052,1.620707,2.078992,1.865247,1.534863
318,2.650000,2.154135,1.864130,1.474677,1.854307,1.868118,1.721610,2.064655,1.360686,1.371313,1.765536,1.368063,1.620754,2.078985,1.865255,1.534874
319,2.658333,2.154138,1.864139,1.474705,1.854279,1.868116,1.721601,2.064669,1.360699,1.371306,1.765519,1.368066,1.620709,2.078981,1.865260,1.534893
320,2.666667,2.154128,1.864139,1.474712,1.854290,1.868106,1.721633,2.064667,1.360697,1.371320,1.765538,1.368053,1.620749,2.078976,1.865258,1.534906
321,2.675000,2.153983,1.864161,1.474690,1.854345,1.867893,1.721857,2.064788,1.360668,1.371318,1.765858,1.367789,1.620993,2.078880,1.865222,1.534946
322,2.683333,2.154102,1.864146,1.474725,1.854258,1.868100,1.721638,2.064733,1.360671,1.371412,1.765596,1.368015,1.620833,2.078949,1.865261,1.534917
323,2.691667,2.153956,1.864144,1.474728,1.854309,1.867875,1.721884,2.064755,1.360655,1.371340,1.765816,1.367776,1.621003,2.078851,1.865204,1.534981
324,2.700000,2.154078,1.864135,1.474750,1.854233,1.868076,1.721663,2.064718,1.360661,1.371424,1.765582,1.367992,1.620845,2.078924,1.865247,1.534942
325,2.708333,2.153951,1.864149,1.474777,1.854300,1.867864,1.721929,2.064750,1.360668,1.371351,1.765807,1.367772,1.621010,2.078845,1.865205,1.535029
326,2.716667,2.154051,1.864137,1.474807,1.854254,1.868000,1.721779,2.064708,1.360681,1.371383,1.765618,1.367933,1.620862,2.078909,1.865230,1.535014
327,2.725000,2.154028,1.864145,1.474810,1.854238,1.867992,1.721791,2.064697,1.360688,1.371376,1.765616,1.367925,1.620866,2.078888,1.865234,1.535019
328,2.733333,2.153998,1.864146,1.474816,1.854208,1.867989,1.721797,2.064688,1.360682,1.371397,1.765606,1.367915,1.620885,2.078858,1.865234,1.535025
329,2.741667,2.153977,1.864150,1.474826,1.854182,1.867989,1.721801,2.064667,1.360688,1.371396,1.765579,1.367918,1.620879,2.078835,1.865237,1.535034
330,2.750000,2.153956,1.864158,1.474828,1.854171,1.867995,1.721815,2.064642,1.360697,1.371396,1.765564,1.367924,1.620890,2.078817,1.865244,1.535039
331,2.758333,2.153949,1.864149,1.474828,1.854163,1.867988,1.721813,2.064630,1.360690,1.371394,1.765552,1.367919,1.620889,2.078810,1.865236,1.535038
332,2.766667,2.153909,1.864167,1.474821,1.854119,1.867985,1.721803,2.064631,1.360700,1.371391,1.765548,1.367908,1.620881,2.078769,1.865249,1.535031
333,2.775000,2.153899,1.864161,1.474819,1.854115,1.867982,1.721807,2.064612,1.360696,1.371387,1.765535,1.367906,1.620884,2.078761,1.865244,1.535030
334,2.783333,2.153865,1.864171,1.474821,1.854082,1.867987,1.721811,2.064593,1.360701,1.371400,1.765518,1.367907,1.620898,2.078727,1.865253,1.535032
335,2.791667,2.153866,1.864170,1.474797,1.854087,1.867987,1.721792,2.064596,1.360698,1.371384,1.765525,1.367905,1.620887,2.078728,1.865251,1.535010
336,2.800000,2.153833,1.864180,1.474796,1.854054,1.867989,1.721792,2.064573,1.360707,1.371380,1.765502,1.367906,1.620883,2.078696,1.865259,1.535009
337,2.808333,2.153825,1.864181,1.474785,1.854034,1.867987,1.721766,2.064586,1.360702,1.371379,1.765503,1.367898,1.620868,2.078684,1.865260,1.534994
338,2.816667,2.153795,1.864188,1.474765,1.854016,1.868002,1.721760,2.064548,1.360707,1.371375,1.765477,1.367911,1.620877,2.078658,1.865268,1.534978
339,2.825000,2.153802,1.864183,1.474751,1.854019,1.867999,1.721740,2.064564,1.360699,1.371371,1.765488,1.367905,1.620868,2.078664,1.865265,1.534962
340,2.833333,2.153783,1.864178,1.474735,1.854010,1.867993,1.721737,2.064528,1.360700,1.371341,1.765462,1.367905,1.620851,2.078647,1.865259,1.534950
341,2.841667,2.153795,1.864174,1.474712,1.854012,1.867998,1.721702,2.064546,1.360692,1.371334,1.765470,1.367905,1.620831,2.078657,1.865258,1.534924
342,2.850000,2.153778,1.864180,1.474690,1.853997,1.868015,1.721681,2.064518,1.360697,1.371324,1.765444,1.367922,1.620823,2.078640,1.865266,1.534902
343,2.858333,2.153784,1.864174,1.474677,1.854004,1.868017,1.721669,2.064513,1.360692,1.371315,1.765440,1.367925,1.620815,2.078646,1.865262,1.534889
344,2.866667,2.153773,1.864175,1.474652,1.853990,1.868009,1.721642,2.064525,1.360687,1.371297,1.765450,1.367911,1.620794,2.078634,1.865261,1.534864
345,2.875000,2.153776,1.864174,1.474613,1.853955,1.868077,1.721554,2.064512,1.360671,1.371346,1.765398,1.367965,1.620794,2.078629,1.865277,1.534812
346,2.883333,2.153692,1.864163,1.474603,1.854015,1.867886,1.721722,2.064551,1.360657,1.371245,1.765581,1.367771,1.620871,2.078579,1.865221,1.534847
347,2.891667,2.153721,1.864161,1.474586,1.854041,1.867903,1.721702,2.064564,1.360654,1.371245,1.765592,1.367787,1.620868,2.078608,1.865224,1.534829
348,2.900000,2.153809,1.864156,1.474549,1.853994,1.868094,1.721498,2.064460,1.360673,1.371256,1.765353,1.368002,1.620712,2.078662,1.865268,1.534750
349,2.908333,2.153811,1.864156,1.474542,1.854001,1.868097,1.721497,2.064457,1.360674,1.371253,1.765355,1.368006,1.620714,2.078666,1.865268,1.534745
350,2.916667,2.153813,1.864149,1.474502,1.854012,1.868091,1.721467,2.064435,1.360676,1.371191,1.765341,1.368008,1.620663,2.078671,1.865262,1.534707
351,2.925000,2.153848,1.864128,1.474487,1.854034,1.868086,1.721437,2.064484,1.360644,1.371215,1.765378,1.367992,1.620672,2.078702,1.865245,1.534688
352,2.933333,2.153865,1.864133,1.474478,1.854075,1.868105,1.721457,2.064476,1.360649,1.371226,1.765394,1.368012,1.620712,2.078725,1.865253,1.534687
353,2.941667,2.153868,1.864143,1.474448,1.854065,1.868118,1.721410,2.064464,1.360667,1.371172,1.765369,1.368032,1.620642,2.078725,1.865263,1.534652
354,2.950000,2.153893,1.864135,1.474443,1.854090,1.868124,1.721405,2.064491,1.360652,1.371198,1.765396,1.368032,1.620667,2.078750,1.865259,1.534648
355,2.958333,2.153907,1.864131,1.474415,1.854121,1.868123,1.721398,2.064505,1.360644,1.371192,1.765427,1.368026,1.620681,2.078768,1.865256,1.534625
356,2.966667,2.153916,1.864107,1.474421,1.854109,1.868102,1.721379,2.064507,1.360625,1.371176,1.765408,1.368011,1.620641,2.078772,1.865232,1.534625
357,2.975000,2.153941,1.864094,1.474425,1.854131,1.868091,1.721379,2.064518,1.360617,1.371166,1.765417,1.368005,1.620628,2.078796,1.865220,1.534627
358,2.983333,2.153959,1.864116,1.474412,1.854182,1.868121,1.721406,2.064535,1.360631,1.371197,1.765467,1.368026,1.620697,2.078822,1.865244,1.534624
359,2.991667,2.153962,1.864117,1.474399,1.854172,1.868128,1.721379,2.064502,1.360646,1.371142,1.765422,1.368048,1.620628,2.078822,1.865246,1.534608
360,3.000000,2.153986,1.864110,1.474398,1.854190,1.868170,1.721367,2.064507,1.360629,1.371209,1.765420,1.368080,1.620685,2.078845,1.865252,1.534604
361,3.008333,2.154001,1.864108,1.474414,1.854215,1.868134,1.721396,2.064541,1.360631,1.371189,1.765464,1.368048,1.620677,2.078862,1.865241,1.534624
362,3.016667,2.154044,1.864080,1.474394,1.854285,1.868146,1.721409,2.064527,1.360606,1.371206,1.765478,1.368062,1.620728,2.078911,1.865223,1.534612
363,3.025000,2.154032,1.864101,1.474404,1.854265,1.868124,1.721409,2.064551,1.360631,1.371164,1.765493,1.368045,1.620676,2.078898,1.865234,1.534619
364,3.033333,2.154055,1.864095,1.474430,1.854264,1.868136,1.721406,2.064565,1.360626,1.371195,1.765483,1.368057,1.620678,2.078915,1.865232,1.534638
365,3.041667,2.154064,1.864101,1.474446,1.854265,1.868131,1.721414,2.064584,1.360632,1.371196,1.765495,1.368053,1.620671,2.078922,1.865235,1.534652
366,3.050000,2.154076,1.864097,1.474442,1.854283,1.868138,1.721416,2.064594,1.360624,1.371217,1.765510,1.368056,1.620698,2.078935,1.865234,1.534650
367,3.058333,2.154106,1.864081,1.474468,1.854302,1.868115,1.721429,2.064631,1.360610,1.371226,1.765536,1.368035,1.620694,2.078963,1.865217,1.534672
368,3.066667,2.154119,1.864078,1.474480,1.854315,1.868113,1.721441,2.064626,1.360615,1.371218,1.765531,1.368040,1.620685,2.078976,1.865214,1.534684
369,3.075000,2.154134,1.864084,1.474457,1.854347,1.868149,1.721438,2.064579,1.360633,1.371193,1.765501,1.368087,1.620681,2.078995,1.865227,1.534666
370,3.083333,2.154122,1.864083,1.474480,1.854325,1.868163,1.721449,2.064617,1.360605,1.371301,1.765529,1.368076,1.620776,2.078981,1.865230,1.534686
371,3.091667,2.154145,1.864079,1.474532,1.854328,1.868103,1.721478,2.064666,1.360617,1.371252,1.765558,1.368031,1.620705,2.078998,1.865212,1.534732
372,3.100000,2.154131,1.864092,1.474552,1.854329,1.868113,1.721516,2.064643,1.360633,1.371268,1.765550,1.368044,1.620739,2.078988,1.865225,1.534757
373,3.108333,2.154119,1.864104,1.474617,1.854282,1.868098,1.721538,2.064634,1.360660,1.371251,1.765506,1.368044,1.620681,2.078967,1.865230,1.534811
374,3.116667,2.154130,1.864113,1.474651,1.854290,1.868104,1.721569,2.064662,1.360664,1.371299,1.765531,1.368045,1.620725,2.078978,1.865238,1.534845
375,3.125000,2.154129,1.864119,1.474686,1.854272,1.868098,1.721584,2.064665,1.360676,1.371298,1.765517,1.368045,1.620704,2.078972,1.865241,1.534874
376,3.133333,2.154135,1.864126,1.474718,1.854270,1.868109,1.721606,2.064672,1.360682,1.371333,1.765515,1.368055,1.620728,2.078976,1.865249,1.534904
377,3.141667,2.154120,1.864115,1.474716,1.854280,1.868090,1.721633,2.064654,1.360671,1.371332,1.765522,1.368037,1.620758,2.078968,1.865236,1.534909
378,3.150000,2.154090,1.864100,1.474701,1.854296,1.868002,1.721675,2.064732,1.360634,1.371339,1.765645,1.367926,1.620821,2.078949,1.865203,1.534908
379,3.158333,2.154109,1.864130,1.474764,1.854225,1.868089,1.721630,2.064668,1.360690,1.371342,1.765492,1.368039,1.620715,2.078946,1.865247,1.534944
380,3.166667,2.153996,1.864122,1.474730,1.854299,1.867881,1.721825,2.064764,1.360643,1.371317,1.765775,1.367792,1.620920,2.078879,1.865189,1.534968
381,3.175000,2.153982,1.864142,1.474754,1.854294,1.867895,1.721861,2.064761,1.360659,1.371352,1.765782,1.367803,1.620967,2.078867,1.865208,1.534995
382,3.183333,2.154086,1.864150,1.474815,1.854209,1.868089,1.721688,2.064678,1.360704,1.371397,1.765509,1.368033,1.620779,2.078925,1.865262,1.534997
383,3.191667,2.153937,1.864149,1.474774,1.854263,1.867882,1.721898,2.064740,1.360662,1.371371,1.765774,1.367785,1.621003,2.078825,1.865210,1.535019
384,3.200000,2.154019,1.864127,1.474798,1.854222,1.867984,1.721770,2.064706,1.360660,1.371398,1.765616,1.367907,1.620877,2.078877,1.865218,1.535005
385,3.208333,2.153911,1.864144,1.474784,1.854227,1.867869,1.721896,2.064706,1.360666,1.371347,1.765731,1.367780,1.620967,2.078796,1.865203,1.535026
386,3.216667,2.154027,1.864141,1.474853,1.854159,1.868068,1.721739,2.064630,1.360693,1.371433,1.765471,1.368010,1.620827,2.078868,1.865251,1.535038
387,3.225000,2.154006,1.864147,1.474814,1.854143,1.868066,1.721704,2.064686,1.360669,1.371473,1.765530,1.367978,1.620871,2.078848,1.865254,1.535000
388,3.233333,2.153856,1.864154,1.474809,1.854177,1.867856,1.721927,2.064705,1.360661,1.371396,1.765735,1.367753,1.621022,2.078743,1.865207,1.535052
389,3.241667,2.153950,1.864127,1.474812,1.854155,1.867981,1.721786,2.064627,1.360665,1.371396,1.765540,1.367909,1.620878,2.078809,1.865218,1.535019
390,3.250000,2.153818,1.864147,1.474782,1.854155,1.867853,1.721919,2.064667,1.360650,1.371389,1.765712,1.367746,1.621034,2.078709,1.865201,1.535030
391,3.258333,2.153921,1.864157,1.474801,1.854073,1.868052,1.721711,2.064628,1.360674,1.371460,1.765488,1.367960,1.620878,2.078767,1.865258,1.534992
392,3.266667,2.153904,1.864154,1.474805,1.854115,1.867991,1.721787,2.064604,1.360689,1.371387,1.765522,1.367916,1.620877,2.078764,1.865241,1.535015
393,3.275000,2.153888,1.864155,1.474800,1.854093,1.867996,1.721775,2.064600,1.360684,1.371398,1.765513,1.367915,1.620881,2.078747,1.865243,1.535007
394,3.283333,2.153778,1.864154,1.474765,1.854086,1.867872,1.721867,2.064630,1.360656,1.371374,1.765646,1.367764,1.620984,2.078662,1.865211,1.535005
395,3.291667,2.153852,1.864159,1.474777,1.854068,1.867978,1.721766,2.064581,1.360687,1.371364,1.765505,1.367897,1.620860,2.078713,1.865241,1.534988
396,3.300000,2.153855,1.864142,1.474756,1.854064,1.867985,1.721735,2.064563,1.360671,1.371358,1.765480,1.367903,1.620846,2.078715,1.865230,1.534965
397,3.308333,2.153837,1.864153,1.474745,1.854053,1.867986,1.721734,2.064560,1.360678,1.371353,1.765485,1.367901,1.620850,2.078698,1.865239,1.534956
398,3.316667,2.153840,1.864162,1.474720,1.854005,1.868053,1.721646,2.064556,1.360675,1.371392,1.765429,1.367957,1.620825,2.078689,1.865262,1.534915
399,3.325000,2.153826,1.864140,1.474706,1.854040,1.867992,1.721692,2.064546,1.360658,1.371348,1.765468,1.367901,1.620842,2.078686,1.865230,1.534917
400,3.333333,2.153821,1.864139,1.474687,1.854033,1.867983,1.721671,2.064550,1.360657,1.371322,1.765470,1.367892,1.620813,2.078682,1.865227,1.534897
401,3.341667,2.153813,1.864148,1.474668,1.854030,1.867994,1.721657,2.064550,1.360662,1.371318,1.765475,1.367898,1.620815,2.078675,1.865237,1.534879
402,3.350000,2.153807,1.864159,1.474650,1.854035,1.868008,1.721652,2.064535,1.360674,1.371305,1.765470,1.367913,1.620814,2.078671,1.865248,1.534865
403,3.358333,2.153835,1.864156,1.474666,1.853970,1.868073,1.721554,2.064486,1.360692,1.371284,1.765329,1.367999,1.620681,2.078677,1.865263,1.534852
404,3.366667,2.153810,1.864136,1.474607,1.854032,1.867991,1.721603,2.064548,1.360645,1.371283,1.765478,1.367890,1.620786,2.078673,1.865227,1.534820
405,3.375000,2.153714,1.864152,1.474575,1.854049,1.867878,1.721710,2.064579,1.360639,1.371242,1.765622,1.367756,1.620884,2.078604,1.865211,1.534823
406,3.383333,2.153838,1.864136,1.474558,1.854006,1.868077,1.721486,2.064500,1.360651,1.371267,1.765375,1.367983,1.620702,2.078688,1.865248,1.534754
407,3.391667,2.153830,1.864109,1.474504,1.854070,1.868003,1.721521,2.064545,1.360608,1.371247,1.765493,1.367893,1.620771,2.078697,1.865210,1.534722
408,3.400000,2.153857,1.864136,1.474514,1.854039,1.868087,1.721460,2.064475,1.360662,1.371205,1.765366,1.368004,1.620658,2.078710,1.865251,1.534715
409,3.408333,2.153880,1.864137,1.474506,1.854067,1.868133,1.721456,2.064454,1.360663,1.371238,1.765349,1.368049,1.620695,2.078735,1.865263,1.534707
410,3.416667,2.153872,1.864120,1.474485,1.854055,1.868080,1.721430,2.064498,1.360640,1.371202,1.765389,1.367990,1.620655,2.078726,1.865237,1.534685
411,3.425000,2.153885,1.864116,1.474455,1.854087,1.868086,1.721424,2.064496,1.360635,1.371193,1.765406,1.367995,1.620669,2.078743,1.865236,1.534661
412,3.433333,2.153896,1.864120,1.474455,1.854076,1.868101,1.721398,2.064497,1.360641,1.371186,1.765386,1.368013,1.620636,2.078748,1.865242,1.534655
413,3.441667,2.153908,1.864128,1.474432,1.854120,1.868115,1.721413,2.064488,1.360651,1.371175,1.765408,1.368029,1.620662,2.078769,1.865252,1.534641
414,3.450000,2.153927,1.864134,1.474434,1.854150,1.868126,1.721428,2.064505,1.360653,1.371195,1.765437,1.368036,1.620697,2.078790,1.865259,1.534646
415,3.458333,2.153935,1.864124,1.474420,1.854153,1.868128,1.721408,2.064495,1.360648,1.371176,1.765422,1.368042,1.620671,2.078797,1.865252,1.534631
416,3.466667,2.153954,1.864095,1.474405,1.854171,1.868108,1.721392,2.064508,1.360616,1.371175,1.765435,1.368021,1.620670,2.078815,1.865225,1.534616
417,3.475000,2.153962,1.864109,1.474430,1.854162,1.868117,1.721396,2.064525,1.360633,1.371184,1.765434,1.368032,1.620658,2.078820,1.865238,1.534636
418,3.483333,2.153981,1.864107,1.474412,1.854215,1.868115,1.721420,2.064532,1.360630,1.371182,1.765475,1.368028,1.620696,2.078847,1.865236,1.534628
419,3.491667,2.154009,1.864116,1.474432,1.854203,1.868132,1.721391,2.064568,1.360639,1.371193,1.765471,1.368045,1.620659,2.078865,1.865247,1.534636
420,3.500000,2.154032,1.864091,1.474436,1.854223,1.868106,1.721391,2.064577,1.360621,1.371173,1.765476,1.368026,1.620635,2.078887,1.865222,1.534638
421,3.508333,2.154029,1.864090,1.474436,1.854232,1.868115,1.721406,2.064564,1.360618,1.371193,1.765476,1.368034,1.620670,2.078888,1.865224,1.534643
422,3.516667,2.154053,1.864087,1.474442,1.854241,1.868113,1.721393,2.064581,1.360620,1.371180,1.765478,1.368037,1.620638,2.078908,1.865220,1.534644
423,3.525000,2.154068,1.864087,1.474468,1.854261,1.868109,1.721426,2.064608,1.360615,1.371218,1.765510,1.368027,1.620683,2.078923,1.865219,1.534672
424,3.533333,2.154087,1.864099,1.474493,1.854261,1.868123,1.721428,2.064606,1.360638,1.371205,1.765489,1.368053,1.620647,2.078938,1.865232,1.534691
425,3.541667,2.154097,1.864092,1.474486,1.854274,1.868122,1.721424,2.064616,1.360629,1.371211,1.765501,1.368049,1.620656,2.078949,1.865226,1.534684
426,3.550000,2.154120,1.864092,1.474500,1.854312,1.868130,1.721456,2.064607,1.360636,1.371216,1.765508,1.368065,1.620679,2.078976,1.865228,1.534703
427,3.558333,2.154122,1.864085,1.474546,1.854274,1.868115,1.721453,2.064644,1.360624,1.371255,1.765505,1.368045,1.620670,2.078967,1.865219,1.534737
428,3.566667,2.154141,1.864086,1.474551,1.854305,1.868113,1.721473,2.064665,1.360625,1.371264,1.765538,1.368042,1.620693,2.078990,1.865220,1.534745
429,3.575000,2.154137,1.864084,1.474571,1.854293,1.868102,1.721484,2.064655,1.360629,1.371255,1.765520,1.368038,1.620675,2.078984,1.865215,1.534763
430,3.583333,2.154137,1.864112,1.474648,1.854269,1.868116,1.721532,2.064661,1.360666,1.371287,1.765502,1.368060,1.620679,2.078978,1.865240,1.534833
431,3.591667,2.154138,1.864102,1.474667,1.854246,1.868108,1.721523,2.064675,1.360655,1.371304,1.765491,1.368050,1.620667,2.078973,1.865231,1.534845
432,3.600000,2.154140,1.864101,1.474686,1.854257,1.868100,1.721550,2.064690,1.360649,1.371333,1.765514,1.368038,1.620705,2.078977,1.865228,1.534866
433,3.608333,2.154142,1.864100,1.474691,1.854263,1.868103,1.721562,2.064689,1.360646,1.371348,1.765518,1.368039,1.620726,2.078980,1.865227,1.534873
434,3.616667,2.154138,1.864109,1.474719,1.854241,1.868111,1.721567,2.064690,1.360657,1.371363,1.765501,1.368049,1.620719,2.078972,1.865237,1.534894
435,3.625000,2.153977,1.864137,1.474695,1.854275,1.867908,1.721784,2.064775,1.360642,1.371339,1.765781,1.367803,1.620935,2.078859,1.865207,1.534932
436,3.633333,2.153959,1.864163,1.474728,1.854279,1.867924,1.721843,2.064766,1.360664,1.371381,1.765794,1.367815,1.621004,2.078846,1.865230,1.534971
437,3.641667,2.154072,1.864122,1.474735,1.854269,1.868028,1.721700,2.064726,1.360649,1.371392,1.765632,1.367946,1.620864,2.078928,1.865226,1.534940
438,3.650000,2.154076,1.864121,1.474764,1.854264,1.868020,1.721718,2.064724,1.360655,1.371390,1.765620,1.367944,1.620851,2.078930,1.865223,1.534966
439,3.658333,2.154067,1.864125,1.474779,1.854258,1.868029,1.721736,2.064720,1.360655,1.371423,1.765620,1.367949,1.620888,2.078922,1.865229,1.534982
440,3.666667,2.154049,1.864138,1.474792,1.854233,1.868029,1.721740,2.064708,1.360672,1.371410,1.765599,1.367954,1.620866,2.078903,1.865238,1.534993
441,3.675000,2.154041,1.864148,1.474800,1.854230,1.868022,1.721756,2.064716,1.360681,1.371410,1.765613,1.367946,1.620874,2.078895,1.865244,1.535003
442,3.683333,2.153897,1.864167,1.474794,1.854213,1.867903,1.721906,2.064687,1.360687,1.371371,1.765711,1.367812,1.620991,2.078783,1.865229,1.535036
443,3.691667,2.154014,1.864139,1.474807,1.854216,1.868010,1.721778,2.064679,1.360676,1.371407,1.765589,1.367937,1.620886,2.078872,1.865234,1.535014
444,3.700000,2.154005,1.864138,1.474821,1.854192,1.868012,1.721774,2.064673,1.360675,1.371419,1.765569,1.367938,1.620880,2.078859,1.865234,1.535023
445,3.708333,2.153971,1.864158,1.474821,1.854174,1.868017,1.721794,2.064663,1.360688,1.371432,1.765574,1.367937,1.620912,2.078830,1.865250,1.535028
446,3.716667,2.153962,1.864173,1.474826,1.854151,1.868028,1.721782,2.064651,1.360709,1.371413,1.765548,1.367953,1.620877,2.078817,1.865264,1.535029
447,3.725000,2.153946,1.864166,1.474823,1.854138,1.868028,1.721782,2.064639,1.360697,1.371431,1.765538,1.367949,1.620898,2.078802,1.865259,1.535027
448,3.733333,2.153930,1.864156,1.474807,1.854144,1.868007,1.721793,2.064626,1.360685,1.371416,1.765548,1.367927,1.620910,2.078791,1.865246,1.535018
449,3.741667,2.153908,1.864165,1.474816,1.854115,1.868004,1.721793,2.064619,1.360694,1.371414,1.765534,1.367923,1.620899,2.078767,1.865252,1.535024
450,3.750000,2.153893,1.864167,1.474802,1.854096,1.868004,1.721774,2.064620,1.360691,1.371410,1.765530,1.367919,1.620890,2.078751,1.865254,1.535009
451,3.758333,2.153897,1.864163,1.474793,1.854112,1.868007,1.721781,2.064600,1.360692,1.371398,1.765523,1.367926,1.620893,2.078758,1.865251,1.535004
452,3.766667,2.153887,1.864165,1.474776,1.854097,1.868007,1.721757,2.064604,1.360690,1.371390,1.765521,1.367923,1.620878,2.078747,1.865252,1.534986
453,3.775000,2.153772,1.864202,1.474773,1.854087,1.867900,1.721884,2.064613,1.360715,1.371337,1.765636,1.367803,1.620956,2.078657,1.865254,1.535015
454,3.783333,2.153865,1.864167,1.474755,1.854085,1.868011,1.721748,2.064581,1.360689,1.371381,1.765509,1.367924,1.620881,2.078727,1.865255,1.534967
455,3.791667,2.153856,1.864149,1.474732,1.854067,1.868004,1.721714,2.064564,1.360672,1.371361,1.765482,1.367917,1.620851,2.078716,1.865240,1.534942
456,3.800000,2.153853,1.864156,1.474724,1.854065,1.868006,1.721707,2.064568,1.360677,1.371354,1.765487,1.367918,1.620845,2.078713,1.865245,1.534933
457,3.808333,2.153837,1.864167,1.474706,1.854054,1.868019,1.721695,2.064556,1.360685,1.371349,1.765481,1.367928,1.620845,2.078699,1.865257,1.534918
458,3.816667,2.153832,1.864164,1.474682,1.854054,1.868025,1.721678,2.064540,1.360683,1.371333,1.765470,1.367934,1.620836,2.078695,1.865256,1.534895
459,3.825000,2.153835,1.864153,1.474676,1.854050,1.868012,1.721663,2.064552,1.360670,1.371328,1.765475,1.367919,1.620822,2.078696,1.865245,1.534886
460,3.833333,2.153836,1.864140,1.474646,1.854057,1.868015,1.721640,2.064542,1.360654,1.371322,1.765471,1.367920,1.620822,2.078699,1.865236,1.534859
461,3.841667,2.153828,1.864165,1.474642,1.854046,1.868021,1.721632,2.064563,1.360675,1.371312,1.765488,1.367921,1.620810,2.078690,1.865256,1.534854
462,3.850000,2.153832,1.864147,1.474620,1.854049,1.868022,1.721609,2.064547,1.360659,1.371302,1.765472,1.367923,1.620798,2.078694,1.865243,1.534831
463,3.858333,2.153724,1.864177,1.474587,1.854044,1.867904,1.721704,2.064607,1.360660,1.371264,1.765634,1.367777,1.620887,2.078611,1.865236,1.534831
464,3.866667,2.153766,1.864151,1.474520,1.854123,1.867921,1.721681,2.064579,1.360638,1.371233,1.765644,1.367799,1.620900,2.078662,1.865220,1.534775
465,3.875000,2.153877,1.864120,1.474549,1.854062,1.868082,1.721497,2.064482,1.360647,1.371247,1.765375,1.368000,1.620703,2.078731,1.865238,1.534750
466,3.883333,2.153891,1.864123,1.474541,1.854050,1.868093,1.721458,2.064497,1.360651,1.371234,1.765364,1.368011,1.620659,2.078738,1.865242,1.534734
467,3.891667,2.153894,1.864120,1.474510,1.854087,1.868099,1.721468,2.064465,1.360653,1.371208,1.765366,1.368022,1.620673,2.078750,1.865242,1.534713
468,3.900000,2.153899,1.864121,1.474504,1.854099,1.868097,1.721470,2.064485,1.360648,1.371220,1.765393,1.368015,1.620694,2.078756,1.865242,1.534709
469,3.908333,2.153912,1.864126,1.474506,1.854120,1.868115,1.721483,2.064465,1.360661,1.371215,1.765382,1.368039,1.620700,2.078771,1.865250,1.534714
470,3.916667,2.153935,1.864110,1.474501,1.854132,1.868107,1.721463,2.064474,1.360649,1.371200,1.765379,1.368036,1.620670,2.078792,1.865237,1.534706
471,3.925000,2.153946,1.864092,1.474493,1.854126,1.868091,1.721436,2.064506,1.360625,1.371207,1.765395,1.368013,1.620657,2.078799,1.865219,1.534693
472,3.933333,2.153958,1.864102,1.474464,1.854159,1.868113,1.721432,2.064489,1.360638,1.371187,1.765400,1.368039,1.620662,2.078816,1.865232,1.534670
473,3.941667,2.153969,1.864110,1.474465,1.854187,1.868128,1.721453,2.064486,1.360646,1.371199,1.765413,1.368054,1.620694,2.078831,1.865242,1.534676
474,3.950000,2.153993,1.864104,1.474465,1.854203,1.868137,1.721444,2.064472,1.360651,1.371178,1.765392,1.368074,1.620664,2.078853,1.865239,1.534674
475,3.958333,2.153996,1.864093,1.474486,1.854199,1.868112,1.721457,2.064524,1.360626,1.371223,1.765437,1.368035,1.620701,2.078854,1.865225,1.534693
476,3.966667,2.154017,1.864100,1.474483,1.854223,1.868128,1.721456,2.064526,1.360637,1.371217,1.765441,1.368056,1.620696,2.078876,1.865234,1.534690
477,3.975000,2.154027,1.864087,1.474473,1.854237,1.868112,1.721451,2.064554,1.360616,1.371227,1.765473,1.368032,1.620712,2.078887,1.865220,1.534681
478,3.983333,2.154039,1.864080,1.474482,1.854241,1.868103,1.721450,2.064553,1.360617,1.371209,1.765464,1.368031,1.620684,2.078897,1.865212,1.534688
479,3.991667,2.154061,1.864086,1.474493,1.854278,1.868124,1.721480,2.064540,1.360629,1.371222,1.765466,1.368058,1.620716,2.078923,1.865223,1.534704
480,4.000000,2.154066,1.864078,1.474486,1.854274,1.868129,1.721462,2.064546,1.360618,1.371234,1.765463,1.368059,1.620716,2.078925,1.865218,1.534694
481,4.008333,2.154103,1.864072,1.474486,1.854287,1.868152,1.721431,2.064538,1.360623,1.371215,1.765431,1.368093,1.620668,2.078957,1.865219,1.534686
482,4.016667,2.154089,1.864074,1.474513,1.854280,1.868117,1.721467,2.064576,1.360617,1.371238,1.765476,1.368051,1.620699,2.078945,1.865212,1.534715
483,4.025000,2.154094,1.864081,1.474524,1.854277,1.868114,1.721470,2.064607,1.360619,1.371253,1.765500,1.368041,1.620706,2.078947,1.865216,1.534724
484,4.033333,2.154099,1.864086,1.474538,1.854285,1.868117,1.721487,2.064601,1.360628,1.371254,1.765496,1.368049,1.620710,2.078953,1.865221,1.534739
485,4.041667,2.154104,1.864103,1.474620,1.854260,1.868116,1.721533,2.064636,1.360646,1.371308,1.765501,1.368049,1.620728,2.078950,1.865234,1.534812
486,4.050000,2.154133,1.864083,1.474605,1.854291,1.868115,1.721520,2.064646,1.360625,1.371311,1.765513,1.368047,1.620733,2.078980,1.865218,1.534797
487,4.058333,2.154121,1.864087,1.474597,1.854275,1.868101,1.721508,2.064652,1.360629,1.371286,1.765515,1.368034,1.620704,2.078968,1.865217,1.534789
488,4.066667,2.153966,1.864120,1.474636,1.854268,1.867918,1.721729,2.064738,1.360624,1.371306,1.765748,1.367812,1.620907,2.078848,1.865197,1.534873
489,4.075000,2.153960,1.864122,1.474661,1.854265,1.867905,1.721758,2.064740,1.360629,1.371312,1.765753,1.367802,1.620916,2.078843,1.865195,1.534899
490,4.083333,2.154121,1.864109,1.474713,1.854258,1.868106,1.721604,2.064649,1.360663,1.371349,1.765494,1.368050,1.620746,2.078963,1.865236,1.534900
491,4.091667,2.154117,1.864109,1.474723,1.854249,1.868101,1.721607,2.064658,1.360661,1.371358,1.765498,1.368043,1.620750,2.078958,1.865234,1.534908
492,4.100000,2.154135,1.864107,1.474767,1.854241,1.868105,1.721619,2.064669,1.360664,1.371384,1.765483,1.368052,1.620744,2.078969,1.865234,1.534944
493,4.108333,2.154113,1.864108,1.474768,1.854213,1.868095,1.721613,2.064653,1.360668,1.371363,1.765461,1.368045,1.620717,2.078946,1.865232,1.534943
494,4.116667,2.153941,1.864119,1.474743,1.854224,1.867882,1.721815,2.064733,1.360633,1.371349,1.765724,1.367785,1.620929,2.078819,1.865187,1.534975
495,4.125000,2.153896,1.864158,1.474769,1.854192,1.867880,1.721856,2.064733,1.360667,1.371358,1.765736,1.367779,1.620952,2.078777,1.865216,1.535005
496,4.133333,2.153885,1.864154,1.474758,1.854217,1.867886,1.721888,2.064704,1.360659,1.371379,1.765744,1.367782,1.621017,2.078775,1.865214,1.535005
497,4.141667,2.153875,1.864169,1.474789,1.854181,1.867876,1.721888,2.064721,1.360677,1.371369,1.765734,1.367775,1.620976,2.078758,1.865223,1.535028
498,4.150000,2.154038,1.864125,1.474793,1.854222,1.868018,1.721741,2.064680,1.360665,1.371396,1.765572,1.367948,1.620852,2.078892,1.865225,1.534994
499,4.158333,2.153900,1.864142,1.474764,1.854235,1.867879,1.721898,2.064714,1.360647,1.371391,1.765757,1.367774,1.621032,2.078790,1.865204,1.535012
500,4.166667,2.153904,1.864145,1.474776,1.854214,1.867883,1.721880,2.064703,1.360660,1.371366,1.765722,1.367788,1.620978,2.078788,1.865207,1.535016
501,4.175000,2.153883,1.864150,1.474796,1.854197,1.867874,1.721906,2.064702,1.360662,1.371384,1.765724,1.367776,1.621001,2.078768,1.865209,1.535038
502,4.183333,2.153877,1.864146,1.474805,1.854175,1.867873,1.721894,2.064691,1.360662,1.371378,1.765696,1.367779,1.620975,2.078759,1.865205,1.535041
503,4.191667,2.154017,1.864123,1.474831,1.854150,1.868068,1.721718,2.064592,1.360679,1.371416,1.765434,1.368014,1.620811,2.078858,1.865236,1.535017
504,4.200000,2.153779,1.864185,1.474810,1.854093,1.867866,1.721919,2.064656,1.360691,1.371380,1.765678,1.367761,1.620997,2.078664,1.865233,1.535051
505,4.208333,2.153830,1.864144,1.474781,1.854141,1.867860,1.721887,2.064665,1.360654,1.371369,1.765684,1.367759,1.620982,2.078715,1.865201,1.535022
506,4.216667,2.153968,1.864132,1.474792,1.854096,1.868063,1.721671,2.064636,1.360655,1.371455,1.765471,1.367977,1.620842,2.078808,1.865242,1.534976
507,4.225000,2.153713,1.864216,1.474784,1.854060,1.867870,1.721934,2.064615,1.360717,1.371358,1.765669,1.367761,1.621016,2.078606,1.865257,1.535036
508,4.233333,2.153951,1.864140,1.474820,1.854080,1.868077,1.721702,2.064538,1.360696,1.371397,1.765375,1.368022,1.620787,2.078791,1.865252,1.535004
509,4.241667,2.153937,1.864111,1.474790,1.854078,1.868048,1.721684,2.064527,1.360663,1.371380,1.765376,1.367990,1.620783,2.078780,1.865223,1.534977
510,4.250000,2.153818,1.864117,1.474746,1.854126,1.867854,1.721847,2.064648,1.360620,1.371369,1.765664,1.367748,1.620978,2.078702,1.865178,1.534985
511,4.258333,2.153811,1.864127,1.474751,1.854113,1.867865,1.721846,2.064637,1.360633,1.371365,1.765647,1.367761,1.620967,2.078694,1.865189,1.534989
512,4.266667,2.153791,1.864147,1.474734,1.854100,1.867869,1.721836,2.064624,1.360655,1.371330,1.765640,1.367768,1.620939,2.078675,1.865205,1.534973
513,4.275000,2.153774,1.864151,1.474685,1.854093,1.867873,1.721801,2.064611,1.360655,1.371297,1.765639,1.367767,1.620920,2.078660,1.865209,1.534928
514,4.283333,2.153806,1.864123,1.474693,1.854100,1.867869,1.721778,2.064605,1.360639,1.371282,1.765607,1.367774,1.620875,2.078686,1.865187,1.534928
515,4.291667,2.153866,1.864103,1.474688,1.854079,1.867979,1.721671,2.064550,1.360628,1.371331,1.765471,1.367894,1.620822,2.078727,1.865200,1.534898
516,4.300000,2.153886,1.864103,1.474704,1.854001,1.868051,1.721569,2.064546,1.360625,1.371381,1.765369,1.367964,1.620753,2.078723,1.865217,1.534884
517,4.308333,2.153787,1.864127,1.474646,1.854098,1.867876,1.721751,2.064598,1.360634,1.371270,1.765616,1.367772,1.620882,2.078672,1.865192,1.534887
518,4.316667,2.153902,1.864124,1.474682,1.854051,1.868065,1.721586,2.064512,1.360665,1.371312,1.765369,1.367996,1.620724,2.078747,1.865237,1.534872
519,4.325000,2.153805,1.864118,1.474615,1.854116,1.867885,1.721720,2.064589,1.360627,1.371246,1.765608,1.367785,1.620858,2.078689,1.865187,1.534855
520,4.333333,2.153879,1.864099,1.474611,1.854085,1.867991,1.721586,2.064566,1.360617,1.371285,1.765479,1.367899,1.620767,2.078738,1.865199,1.534818
521,4.341667,2.153805,1.864119,1.474612,1.854115,1.867866,1.721717,2.064616,1.360625,1.371235,1.765634,1.367763,1.620847,2.078689,1.865183,1.534853
522,4.350000,2.153800,1.864108,1.474584,1.854104,1.867863,1.721681,2.064584,1.360624,1.371185,1.765596,1.367769,1.620790,2.078682,1.865174,1.534823
523,4.358333,2.153838,1.864103,1.474537,1.854147,1.867888,1.721639,2.064616,1.360608,1.371194,1.765633,1.367784,1.620804,2.078722,1.865177,1.534777
524,4.366667,2.153924,1.864105,1.474594,1.854050,1.868081,1.721470,2.064547,1.360629,1.371291,1.765380,1.367996,1.620674,2.078764,1.865226,1.534777
525,4.375000,2.153913,1.864095,1.474521,1.854128,1.868084,1.721506,2.064467,1.360628,1.371239,1.765391,1.368007,1.620730,2.078774,1.865220,1.534731
526,4.383333,2.153927,1.864081,1.474512,1.854120,1.868066,1.721469,2.064489,1.360615,1.371213,1.765390,1.367991,1.620677,2.078783,1.865204,1.534715
527,4.391667,2.153942,1.864080,1.474511,1.854130,1.868073,1.721463,2.064494,1.360616,1.371212,1.765391,1.368000,1.620671,2.078797,1.865205,1.534713
528,4.400000,2.153938,1.864081,1.474483,1.854146,1.868075,1.721460,2.064496,1.360611,1.371210,1.765413,1.367996,1.620694,2.078797,1.865207,1.534691
529,4.408333,2.153943,1.864079,1.474466,1.854177,1.868086,1.721474,2.064464,1.360615,1.371196,1.765407,1.368012,1.620711,2.078809,1.865208,1.534682
530,4.416667,2.153976,1.864069,1.474470,1.854195,1.868086,1.721458,2.064497,1.360603,1.371208,1.765424,1.368011,1.620703,2.078838,1.865200,1.534681
531,4.425000,2.153968,1.864073,1.474462,1.854200,1.868096,1.721466,2.064464,1.360613,1.371192,1.765404,1.368026,1.620703,2.078834,1.865205,1.534677
532,4.433333,2.153980,1.864069,1.474461,1.854215,1.868089,1.721470,2.064503,1.360598,1.371222,1.765447,1.368009,1.620737,2.078846,1.865201,1.534677
533,4.441667,2.154000,1.864070,1.474458,1.854215,1.868084,1.721442,2.064528,1.360603,1.371194,1.765452,1.368008,1.620685,2.078861,1.865200,1.534668
534,4.450000,2.154009,1.864075,1.474459,1.854227,1.868110,1.721447,2.064506,1.360612,1.371205,1.765434,1.368037,1.620700,2.078871,1.865211,1.534670
535,4.458333,2.153983,1.864047,1.474484,1.854210,1.867892,1.721486,2.064761,1.360541,1.371193,1.765695,1.367778,1.620701,2.078847,1.865135,1.534699
536,4.466667,2.154030,1.864057,1.474471,1.854249,1.868097,1.721460,2.064514,1.360597,1.371212,1.765443,1.368028,1.620708,2.078892,1.865194,1.534682
537,4.475000,2.154039,1.864049,1.474473,1.854272,1.868091,1.721479,2.064519,1.360588,1.371225,1.765462,1.368020,1.620738,2.078905,1.865187,1.534688
538,4.483333,2.154075,1.864058,1.474489,1.854285,1.868100,1.721465,2.064570,1.360594,1.371238,1.765489,1.368027,1.620722,2.078935,1.865195,1.534697
539,4.491667,2.154072,1.864072,1.474515,1.854274,1.868093,1.721483,2.064584,1.360611,1.371236,1.765495,1.368023,1.620711,2.078930,1.865204,1.534721
540,4.500000,2.154044,1.864036,1.474517,1.854262,1.867891,1.721507,2.064797,1.360539,1.371205,1.765722,1.367784,1.620702,2.078906,1.865127,1.534728
541,4.508333,2.154073,1.864026,1.474532,1.854289,1.867902,1.721520,2.064812,1.360526,1.371247,1.765736,1.367792,1.620743,2.078934,1.865122,1.534743
542,4.516667,2.154073,1.864028,1.474556,1.854286,1.867883,1.721540,2.064832,1.360529,1.371248,1.765752,1.367775,1.620740,2.078934,1.865119,1.534766
543,4.525000,2.154110,1.864045,1.474534,1.854316,1.868071,1.721507,2.064614,1.360585,1.371259,1.765529,1.368002,1.620739,2.078969,1.865178,1.534741
544,4.533333,2.154104,1.864057,1.474559,1.854313,1.868077,1.721535,2.064617,1.360595,1.371284,1.765534,1.368006,1.620767,2.078964,1.865189,1.534767
545,4.541667,2.154141,1.864041,1.474572,1.854335,1.868074,1.721531,2.064610,1.360595,1.371257,1.765513,1.368018,1.620723,2.078997,1.865176,1.534776
546,4.550000,2.154119,1.864052,1.474607,1.854306,1.868074,1.721558,2.064611,1.360601,1.371294,1.765508,1.368014,1.620752,2.078973,1.865184,1.534809
547,4.558333,2.154117,1.864046,1.474600,1.854326,1.868078,1.721577,2.064588,1.360597,1.371298,1.765507,1.368019,1.620783,2.078977,1.865181,1.534808
548,4.566667,2.154120,1.864055,1.474683,1.854278,1.868054,1.721599,2.064626,1.360614,1.371315,1.765494,1.368003,1.620738,2.078968,1.865182,1.534876
549,4.575000,2.154114,1.864067,1.474683,1.854271,1.868063,1.721598,2.064623,1.360627,1.371309,1.765489,1.368012,1.620731,2.078961,1.865193,1.534876
550,4.583333,2.154122,1.864080,1.474723,1.854252,1.868069,1.721606,2.064658,1.360634,1.371348,1.765498,1.368014,1.620738,2.078962,1.865204,1.534908
551,4.591667,2.154016,1.864106,1.474710,1.854289,1.867894,1.721767,2.064757,1.360633,1.371296,1.765737,1.367810,1.620861,2.078891,1.865181,1.534938
552,4.600000,2.154027,1.864100,1.474719,1.854310,1.867889,1.721789,2.064776,1.360621,1.371326,1.765767,1.367800,1.620904,2.078905,1.865175,1.534950
553,4.608333,2.154101,1.864078,1.474747,1.854247,1.868061,1.721648,2.064624,1.360638,1.371355,1.765478,1.368011,1.620763,2.078945,1.865201,1.534937
554,4.616667,2.154077,1.864089,1.474733,1.854268,1.867998,1.721690,2.064713,1.360624,1.371367,1.765612,1.367923,1.620832,2.078933,1.865193,1.534936
555,4.625000,2.154019,1.864104,1.474769,1.854282,1.867886,1.721816,2.064724,1.360650,1.371291,1.765696,1.367821,1.620846,2.078892,1.865177,1.534995
556,4.633333,2.154072,1.864107,1.474748,1.854206,1.868064,1.721634,2.064695,1.360638,1.371414,1.765537,1.367985,1.620808,2.078913,1.865224,1.534933
557,4.641667,2.154061,1.864108,1.474774,1.854244,1.868000,1.721720,2.064703,1.360649,1.371374,1.765594,1.367931,1.620828,2.078914,1.865208,1.534974
558,4.650000,2.154053,1.864097,1.474776,1.854241,1.867993,1.721729,2.064688,1.360638,1.371380,1.765584,1.367924,1.620841,2.078907,1.865198,1.534978
559,4.658333,2.154027,1.864112,1.474776,1.854227,1.867994,1.721746,2.064677,1.360650,1.371383,1.765586,1.367922,1.620860,2.078884,1.865210,1.534983
560,4.666667,2.154016,1.864095,1.474780,1.854206,1.867985,1.721735,2.064659,1.360636,1.371382,1.765557,1.367916,1.620846,2.078871,1.865195,1.534983
561,4.675000,2.154002,1.864115,1.474771,1.854198,1.867999,1.721734,2.064665,1.360649,1.371391,1.765569,1.367923,1.620862,2.078859,1.865214,1.534976
562,4.683333,2.153990,1.864123,1.474788,1.854175,1.867999,1.721739,2.064649,1.360663,1.371377,1.765542,1.367929,1.620836,2.078844,1.865219,1.534989
563,4.691667,2.153972,1.864115,1.474765,1.854179,1.867992,1.721743,2.064641,1.360647,1.371388,1.765556,1.367914,1.620873,2.078831,1.865212,1.534973
564,4.700000,2.153958,1.864115,1.474779,1.854150,1.867985,1.721738,2.064634,1.360649,1.371383,1.765534,1.367909,1.620850,2.078814,1.865210,1.534983
565,4.708333,2.153957,1.864118,1.474757,1.854167,1.867991,1.721737,2.064627,1.360651,1.371375,1.765545,1.367913,1.620863,2.078817,1.865214,1.534966
566,4.716667,2.153938,1.864134,1.474753,1.854136,1.868013,1.721718,2.064613,1.360664,1.371378,1.765518,1.367933,1.620851,2.078795,1.865231,1.534958
567,4.725000,2.153931,1.864135,1.474723,1.854089,1.868069,1.721639,2.064602,1.360651,1.371421,1.765468,1.367975,1.620844,2.078779,1.865245,1.534916
568,4.733333,2.153915,1.864130,1.474729,1.854125,1.868002,1.721709,2.064603,1.360654,1.371369,1.765521,1.367917,1.620857,2.078775,1.865225,1.534938
569,4.741667,2.153900,1.864146,1.474737,1.854099,1.867999,1.721705,2.064615,1.360668,1.371363,1.765523,1.367912,1.620838,2.078757,1.865236,1.534943
570,4.750000,2.153921,1.864135,1.474742,1.854036,1.868074,1.721606,2.064546,1.360676,1.371357,1.765368,1.368005,1.620728,2.078758,1.865247,1.534922
571,4.758333,2.153885,1.864130,1.474694,1.854102,1.867995,1.721683,2.064587,1.360651,1.371340,1.765511,1.367907,1.620836,2.078747,1.865224,1.534906
572,4.766667,2.153820,1.864161,1.474690,1.854113,1.867893,1.721773,2.064632,1.360677,1.371266,1.765633,1.367798,1.620858,2.078700,1.865221,1.534925
573,4.775000,2.153811,1.864143,1.474673,1.854105,1.867888,1.721758,2.064634,1.360649,1.371290,1.765635,1.367784,1.620882,2.078691,1.865207,1.534909
574,4.783333,2.153891,1.864138,1.474687,1.854032,1.868086,1.721582,2.064485,1.360683,1.371306,1.765335,1.368021,1.620709,2.078734,1.865252,1.534874
575,4.791667,2.153872,1.864140,1.474624,1.854032,1.868059,1.721544,2.064594,1.360639,1.371358,1.765462,1.367949,1.620785,2.078719,1.865247,1.534818
576,4.800000,2.153884,1.864137,1.474666,1.854041,1.868078,1.721581,2.064500,1.360673,1.371313,1.765365,1.368005,1.620735,2.078731,1.865249,1.534859
577,4.808333,2.153921,1.864126,1.474654,1.854042,1.868089,1.721525,2.064564,1.360648,1.371346,1.765392,1.368002,1.620724,2.078759,1.865244,1.534836
578,4.816667,2.153882,1.864161,1.474638,1.854038,1.868095,1.721551,2.064519,1.360691,1.371293,1.765382,1.368016,1.620714,2.078729,1.865271,1.534830
579,4.825000,2.153903,1.864121,1.474571,1.854099,1.868077,1.721534,2.064493,1.360655,1.371250,1.765398,1.368001,1.620720,2.078759,1.865237,1.534776
580,4.833333,2.153910,1.864117,1.474617,1.854030,1.868082,1.721487,2.064545,1.360641,1.371303,1.765373,1.367997,1.620681,2.078748,1.865235,1.534798
581,4.841667,2.153907,1.864109,1.474521,1.854115,1.868088,1.721498,2.064470,1.360643,1.371225,1.765388,1.368012,1.620709,2.078767,1.865231,1.534729
582,4.850000,2.153910,1.864111,1.474544,1.854087,1.868083,1.721483,2.064498,1.360643,1.371235,1.765383,1.368006,1.620681,2.078762,1.865231,1.534742
583,4.858333,2.153929,1.864115,1.474517,1.854112,1.868104,1.721463,2.064483,1.360654,1.371207,1.765375,1.368032,1.620660,2.078782,1.865240,1.534718
584,4.866667,2.153928,1.864113,1.474518,1.854108,1.868101,1.721461,2.064485,1.360650,1.371209,1.765374,1.368029,1.620659,2.078780,1.865237,1.534717
585,4.875000,2.153941,1.864117,1.474499,1.854145,1.868109,1.721470,2.064485,1.360655,1.371201,1.765398,1.368037,1.620678,2.078800,1.865242,1.534706
586,4.883333,2.153962,1.864103,1.474504,1.854168,1.868098,1.721476,2.064517,1.360635,1.371225,1.765431,1.368020,1.620704,2.078821,1.865229,1.534711
587,4.891667,2.153959,1.864091,1.474506,1.854144,1.868081,1.721454,2.064527,1.360622,1.371217,1.765421,1.368003,1.620672,2.078813,1.865215,1.534707
588,4.900000,2.153967,1.864103,1.474490,1.854162,1.868103,1.721451,2.064514,1.360637,1.371206,1.765419,1.368028,1.620674,2.078823,1.865230,1.534695
589,4.908333,2.153996,1.864096,1.474492,1.854200,1.868104,1.721463,2.064531,1.360630,1.371217,1.765444,1.368029,1.620695,2.078855,1.865225,1.534699
590,4.916667,2.154006,1.864093,1.474505,1.854205,1.868106,1.721469,2.064547,1.360624,1.371241,1.765454,1.368027,1.620712,2.078863,1.865223,1.534710
591,4.925000,2.154019,1.864080,1.474506,1.854212,1.868099,1.721463,2.064539,1.360619,1.371224,1.765441,1.368028,1.620688,2.078875,1.865212,1.534709
592,4.933333,2.154012,1.864080,1.474483,1.854220,1.868091,1.721459,2.064523,1.360623,1.371186,1.765440,1.368024,1.620668,2.078871,1.865210,1.534691
593,4.941667,2.154033,1.864087,1.474513,1.854219,1.868104,1.721462,2.064559,1.360625,1.371229,1.765454,1.368032,1.620686,2.078887,1.865218,1.534714
594,4.950000,2.154070,1.864074,1.474528,1.854250,1.868109,1.721469,2.064578,1.360613,1.371253,1.765467,1.368039,1.620702,2.078923,1.865210,1.534727
595,4.958333,2.154061,1.864084,1.474519,1.854265,1.868116,1.721490,2.064561,1.360623,1.371249,1.765475,1.368046,1.620727,2.078919,1.865219,1.534725
596,4.966667,2.154076,1.864072,1.474547,1.854251,1.868100,1.721482,2.064589,1.360613,1.371258,1.765472,1.368031,1.620700,2.078927,1.865206,1.534745
597,4.975000,2.154083,1.864078,1.474549,1.854266,1.868108,1.721493,2.064591,1.360619,1.371266,1.765482,1.368039,1.620718,2.078936,1.865212,1.534749
598,4.983333,2.154081,1.864075,1.474551,1.854272,1.868104,1.721507,2.064578,1.360619,1.371262,1.765479,1.368039,1.620724,2.078937,1.865209,1.534754
599,4.991667,2.154110,1.864071,1.474588,1.854262,1.868099,1.721496,2.064630,1.360612,1.371290,1.765491,1.368031,1.620705,2.078956,1.865205,1.534779
600,5.000000,2.154098,1.864073,1.474584,1.854275,1.868110,1.721521,2.064578,1.360624,1.371276,1.765464,1.368051,1.620721,2.078950,1.865209,1.534782
601,5.008333,2.154117,1.864083,1.474666,1.854255,1.868101,1.721557,2.064634,1.360632,1.371332,1.765480,1.368041,1.620730,2.078959,1.865214,1.534853
602,5.016667,2.154121,1.864075,1.474673,1.854224,1.868086,1.721521,2.064665,1.360623,1.371326,1.765476,1.368024,1.620682,2.078955,1.865205,1.534849
603,5.025000,2.154105,1.864083,1.474670,1.854250,1.868101,1.721569,2.064610,1.360637,1.371326,1.765464,1.368045,1.620733,2.078949,1.865214,1.534859
604,5.033333,2.154111,1.864087,1.474710,1.854231,1.868089,1.721579,2.064647,1.360639,1.371349,1.765475,1.368031,1.620725,2.078949,1.865215,1.534891
605,5.041667,2.154113,1.864098,1.474730,1.854230,1.868095,1.721597,2.064652,1.360651,1.371361,1.765478,1.368038,1.620735,2.078950,1.865225,1.534911
606,5.050000,2.154107,1.864089,1.474726,1.854242,1.868079,1.721614,2.064653,1.360639,1.371367,1.765497,1.368019,1.620763,2.078948,1.865214,1.534912
607,5.058333,2.154108,1.864094,1.474759,1.854211,1.868082,1.721608,2.064670,1.360644,1.371386,1.765481,1.368022,1.620743,2.078942,1.865218,1.534935
608,5.066667,2.154094,1.864089,1.474756,1.854220,1.868077,1.721632,2.064645,1.360640,1.371390,1.765479,1.368018,1.620774,2.078934,1.865214,1.534939
609,5.075000,2.154060,1.864100,1.474747,1.854242,1.868008,1.721692,2.064707,1.360633,1.371383,1.765596,1.367931,1.620835,2.078913,1.865204,1.534947
610,5.083333,2.154104,1.864098,1.474786,1.854212,1.868083,1.721641,2.064635,1.360662,1.371373,1.765451,1.368036,1.620736,2.078939,1.865222,1.534964
611,5.091667,2.153989,1.864109,1.474758,1.854262,1.867889,1.721817,2.064737,1.360635,1.371338,1.765719,1.367805,1.620904,2.078864,1.865181,1.534987
612,5.100000,2.154093,1.864105,1.474817,1.854196,1.868087,1.721666,2.064632,1.360667,1.371406,1.765444,1.368039,1.620763,2.078927,1.865228,1.534993
613,5.108333,2.154068,1.864106,1.474763,1.854213,1.868062,1.721663,2.064688,1.360636,1.371434,1.765541,1.367983,1.620842,2.078912,1.865222,1.534952
614,5.116667,2.154060,1.864096,1.474816,1.854191,1.868053,1.721700,2.064623,1.360653,1.371406,1.765463,1.368000,1.620798,2.078901,1.865213,1.535001
615,5.125000,2.154054,1.864109,1.474822,1.854175,1.868053,1.721694,2.064626,1.360669,1.371389,1.765456,1.368003,1.620769,2.078892,1.865223,1.535004
616,5.133333,2.154034,1.864120,1.474799,1.854226,1.868004,1.721757,2.064690,1.360656,1.371408,1.765591,1.367931,1.620874,2.078890,1.865218,1.535002
617,5.141667,2.154012,1.864133,1.474808,1.854192,1.868000,1.721751,2.064688,1.360670,1.371396,1.765575,1.367928,1.620847,2.078865,1.865227,1.535008
618,5.150000,2.154013,1.864122,1.474805,1.854197,1.868005,1.721753,2.064670,1.360660,1.371405,1.765561,1.367934,1.620861,2.078866,1.865220,1.535006
619,5.158333,2.154006,1.864118,1.474809,1.854187,1.867992,1.721754,2.064670,1.360657,1.371397,1.765558,1.367921,1.620849,2.078859,1.865214,1.535009
620,5.166667,2.153886,1.864138,1.474787,1.854178,1.867870,1.721869,2.064685,1.360659,1.371348,1.765685,1.367781,1.620939,2.078765,1.865199,1.535022
621,5.175000,2.153898,1.864141,1.474804,1.854194,1.867870,1.721891,2.064682,1.360669,1.371343,1.765687,1.367788,1.620939,2.078779,1.865201,1.535040
622,5.183333,2.153971,1.864143,1.474801,1.854162,1.868008,1.721758,2.064640,1.360683,1.371384,1.765538,1.367938,1.620849,2.078826,1.865237,1.535004
623,5.191667,2.153965,1.864126,1.474787,1.854159,1.868001,1.721748,2.064623,1.360666,1.371380,1.765525,1.367931,1.620849,2.078821,1.865223,1.534991
624,5.200000,2.153859,1.864148,1.474753,1.854189,1.867871,1.721882,2.064670,1.360661,1.371344,1.765709,1.367774,1.620981,2.078748,1.865206,1.534999
625,5.208333,2.153957,1.864130,1.474808,1.854077,1.868062,1.721678,2.064562,1.360682,1.371388,1.765390,1.368003,1.620766,2.078795,1.865241,1.534989
626,5.216667,2.153828,1.864166,1.474753,1.854150,1.867877,1.721873,2.064649,1.360681,1.371325,1.765680,1.367782,1.620952,2.078715,1.865222,1.534997
627,5.225000,2.153835,1.864158,1.474738,1.854148,1.867887,1.721846,2.064672,1.360661,1.371357,1.765693,1.367780,1.620972,2.078720,1.865218,1.534979
628,5.233333,2.153837,1.864160,1.474729,1.854147,1.867899,1.721833,2.064659,1.360666,1.371346,1.765677,1.367795,1.620957,2.078722,1.865222,1.534969
629,5.241667,2.153885,1.864144,1.474773,1.854125,1.868027,1.721789,2.064474,1.360701,1.371339,1.765423,1.367974,1.620864,2.078752,1.865242,1.534991
630,5.250000,2.153809,1.864140,1.474708,1.854118,1.867883,1.721811,2.064600,1.360656,1.371297,1.765617,1.367790,1.620908,2.078693,1.865203,1.534948
631,5.258333,2.153894,1.864146,1.474680,1.854048,1.868067,1.721592,2.064585,1.360660,1.371373,1.765447,1.367970,1.620793,2.078740,1.865254,1.534872
632,5.266667,2.153912,1.864143,1.474711,1.854069,1.868075,1.721626,2.064507,1.360692,1.371314,1.765373,1.368014,1.620737,2.078759,1.865254,1.534904
633,5.275000,2.153900,1.864148,1.474656,1.854065,1.868078,1.721581,2.064569,1.360665,1.371351,1.765442,1.367985,1.620782,2.078749,1.865258,1.534851
634,5.283333,2.153909,1.864150,1.474704,1.854027,1.868094,1.721571,2.064522,1.360693,1.371318,1.765347,1.368028,1.620693,2.078747,1.865263,1.534885
635,5.291667,2.153919,1.864141,1.474682,1.854047,1.868077,1.721562,2.064537,1.360684,1.371294,1.765372,1.368010,1.620682,2.078759,1.865252,1.534866
636,5.300000,2.153796,1.864160,1.474649,1.854097,1.867898,1.721743,2.064646,1.360656,1.371292,1.765655,1.367784,1.620893,2.078678,1.865222,1.534887
637,5.308333,2.153919,1.864142,1.474655,1.854038,1.868099,1.721524,2.064513,1.360687,1.371274,1.765340,1.368035,1.620651,2.078757,1.865258,1.534836
638,5.316667,2.153934,1.864126,1.474596,1.854112,1.868092,1.721536,2.064504,1.360668,1.371253,1.765390,1.368024,1.620700,2.078787,1.865245,1.534795
639,5.325000,2.153929,1.864130,1.474579,1.854107,1.868101,1.721520,2.064498,1.360670,1.371248,1.765385,1.368031,1.620696,2.078781,1.865250,1.534779
640,5.333333,2.153939,1.864122,1.474554,1.854118,1.868103,1.721495,2.064487,1.360667,1.371216,1.765375,1.368038,1.620665,2.078792,1.865245,1.534753
641,5.341667,2.153949,1.864122,1.474560,1.854114,1.868088,1.721484,2.064511,1.360670,1.371196,1.765384,1.368025,1.620628,2.078798,1.865241,1.534755
642,5.350000,2.153952,1.864122,1.474551,1.854139,1.868098,1.721502,2.064513,1.360662,1.371227,1.765409,1.368029,1.620685,2.078807,1.865243,1.534753
643,5.358333,2.153852,1.864130,1.474535,1.854159,1.867914,1.721636,2.064698,1.360606,1.371274,1.765713,1.367781,1.620881,2.078735,1.865203,1.534774
644,5.366667,2.153975,1.864116,1.474530,1.854173,1.868110,1.721495,2.064512,1.360656,1.371224,1.765419,1.368041,1.620696,2.078832,1.865242,1.534735
645,5.375000,2.153979,1.864114,1.474527,1.854176,1.868100,1.721490,2.064545,1.360646,1.371238,1.765450,1.368022,1.620708,2.078836,1.865237,1.534732
646,5.383333,2.153994,1.864101,1.474527,1.854180,1.868093,1.721476,2.064555,1.360634,1.371235,1.765450,1.368017,1.620692,2.078848,1.865226,1.534728
647,5.391667,2.154014,1.864115,1.474531,1.854190,1.868122,1.721467,2.064535,1.360661,1.371211,1.765419,1.368059,1.620654,2.078866,1.865244,1.534729
648,5.400000,2.154014,1.864113,1.474540,1.854192,1.868118,1.721480,2.064534,1.360660,1.371217,1.765421,1.368055,1.620665,2.078866,1.865241,1.534739
649,5.408333,2.154038,1.864103,1.474531,1.854208,1.868119,1.721461,2.064550,1.360650,1.371213,1.765429,1.368056,1.620651,2.078888,1.865234,1.534727
