1.8775,1.8642,1.1951,1.8171,1.876,1.5787,1.8851,1.3429,1.2105,1.8258,1.3585,1.5952
2.0507,1.8637,0.97791,1.9325,1.8766,1.3477,2.0547,1.3423,0.99554,1.9374,1.3592,1.3666
1.5001,1.8655,2.1508,1.1741,1.8788,2.3616,1.4919,1.3442,2.1675,1.1658,1.3614,2.3799
1.0676,1.8652,1.4353,0.7398,1.8784,1.6432,1.0605,1.3439,1.4536,0.73261,1.361,1.6632
0.90387,1.8617,0.87723,0.70076,1.8766,1.208,0.90306,1.3405,0.89796,0.7006,1.3593,1.2302
0.86496,1.8622,0.69119,0.85907,1.8755,1.0794,0.87614,1.3409,0.70737,0.87156,1.3581,1.0965
2.1539,1.8641,1.4746,1.8541,1.868,1.7216,2.0646,1.3606,1.3712,1.7654,1.368,1.6207
1.9376,1.5118,0.85823,1.9616,1.5215,1.2458,1.9129,0.99085,0.87099,1.9386,1.0044,1.2595
1.4138,1.5151,2.0665,1.0335,1.5242,2.145,1.398,0.99422,2.0418,1.017,1.0072,2.122
1.3692,1.5201,1.2603,1.2539,1.5172,1.6312,1.3436,0.9992,1.2464,1.2294,1.0001,1.6188
1.5092,2.0905,1.3247,1.1841,2.0945,1.5374,1.4903,1.5696,1.3026,1.1653,1.5775,1.5172
1.5079,2.0924,0.80965,1.5432,2.094,1.1965,1.4806,1.5715,0.81252,1.5176,1.5769,1.2003
1.1374,2.098,1.7339,0.98549,2.0933,2.0913,1.1128,1.5773,1.7146,0.96203,1.5763,2.0738
0.91503,1.8011,0.86069,0.753,1.7958,1.2137,0.88907,1.2805,0.839,0.72808,1.279,1.1937
