Format Version,1.2,Take Name,Take 2020-02-07 05.39.13 PM,Capture Frame Rate,120.000000,Export Frame Rate,120.000000,Capture Start Time,2020-02-07 05.39.13.545 PM,Total Frames,637,Rotation Type,Quaternion,Length Units,Meters,Coordinate Space,Global

,,Rigid Body Marker,Rigid Body Marker,Rigid Body Marker,Rigid Body Marker,Rigid Body Marker,Rigid Body Marker,Rigid Body Marker,Rigid Body Marker,Rigid Body Marker,Rigid Body Marker,Rigid Body Marker,Rigid Body Marker,Rigid Body Marker,Rigid Body Marker,Rigid Body Marker
,,Rigid Body 1_1,Rigid Body 1_1,Rigid Body 1_1,Rigid Body 1_2,Rigid Body 1_2,Rigid Body 1_2,Rigid Body 1_3,Rigid Body 1_3,Rigid Body 1_3,Rigid Body 1_4,Rigid Body 1_4,Rigid Body 1_4,Rigid Body 1_5,Rigid Body 1_5,Rigid Body 1_5
,,"A27475E7497311EAE5BE26CA05685A8D","A27475E7497311EAE5BE26CA05685A8D","A27475E7497311EAE5BE26CA05685A8D","A27475E7497311EAE5BE26CA05685A8D","A27475E7497311EAE5BE26CA05685A8D","A27475E7497311EAE5BE26CA05685A8D","A27475E7497311EAE5BE26CA05685A8D","A27475E7497311EAE5BE26CA05685A8D","A27475E7497311EAE5BE26CA05685A8D","A27475E7497311EAE5BE26CA05685A8D","A27475E7497311EAE5BE26CA05685A8D","A27475E7497311EAE5BE26CA05685A8D","A27475E7497311EAE5BE26CA05685A8D","A27475E7497311EAE5BE26CA05685A8D","A27475E7497311EAE5BE26CA05685A8D"
,,Position,Position,Position,Position,Position,Position,Position,Position,Position,Position,Position,Position,Position,Position,Position
Frame,Time,X,Y,Z,X,Y,Z,X,Y,Z,X,Y,Z,X,Y,Z
0,0.000000,-1.021867,1.495724,1.424434,-1.195180,1.482600,1.076668,-1.010819,0.980071,1.438636,-1.185390,0.966986,1.091712,-1.062270,1.492257,1.338248
1,0.008333,-1.021811,1.495827,1.424460,-1.195202,1.482584,1.076737,-1.010723,0.980179,1.438817,-1.185372,0.966976,1.091937,-1.062233,1.492330,1.338284
2,0.016667,-1.021823,1.495834,1.424456,-1.195218,1.482592,1.076735,-1.010744,0.980186,1.438818,-1.185396,0.966983,1.091939,-1.062246,1.492338,1.338281
3,0.025000,-1.021809,1.495844,1.424453,-1.195200,1.482595,1.076730,-1.010750,0.980196,1.438834,-1.185399,0.966987,1.091954,-1.062231,1.492346,1.338278
4,0.033333,-1.021831,1.495789,1.424436,-1.195209,1.482602,1.076705,-1.010781,0.980138,1.438730,-1.185417,0.966991,1.091841,-1.062249,1.492306,1.338259
5,0.041667,-1.021878,1.495731,1.424409,-1.195185,1.482587,1.076641,-1.010813,0.980079,1.438633,-1.185379,0.966975,1.091707,-1.062279,1.492259,1.338223
6,0.050000,-1.021856,1.495792,1.424420,-1.195186,1.482594,1.076665,-1.010780,0.980142,1.438717,-1.185368,0.966984,1.091804,-1.062263,1.492306,1.338237
7,0.058333,-1.021861,1.495732,1.424398,-1.195186,1.482582,1.076638,-1.010806,0.980080,1.438635,-1.185389,0.966969,1.091717,-1.062266,1.492258,1.338214
8,0.066667,-1.021878,1.495731,1.424405,-1.195187,1.482600,1.076637,-1.010817,0.980078,1.438611,-1.185383,0.966987,1.091685,-1.062280,1.492262,1.338219
9,0.075000,-1.021865,1.495734,1.424395,-1.195199,1.482585,1.076639,-1.010815,0.980082,1.438631,-1.185407,0.966973,1.091719,-1.062273,1.492261,1.338211
10,0.083333,-1.021825,1.495836,1.424437,-1.195219,1.482583,1.076716,-1.010717,0.980189,1.438799,-1.185369,0.966976,1.091921,-1.062247,1.492337,1.338262
11,0.091667,-1.021824,1.495784,1.424405,-1.195214,1.482597,1.076678,-1.010757,0.980134,1.438690,-1.185404,0.966986,1.091806,-1.062246,1.492301,1.338228
12,0.100000,-1.021879,1.495736,1.424394,-1.195192,1.482589,1.076629,-1.010807,0.980084,1.438619,-1.185378,0.966976,1.091696,-1.062281,1.492263,1.338209
13,0.108333,-1.021873,1.495735,1.424388,-1.195195,1.482581,1.076627,-1.010811,0.980083,1.438628,-1.185392,0.966968,1.091710,-1.062278,1.492260,1.338203
14,0.116667,-1.021873,1.495734,1.424395,-1.195197,1.482596,1.076634,-1.010819,0.980081,1.438614,-1.185401,0.966983,1.091696,-1.062279,1.492263,1.338210
15,0.125000,-1.021873,1.495733,1.424390,-1.195196,1.482581,1.076630,-1.010809,0.980081,1.438626,-1.185390,0.966969,1.091708,-1.062278,1.492259,1.338206
16,0.133333,-1.021867,1.495733,1.424387,-1.195202,1.482571,1.076632,-1.010819,0.980082,1.438645,-1.185411,0.966959,1.091733,-1.062275,1.492256,1.338204
17,0.141667,-1.021823,1.495833,1.424432,-1.195228,1.482571,1.076717,-1.010715,0.980186,1.438807,-1.185378,0.966964,1.091934,-1.062248,1.492332,1.338258
18,0.150000,-1.021820,1.495832,1.424434,-1.195223,1.482569,1.076717,-1.010704,0.980185,1.438807,-1.185364,0.966962,1.091933,-1.062245,1.492330,1.338260
19,0.158333,-1.021874,1.495721,1.424404,-1.195206,1.482590,1.076646,-1.010826,0.980069,1.438616,-1.185415,0.966977,1.091702,-1.062281,1.492252,1.338220
20,0.166667,-1.021798,1.495789,1.424392,-1.195185,1.482580,1.076665,-1.010751,0.980139,1.438719,-1.185396,0.966970,1.091835,-1.062219,1.492300,1.338215
21,0.175000,-1.021879,1.495803,1.424446,-1.195217,1.482600,1.076695,-1.010782,0.980153,1.438740,-1.185378,0.966990,1.091832,-1.062288,1.492316,1.338264
22,0.183333,-1.021826,1.495830,1.424449,-1.195225,1.482592,1.076729,-1.010730,0.980182,1.438795,-1.185386,0.966983,1.091918,-1.062250,1.492334,1.338274
23,0.191667,-1.021876,1.495732,1.424403,-1.195200,1.482587,1.076643,-1.010819,0.980080,1.438631,-1.185400,0.966975,1.091713,-1.062281,1.492260,1.338219
24,0.200000,-1.021873,1.495728,1.424405,-1.195192,1.482590,1.076642,-1.010827,0.980076,1.438629,-1.185405,0.966977,1.091709,-1.062277,1.492258,1.338220
25,0.208333,-1.021871,1.495725,1.424412,-1.195197,1.482600,1.076652,-1.010806,0.980072,1.438607,-1.185390,0.966986,1.091690,-1.062276,1.492257,1.338228
26,0.216667,-1.021864,1.495720,1.424422,-1.195194,1.482603,1.076663,-1.010801,0.980067,1.438605,-1.185389,0.966990,1.091690,-1.062271,1.492255,1.338238
27,0.225000,-1.021865,1.495718,1.424417,-1.195195,1.482594,1.076659,-1.010816,0.980064,1.438617,-1.185404,0.966981,1.091702,-1.062272,1.492250,1.338233
28,0.233333,-1.021799,1.495823,1.424462,-1.195223,1.482590,1.076755,-1.010714,0.980174,1.438806,-1.185395,0.966981,1.091941,-1.062229,1.492328,1.338290
29,0.241667,-1.021867,1.495710,1.424426,-1.195182,1.482590,1.076661,-1.010818,0.980057,1.438621,-1.185391,0.966977,1.091698,-1.062271,1.492244,1.338241
30,0.250000,-1.021816,1.495839,1.424464,-1.195214,1.482596,1.076744,-1.010748,0.980191,1.438831,-1.185403,0.966988,1.091954,-1.062240,1.492342,1.338289
31,0.258333,-1.021850,1.495789,1.424447,-1.195175,1.482603,1.076688,-1.010784,0.980139,1.438732,-1.185366,0.966992,1.091816,-1.062256,1.492307,1.338263
32,0.266667,-1.021807,1.495756,1.424407,-1.195164,1.482596,1.076664,-1.010800,0.980104,1.438683,-1.185414,0.966983,1.091782,-1.062220,1.492279,1.338227
33,0.275000,-1.021847,1.495773,1.424444,-1.195189,1.482598,1.076694,-1.010775,0.980122,1.438710,-1.185375,0.966986,1.091803,-1.062257,1.492293,1.338262
34,0.283333,-1.021844,1.495783,1.424448,-1.195182,1.482601,1.076696,-1.010779,0.980132,1.438726,-1.185374,0.966990,1.091817,-1.062253,1.492301,1.338266
35,0.291667,-1.021859,1.495718,1.424428,-1.195185,1.482595,1.076668,-1.010809,0.980065,1.438628,-1.185393,0.966982,1.091710,-1.062265,1.492251,1.338244
36,0.300000,-1.021829,1.495780,1.424439,-1.195201,1.482600,1.076704,-1.010767,0.980129,1.438717,-1.185397,0.966988,1.091824,-1.062246,1.492298,1.338261
37,0.308333,-1.021861,1.495727,1.424427,-1.195181,1.482595,1.076664,-1.010831,0.980074,1.438650,-1.185409,0.966982,1.091729,-1.062265,1.492257,1.338242
38,0.316667,-1.021865,1.495730,1.424421,-1.195198,1.482585,1.076665,-1.010802,0.980078,1.438647,-1.185392,0.966972,1.091733,-1.062273,1.492258,1.338238
39,0.325000,-1.021835,1.495775,1.424432,-1.195179,1.482588,1.076683,-1.010783,0.980125,1.438725,-1.185384,0.966977,1.091818,-1.062246,1.492292,1.338250
40,0.333333,-1.021833,1.495779,1.424439,-1.195205,1.482604,1.076704,-1.010768,0.980128,1.438707,-1.185398,0.966993,1.091815,-1.062250,1.492299,1.338260
41,0.341667,-1.021867,1.495736,1.424413,-1.195188,1.482592,1.076651,-1.010809,0.980084,1.438639,-1.185388,0.966979,1.091720,-1.062272,1.492264,1.338228
42,0.350000,-1.021866,1.495728,1.424403,-1.195200,1.482576,1.076648,-1.010822,0.980076,1.438648,-1.185413,0.966963,1.091736,-1.062274,1.492254,1.338220
43,0.358333,-1.021820,1.495824,1.424458,-1.195213,1.482580,1.076736,-1.010711,0.980176,1.438807,-1.185362,0.966972,1.091927,-1.062242,1.492327,1.338283
44,0.366667,-1.021826,1.495835,1.424459,-1.195222,1.482588,1.076738,-1.010722,0.980188,1.438815,-1.185376,0.966980,1.091937,-1.062250,1.492338,1.338283
45,0.375000,-1.021871,1.495730,1.424409,-1.195183,1.482592,1.076643,-1.010817,0.980077,1.438628,-1.185388,0.966979,1.091704,-1.062273,1.492259,1.338223
46,0.383333,-1.021846,1.495786,1.424424,-1.195200,1.482595,1.076680,-1.010785,0.980135,1.438717,-1.185397,0.966985,1.091816,-1.062259,1.492302,1.338243
47,0.391667,-1.021861,1.495726,1.424396,-1.195188,1.482573,1.076638,-1.010822,0.980074,1.438645,-1.185406,0.966960,1.091729,-1.062268,1.492251,1.338212
48,0.400000,-1.021860,1.495716,1.424392,-1.195188,1.482565,1.076634,-1.010838,0.980064,1.438647,-1.185424,0.966952,1.091732,-1.062266,1.492242,1.338208
49,0.408333,-1.021818,1.495830,1.424441,-1.195222,1.482571,1.076724,-1.010726,0.980183,1.438820,-1.185387,0.966963,1.091947,-1.062243,1.492330,1.338267
50,0.416667,-1.021811,1.495831,1.424441,-1.195225,1.482575,1.076729,-1.010718,0.980184,1.438815,-1.185389,0.966967,1.091946,-1.062239,1.492332,1.338267
51,0.425000,-1.021876,1.495743,1.424396,-1.195194,1.482595,1.076632,-1.010811,0.980091,1.438624,-1.185387,0.966983,1.091703,-1.062280,1.492270,1.338210
52,0.433333,-1.021875,1.495734,1.424391,-1.195198,1.482576,1.076630,-1.010827,0.980082,1.438643,-1.185407,0.966964,1.091725,-1.062280,1.492258,1.338206
53,0.441667,-1.021867,1.495728,1.424389,-1.195202,1.482577,1.076634,-1.010830,0.980075,1.438635,-1.185423,0.966964,1.091723,-1.062275,1.492254,1.338206
54,0.450000,-1.021875,1.495723,1.424397,-1.195196,1.482572,1.076635,-1.010829,0.980071,1.438639,-1.185407,0.966960,1.091719,-1.062280,1.492249,1.338212
55,0.458333,-1.021871,1.495736,1.424398,-1.195186,1.482582,1.076634,-1.010820,0.980084,1.438643,-1.185393,0.966970,1.091721,-1.062275,1.492261,1.338213
56,0.466667,-1.021828,1.495834,1.424431,-1.195205,1.482585,1.076702,-1.010712,0.980186,1.438782,-1.185347,0.966978,1.091895,-1.062247,1.492336,1.338254
57,0.475000,-1.021878,1.495733,1.424396,-1.195204,1.482587,1.076636,-1.010806,0.980081,1.438619,-1.185389,0.966974,1.091702,-1.062284,1.492260,1.338212
58,0.483333,-1.021805,1.495831,1.424440,-1.195230,1.482570,1.076735,-1.010702,0.980183,1.438815,-1.185385,0.966963,1.091953,-1.062235,1.492330,1.338269
59,0.491667,-1.021875,1.495726,1.424407,-1.195198,1.482564,1.076647,-1.010814,0.980075,1.438659,-1.185396,0.966952,1.091742,-1.062280,1.492249,1.338223
60,0.500000,-1.021879,1.495733,1.424401,-1.195204,1.482582,1.076641,-1.010818,0.980081,1.438635,-1.185401,0.966970,1.091718,-1.062285,1.492259,1.338216
61,0.508333,-1.021846,1.495787,1.424425,-1.195193,1.482588,1.076679,-1.010776,0.980137,1.438728,-1.185381,0.966977,1.091823,-1.062257,1.492301,1.338244
62,0.516667,-1.021873,1.495731,1.424405,-1.195190,1.482572,1.076642,-1.010833,0.980079,1.438662,-1.185409,0.966960,1.091741,-1.062277,1.492255,1.338219
63,0.525000,-1.021809,1.495763,1.424384,-1.195144,1.482576,1.076631,-1.010781,0.980112,1.438689,-1.185374,0.966965,1.091778,-1.062217,1.492280,1.338201
64,0.533333,-1.021889,1.495726,1.424426,-1.195188,1.482588,1.076653,-1.010816,0.980074,1.438636,-1.185373,0.966975,1.091705,-1.062288,1.492255,1.338238
65,0.541667,-1.021815,1.495842,1.424466,-1.195218,1.482599,1.076748,-1.010725,0.980194,1.438821,-1.185385,0.966991,1.091946,-1.062240,1.492345,1.338291
66,0.550000,-1.021868,1.495734,1.424420,-1.195178,1.482604,1.076652,-1.010819,0.980081,1.438630,-1.185387,0.966990,1.091705,-1.062270,1.492265,1.338233
67,0.558333,-1.021857,1.495786,1.424442,-1.195188,1.482591,1.076687,-1.010790,0.980136,1.438740,-1.185379,0.966980,1.091828,-1.062264,1.492301,1.338259
68,0.566667,-1.021871,1.495797,1.424468,-1.195191,1.482600,1.076708,-1.010780,0.980147,1.438757,-1.185358,0.966990,1.091839,-1.062275,1.492312,1.338284
69,0.575000,-1.021825,1.495776,1.424447,-1.195207,1.482593,1.076717,-1.010765,0.980125,1.438728,-1.185405,0.966982,1.091841,-1.062245,1.492294,1.338269
70,0.583333,-1.021873,1.495732,1.424438,-1.195175,1.482600,1.076666,-1.010814,0.980079,1.438646,-1.185373,0.966987,1.091717,-1.062273,1.492263,1.338251
71,0.591667,-1.021844,1.495783,1.424452,-1.195183,1.482606,1.076700,-1.010778,0.980132,1.438723,-1.185375,0.966995,1.091814,-1.062253,1.492302,1.338270
72,0.600000,-1.021780,1.495766,1.424410,-1.195156,1.482581,1.076677,-1.010764,0.980116,1.438717,-1.185397,0.966970,1.091826,-1.062198,1.492284,1.338232
73,0.608333,-1.021844,1.495783,1.424443,-1.195171,1.482596,1.076686,-1.010764,0.980133,1.438722,-1.185349,0.966985,1.091808,-1.062250,1.492301,1.338259
74,0.616667,-1.021864,1.495717,1.424435,-1.195179,1.482593,1.076669,-1.010808,0.980064,1.438632,-1.185381,0.966979,1.091709,-1.062267,1.492249,1.338249
75,0.625000,-1.021810,1.495818,1.424478,-1.195208,1.482589,1.076758,-1.010722,0.980169,1.438814,-1.185377,0.966980,1.091937,-1.062234,1.492325,1.338303
76,0.633333,-1.021856,1.495791,1.424448,-1.195180,1.482597,1.076689,-1.010788,0.980141,1.438744,-1.185370,0.966986,1.091828,-1.062261,1.492307,1.338264
77,0.641667,-1.021829,1.495782,1.424438,-1.195196,1.482610,1.076700,-1.010777,0.980131,1.438709,-1.185401,0.966998,1.091814,-1.062245,1.492303,1.338259
78,0.650000,-1.021812,1.495839,1.424462,-1.195213,1.482592,1.076743,-1.010745,0.980191,1.438836,-1.185403,0.966984,1.091960,-1.062237,1.492341,1.338287
79,0.658333,-1.021873,1.495722,1.424430,-1.195188,1.482586,1.076664,-1.010797,0.980069,1.438635,-1.185369,0.966973,1.091712,-1.062276,1.492252,1.338244
80,0.666667,-1.021866,1.495717,1.424428,-1.195181,1.482592,1.076663,-1.010834,0.980064,1.438640,-1.185407,0.966978,1.091717,-1.062269,1.492249,1.338243
81,0.675000,-1.021840,1.495785,1.424437,-1.195180,1.482597,1.076687,-1.010768,0.980135,1.438722,-1.185366,0.966987,1.091814,-1.062249,1.492302,1.338255
82,0.683333,-1.021883,1.495806,1.424461,-1.195211,1.482604,1.076706,-1.010776,0.980157,1.438750,-1.185363,0.966994,1.091836,-1.062289,1.492320,1.338278
83,0.691667,-1.021873,1.495725,1.424416,-1.195189,1.482592,1.076651,-1.010799,0.980072,1.438619,-1.185373,0.966978,1.091697,-1.062276,1.492255,1.338230
84,0.700000,-1.021842,1.495777,1.424441,-1.195192,1.482591,1.076695,-1.010764,0.980126,1.438719,-1.185371,0.966980,1.091816,-1.062254,1.492294,1.338260
85,0.708333,-1.021864,1.495784,1.424429,-1.195169,1.482585,1.076661,-1.010788,0.980134,1.438728,-1.185351,0.966975,1.091802,-1.062265,1.492298,1.338243
86,0.716667,-1.021868,1.495734,1.424412,-1.195194,1.482589,1.076653,-1.010814,0.980082,1.438643,-1.185399,0.966976,1.091726,-1.062274,1.492262,1.338228
87,0.725000,-1.021875,1.495731,1.424412,-1.195209,1.482593,1.076657,-1.010819,0.980079,1.438631,-1.185412,0.966980,1.091719,-1.062283,1.492260,1.338229
88,0.733333,-1.021837,1.495766,1.424409,-1.195177,1.482588,1.076658,-1.010798,0.980115,1.438694,-1.185396,0.966977,1.091785,-1.062246,1.492285,1.338226
89,0.741667,-1.021884,1.495733,1.424406,-1.195201,1.482571,1.076643,-1.010814,0.980081,1.438652,-1.185389,0.966959,1.091732,-1.062287,1.492256,1.338221
90,0.750000,-1.021830,1.495834,1.424458,-1.195214,1.482586,1.076731,-1.010731,0.980186,1.438816,-1.185372,0.966978,1.091932,-1.062250,1.492336,1.338281
91,0.758333,-1.021881,1.495724,1.424413,-1.195215,1.482580,1.076657,-1.010821,0.980072,1.438640,-1.185413,0.966967,1.091727,-1.062289,1.492252,1.338230
92,0.766667,-1.021873,1.495732,1.424407,-1.195189,1.482587,1.076643,-1.010815,0.980080,1.438635,-1.185389,0.966975,1.091714,-1.062276,1.492260,1.338222
93,0.775000,-1.021776,1.495756,1.424372,-1.195167,1.482580,1.076646,-1.010768,0.980105,1.438670,-1.185416,0.966968,1.091787,-1.062198,1.492275,1.338196
94,0.783333,-1.021878,1.495726,1.424412,-1.195206,1.482574,1.076654,-1.010816,0.980075,1.438648,-1.185402,0.966962,1.091733,-1.062284,1.492252,1.338228
95,0.791667,-1.021822,1.495834,1.424442,-1.195216,1.482576,1.076720,-1.010744,0.980187,1.438827,-1.185396,0.966969,1.091948,-1.062244,1.492334,1.338266
96,0.800000,-1.021880,1.495733,1.424407,-1.195200,1.482573,1.076646,-1.010810,0.980081,1.438650,-1.185387,0.966961,1.091731,-1.062284,1.492257,1.338223
97,0.808333,-1.021853,1.495774,1.424420,-1.195197,1.482581,1.076671,-1.010780,0.980124,1.438711,-1.185382,0.966971,1.091805,-1.062264,1.492290,1.338238
98,0.816667,-1.021875,1.495719,1.424411,-1.195182,1.482578,1.076642,-1.010804,0.980067,1.438627,-1.185369,0.966965,1.091701,-1.062276,1.492248,1.338224
99,0.825000,-1.021824,1.495792,1.424436,-1.195207,1.482588,1.076708,-1.010750,0.980143,1.438744,-1.185390,0.966978,1.091858,-1.062244,1.492305,1.338259
100,0.833333,-1.021853,1.495758,1.424450,-1.195163,1.482547,1.076685,-1.010976,0.980108,1.438867,-1.185543,0.966936,1.091944,-1.062255,1.492269,1.338264
101,0.841667,-1.021824,1.495832,1.424462,-1.195224,1.482585,1.076743,-1.010732,0.980184,1.438822,-1.185389,0.966977,1.091946,-1.062248,1.492334,1.338287
102,0.850000,-1.021910,1.495695,1.424444,-1.195123,1.482566,1.076628,-1.010999,0.980041,1.438722,-1.185470,0.966953,1.091748,-1.062288,1.492226,1.338247
103,0.858333,-1.021824,1.495834,1.424475,-1.195222,1.482531,1.076758,-1.010937,0.980187,1.439023,-1.185593,0.966924,1.092148,-1.062248,1.492322,1.338301
104,0.866667,-1.021859,1.495736,1.424440,-1.195071,1.482539,1.076626,-1.011020,0.980084,1.438855,-1.185490,0.966928,1.091883,-1.062237,1.492249,1.338243
105,0.875000,-1.021872,1.495786,1.424507,-1.195236,1.482577,1.076769,-1.010966,0.980135,1.438905,-1.185589,0.966967,1.092010,-1.062287,1.492297,1.338328
106,0.883333,-1.021860,1.495769,1.424462,-1.195152,1.482556,1.076689,-1.010980,0.980118,1.438880,-1.185531,0.966946,1.091949,-1.062258,1.492279,1.338275
107,0.891667,-1.021848,1.495779,1.424502,-1.195262,1.482580,1.076789,-1.010940,0.980128,1.438884,-1.185611,0.966969,1.092013,-1.062276,1.492292,1.338328
108,0.900000,-1.021856,1.495770,1.424469,-1.195161,1.482559,1.076701,-1.010991,0.980119,1.438891,-1.185554,0.966948,1.091966,-1.062256,1.492280,1.338283
109,0.908333,-1.021835,1.495768,1.424523,-1.195232,1.482567,1.076800,-1.010944,0.980117,1.438915,-1.185598,0.966956,1.092036,-1.062259,1.492281,1.338347
110,0.916667,-1.021823,1.495753,1.424484,-1.195231,1.482561,1.076767,-1.010945,0.980101,1.438871,-1.185611,0.966949,1.091997,-1.062249,1.492268,1.338309
111,0.925000,-1.021853,1.495777,1.424516,-1.195250,1.482570,1.076795,-1.010949,0.980127,1.438912,-1.185604,0.966960,1.092033,-1.062276,1.492289,1.338341
112,0.933333,-1.021849,1.495766,1.424489,-1.195188,1.482564,1.076738,-1.010975,0.980114,1.438893,-1.185572,0.966953,1.091985,-1.062258,1.492278,1.338307
113,0.941667,-1.021888,1.495748,1.424468,-1.195095,1.482564,1.076651,-1.011017,0.980096,1.438848,-1.185482,0.966952,1.091873,-1.062264,1.492265,1.338270
114,0.950000,-1.021855,1.495785,1.424505,-1.195228,1.482562,1.076772,-1.010945,0.980135,1.438922,-1.185576,0.966952,1.092032,-1.062272,1.492293,1.338327
115,0.958333,-1.021813,1.495772,1.424457,-1.195192,1.482551,1.076726,-1.010959,0.980122,1.438899,-1.185595,0.966941,1.092011,-1.062232,1.492280,1.338279
116,0.966667,-1.021922,1.495710,1.424469,-1.195120,1.482585,1.076645,-1.011006,0.980056,1.438741,-1.185462,0.966971,1.091759,-1.062296,1.492242,1.338270
117,0.975000,-1.021826,1.495765,1.424470,-1.195197,1.482563,1.076735,-1.010983,0.980114,1.438889,-1.185612,0.966952,1.091998,-1.062243,1.492277,1.338292
118,0.983333,-1.021915,1.495706,1.424461,-1.195108,1.482569,1.076635,-1.011000,0.980053,1.438750,-1.185451,0.966955,1.091766,-1.062288,1.492235,1.338261
119,0.991667,-1.021914,1.495704,1.424458,-1.195111,1.482574,1.076634,-1.011001,0.980050,1.438737,-1.185456,0.966960,1.091755,-1.062288,1.492235,1.338258
120,1.000000,-1.021845,1.495771,1.424468,-1.195164,1.482558,1.076708,-1.010974,0.980120,1.438890,-1.185551,0.966948,1.091972,-1.062249,1.492281,1.338284
121,1.008333,-1.021872,1.495733,1.424437,-1.195070,1.482533,1.076615,-1.011011,0.980081,1.438845,-1.185467,0.966922,1.091866,-1.062247,1.492246,1.338238
122,1.016667,-1.021859,1.495771,1.424457,-1.195163,1.482552,1.076690,-1.010978,0.980121,1.438884,-1.185539,0.966942,1.091958,-1.062260,1.492279,1.338271
123,1.025000,-1.021857,1.495769,1.424449,-1.195157,1.482554,1.076679,-1.010983,0.980118,1.438871,-1.185541,0.966944,1.091944,-1.062256,1.492278,1.338262
124,1.033333,-1.021920,1.495702,1.424441,-1.195125,1.482562,1.076621,-1.011012,0.980048,1.438737,-1.185475,0.966949,1.091759,-1.062296,1.492230,1.338243
125,1.041667,-1.021925,1.495705,1.424435,-1.195122,1.482555,1.076612,-1.010995,0.980052,1.438736,-1.185451,0.966942,1.091755,-1.062299,1.492231,1.338236
126,1.050000,-1.021860,1.495773,1.424443,-1.195167,1.482548,1.076677,-1.010971,0.980123,1.438875,-1.185536,0.966938,1.091951,-1.062261,1.492280,1.338258
127,1.058333,-1.021862,1.495769,1.424445,-1.195159,1.482544,1.076674,-1.010978,0.980119,1.438878,-1.185532,0.966934,1.091949,-1.062261,1.492276,1.338258
128,1.066667,-1.021838,1.495778,1.424463,-1.195287,1.482559,1.076768,-1.010957,0.980128,1.438888,-1.185663,0.966949,1.092035,-1.062274,1.492287,1.338294
129,1.075000,-1.021916,1.495713,1.424425,-1.195141,1.482562,1.076615,-1.011005,0.980060,1.438736,-1.185488,0.966949,1.091769,-1.062297,1.492239,1.338229
130,1.083333,-1.021856,1.495765,1.424440,-1.195162,1.482548,1.076673,-1.010962,0.980115,1.438856,-1.185525,0.966938,1.091932,-1.062257,1.492274,1.338254
131,1.091667,-1.021824,1.495777,1.424422,-1.195203,1.482543,1.076693,-1.010959,0.980127,1.438878,-1.185596,0.966933,1.091992,-1.062243,1.492281,1.338245
132,1.100000,-1.021842,1.495771,1.424436,-1.195229,1.482533,1.076710,-1.010961,0.980121,1.438890,-1.185605,0.966923,1.092007,-1.062263,1.492275,1.338260
133,1.108333,-1.021919,1.495744,1.424435,-1.195114,1.482536,1.076613,-1.011009,0.980093,1.438830,-1.185463,0.966926,1.091851,-1.062292,1.492255,1.338236
134,1.116667,-1.021922,1.495704,1.424427,-1.195125,1.482558,1.076606,-1.011003,0.980050,1.438727,-1.185464,0.966944,1.091748,-1.062297,1.492230,1.338228
135,1.125000,-1.021927,1.495710,1.424433,-1.195118,1.482570,1.076606,-1.010984,0.980056,1.438711,-1.185433,0.966957,1.091726,-1.062300,1.492238,1.338233
136,1.133333,-1.021920,1.495708,1.424425,-1.195124,1.482574,1.076604,-1.011007,0.980054,1.438709,-1.185469,0.966960,1.091731,-1.062295,1.492237,1.338226
137,1.141667,-1.021916,1.495713,1.424421,-1.195132,1.482567,1.076607,-1.010994,0.980060,1.438719,-1.185468,0.966954,1.091747,-1.062295,1.492239,1.338224
138,1.150000,-1.021909,1.495711,1.424424,-1.195120,1.482569,1.076607,-1.010980,0.980058,1.438714,-1.185449,0.966955,1.091740,-1.062286,1.492239,1.338226
139,1.158333,-1.021910,1.495705,1.424425,-1.195109,1.482587,1.076601,-1.010999,0.980050,1.438687,-1.185457,0.966972,1.091705,-1.062285,1.492238,1.338225
140,1.166667,-1.021811,1.495772,1.424466,-1.195296,1.482561,1.076788,-1.010918,0.980121,1.438871,-1.185661,0.966951,1.092037,-1.062256,1.492282,1.338301
141,1.175000,-1.021848,1.495765,1.424441,-1.195158,1.482550,1.076677,-1.010956,0.980114,1.438856,-1.185525,0.966939,1.091934,-1.062250,1.492274,1.338256
142,1.183333,-1.021812,1.495770,1.424429,-1.195200,1.482537,1.076704,-1.010956,0.980120,1.438888,-1.185602,0.966927,1.092006,-1.062233,1.492275,1.338253
143,1.191667,-1.021910,1.495703,1.424434,-1.195123,1.482571,1.076618,-1.010996,0.980049,1.438715,-1.185467,0.966957,1.091742,-1.062288,1.492233,1.338237
144,1.200000,-1.021911,1.495699,1.424434,-1.195137,1.482571,1.076624,-1.011000,0.980045,1.438711,-1.185484,0.966957,1.091743,-1.062292,1.492230,1.338238
145,1.208333,-1.021853,1.495762,1.424446,-1.195178,1.482552,1.076688,-1.010963,0.980112,1.438855,-1.185546,0.966941,1.091940,-1.062258,1.492273,1.338262
146,1.216667,-1.021909,1.495696,1.424439,-1.195127,1.482564,1.076625,-1.010998,0.980042,1.438723,-1.185475,0.966950,1.091752,-1.062288,1.492226,1.338242
147,1.225000,-1.021922,1.495696,1.424455,-1.195107,1.482570,1.076625,-1.011011,0.980042,1.438731,-1.185455,0.966956,1.091743,-1.062293,1.492228,1.338254
148,1.233333,-1.021853,1.495763,1.424454,-1.195159,1.482555,1.076687,-1.010978,0.980112,1.438867,-1.185542,0.966944,1.091943,-1.062254,1.492274,1.338268
149,1.241667,-1.021924,1.495702,1.424443,-1.195108,1.482570,1.076613,-1.011019,0.980048,1.438729,-1.185461,0.966956,1.091741,-1.062294,1.492232,1.338243
150,1.250000,-1.021882,1.495732,1.424448,-1.195119,1.482539,1.076647,-1.011004,0.980080,1.438837,-1.185500,0.966928,1.091878,-1.062266,1.492247,1.338254
151,1.258333,-1.021913,1.495704,1.424448,-1.195117,1.482565,1.076627,-1.010987,0.980050,1.438733,-1.185449,0.966952,1.091755,-1.062289,1.492232,1.338249
152,1.266667,-1.021917,1.495699,1.424441,-1.195122,1.482571,1.076620,-1.010997,0.980045,1.438712,-1.185459,0.966957,1.091734,-1.062293,1.492230,1.338242
153,1.275000,-1.021894,1.495742,1.424438,-1.195121,1.482535,1.076632,-1.011014,0.980091,1.438847,-1.185498,0.966925,1.091882,-1.062276,1.492253,1.338243
154,1.283333,-1.021807,1.495769,1.424441,-1.195202,1.482547,1.076719,-1.010955,0.980118,1.438884,-1.185607,0.966937,1.092004,-1.062230,1.492276,1.338266
155,1.291667,-1.021816,1.495758,1.424437,-1.195200,1.482539,1.076709,-1.010970,0.980107,1.438880,-1.185612,0.966929,1.091995,-1.062236,1.492266,1.338260
156,1.300000,-1.021916,1.495696,1.424432,-1.195130,1.482541,1.076618,-1.010993,0.980043,1.438743,-1.185465,0.966929,1.091771,-1.062294,1.492221,1.338235
157,1.308333,-1.021925,1.495700,1.424437,-1.195128,1.482554,1.076617,-1.010999,0.980047,1.438735,-1.185461,0.966941,1.091757,-1.062300,1.492227,1.338239
158,1.316667,-1.021921,1.495702,1.424445,-1.195124,1.482570,1.076624,-1.010986,0.980048,1.438716,-1.185448,0.966957,1.091737,-1.062296,1.492232,1.338246
159,1.325000,-1.021916,1.495703,1.424429,-1.195148,1.482562,1.076623,-1.011009,0.980049,1.438727,-1.185499,0.966949,1.091763,-1.062299,1.492231,1.338234
160,1.333333,-1.021886,1.495737,1.424430,-1.195117,1.482533,1.076625,-1.011007,0.980086,1.438837,-1.185496,0.966922,1.091874,-1.062268,1.492249,1.338235
161,1.341667,-1.021840,1.495766,1.424469,-1.195257,1.482548,1.076757,-1.010930,0.980115,1.438878,-1.185604,0.966938,1.092009,-1.062269,1.492275,1.338296
162,1.350000,-1.021845,1.495761,1.424432,-1.195189,1.482534,1.076685,-1.010952,0.980111,1.438864,-1.185554,0.966924,1.091960,-1.062256,1.492267,1.338251
163,1.358333,-1.021916,1.495700,1.424419,-1.195133,1.482549,1.076606,-1.010999,0.980047,1.438728,-1.185475,0.966936,1.091756,-1.062295,1.492225,1.338223
164,1.366667,-1.021917,1.495710,1.424421,-1.195127,1.482561,1.076605,-1.010989,0.980057,1.438722,-1.185458,0.966947,1.091747,-1.062294,1.492236,1.338224
165,1.375000,-1.021891,1.495742,1.424412,-1.195123,1.482520,1.076609,-1.010999,0.980091,1.438838,-1.185490,0.966910,1.091877,-1.062274,1.492249,1.338218
166,1.383333,-1.021920,1.495705,1.424417,-1.195142,1.482551,1.076606,-1.010981,0.980052,1.438719,-1.185461,0.966938,1.091750,-1.062300,1.492230,1.338220
167,1.391667,-1.021915,1.495705,1.424421,-1.195132,1.482557,1.076608,-1.010978,0.980052,1.438716,-1.185454,0.966944,1.091745,-1.062294,1.492231,1.338224
168,1.400000,-1.021818,1.495759,1.424450,-1.195282,1.482540,1.076762,-1.010926,0.980109,1.438870,-1.185647,0.966929,1.092025,-1.062258,1.492268,1.338283
169,1.408333,-1.021835,1.495757,1.424423,-1.195211,1.482519,1.076693,-1.010964,0.980107,1.438882,-1.185598,0.966910,1.091994,-1.062253,1.492260,1.338246
170,1.416667,-1.021823,1.495771,1.424415,-1.195220,1.482524,1.076695,-1.010960,0.980121,1.438889,-1.185614,0.966915,1.092012,-1.062246,1.492272,1.338240
171,1.425000,-1.021908,1.495706,1.424411,-1.195137,1.482554,1.076603,-1.010988,0.980053,1.438719,-1.185475,0.966941,1.091753,-1.062290,1.492231,1.338215
172,1.433333,-1.021855,1.495735,1.424394,-1.195118,1.482511,1.076606,-1.011003,0.980084,1.438842,-1.185524,0.966901,1.091896,-1.062246,1.492242,1.338203
173,1.441667,-1.021830,1.495775,1.424445,-1.195250,1.482533,1.076736,-1.010934,0.980125,1.438895,-1.185612,0.966924,1.092029,-1.062259,1.492277,1.338273
174,1.450000,-1.021863,1.495738,1.424404,-1.195097,1.482503,1.076602,-1.011014,0.980088,1.438871,-1.185506,0.966894,1.091911,-1.062246,1.492242,1.338210
175,1.458333,-1.021820,1.495724,1.424386,-1.195101,1.482494,1.076607,-1.011007,0.980073,1.438861,-1.185545,0.966884,1.091925,-1.062215,1.492229,1.338197
176,1.466667,-1.021845,1.495762,1.424425,-1.195165,1.482522,1.076666,-1.010974,0.980112,1.438886,-1.185551,0.966913,1.091969,-1.062250,1.492265,1.338241
177,1.475000,-1.021852,1.495733,1.424407,-1.195132,1.482519,1.076627,-1.011016,0.980082,1.438848,-1.185554,0.966908,1.091911,-1.062246,1.492242,1.338218
178,1.483333,-1.021907,1.495699,1.424417,-1.195122,1.482546,1.076603,-1.011006,0.980046,1.438736,-1.185479,0.966933,1.091764,-1.062285,1.492224,1.338220
179,1.491667,-1.021861,1.495730,1.424417,-1.195091,1.482514,1.076613,-1.011021,0.980079,1.438859,-1.185510,0.966904,1.091897,-1.062243,1.492239,1.338223
180,1.500000,-1.021864,1.495721,1.424396,-1.195181,1.482574,1.076633,-1.010828,0.980068,1.438638,-1.185403,0.966961,1.091717,-1.062268,1.492248,1.338211
181,1.508333,-1.021857,1.495715,1.424396,-1.195182,1.482577,1.076636,-1.010805,0.980062,1.438617,-1.185388,0.966964,1.091700,-1.062262,1.492244,1.338212
182,1.516667,-1.021858,1.495718,1.424397,-1.195192,1.482562,1.076642,-1.010807,0.980066,1.438644,-1.185398,0.966949,1.091732,-1.062266,1.492242,1.338214
183,1.525000,-1.021859,1.495710,1.424394,-1.195201,1.482552,1.076644,-1.010818,0.980058,1.438649,-1.185418,0.966940,1.091741,-1.062269,1.492234,1.338212
184,1.533333,-1.021818,1.495764,1.424386,-1.195166,1.482573,1.076639,-1.010777,0.980114,1.438691,-1.185382,0.966962,1.091787,-1.062229,1.492280,1.338204
185,1.541667,-1.021860,1.495718,1.424405,-1.195186,1.482579,1.076645,-1.010815,0.980066,1.438631,-1.185399,0.966966,1.091714,-1.062266,1.492247,1.338220
186,1.550000,-1.021861,1.495723,1.424401,-1.195172,1.482588,1.076634,-1.010812,0.980070,1.438619,-1.185380,0.966975,1.091694,-1.062264,1.492253,1.338215
187,1.558333,-1.021855,1.495711,1.424396,-1.195190,1.482549,1.076642,-1.010816,0.980059,1.438658,-1.185409,0.966937,1.091747,-1.062263,1.492234,1.338213
188,1.566667,-1.021820,1.495824,1.424448,-1.195215,1.482594,1.076726,-1.010731,0.980176,1.438786,-1.185383,0.966985,1.091907,-1.062243,1.492331,1.338273
189,1.575000,-1.021858,1.495707,1.424405,-1.195198,1.482561,1.076652,-1.010822,0.980055,1.438645,-1.185420,0.966948,1.091735,-1.062268,1.492234,1.338222
190,1.583333,-1.021850,1.495721,1.424404,-1.195193,1.482571,1.076653,-1.010810,0.980069,1.438648,-1.185410,0.966959,1.091740,-1.062260,1.492248,1.338221
191,1.591667,-1.021810,1.495751,1.424399,-1.195156,1.482581,1.076650,-1.010784,0.980100,1.438680,-1.185388,0.966969,1.091774,-1.062221,1.492272,1.338217
192,1.600000,-1.021859,1.495727,1.424411,-1.195180,1.482574,1.076650,-1.010807,0.980075,1.438655,-1.185386,0.966961,1.091736,-1.062264,1.492252,1.338227
193,1.608333,-1.021839,1.495771,1.424427,-1.195210,1.482577,1.076691,-1.010766,0.980121,1.438718,-1.185395,0.966967,1.091826,-1.062256,1.492286,1.338248
194,1.616667,-1.021868,1.495719,1.424406,-1.195192,1.482581,1.076646,-1.010826,0.980066,1.438631,-1.185409,0.966968,1.091713,-1.062273,1.492248,1.338222
195,1.625000,-1.021816,1.495825,1.424443,-1.195234,1.482571,1.076733,-1.010722,0.980178,1.438813,-1.185398,0.966964,1.091946,-1.062245,1.492326,1.338270
196,1.633333,-1.021860,1.495721,1.424401,-1.195205,1.482578,1.076651,-1.010821,0.980069,1.438636,-1.185425,0.966965,1.091729,-1.062271,1.492249,1.338219
197,1.641667,-1.021870,1.495722,1.424397,-1.195193,1.482578,1.076635,-1.010828,0.980070,1.438631,-1.185409,0.966966,1.091712,-1.062275,1.492250,1.338212
198,1.650000,-1.021867,1.495722,1.424400,-1.195194,1.482585,1.076641,-1.010821,0.980069,1.438622,-1.185406,0.966972,1.091706,-1.062273,1.492251,1.338216
199,1.658333,-1.021875,1.495721,1.424401,-1.195195,1.482587,1.076639,-1.010810,0.980068,1.438610,-1.185388,0.966974,1.091690,-1.062279,1.492251,1.338216
200,1.666667,-1.021878,1.495723,1.424398,-1.195195,1.482584,1.076634,-1.010814,0.980070,1.438614,-1.185388,0.966971,1.091692,-1.062282,1.492252,1.338213
201,1.675000,-1.021803,1.495832,1.424441,-1.195260,1.482582,1.076751,-1.010704,0.980184,1.438802,-1.185418,0.966974,1.091955,-1.062241,1.492334,1.338273
202,1.683333,-1.021823,1.495756,1.424381,-1.195174,1.482564,1.076636,-1.010786,0.980106,1.438689,-1.185395,0.966954,1.091786,-1.062235,1.492272,1.338200
203,1.691667,-1.021798,1.495754,1.424374,-1.195164,1.482572,1.076636,-1.010799,0.980103,1.438686,-1.185422,0.966960,1.091790,-1.062214,1.492272,1.338195
204,1.700000,-1.021878,1.495720,1.424398,-1.195202,1.482576,1.076638,-1.010819,0.980068,1.438623,-1.185401,0.966964,1.091705,-1.062284,1.492248,1.338213
205,1.708333,-1.021837,1.495763,1.424375,-1.195180,1.482575,1.076625,-1.010794,0.980113,1.438674,-1.185395,0.966964,1.091767,-1.062247,1.492280,1.338193
206,1.716667,-1.021886,1.495726,1.424402,-1.195193,1.482587,1.076633,-1.010815,0.980073,1.438613,-1.185380,0.966974,1.091687,-1.062287,1.492255,1.338215
207,1.725000,-1.021853,1.495779,1.424404,-1.195214,1.482584,1.076665,-1.010787,0.980129,1.438703,-1.185407,0.966973,1.091806,-1.062268,1.492294,1.338225
208,1.733333,-1.021801,1.495748,1.424361,-1.195174,1.482555,1.076627,-1.010779,0.980098,1.438678,-1.185410,0.966944,1.091787,-1.062218,1.492264,1.338182
209,1.741667,-1.021881,1.495718,1.424392,-1.195191,1.482590,1.076624,-1.010830,0.980065,1.438597,-1.185398,0.966977,1.091671,-1.062283,1.492250,1.338205
210,1.750000,-1.021811,1.495839,1.424431,-1.195260,1.482597,1.076736,-1.010708,0.980191,1.438778,-1.185415,0.966989,1.091927,-1.062247,1.492342,1.338262
211,1.758333,-1.021835,1.495762,1.424358,-1.195190,1.482568,1.076615,-1.010803,0.980112,1.438672,-1.185416,0.966957,1.091772,-1.062248,1.492277,1.338178
212,1.766667,-1.021880,1.495720,1.424384,-1.195202,1.482582,1.076623,-1.010823,0.980068,1.438602,-1.185403,0.966969,1.091684,-1.062285,1.492249,1.338199
213,1.775000,-1.021882,1.495712,1.424398,-1.195181,1.482581,1.076625,-1.010834,0.980059,1.438612,-1.185391,0.966967,1.091681,-1.062281,1.492243,1.338211
214,1.783333,-1.021817,1.495775,1.424396,-1.195254,1.482572,1.076694,-1.010743,0.980126,1.438702,-1.185438,0.966962,1.091843,-1.062251,1.492288,1.338225
215,1.791667,-1.021880,1.495710,1.424399,-1.195192,1.482572,1.076632,-1.010826,0.980057,1.438618,-1.185396,0.966959,1.091694,-1.062283,1.492239,1.338213
216,1.800000,-1.021834,1.495760,1.424390,-1.195171,1.482571,1.076637,-1.010768,0.980110,1.438679,-1.185362,0.966960,1.091769,-1.062243,1.492277,1.338207
217,1.808333,-1.021876,1.495714,1.424393,-1.195185,1.482580,1.076625,-1.010832,0.980061,1.438612,-1.185400,0.966967,1.091686,-1.062278,1.492244,1.338207
218,1.816667,-1.021820,1.495784,1.424418,-1.195254,1.482584,1.076715,-1.010738,0.980134,1.438715,-1.185430,0.966973,1.091854,-1.062253,1.492298,1.338247
219,1.825000,-1.021848,1.495765,1.424382,-1.195140,1.482557,1.076608,-1.010829,0.980115,1.438723,-1.185379,0.966947,1.091791,-1.062246,1.492277,1.338194
220,1.833333,-1.021884,1.495721,1.424404,-1.195179,1.482588,1.076629,-1.010822,0.980069,1.438612,-1.185375,0.966975,1.091679,-1.062282,1.492252,1.338216
221,1.841667,-1.021866,1.495720,1.424396,-1.195198,1.482562,1.076640,-1.010818,0.980068,1.438648,-1.185408,0.966950,1.091735,-1.062274,1.492244,1.338213
222,1.850000,-1.021871,1.495719,1.424415,-1.195186,1.482592,1.076649,-1.010815,0.980066,1.438617,-1.185387,0.966979,1.091694,-1.062274,1.492251,1.338229
223,1.858333,-1.021865,1.495720,1.424404,-1.195199,1.482584,1.076648,-1.010798,0.980067,1.438614,-1.185390,0.966971,1.091701,-1.062273,1.492250,1.338220
224,1.866667,-1.021868,1.495718,1.424403,-1.195193,1.482568,1.076643,-1.010817,0.980066,1.438643,-1.185400,0.966955,1.091726,-1.062273,1.492244,1.338218
225,1.875000,-1.021841,1.495765,1.424397,-1.195162,1.482574,1.076637,-1.010814,0.980115,1.438709,-1.185393,0.966963,1.091791,-1.062245,1.492281,1.338213
226,1.883333,-1.021882,1.495720,1.424405,-1.195192,1.482581,1.076637,-1.010846,0.980067,1.438635,-1.185414,0.966968,1.091710,-1.062284,1.492249,1.338219
227,1.891667,-1.021837,1.495759,1.424413,-1.195176,1.482582,1.076661,-1.010755,0.980108,1.438676,-1.185352,0.966971,1.091767,-1.062246,1.492279,1.338230
228,1.900000,-1.021833,1.495755,1.424407,-1.195162,1.482569,1.076652,-1.010787,0.980105,1.438704,-1.185375,0.966958,1.091790,-1.062239,1.492273,1.338224
229,1.908333,-1.021849,1.495770,1.424446,-1.195192,1.482583,1.076696,-1.010766,0.980119,1.438722,-1.185367,0.966973,1.091815,-1.062259,1.492287,1.338264
230,1.916667,-1.021873,1.495714,1.424419,-1.195179,1.482581,1.076649,-1.010816,0.980062,1.438630,-1.185381,0.966968,1.091703,-1.062274,1.492245,1.338232
231,1.925000,-1.021863,1.495717,1.424418,-1.195194,1.482595,1.076660,-1.010821,0.980064,1.438620,-1.185410,0.966981,1.091705,-1.062270,1.492250,1.338234
232,1.933333,-1.021812,1.495741,1.424413,-1.195171,1.482576,1.076671,-1.010786,0.980089,1.438686,-1.185403,0.966964,1.091787,-1.062226,1.492263,1.338233
233,1.941667,-1.021826,1.495750,1.424417,-1.195184,1.482582,1.076674,-1.010799,0.980099,1.438695,-1.185414,0.966970,1.091795,-1.062240,1.492272,1.338237
234,1.950000,-1.021869,1.495714,1.424423,-1.195188,1.482562,1.076661,-1.010817,0.980062,1.438665,-1.185394,0.966950,1.091745,-1.062273,1.492240,1.338238
235,1.958333,-1.021853,1.495770,1.424444,-1.195190,1.482576,1.076692,-1.010768,0.980120,1.438731,-1.185363,0.966966,1.091821,-1.062261,1.492286,1.338262
236,1.966667,-1.021834,1.495764,1.424442,-1.195204,1.482586,1.076705,-1.010770,0.980113,1.438714,-1.185397,0.966975,1.091820,-1.062251,1.492283,1.338263
237,1.975000,-1.021840,1.495771,1.424446,-1.195199,1.482584,1.076705,-1.010773,0.980120,1.438730,-1.185389,0.966973,1.091831,-1.062254,1.492288,1.338266
238,1.983333,-1.021875,1.495706,1.424425,-1.195178,1.482585,1.076653,-1.010832,0.980053,1.438625,-1.185393,0.966971,1.091696,-1.062275,1.492239,1.338238
239,1.991667,-1.021878,1.495709,1.424419,-1.195192,1.482583,1.076653,-1.010826,0.980056,1.438622,-1.185398,0.966969,1.091699,-1.062281,1.492241,1.338233
240,2.000000,-1.021880,1.495714,1.424414,-1.195175,1.482583,1.076639,-1.010838,0.980061,1.438629,-1.185391,0.966970,1.091696,-1.062278,1.492245,1.338226
241,2.008333,-1.021891,1.495715,1.424416,-1.195184,1.482588,1.076639,-1.010835,0.980062,1.438618,-1.185386,0.966974,1.091684,-1.062289,1.492247,1.338227
242,2.016667,-1.021831,1.495757,1.424398,-1.195193,1.482578,1.076658,-1.010780,0.980106,1.438678,-1.185400,0.966967,1.091781,-1.062246,1.492276,1.338218
243,2.025000,-1.021883,1.495719,1.424414,-1.195204,1.482580,1.076652,-1.010811,0.980066,1.438626,-1.185391,0.966967,1.091706,-1.062287,1.492248,1.338229
244,2.033333,-1.021862,1.495775,1.424433,-1.195200,1.482590,1.076681,-1.010786,0.980125,1.438711,-1.185381,0.966979,1.091802,-1.062271,1.492293,1.338250
245,2.041667,-1.021885,1.495716,1.424412,-1.195199,1.482592,1.076646,-1.010824,0.980063,1.438607,-1.185395,0.966978,1.091683,-1.062288,1.492249,1.338226
246,2.050000,-1.021892,1.495733,1.424407,-1.195203,1.482596,1.076639,-1.010813,0.980081,1.438613,-1.185382,0.966983,1.091688,-1.062294,1.492263,1.338220
247,2.058333,-1.021889,1.495728,1.424401,-1.195197,1.482591,1.076632,-1.010836,0.980075,1.438620,-1.185403,0.966978,1.091694,-1.062290,1.492257,1.338215
248,2.066667,-1.021849,1.495769,1.424397,-1.195179,1.482577,1.076641,-1.010787,0.980119,1.438692,-1.185375,0.966966,1.091779,-1.062256,1.492285,1.338213
249,2.075000,-1.021789,1.495838,1.424432,-1.195225,1.482588,1.076731,-1.010724,0.980190,1.438810,-1.185417,0.966980,1.091952,-1.062222,1.492339,1.338261
250,2.083333,-1.021868,1.495777,1.424436,-1.195203,1.482572,1.076683,-1.010785,0.980128,1.438739,-1.185377,0.966962,1.091829,-1.062276,1.492290,1.338253
251,2.091667,-1.021887,1.495728,1.424404,-1.195196,1.482591,1.076636,-1.010825,0.980075,1.438618,-1.185392,0.966978,1.091693,-1.062288,1.492257,1.338218
252,2.100000,-1.021891,1.495719,1.424407,-1.195186,1.482597,1.076632,-1.010842,0.980066,1.438605,-1.185396,0.966984,1.091672,-1.062289,1.492252,1.338219
253,2.108333,-1.021882,1.495721,1.424411,-1.195190,1.482583,1.076642,-1.010835,0.980068,1.438633,-1.185401,0.966970,1.091707,-1.062283,1.492250,1.338224
254,2.116667,-1.021843,1.495862,1.424490,-1.194923,1.482716,1.076608,-1.010765,0.980210,1.438712,-1.185104,0.967103,1.091672,-1.062188,1.492389,1.338277
255,2.125000,-1.021806,1.495809,1.424445,-1.195048,1.482709,1.076642,-1.010815,0.980154,1.438640,-1.185315,0.967094,1.091679,-1.062191,1.492347,1.338250
256,2.133333,-1.021872,1.495739,1.424412,-1.195156,1.482622,1.076630,-1.010867,0.980085,1.438624,-1.185409,0.967008,1.091686,-1.062267,1.492273,1.338222
257,2.141667,-1.021824,1.495819,1.424449,-1.195038,1.482732,1.076632,-1.010851,0.980164,1.438635,-1.185324,0.967116,1.091660,-1.062202,1.492360,1.338252
258,2.150000,-1.021837,1.495859,1.424506,-1.194931,1.482740,1.076630,-1.010752,0.980206,1.438684,-1.185104,0.967127,1.091649,-1.062185,1.492393,1.338295
259,2.158333,-1.021834,1.495816,1.424468,-1.195027,1.482718,1.076641,-1.010805,0.980162,1.438642,-1.185256,0.967103,1.091657,-1.062207,1.492355,1.338268
260,2.166667,-1.021875,1.495739,1.424430,-1.195126,1.482638,1.076632,-1.010873,0.980084,1.438621,-1.185382,0.967023,1.091665,-1.062262,1.492277,1.338237
261,2.175000,-1.021874,1.495746,1.424435,-1.195111,1.482647,1.076630,-1.010872,0.980092,1.438625,-1.185367,0.967032,1.091662,-1.062258,1.492285,1.338241
262,2.183333,-1.021866,1.495747,1.424432,-1.195106,1.482649,1.076628,-1.010876,0.980093,1.438625,-1.185374,0.967034,1.091664,-1.062251,1.492286,1.338237
263,2.191667,-1.021872,1.495735,1.424439,-1.195107,1.482652,1.076632,-1.010879,0.980080,1.438609,-1.185373,0.967036,1.091645,-1.062255,1.492277,1.338244
264,2.200000,-1.021862,1.495844,1.424522,-1.195003,1.482704,1.076670,-1.010762,0.980192,1.438724,-1.185162,0.967092,1.091714,-1.062222,1.492373,1.338316
265,2.208333,-1.021850,1.495851,1.424510,-1.195005,1.482723,1.076665,-1.010769,0.980198,1.438704,-1.185183,0.967109,1.091701,-1.062214,1.492383,1.338306
266,2.216667,-1.021864,1.495739,1.424443,-1.195090,1.482659,1.076632,-1.010885,0.980083,1.438615,-1.185369,0.967043,1.091646,-1.062245,1.492282,1.338247
267,2.225000,-1.021857,1.495734,1.424435,-1.195101,1.482661,1.076631,-1.010880,0.980079,1.438597,-1.185381,0.967045,1.091636,-1.062243,1.492279,1.338240
268,2.233333,-1.021857,1.495739,1.424442,-1.195082,1.482649,1.076631,-1.010866,0.980084,1.438624,-1.185350,0.967034,1.091654,-1.062238,1.492280,1.338246
269,2.241667,-1.021853,1.495738,1.424427,-1.195106,1.482646,1.076628,-1.010870,0.980083,1.438614,-1.185380,0.967031,1.091658,-1.062241,1.492278,1.338233
270,2.250000,-1.021856,1.495729,1.424432,-1.195095,1.482647,1.076627,-1.010883,0.980074,1.438609,-1.185379,0.967031,1.091646,-1.062241,1.492272,1.338237
271,2.258333,-1.021828,1.495846,1.424509,-1.195048,1.482709,1.076696,-1.010759,0.980193,1.438720,-1.185236,0.967096,1.091749,-1.062208,1.492375,1.338312
272,2.266667,-1.021853,1.495742,1.424422,-1.195090,1.482635,1.076617,-1.010876,0.980088,1.438636,-1.185371,0.967020,1.091673,-1.062237,1.492278,1.338227
273,2.275000,-1.021858,1.495739,1.424428,-1.195094,1.482640,1.076622,-1.010866,0.980085,1.438622,-1.185360,0.967025,1.091658,-1.062242,1.492278,1.338233
274,2.283333,-1.021852,1.495734,1.424422,-1.195104,1.482628,1.076624,-1.010876,0.980080,1.438633,-1.185387,0.967014,1.091678,-1.062240,1.492271,1.338228
275,2.291667,-1.021860,1.495744,1.424431,-1.195091,1.482647,1.076622,-1.010861,0.980089,1.438618,-1.185351,0.967032,1.091651,-1.062242,1.492283,1.338235
276,2.300000,-1.021847,1.495840,1.424502,-1.195045,1.482700,1.076679,-1.010753,0.980188,1.438706,-1.185210,0.967088,1.091725,-1.062221,1.492369,1.338303
277,2.308333,-1.021859,1.495749,1.424423,-1.195087,1.482633,1.076614,-1.010877,0.980095,1.438648,-1.185363,0.967018,1.091681,-1.062241,1.492283,1.338227
278,2.316667,-1.021771,1.495793,1.424404,-1.195057,1.482676,1.076624,-1.010842,0.980139,1.438655,-1.185386,0.967062,1.091717,-1.062167,1.492327,1.338215
279,2.325000,-1.021855,1.495743,1.424413,-1.195093,1.482628,1.076609,-1.010868,0.980089,1.438632,-1.185365,0.967014,1.091670,-1.062239,1.492278,1.338218
280,2.333333,-1.021845,1.495848,1.424494,-1.195058,1.482703,1.076678,-1.010755,0.980196,1.438706,-1.185226,0.967091,1.091732,-1.062223,1.492376,1.338296
281,2.341667,-1.021794,1.495812,1.424433,-1.195058,1.482692,1.076641,-1.010790,0.980158,1.438650,-1.185312,0.967078,1.091702,-1.062184,1.492345,1.338241
282,2.350000,-1.021859,1.495745,1.424408,-1.195107,1.482620,1.076609,-1.010889,0.980091,1.438650,-1.185394,0.967006,1.091694,-1.062246,1.492277,1.338214
283,2.358333,-1.021821,1.495833,1.424487,-1.195077,1.482693,1.076692,-1.010760,0.980180,1.438706,-1.185274,0.967080,1.091754,-1.062209,1.492362,1.338294
284,2.366667,-1.021873,1.495748,1.424422,-1.195086,1.482639,1.076605,-1.010872,0.980094,1.438626,-1.185343,0.967024,1.091651,-1.062251,1.492284,1.338224
285,2.375000,-1.021835,1.495852,1.424473,-1.195095,1.482686,1.076681,-1.010727,0.980201,1.438707,-1.185245,0.967075,1.091758,-1.062225,1.492375,1.338281
286,2.383333,-1.021860,1.495748,1.424408,-1.195111,1.482640,1.076610,-1.010882,0.980094,1.438623,-1.185391,0.967025,1.091667,-1.062247,1.492284,1.338215
287,2.391667,-1.021868,1.495762,1.424410,-1.195105,1.482645,1.076606,-1.010864,0.980108,1.438625,-1.185359,0.967031,1.091662,-1.062252,1.492296,1.338215
288,2.400000,-1.021866,1.495748,1.424410,-1.195104,1.482635,1.076605,-1.010869,0.980094,1.438620,-1.185364,0.967021,1.091658,-1.062250,1.492283,1.338215
289,2.408333,-1.021886,1.495813,1.424476,-1.195090,1.482664,1.076656,-1.010838,0.980160,1.438716,-1.185300,0.967051,1.091738,-1.062261,1.492339,1.338278
290,2.416667,-1.021873,1.495746,1.424414,-1.195104,1.482632,1.076607,-1.010863,0.980093,1.438621,-1.185353,0.967018,1.091656,-1.062255,1.492281,1.338219
291,2.425000,-1.021867,1.495739,1.424420,-1.195101,1.482629,1.076614,-1.010868,0.980085,1.438627,-1.185361,0.967015,1.091663,-1.062250,1.492275,1.338225
292,2.433333,-1.021852,1.495850,1.424490,-1.195104,1.482697,1.076694,-1.010749,0.980199,1.438708,-1.185258,0.967085,1.091754,-1.062240,1.492376,1.338297
293,2.441667,-1.021881,1.495743,1.424428,-1.195111,1.482629,1.076619,-1.010881,0.980089,1.438639,-1.185368,0.967015,1.091673,-1.062263,1.492278,1.338232
294,2.450000,-1.021843,1.495851,1.424486,-1.195103,1.482692,1.076694,-1.010738,0.980199,1.438712,-1.185256,0.967080,1.091762,-1.062232,1.492375,1.338294
295,2.458333,-1.021852,1.495849,1.424492,-1.195092,1.482689,1.076691,-1.010741,0.980197,1.438717,-1.185240,0.967077,1.091758,-1.062236,1.492373,1.338298
296,2.466667,-1.021854,1.495842,1.424495,-1.195111,1.482709,1.076700,-1.010737,0.980190,1.438676,-1.185252,0.967096,1.091724,-1.062243,1.492373,1.338302
297,2.475000,-1.021838,1.495830,1.424492,-1.195101,1.482678,1.076702,-1.010722,0.980179,1.438702,-1.185244,0.967066,1.091754,-1.062228,1.492356,1.338300
298,2.483333,-1.021891,1.495817,1.424490,-1.195099,1.482676,1.076672,-1.010823,0.980165,1.438708,-1.185289,0.967063,1.091733,-1.062267,1.492346,1.338292
299,2.491667,-1.021867,1.495736,1.424428,-1.195110,1.482615,1.076626,-1.010847,0.980083,1.438640,-1.185348,0.967001,1.091681,-1.062252,1.492270,1.338233
300,2.500000,-1.021865,1.495738,1.424424,-1.195112,1.482634,1.076624,-1.010876,0.980084,1.438626,-1.185380,0.967019,1.091668,-1.062251,1.492275,1.338230
301,2.508333,-1.021867,1.495740,1.424438,-1.195098,1.482644,1.076629,-1.010863,0.980086,1.438621,-1.185352,0.967029,1.091655,-1.062249,1.492280,1.338242
302,2.516667,-1.021859,1.495741,1.424424,-1.195115,1.482615,1.076629,-1.010865,0.980088,1.438657,-1.185379,0.967001,1.091704,-1.062248,1.492273,1.338231
303,2.525000,-1.021859,1.495743,1.424430,-1.195110,1.482624,1.076632,-1.010864,0.980089,1.438651,-1.185373,0.967010,1.091696,-1.062246,1.492277,1.338237
304,2.533333,-1.021864,1.495739,1.424433,-1.195103,1.482629,1.076629,-1.010864,0.980085,1.438640,-1.185361,0.967014,1.091678,-1.062248,1.492275,1.338238
305,2.541667,-1.021868,1.495744,1.424432,-1.195099,1.482643,1.076624,-1.010873,0.980089,1.438627,-1.185361,0.967028,1.091661,-1.062250,1.492282,1.338237
306,2.550000,-1.021864,1.495747,1.424427,-1.195109,1.482628,1.076626,-1.010868,0.980093,1.438648,-1.185371,0.967014,1.091690,-1.062250,1.492281,1.338233
307,2.558333,-1.021857,1.495733,1.424428,-1.195109,1.482623,1.076631,-1.010870,0.980079,1.438641,-1.185380,0.967009,1.091686,-1.062244,1.492269,1.338235
308,2.566667,-1.021826,1.495827,1.424511,-1.195085,1.482694,1.076718,-1.010732,0.980175,1.438705,-1.185249,0.967081,1.091754,-1.062216,1.492358,1.338319
309,2.575000,-1.021853,1.495731,1.424434,-1.195097,1.482613,1.076633,-1.010869,0.980077,1.438659,-1.185372,0.966999,1.091701,-1.062238,1.492265,1.338240
310,2.583333,-1.021883,1.495823,1.424484,-1.195076,1.482677,1.076658,-1.010834,0.980171,1.438720,-1.185285,0.967064,1.091737,-1.062256,1.492350,1.338284
311,2.591667,-1.021860,1.495738,1.424426,-1.195098,1.482614,1.076622,-1.010855,0.980085,1.438650,-1.185351,0.967000,1.091688,-1.062244,1.492271,1.338231
312,2.600000,-1.021856,1.495737,1.424424,-1.195112,1.482606,1.076630,-1.010862,0.980084,1.438664,-1.185376,0.966993,1.091711,-1.062245,1.492268,1.338232
313,2.608333,-1.021854,1.495745,1.424422,-1.195099,1.482625,1.076622,-1.010845,0.980091,1.438639,-1.185349,0.967011,1.091681,-1.062240,1.492278,1.338228
314,2.616667,-1.021835,1.495836,1.424523,-1.195064,1.482696,1.076715,-1.010727,0.980184,1.438719,-1.185213,0.967083,1.091753,-1.062217,1.492365,1.338328
315,2.625000,-1.021861,1.495739,1.424427,-1.195096,1.482620,1.076621,-1.010864,0.980085,1.438647,-1.185357,0.967006,1.091684,-1.062244,1.492272,1.338232
316,2.633333,-1.021855,1.495732,1.424423,-1.195104,1.482606,1.076624,-1.010853,0.980079,1.438651,-1.185359,0.966992,1.091695,-1.062242,1.492264,1.338229
317,2.641667,-1.021790,1.495810,1.424435,-1.195090,1.482688,1.076662,-1.010774,0.980156,1.438650,-1.185332,0.967074,1.091720,-1.062189,1.492343,1.338248
318,2.650000,-1.021875,1.495816,1.424477,-1.195077,1.482679,1.076655,-1.010805,0.980164,1.438689,-1.185265,0.967066,1.091710,-1.062250,1.492346,1.338278
319,2.658333,-1.021851,1.495743,1.424422,-1.195111,1.482621,1.076629,-1.010859,0.980090,1.438649,-1.185377,0.967007,1.091698,-1.062241,1.492276,1.338230
320,2.666667,-1.021847,1.495841,1.424515,-1.195039,1.482717,1.076688,-1.010737,0.980188,1.438687,-1.185187,0.967103,1.091702,-1.062220,1.492374,1.338315
321,2.675000,-1.021857,1.495742,1.424414,-1.195128,1.482613,1.076626,-1.010860,0.980089,1.438648,-1.185389,0.967000,1.091704,-1.062249,1.492273,1.338223
322,2.683333,-1.021855,1.495742,1.424415,-1.195138,1.482605,1.076634,-1.010845,0.980089,1.438655,-1.185386,0.966992,1.091716,-1.062250,1.492271,1.338225
323,2.691667,-1.021782,1.495810,1.424447,-1.195053,1.482705,1.076659,-1.010762,0.980156,1.438635,-1.185291,0.967091,1.091690,-1.062174,1.492348,1.338256
324,2.700000,-1.021816,1.495832,1.424472,-1.195032,1.482726,1.076656,-1.010772,0.980178,1.438650,-1.185246,0.967111,1.091677,-1.062195,1.492369,1.338275
325,2.708333,-1.021866,1.495744,1.424420,-1.195132,1.482611,1.076630,-1.010856,0.980091,1.438654,-1.185379,0.966998,1.091706,-1.062257,1.492274,1.338229
326,2.716667,-1.021824,1.495818,1.424468,-1.195025,1.482719,1.076644,-1.010789,0.980163,1.438639,-1.185248,0.967105,1.091658,-1.062199,1.492357,1.338269
327,2.725000,-1.021853,1.495735,1.424418,-1.195135,1.482607,1.076636,-1.010857,0.980082,1.438652,-1.185396,0.966994,1.091712,-1.062248,1.492266,1.338229
328,2.733333,-1.021867,1.495869,1.424520,-1.194882,1.482753,1.076605,-1.010747,0.980217,1.438679,-1.185020,0.967139,1.091605,-1.062196,1.492404,1.338300
329,2.741667,-1.021802,1.495811,1.424460,-1.195044,1.482721,1.076656,-1.010818,0.980156,1.438645,-1.185319,0.967106,1.091684,-1.062187,1.492352,1.338265
330,2.750000,-1.021834,1.495813,1.424471,-1.195019,1.482718,1.076639,-1.010798,0.980159,1.438637,-1.185241,0.967104,1.091647,-1.062205,1.492353,1.338270
331,2.758333,-1.021826,1.495818,1.424462,-1.195038,1.482716,1.076644,-1.010789,0.980164,1.438638,-1.185259,0.967101,1.091662,-1.062203,1.492356,1.338264
332,2.766667,-1.021827,1.495824,1.424465,-1.195042,1.482717,1.076649,-1.010795,0.980170,1.438650,-1.185268,0.967103,1.091676,-1.062205,1.492361,1.338267
333,2.775000,-1.021867,1.495731,1.424432,-1.195158,1.482606,1.076654,-1.010845,0.980078,1.438649,-1.185393,0.966992,1.091714,-1.062264,1.492263,1.338244
334,2.783333,-1.021861,1.495719,1.424435,-1.195162,1.482600,1.076663,-1.010838,0.980065,1.438642,-1.185397,0.966986,1.091712,-1.062260,1.492252,1.338248
335,2.791667,-1.021810,1.495801,1.424450,-1.195084,1.482680,1.076663,-1.010793,0.980148,1.438663,-1.185325,0.967066,1.091719,-1.062203,1.492335,1.338259
336,2.800000,-1.021829,1.495820,1.424468,-1.195071,1.482686,1.076666,-1.010787,0.980168,1.438688,-1.185287,0.967073,1.091729,-1.062214,1.492351,1.338273
337,2.808333,-1.021808,1.495793,1.424460,-1.195093,1.482662,1.076680,-1.010786,0.980140,1.438685,-1.185329,0.967049,1.091747,-1.062203,1.492324,1.338270
338,2.816667,-1.021789,1.495792,1.424464,-1.195098,1.482667,1.076695,-1.010767,0.980138,1.438679,-1.185334,0.967053,1.091753,-1.062191,1.492324,1.338277
339,2.825000,-1.021869,1.495717,1.424430,-1.195188,1.482572,1.076667,-1.010818,0.980065,1.438661,-1.185395,0.966960,1.091741,-1.062273,1.492245,1.338245
340,2.833333,-1.021865,1.495714,1.424427,-1.195195,1.482555,1.076670,-1.010799,0.980062,1.438672,-1.185387,0.966942,1.091758,-1.062272,1.492238,1.338243
341,2.841667,-1.021862,1.495713,1.424423,-1.195200,1.482558,1.076670,-1.010797,0.980061,1.438662,-1.185393,0.966945,1.091752,-1.062271,1.492238,1.338240
342,2.850000,-1.021856,1.495711,1.424422,-1.195195,1.482555,1.076670,-1.010801,0.980059,1.438667,-1.185398,0.966943,1.091758,-1.062266,1.492236,1.338240
343,2.858333,-1.021821,1.495797,1.424470,-1.195190,1.482586,1.076734,-1.010742,0.980148,1.438786,-1.185369,0.966976,1.091893,-1.062238,1.492308,1.338291
344,2.866667,-1.021863,1.495707,1.424435,-1.195196,1.482562,1.076679,-1.010798,0.980055,1.438659,-1.185389,0.966950,1.091746,-1.062271,1.492235,1.338251
345,2.875000,-1.021862,1.495707,1.424429,-1.195191,1.482548,1.076671,-1.010795,0.980055,1.438673,-1.185382,0.966936,1.091758,-1.062268,1.492231,1.338245
346,2.883333,-1.021854,1.495712,1.424426,-1.195198,1.482551,1.076677,-1.010784,0.980060,1.438672,-1.185386,0.966939,1.091765,-1.062264,1.492235,1.338244
347,2.891667,-1.021852,1.495706,1.424427,-1.195188,1.482558,1.076672,-1.010799,0.980054,1.438661,-1.185392,0.966946,1.091749,-1.062261,1.492233,1.338243
348,2.900000,-1.021815,1.495775,1.424443,-1.195215,1.482584,1.076722,-1.010746,0.980124,1.438731,-1.185404,0.966974,1.091853,-1.062239,1.492291,1.338268
349,2.908333,-1.021853,1.495712,1.424419,-1.195188,1.482538,1.076665,-1.010811,0.980060,1.438696,-1.185403,0.966927,1.091785,-1.062261,1.492232,1.338236
350,2.916667,-1.021816,1.495756,1.424415,-1.195145,1.482567,1.076658,-1.010761,0.980106,1.438709,-1.185348,0.966957,1.091795,-1.062223,1.492273,1.338231
351,2.925000,-1.021866,1.495715,1.424427,-1.195199,1.482567,1.076671,-1.010815,0.980063,1.438663,-1.185406,0.966955,1.091750,-1.062274,1.492242,1.338243
352,2.933333,-1.021870,1.495705,1.424428,-1.195189,1.482567,1.076664,-1.010831,0.980052,1.438654,-1.185408,0.966954,1.091734,-1.062274,1.492234,1.338243
353,2.941667,-1.021811,1.495755,1.424410,-1.195147,1.482574,1.076657,-1.010782,0.980104,1.438706,-1.185376,0.966963,1.091796,-1.062219,1.492274,1.338227
354,2.950000,-1.021872,1.495715,1.424425,-1.195202,1.482572,1.076667,-1.010827,0.980063,1.438657,-1.185414,0.966959,1.091742,-1.062279,1.492243,1.338241
355,2.958333,-1.021880,1.495709,1.424427,-1.195194,1.482564,1.076662,-1.010829,0.980057,1.438659,-1.185401,0.966951,1.091736,-1.062283,1.492237,1.338241
356,2.966667,-1.021828,1.495762,1.424408,-1.195134,1.482576,1.076640,-1.010805,0.980111,1.438714,-1.185369,0.966965,1.091789,-1.062229,1.492279,1.338222
357,2.975000,-1.021860,1.495776,1.424446,-1.195200,1.482590,1.076696,-1.010774,0.980126,1.438721,-1.185373,0.966980,1.091813,-1.062269,1.492294,1.338264
358,2.983333,-1.021883,1.495724,1.424421,-1.195188,1.482584,1.076651,-1.010840,0.980072,1.438649,-1.185404,0.966971,1.091721,-1.062284,1.492253,1.338234
359,2.991667,-1.021873,1.495723,1.424412,-1.195206,1.482569,1.076657,-1.010828,0.980071,1.438659,-1.185418,0.966957,1.091746,-1.062281,1.492248,1.338229
360,3.000000,-1.021849,1.495779,1.424439,-1.195212,1.482591,1.076700,-1.010772,0.980129,1.438722,-1.185392,0.966980,1.091825,-1.062264,1.492296,1.338260
361,3.008333,-1.021865,1.495795,1.424456,-1.195240,1.482599,1.076723,-1.010775,0.980145,1.438742,-1.185408,0.966989,1.091852,-1.062283,1.492310,1.338278
362,3.016667,-1.021880,1.495718,1.424407,-1.195221,1.482576,1.076656,-1.010822,0.980066,1.438630,-1.185421,0.966963,1.091721,-1.062290,1.492246,1.338225
363,3.025000,-1.021818,1.495764,1.424408,-1.195165,1.482578,1.076661,-1.010807,0.980114,1.438721,-1.185411,0.966967,1.091816,-1.062229,1.492281,1.338227
364,3.033333,-1.021855,1.495793,1.424441,-1.195221,1.482601,1.076703,-1.010779,0.980142,1.438728,-1.185402,0.966990,1.091833,-1.062271,1.492308,1.338262
365,3.041667,-1.021882,1.495723,1.424416,-1.195208,1.482588,1.076657,-1.010825,0.980070,1.438629,-1.185409,0.966975,1.091712,-1.062288,1.492253,1.338232
366,3.050000,-1.021845,1.495836,1.424460,-1.195242,1.482594,1.076740,-1.010760,0.980188,1.438818,-1.185415,0.966986,1.091941,-1.062268,1.492340,1.338285
367,3.058333,-1.021845,1.495762,1.424415,-1.195175,1.482574,1.076659,-1.010771,0.980111,1.438698,-1.185359,0.966963,1.091784,-1.062252,1.492279,1.338231
368,3.066667,-1.021835,1.495828,1.424469,-1.195240,1.482583,1.076753,-1.010716,0.980181,1.438814,-1.185379,0.966975,1.091941,-1.062261,1.492331,1.338295
369,3.075000,-1.021895,1.495723,1.424424,-1.195210,1.482587,1.076659,-1.010853,0.980071,1.438647,-1.185426,0.966974,1.091725,-1.062298,1.492253,1.338238
370,3.083333,-1.021898,1.495732,1.424415,-1.195210,1.482601,1.076648,-1.010830,0.980079,1.438617,-1.185399,0.966988,1.091692,-1.062300,1.492263,1.338229
371,3.091667,-1.021885,1.495715,1.424418,-1.195226,1.482559,1.076667,-1.010832,0.980063,1.438665,-1.185431,0.966947,1.091757,-1.062295,1.492240,1.338236
372,3.100000,-1.021840,1.495762,1.424421,-1.195192,1.482579,1.076676,-1.010787,0.980111,1.438707,-1.185396,0.966968,1.091804,-1.062252,1.492280,1.338240
373,3.108333,-1.021888,1.495718,1.424421,-1.195206,1.482581,1.076657,-1.010834,0.980066,1.438640,-1.185409,0.966968,1.091718,-1.062292,1.492248,1.338236
374,3.116667,-1.021894,1.495721,1.424424,-1.195214,1.482583,1.076661,-1.010821,0.980068,1.438635,-1.185400,0.966970,1.091715,-1.062298,1.492250,1.338239
375,3.125000,-1.021885,1.495720,1.424417,-1.195196,1.482572,1.076650,-1.010818,0.980068,1.438644,-1.185387,0.966960,1.091720,-1.062287,1.492247,1.338231
376,3.133333,-1.021798,1.495751,1.424404,-1.195172,1.482579,1.076669,-1.010774,0.980100,1.438688,-1.185406,0.966967,1.091797,-1.062216,1.492272,1.338225
377,3.141667,-1.021819,1.495825,1.424468,-1.195236,1.482605,1.076757,-1.010766,0.980176,1.438808,-1.185441,0.966996,1.091940,-1.062247,1.492334,1.338295
378,3.150000,-1.021843,1.495767,1.424408,-1.195165,1.482578,1.076649,-1.010785,0.980116,1.438701,-1.185364,0.966968,1.091784,-1.062248,1.492284,1.338224
379,3.158333,-1.021809,1.495758,1.424399,-1.195173,1.482579,1.076660,-1.010824,0.980107,1.438713,-1.185445,0.966968,1.091816,-1.062225,1.492277,1.338220
380,3.166667,-1.021881,1.495718,1.424428,-1.195205,1.482562,1.076668,-1.010834,0.980067,1.438678,-1.185416,0.966950,1.091761,-1.062286,1.492243,1.338244
381,3.175000,-1.021879,1.495718,1.424427,-1.195186,1.482599,1.076657,-1.010839,0.980064,1.438625,-1.185403,0.966985,1.091698,-1.062280,1.492251,1.338240
382,3.183333,-1.021809,1.495758,1.424406,-1.195170,1.482580,1.076665,-1.010773,0.980107,1.438693,-1.185391,0.966969,1.091795,-1.062224,1.492277,1.338226
383,3.191667,-1.021883,1.495723,1.424424,-1.195193,1.482586,1.076656,-1.010841,0.980070,1.438648,-1.185408,0.966973,1.091723,-1.062285,1.492252,1.338238
384,3.200000,-1.021799,1.495820,1.424464,-1.195261,1.482598,1.076775,-1.010720,0.980171,1.438794,-1.185440,0.966988,1.091949,-1.062239,1.492329,1.338296
385,3.208333,-1.021817,1.495765,1.424406,-1.195145,1.482586,1.076649,-1.010802,0.980114,1.438706,-1.185387,0.966975,1.091791,-1.062224,1.492284,1.338223
386,3.216667,-1.021823,1.495759,1.424406,-1.195172,1.482585,1.076660,-1.010801,0.980107,1.438695,-1.185409,0.966973,1.091791,-1.062234,1.492279,1.338225
387,3.225000,-1.021862,1.495725,1.424420,-1.195205,1.482573,1.076669,-1.010824,0.980073,1.438668,-1.185424,0.966961,1.091760,-1.062272,1.492251,1.338238
388,3.233333,-1.021795,1.495759,1.424394,-1.195159,1.482578,1.076655,-1.010796,0.980108,1.438705,-1.185417,0.966967,1.091808,-1.062211,1.492277,1.338215
389,3.241667,-1.021877,1.495720,1.424412,-1.195194,1.482568,1.076648,-1.010832,0.980068,1.438657,-1.185406,0.966956,1.091735,-1.062281,1.492246,1.338226
390,3.250000,-1.021777,1.495748,1.424389,-1.195165,1.482577,1.076661,-1.010769,0.980097,1.438679,-1.185414,0.966965,1.091795,-1.062198,1.492269,1.338212
391,3.258333,-1.021865,1.495721,1.424418,-1.195197,1.482572,1.076662,-1.010818,0.980069,1.438657,-1.185408,0.966960,1.091744,-1.062272,1.492248,1.338235
392,3.266667,-1.021870,1.495726,1.424412,-1.195186,1.482579,1.076648,-1.010817,0.980074,1.438646,-1.185391,0.966966,1.091725,-1.062273,1.492253,1.338227
393,3.275000,-1.021868,1.495717,1.424411,-1.195193,1.482581,1.076650,-1.010830,0.980064,1.438635,-1.185413,0.966967,1.091718,-1.062274,1.492247,1.338226
394,3.283333,-1.021872,1.495710,1.424412,-1.195189,1.482583,1.076647,-1.010828,0.980057,1.438619,-1.185402,0.966970,1.091696,-1.062276,1.492242,1.338226
395,3.291667,-1.021822,1.495838,1.424463,-1.195219,1.482592,1.076742,-1.010727,0.980191,1.438821,-1.185382,0.966984,1.091943,-1.062246,1.492341,1.338288
396,3.300000,-1.021866,1.495713,1.424410,-1.195188,1.482577,1.076648,-1.010825,0.980060,1.438633,-1.185405,0.966964,1.091713,-1.062271,1.492243,1.338225
397,3.308333,-1.021858,1.495712,1.424410,-1.195184,1.482565,1.076651,-1.010823,0.980060,1.438653,-1.185407,0.966952,1.091736,-1.062264,1.492239,1.338226
398,3.316667,-1.021846,1.495777,1.424428,-1.195188,1.482574,1.076679,-1.010787,0.980128,1.438741,-1.185387,0.966964,1.091834,-1.062256,1.492290,1.338246
399,3.325000,-1.021867,1.495786,1.424433,-1.195189,1.482572,1.076674,-1.010783,0.980137,1.438750,-1.185363,0.966963,1.091834,-1.062272,1.492297,1.338249
400,3.333333,-1.021877,1.495710,1.424411,-1.195198,1.482555,1.076649,-1.010831,0.980058,1.438659,-1.185410,0.966943,1.091740,-1.062281,1.492235,1.338226
401,3.341667,-1.021816,1.495750,1.424404,-1.195185,1.482578,1.076667,-1.010773,0.980098,1.438679,-1.185400,0.966966,1.091784,-1.062233,1.492270,1.338225
402,3.350000,-1.021818,1.495757,1.424399,-1.195184,1.482563,1.076661,-1.010792,0.980106,1.438715,-1.185416,0.966952,1.091820,-1.062234,1.492272,1.338220
403,3.358333,-1.021821,1.495762,1.424401,-1.195181,1.482578,1.076660,-1.010763,0.980112,1.438686,-1.185381,0.966967,1.091787,-1.062235,1.492280,1.338221
404,3.366667,-1.021831,1.495771,1.424422,-1.195186,1.482579,1.076678,-1.010773,0.980121,1.438718,-1.185385,0.966969,1.091817,-1.062244,1.492287,1.338241
405,3.375000,-1.021790,1.495752,1.424382,-1.195144,1.482560,1.076639,-1.010812,0.980101,1.438719,-1.185424,0.966949,1.091818,-1.062203,1.492268,1.338202
406,3.383333,-1.021864,1.495704,1.424414,-1.195183,1.482561,1.076651,-1.010822,0.980052,1.438646,-1.185399,0.966948,1.091726,-1.062268,1.492232,1.338229
407,3.391667,-1.021814,1.495741,1.424411,-1.195176,1.482566,1.076671,-1.010759,0.980090,1.438685,-1.185378,0.966954,1.091787,-1.062229,1.492261,1.338231
408,3.400000,-1.021785,1.495825,1.424455,-1.195219,1.482576,1.076753,-1.010713,0.980177,1.438829,-1.185405,0.966968,1.091970,-1.062218,1.492327,1.338284
409,3.408333,-1.021811,1.495760,1.424398,-1.195174,1.482579,1.076658,-1.010798,0.980109,1.438702,-1.185418,0.966968,1.091805,-1.062226,1.492279,1.338219
410,3.416667,-1.021832,1.495764,1.424416,-1.195169,1.482590,1.076663,-1.010815,0.980113,1.438707,-1.185410,0.966979,1.091797,-1.062241,1.492284,1.338233
411,3.425000,-1.021862,1.495714,1.424414,-1.195199,1.482577,1.076660,-1.010822,0.980062,1.438639,-1.185417,0.966964,1.091728,-1.062271,1.492244,1.338231
412,3.433333,-1.021792,1.495825,1.424455,-1.195224,1.482579,1.076752,-1.010709,0.980177,1.438820,-1.185399,0.966971,1.091960,-1.062224,1.492328,1.338284
413,3.441667,-1.021800,1.495743,1.424413,-1.195148,1.482573,1.076666,-1.010752,0.980092,1.438684,-1.185358,0.966961,1.091779,-1.062211,1.492264,1.338232
414,3.450000,-1.021864,1.495715,1.424428,-1.195177,1.482574,1.076662,-1.010803,0.980063,1.438648,-1.185374,0.966961,1.091725,-1.062267,1.492244,1.338242
415,3.458333,-1.021813,1.495761,1.424407,-1.195161,1.482580,1.076660,-1.010801,0.980110,1.438710,-1.185407,0.966969,1.091806,-1.062225,1.492279,1.338225
416,3.466667,-1.021816,1.495755,1.424417,-1.195172,1.482588,1.076673,-1.010782,0.980103,1.438689,-1.185396,0.966976,1.091788,-1.062230,1.492277,1.338236
417,3.475000,-1.021802,1.495754,1.424411,-1.195176,1.482583,1.076676,-1.010763,0.980103,1.438686,-1.185394,0.966971,1.091794,-1.062220,1.492275,1.338233
418,3.483333,-1.021834,1.495776,1.424435,-1.195180,1.482582,1.076687,-1.010767,0.980126,1.438730,-1.185370,0.966972,1.091825,-1.062245,1.492292,1.338253
419,3.491667,-1.021858,1.495784,1.424442,-1.195172,1.482581,1.076678,-1.010775,0.980135,1.438744,-1.185347,0.966971,1.091823,-1.062261,1.492298,1.338256
420,3.500000,-1.021788,1.495831,1.424454,-1.195210,1.482587,1.076746,-1.010708,0.980183,1.438817,-1.185387,0.966979,1.091951,-1.062218,1.492334,1.338281
421,3.508333,-1.021794,1.495752,1.424402,-1.195164,1.482573,1.076666,-1.010773,0.980101,1.438698,-1.185401,0.966962,1.091805,-1.062211,1.492271,1.338224
422,3.516667,-1.021816,1.495758,1.424420,-1.195169,1.482593,1.076675,-1.010780,0.980106,1.438689,-1.185391,0.966981,1.091786,-1.062229,1.492280,1.338239
423,3.525000,-1.021786,1.495819,1.424456,-1.195195,1.482574,1.076742,-1.010725,0.980171,1.438831,-1.185391,0.966965,1.091959,-1.062212,1.492322,1.338283
424,3.533333,-1.021846,1.495711,1.424409,-1.195189,1.482558,1.076659,-1.010814,0.980059,1.438662,-1.185416,0.966946,1.091754,-1.062256,1.492237,1.338227
425,3.541667,-1.021852,1.495719,1.424417,-1.195174,1.482577,1.076656,-1.010805,0.980066,1.438646,-1.185385,0.966964,1.091727,-1.062257,1.492247,1.338232
426,3.550000,-1.021863,1.495723,1.424414,-1.195184,1.482581,1.076652,-1.010802,0.980071,1.438637,-1.185381,0.966968,1.091717,-1.062267,1.492252,1.338229
427,3.558333,-1.021824,1.495820,1.424455,-1.195018,1.482718,1.076629,-1.010781,0.980166,1.438629,-1.185234,0.967103,1.091645,-1.062197,1.492358,1.338255
428,3.566667,-1.021812,1.495824,1.424455,-1.195004,1.482725,1.076627,-1.010798,0.980169,1.438637,-1.185248,0.967111,1.091651,-1.062185,1.492362,1.338255
429,3.575000,-1.021812,1.495817,1.424449,-1.195004,1.482712,1.076622,-1.010779,0.980163,1.438631,-1.185230,0.967098,1.091646,-1.062184,1.492354,1.338249
430,3.583333,-1.021844,1.495744,1.424408,-1.195126,1.482611,1.076626,-1.010841,0.980091,1.438645,-1.185381,0.966998,1.091706,-1.062239,1.492274,1.338219
431,3.591667,-1.021805,1.495821,1.424445,-1.195025,1.482723,1.076631,-1.010780,0.980167,1.438621,-1.185257,0.967108,1.091649,-1.062185,1.492360,1.338248
432,3.600000,-1.021823,1.495823,1.424451,-1.195013,1.482717,1.076622,-1.010801,0.980169,1.438642,-1.185250,0.967102,1.091655,-1.062195,1.492360,1.338250
433,3.608333,-1.021812,1.495815,1.424454,-1.195027,1.482712,1.076637,-1.010790,0.980161,1.438639,-1.185263,0.967097,1.091664,-1.062190,1.492353,1.338256
434,3.616667,-1.021774,1.495813,1.424437,-1.195045,1.482706,1.076648,-1.010762,0.980159,1.438630,-1.185290,0.967092,1.091684,-1.062166,1.492350,1.338245
435,3.625000,-1.021843,1.495863,1.424494,-1.194992,1.482718,1.076646,-1.010721,0.980212,1.438692,-1.185128,0.967106,1.091687,-1.062205,1.492391,1.338289
436,3.633333,-1.021848,1.495751,1.424415,-1.195110,1.482645,1.076623,-1.010840,0.980097,1.438612,-1.185360,0.967030,1.091661,-1.062238,1.492288,1.338223
437,3.641667,-1.021850,1.495744,1.424415,-1.195112,1.482623,1.076623,-1.010845,0.980090,1.438635,-1.185365,0.967009,1.091685,-1.062240,1.492277,1.338223
438,3.650000,-1.021826,1.495816,1.424461,-1.195033,1.482696,1.076642,-1.010799,0.980162,1.438669,-1.185264,0.967082,1.091692,-1.062202,1.492349,1.338263
439,3.658333,-1.021813,1.495827,1.424454,-1.195038,1.482703,1.076644,-1.010769,0.980174,1.438659,-1.185253,0.967090,1.091691,-1.062194,1.492360,1.338258
440,3.666667,-1.021857,1.495749,1.424410,-1.195118,1.482638,1.076617,-1.010855,0.980095,1.438616,-1.185375,0.967023,1.091665,-1.062247,1.492284,1.338217
441,3.675000,-1.021811,1.495833,1.424453,-1.195049,1.482715,1.076649,-1.010771,0.980179,1.438650,-1.185267,0.967102,1.091687,-1.062196,1.492367,1.338259
442,3.683333,-1.021852,1.495748,1.424410,-1.195122,1.482636,1.076621,-1.010861,0.980094,1.438623,-1.185389,0.967022,1.091677,-1.062244,1.492284,1.338219
443,3.691667,-1.021859,1.495758,1.424414,-1.195129,1.482643,1.076625,-1.010844,0.980104,1.438618,-1.185372,0.967029,1.091672,-1.062251,1.492293,1.338223
444,3.700000,-1.021852,1.495751,1.424413,-1.195134,1.482630,1.076630,-1.010855,0.980097,1.438635,-1.185395,0.967016,1.091695,-1.062247,1.492284,1.338223
445,3.708333,-1.021821,1.495839,1.424454,-1.195033,1.482722,1.076637,-1.010782,0.980186,1.438652,-1.185251,0.967108,1.091676,-1.062199,1.492373,1.338256
446,3.716667,-1.021816,1.495862,1.424493,-1.195005,1.482734,1.076665,-1.010747,0.980210,1.438693,-1.185195,0.967120,1.091707,-1.062188,1.492394,1.338293
447,3.725000,-1.021828,1.495865,1.424495,-1.194987,1.482739,1.076652,-1.010777,0.980212,1.438701,-1.185195,0.967125,1.091700,-1.062192,1.492397,1.338291
448,3.733333,-1.021805,1.495818,1.424455,-1.195029,1.482713,1.076643,-1.010791,0.980164,1.438647,-1.185273,0.967099,1.091677,-1.062186,1.492356,1.338259
449,3.741667,-1.021820,1.495826,1.424459,-1.195023,1.482724,1.076637,-1.010804,0.980172,1.438646,-1.185265,0.967109,1.091666,-1.062196,1.492364,1.338260
450,3.750000,-1.021833,1.495870,1.424494,-1.194976,1.482750,1.076643,-1.010769,0.980217,1.438684,-1.185171,0.967136,1.091675,-1.062193,1.492404,1.338288
451,3.758333,-1.021812,1.495841,1.424469,-1.195008,1.482736,1.076643,-1.010794,0.980187,1.438659,-1.185248,0.967121,1.091675,-1.062186,1.492378,1.338269
452,3.766667,-1.021817,1.495870,1.424489,-1.194956,1.482768,1.076635,-1.010762,0.980216,1.438656,-1.185159,0.967154,1.091644,-1.062177,1.492408,1.338283
453,3.775000,-1.021827,1.495875,1.424489,-1.194960,1.482749,1.076633,-1.010775,0.980222,1.438694,-1.185167,0.967135,1.091681,-1.062185,1.492407,1.338282
454,3.783333,-1.021815,1.495830,1.424466,-1.195011,1.482732,1.076640,-1.010789,0.980175,1.438642,-1.185243,0.967117,1.091658,-1.062189,1.492369,1.338266
455,3.791667,-1.021804,1.495820,1.424451,-1.195034,1.482713,1.076642,-1.010808,0.980165,1.438654,-1.185295,0.967098,1.091688,-1.062186,1.492356,1.338255
456,3.800000,-1.021830,1.495884,1.424497,-1.194978,1.482728,1.076649,-1.010726,0.980232,1.438720,-1.185131,0.967116,1.091714,-1.062192,1.492409,1.338292
457,3.808333,-1.021855,1.495749,1.424417,-1.195146,1.482629,1.076639,-1.010842,0.980096,1.438631,-1.185392,0.967015,1.091696,-1.062252,1.492283,1.338228
458,3.816667,-1.021814,1.495767,1.424400,-1.195136,1.482567,1.076641,-1.010759,0.980117,1.438710,-1.185340,0.966957,1.091794,-1.062219,1.492281,1.338216
459,3.825000,-1.021853,1.495728,1.424409,-1.195176,1.482585,1.076648,-1.010813,0.980075,1.438643,-1.185394,0.966972,1.091724,-1.062258,1.492255,1.338224
460,3.833333,-1.021861,1.495719,1.424415,-1.195193,1.482585,1.076658,-1.010806,0.980066,1.438628,-1.185396,0.966972,1.091714,-1.062268,1.492249,1.338232
461,3.841667,-1.021789,1.495840,1.424444,-1.195235,1.482603,1.076747,-1.010728,0.980192,1.438806,-1.185432,0.966994,1.091953,-1.062225,1.492345,1.338274
462,3.850000,-1.021862,1.495718,1.424412,-1.195193,1.482584,1.076655,-1.010818,0.980066,1.438631,-1.185407,0.966971,1.091716,-1.062269,1.492249,1.338229
463,3.858333,-1.021795,1.495763,1.424386,-1.195155,1.482569,1.076645,-1.010763,0.980113,1.438699,-1.185380,0.966958,1.091800,-1.062209,1.492278,1.338206
464,3.866667,-1.021855,1.495740,1.424406,-1.195202,1.482572,1.076658,-1.010788,0.980089,1.438664,-1.185393,0.966960,1.091759,-1.062266,1.492262,1.338224
465,3.875000,-1.021865,1.495739,1.424410,-1.195198,1.482588,1.076655,-1.010790,0.980087,1.438639,-1.185381,0.966976,1.091726,-1.062272,1.492265,1.338227
466,3.883333,-1.021811,1.495840,1.424456,-1.195239,1.482594,1.076752,-1.010732,0.980192,1.438823,-1.185417,0.966985,1.091962,-1.062242,1.492343,1.338285
467,3.891667,-1.021820,1.495769,1.424395,-1.195162,1.482574,1.076645,-1.010769,0.980119,1.438700,-1.185369,0.966964,1.091793,-1.062230,1.492284,1.338213
468,3.900000,-1.021868,1.495741,1.424405,-1.195203,1.482599,1.076650,-1.010783,0.980089,1.438616,-1.185376,0.966986,1.091703,-1.062276,1.492269,1.338222
469,3.908333,-1.021835,1.495786,1.424426,-1.195220,1.482584,1.076698,-1.010769,0.980136,1.438733,-1.185412,0.966974,1.091848,-1.062256,1.492300,1.338249
470,3.916667,-1.021794,1.495779,1.424421,-1.195227,1.482603,1.076716,-1.010733,0.980128,1.438692,-1.185423,0.966992,1.091830,-1.062227,1.492299,1.338249
471,3.925000,-1.021874,1.495731,1.424407,-1.195195,1.482584,1.076646,-1.010810,0.980079,1.438635,-1.185390,0.966971,1.091717,-1.062279,1.492258,1.338222
472,3.933333,-1.021820,1.495782,1.424412,-1.195241,1.482590,1.076702,-1.010740,0.980132,1.438698,-1.185419,0.966979,1.091831,-1.062249,1.492298,1.338239
473,3.941667,-1.021871,1.495734,1.424406,-1.195200,1.482579,1.076648,-1.010814,0.980082,1.438649,-1.185400,0.966966,1.091734,-1.062278,1.492259,1.338222
474,3.950000,-1.021836,1.495773,1.424398,-1.195181,1.482577,1.076649,-1.010747,0.980123,1.438686,-1.185349,0.966966,1.091781,-1.062246,1.492288,1.338216
475,3.958333,-1.021879,1.495731,1.424405,-1.195204,1.482579,1.076645,-1.010810,0.980080,1.438639,-1.185393,0.966967,1.091722,-1.062284,1.492257,1.338221
476,3.966667,-1.021876,1.495737,1.424402,-1.195209,1.482595,1.076647,-1.010808,0.980085,1.438620,-1.185399,0.966983,1.091707,-1.062283,1.492266,1.338219
477,3.975000,-1.021885,1.495729,1.424410,-1.195199,1.482594,1.076644,-1.010832,0.980076,1.438625,-1.185404,0.966981,1.091701,-1.062288,1.492259,1.338224
478,3.983333,-1.021803,1.495779,1.424402,-1.195240,1.482585,1.076699,-1.010740,0.980129,1.438697,-1.185434,0.966975,1.091838,-1.062236,1.492294,1.338231
479,3.991667,-1.021878,1.495724,1.424405,-1.195193,1.482573,1.076640,-1.010819,0.980072,1.438640,-1.185391,0.966961,1.091717,-1.062281,1.492250,1.338219
480,4.000000,-1.021878,1.495733,1.424404,-1.195206,1.482575,1.076646,-1.010814,0.980081,1.438648,-1.185400,0.966963,1.091733,-1.062284,1.492257,1.338220
481,4.008333,-1.021871,1.495739,1.424398,-1.195221,1.482570,1.076652,-1.010812,0.980087,1.438660,-1.185420,0.966959,1.091756,-1.062283,1.492260,1.338217
482,4.016667,-1.021837,1.495763,1.424395,-1.195172,1.482568,1.076642,-1.010793,0.980112,1.438703,-1.185385,0.966957,1.091793,-1.062246,1.492278,1.338212
483,4.025000,-1.021875,1.495732,1.424401,-1.195212,1.482565,1.076648,-1.010804,0.980081,1.438654,-1.185400,0.966954,1.091744,-1.062284,1.492254,1.338218
484,4.033333,-1.021801,1.495775,1.424415,-1.195245,1.482586,1.076717,-1.010746,0.980124,1.438709,-1.185447,0.966975,1.091853,-1.062236,1.492291,1.338245
485,4.041667,-1.021869,1.495727,1.424404,-1.195208,1.482585,1.076651,-1.010811,0.980074,1.438626,-1.185408,0.966972,1.091716,-1.062278,1.492255,1.338221
486,4.050000,-1.021878,1.495730,1.424398,-1.195200,1.482575,1.076637,-1.010810,0.980079,1.438636,-1.185390,0.966963,1.091717,-1.062283,1.492255,1.338213
487,4.058333,-1.021868,1.495723,1.424406,-1.195207,1.482577,1.076653,-1.010816,0.980071,1.438638,-1.185413,0.966965,1.091727,-1.062277,1.492250,1.338224
488,4.066667,-1.021796,1.495781,1.424417,-1.195221,1.482588,1.076708,-1.010746,0.980131,1.438718,-1.185428,0.966978,1.091853,-1.062226,1.492297,1.338244
489,4.075000,-1.021769,1.495829,1.424441,-1.195264,1.482581,1.076770,-1.010667,0.980181,1.438797,-1.185419,0.966973,1.091969,-1.062217,1.492331,1.338278
490,4.083333,-1.021867,1.495729,1.424402,-1.195215,1.482567,1.076654,-1.010789,0.980078,1.438645,-1.185395,0.966955,1.091740,-1.062278,1.492252,1.338220
491,4.091667,-1.021828,1.495775,1.424393,-1.195160,1.482575,1.076640,-1.010756,0.980125,1.438696,-1.185346,0.966965,1.091785,-1.062235,1.492289,1.338210
492,4.100000,-1.021858,1.495729,1.424408,-1.195208,1.482570,1.076661,-1.010802,0.980077,1.438656,-1.185410,0.966958,1.091752,-1.062270,1.492253,1.338226
493,4.108333,-1.021864,1.495730,1.424405,-1.195199,1.482573,1.076651,-1.010789,0.980079,1.438642,-1.185382,0.966961,1.091731,-1.062272,1.492255,1.338222
494,4.116667,-1.021858,1.495727,1.424414,-1.195184,1.482592,1.076654,-1.010803,0.980075,1.438630,-1.185387,0.966978,1.091712,-1.062264,1.492257,1.338229
495,4.125000,-1.021860,1.495730,1.424412,-1.195190,1.482575,1.076655,-1.010799,0.980078,1.438653,-1.185386,0.966963,1.091739,-1.062267,1.492255,1.338228
496,4.133333,-1.021788,1.495782,1.424416,-1.195221,1.482589,1.076711,-1.010731,0.980132,1.438714,-1.185421,0.966978,1.091853,-1.062221,1.492298,1.338244
497,4.141667,-1.021857,1.495718,1.424407,-1.195192,1.482562,1.076653,-1.010811,0.980066,1.438658,-1.185404,0.966949,1.091746,-1.062265,1.492242,1.338224
498,4.150000,-1.021855,1.495727,1.424409,-1.195183,1.482586,1.076650,-1.010789,0.980075,1.438628,-1.185375,0.966973,1.091712,-1.062261,1.492256,1.338225
499,4.158333,-1.021763,1.495827,1.424443,-1.195240,1.482579,1.076763,-1.010691,0.980179,1.438814,-1.185426,0.966971,1.091977,-1.062206,1.492329,1.338277
500,4.166667,-1.021823,1.495765,1.424397,-1.195138,1.482568,1.076634,-1.010776,0.980115,1.438707,-1.185349,0.966957,1.091787,-1.062227,1.492280,1.338212
501,4.175000,-1.021846,1.495723,1.424403,-1.195201,1.482581,1.076658,-1.010792,0.980071,1.438628,-1.185405,0.966968,1.091726,-1.062259,1.492251,1.338222
502,4.183333,-1.021829,1.495775,1.424394,-1.195133,1.482574,1.076626,-1.010803,0.980125,1.438721,-1.185365,0.966964,1.091795,-1.062230,1.492289,1.338208
503,4.191667,-1.021861,1.495732,1.424408,-1.195184,1.482584,1.076647,-1.010824,0.980080,1.438650,-1.185405,0.966971,1.091732,-1.062266,1.492259,1.338223
504,4.200000,-1.021772,1.495825,1.424445,-1.195247,1.482581,1.076764,-1.010688,0.980177,1.438805,-1.185421,0.966973,1.091967,-1.062215,1.492328,1.338279
505,4.208333,-1.021851,1.495722,1.424405,-1.195197,1.482565,1.076656,-1.010800,0.980070,1.438654,-1.185403,0.966952,1.091747,-1.062262,1.492246,1.338223
506,4.216667,-1.021791,1.495776,1.424411,-1.195226,1.482591,1.076708,-1.010741,0.980125,1.438701,-1.185434,0.966980,1.091841,-1.062224,1.492293,1.338240
507,4.225000,-1.021787,1.495780,1.424412,-1.195222,1.482591,1.076708,-1.010742,0.980129,1.438709,-1.185434,0.966980,1.091849,-1.062220,1.492296,1.338240
508,4.233333,-1.021851,1.495720,1.424400,-1.195190,1.482577,1.076647,-1.010797,0.980068,1.438627,-1.185394,0.966964,1.091716,-1.062260,1.492248,1.338217
509,4.241667,-1.021871,1.495729,1.424413,-1.195195,1.482581,1.076653,-1.010810,0.980077,1.438644,-1.185393,0.966968,1.091726,-1.062276,1.492255,1.338229
510,4.250000,-1.021797,1.495776,1.424408,-1.195234,1.482586,1.076705,-1.010753,0.980125,1.438707,-1.185448,0.966975,1.091848,-1.062230,1.492292,1.338237
511,4.258333,-1.021864,1.495722,1.424407,-1.195195,1.482571,1.076650,-1.010812,0.980070,1.438646,-1.185401,0.966959,1.091732,-1.062271,1.492248,1.338223
512,4.266667,-1.021861,1.495728,1.424409,-1.195186,1.482573,1.076649,-1.010801,0.980076,1.438651,-1.185384,0.966961,1.091734,-1.062267,1.492253,1.338224
513,4.275000,-1.021867,1.495722,1.424411,-1.195194,1.482580,1.076652,-1.010804,0.980070,1.438632,-1.185389,0.966967,1.091715,-1.062273,1.492250,1.338227
514,4.283333,-1.021864,1.495731,1.424407,-1.195198,1.482579,1.076652,-1.010815,0.980079,1.438650,-1.185407,0.966966,1.091738,-1.062272,1.492257,1.338224
515,4.291667,-1.021873,1.495725,1.424410,-1.195194,1.482573,1.076649,-1.010798,0.980073,1.438641,-1.185377,0.966961,1.091722,-1.062278,1.492251,1.338226
516,4.300000,-1.021797,1.495816,1.424443,-1.195241,1.482575,1.076746,-1.010701,0.980168,1.438793,-1.185403,0.966967,1.091939,-1.062232,1.492320,1.338273
517,4.308333,-1.021879,1.495720,1.424411,-1.195199,1.482573,1.076649,-1.010811,0.980068,1.438638,-1.185389,0.966961,1.091718,-1.062283,1.492247,1.338226
518,4.316667,-1.021773,1.495819,1.424435,-1.195252,1.482573,1.076755,-1.010690,0.980171,1.438798,-1.185426,0.966965,1.091962,-1.062217,1.492322,1.338269
519,4.325000,-1.021861,1.495722,1.424407,-1.195202,1.482576,1.076655,-1.010817,0.980070,1.438643,-1.185416,0.966963,1.091733,-1.062270,1.492249,1.338224
520,4.333333,-1.021873,1.495726,1.424408,-1.195200,1.482581,1.076648,-1.010800,0.980074,1.438628,-1.185385,0.966969,1.091712,-1.062279,1.492254,1.338223
521,4.341667,-1.021871,1.495728,1.424398,-1.195209,1.482557,1.076646,-1.010806,0.980077,1.438660,-1.185401,0.966946,1.091750,-1.062280,1.492249,1.338216
522,4.350000,-1.021872,1.495722,1.424414,-1.195190,1.482575,1.076651,-1.010820,0.980070,1.438648,-1.185396,0.966963,1.091727,-1.062276,1.492249,1.338229
523,4.358333,-1.021867,1.495722,1.424408,-1.195198,1.482568,1.076651,-1.010810,0.980070,1.438650,-1.185399,0.966955,1.091736,-1.062274,1.492247,1.338224
524,4.366667,-1.021866,1.495721,1.424406,-1.195189,1.482571,1.076645,-1.010802,0.980069,1.438638,-1.185382,0.966959,1.091719,-1.062271,1.492247,1.338222
525,4.375000,-1.021767,1.495818,1.424433,-1.195248,1.482568,1.076755,-1.010691,0.980170,1.438805,-1.185429,0.966960,1.091970,-1.062211,1.492319,1.338268
526,4.383333,-1.021817,1.495767,1.424443,-1.195250,1.482592,1.076737,-1.010735,0.980116,1.438702,-1.185426,0.966981,1.091840,-1.062249,1.492287,1.338271
527,4.391667,-1.021869,1.495733,1.424398,-1.195204,1.482587,1.076643,-1.010813,0.980081,1.438628,-1.185405,0.966974,1.091716,-1.062277,1.492260,1.338215
528,4.400000,-1.021861,1.495727,1.424405,-1.195206,1.482567,1.076656,-1.010808,0.980076,1.438658,-1.185410,0.966955,1.091751,-1.062271,1.492251,1.338224
529,4.408333,-1.021862,1.495777,1.424391,-1.195143,1.482566,1.076612,-1.010786,0.980128,1.438707,-1.185325,0.966957,1.091771,-1.062256,1.492288,1.338202
530,4.416667,-1.021782,1.495818,1.424444,-1.195249,1.482577,1.076759,-1.010693,0.980170,1.438797,-1.185418,0.966969,1.091954,-1.062223,1.492322,1.338277
531,4.425000,-1.021798,1.495778,1.424434,-1.195260,1.482595,1.076743,-1.010722,0.980128,1.438707,-1.185441,0.966985,1.091859,-1.062238,1.492296,1.338266
532,4.433333,-1.021779,1.495819,1.424445,-1.195253,1.482589,1.076763,-1.010703,0.980171,1.438789,-1.185436,0.966980,1.091950,-1.062221,1.492326,1.338279
533,4.441667,-1.021871,1.495721,1.424413,-1.195199,1.482584,1.076654,-1.010813,0.980068,1.438627,-1.185398,0.966972,1.091711,-1.062278,1.492250,1.338228
534,4.450000,-1.021860,1.495727,1.424411,-1.195188,1.482589,1.076652,-1.010801,0.980074,1.438626,-1.185386,0.966977,1.091710,-1.062266,1.492256,1.338227
535,4.458333,-1.021859,1.495718,1.424403,-1.195203,1.482570,1.076652,-1.010815,0.980066,1.438643,-1.185416,0.966957,1.091735,-1.062269,1.492245,1.338221
536,4.466667,-1.021868,1.495731,1.424408,-1.195197,1.482582,1.076651,-1.010802,0.980079,1.438637,-1.185389,0.966970,1.091722,-1.062275,1.492257,1.338225
537,4.475000,-1.021813,1.495827,1.424465,-1.195232,1.482594,1.076756,-1.010727,0.980179,1.438809,-1.185405,0.966986,1.091942,-1.062242,1.492333,1.338293
538,4.483333,-1.021857,1.495718,1.424403,-1.195203,1.482585,1.076653,-1.010807,0.980065,1.438617,-1.185412,0.966972,1.091710,-1.062268,1.492248,1.338221
539,4.491667,-1.021858,1.495718,1.424408,-1.195209,1.482573,1.076661,-1.010811,0.980065,1.438641,-1.185421,0.966960,1.091737,-1.062270,1.492245,1.338226
540,4.500000,-1.021859,1.495720,1.424399,-1.195192,1.482584,1.076643,-1.010801,0.980067,1.438614,-1.185392,0.966971,1.091700,-1.062266,1.492249,1.338215
541,4.508333,-1.021797,1.495831,1.424460,-1.195242,1.482595,1.076763,-1.010708,0.980183,1.438805,-1.185410,0.966987,1.091951,-1.062232,1.492336,1.338290
542,4.516667,-1.021812,1.495779,1.424441,-1.195266,1.482605,1.076746,-1.010734,0.980128,1.438699,-1.185445,0.966994,1.091847,-1.062250,1.492299,1.338272
543,4.525000,-1.021836,1.495756,1.424392,-1.195133,1.482558,1.076620,-1.010774,0.980106,1.438696,-1.185329,0.966948,1.091767,-1.062235,1.492270,1.338205
544,4.533333,-1.021860,1.495712,1.424401,-1.195203,1.482560,1.076650,-1.010816,0.980060,1.438646,-1.185417,0.966948,1.091738,-1.062270,1.492238,1.338219
545,4.541667,-1.021864,1.495720,1.424407,-1.195199,1.482587,1.076652,-1.010808,0.980067,1.438617,-1.185402,0.966974,1.091705,-1.062272,1.492250,1.338223
546,4.550000,-1.021855,1.495722,1.424410,-1.195185,1.482571,1.076653,-1.010799,0.980070,1.438648,-1.185386,0.966958,1.091733,-1.062262,1.492248,1.338226
547,4.558333,-1.021822,1.495764,1.424384,-1.195152,1.482569,1.076629,-1.010773,0.980114,1.438692,-1.185361,0.966958,1.091779,-1.062229,1.492279,1.338201
548,4.566667,-1.021856,1.495716,1.424403,-1.195196,1.482571,1.076650,-1.010810,0.980064,1.438636,-1.185407,0.966959,1.091726,-1.062265,1.492243,1.338220
549,4.575000,-1.021795,1.495773,1.424399,-1.195229,1.482589,1.076695,-1.010757,0.980122,1.438694,-1.185448,0.966977,1.091833,-1.062227,1.492291,1.338228
550,4.583333,-1.021790,1.495780,1.424429,-1.195274,1.482597,1.076750,-1.010713,0.980129,1.438701,-1.185454,0.966986,1.091865,-1.062235,1.492298,1.338264
551,4.591667,-1.021861,1.495717,1.424404,-1.195205,1.482582,1.076653,-1.010813,0.980064,1.438621,-1.185415,0.966969,1.091713,-1.062271,1.492247,1.338222
552,4.600000,-1.021863,1.495720,1.424406,-1.195209,1.482565,1.076656,-1.010809,0.980068,1.438649,-1.185412,0.966953,1.091742,-1.062274,1.492245,1.338224
553,4.608333,-1.021867,1.495723,1.424409,-1.195203,1.482589,1.076654,-1.010803,0.980071,1.438617,-1.185397,0.966976,1.091705,-1.062276,1.492253,1.338225
554,4.616667,-1.021863,1.495720,1.424404,-1.195198,1.482585,1.076648,-1.010805,0.980068,1.438617,-1.185397,0.966972,1.091704,-1.062271,1.492250,1.338220
555,4.625000,-1.021860,1.495719,1.424397,-1.195204,1.482565,1.076648,-1.010818,0.980067,1.438646,-1.185420,0.966953,1.091739,-1.062270,1.492245,1.338215
556,4.633333,-1.021865,1.495726,1.424397,-1.195205,1.482571,1.076645,-1.010801,0.980075,1.438636,-1.185399,0.966959,1.091727,-1.062274,1.492251,1.338214
557,4.641667,-1.021869,1.495722,1.424396,-1.195204,1.482569,1.076641,-1.010822,0.980070,1.438641,-1.185415,0.966957,1.091729,-1.062278,1.492248,1.338213
558,4.650000,-1.021811,1.495775,1.424417,-1.195230,1.482586,1.076705,-1.010740,0.980125,1.438702,-1.185416,0.966976,1.091833,-1.062240,1.492292,1.338244
559,4.658333,-1.021870,1.495726,1.424405,-1.195195,1.482562,1.076646,-1.010808,0.980075,1.438661,-1.185391,0.966950,1.091744,-1.062275,1.492249,1.338221
560,4.666667,-1.021863,1.495722,1.424405,-1.195205,1.482579,1.076654,-1.010816,0.980070,1.438635,-1.185415,0.966967,1.091726,-1.062273,1.492250,1.338223
561,4.675000,-1.021870,1.495731,1.424403,-1.195205,1.482580,1.076649,-1.010801,0.980079,1.438635,-1.185395,0.966968,1.091723,-1.062278,1.492257,1.338220
562,4.683333,-1.021862,1.495724,1.424401,-1.195186,1.482575,1.076640,-1.010813,0.980072,1.438638,-1.185394,0.966963,1.091720,-1.062267,1.492251,1.338216
563,4.691667,-1.021862,1.495720,1.424399,-1.195191,1.482574,1.076641,-1.010809,0.980068,1.438631,-1.185396,0.966961,1.091715,-1.062269,1.492247,1.338215
564,4.700000,-1.021862,1.495718,1.424401,-1.195207,1.482564,1.076652,-1.010809,0.980066,1.438645,-1.185412,0.966952,1.091738,-1.062273,1.492244,1.338219
565,4.708333,-1.021810,1.495786,1.424426,-1.195245,1.482587,1.076723,-1.010741,0.980136,1.438727,-1.185433,0.966977,1.091867,-1.062243,1.492300,1.338255
566,4.716667,-1.021859,1.495728,1.424401,-1.195210,1.482568,1.076654,-1.010795,0.980076,1.438647,-1.185404,0.966956,1.091744,-1.062271,1.492251,1.338220
567,4.725000,-1.021859,1.495715,1.424402,-1.195203,1.482569,1.076652,-1.010806,0.980063,1.438634,-1.185407,0.966957,1.091726,-1.062269,1.492242,1.338220
568,4.733333,-1.021810,1.495764,1.424368,-1.195168,1.482574,1.076625,-1.010777,0.980113,1.438673,-1.185392,0.966963,1.091774,-1.062224,1.492280,1.338187
569,4.741667,-1.021862,1.495712,1.424400,-1.195200,1.482559,1.076647,-1.010799,0.980060,1.438637,-1.185395,0.966947,1.091726,-1.062271,1.492238,1.338217
570,4.750000,-1.021787,1.495837,1.424447,-1.195250,1.482582,1.076760,-1.010686,0.980189,1.438815,-1.185406,0.966974,1.091971,-1.062227,1.492337,1.338280
571,4.758333,-1.021807,1.495776,1.424419,-1.195227,1.482596,1.076707,-1.010743,0.980125,1.438695,-1.185421,0.966985,1.091826,-1.062236,1.492295,1.338246
572,4.766667,-1.021864,1.495715,1.424400,-1.195207,1.482581,1.076649,-1.010812,0.980063,1.438615,-1.185413,0.966968,1.091707,-1.062275,1.492245,1.338218
573,4.775000,-1.021856,1.495725,1.424396,-1.195216,1.482572,1.076654,-1.010795,0.980073,1.438633,-1.185413,0.966960,1.091733,-1.062270,1.492250,1.338216
574,4.783333,-1.021799,1.495848,1.424452,-1.195239,1.482585,1.076753,-1.010710,0.980201,1.438838,-1.185407,0.966977,1.091983,-1.062233,1.492346,1.338282
575,4.791667,-1.021800,1.495759,1.424374,-1.195156,1.482572,1.076632,-1.010790,0.980108,1.438688,-1.185404,0.966961,1.091789,-1.062213,1.492276,1.338194
576,4.800000,-1.021870,1.495717,1.424405,-1.195190,1.482573,1.076643,-1.010807,0.980064,1.438629,-1.185386,0.966960,1.091709,-1.062274,1.492244,1.338220
577,4.808333,-1.021821,1.495840,1.424461,-1.195250,1.482620,1.076755,-1.010728,0.980191,1.438781,-1.185414,0.967011,1.091918,-1.062253,1.492349,1.338289
578,4.816667,-1.021870,1.495719,1.424405,-1.195209,1.482563,1.076652,-1.010802,0.980068,1.438644,-1.185399,0.966951,1.091735,-1.062279,1.492244,1.338222
579,4.825000,-1.021863,1.495721,1.424396,-1.195206,1.482566,1.076645,-1.010798,0.980070,1.438635,-1.185399,0.966954,1.091727,-1.062273,1.492246,1.338213
580,4.833333,-1.021856,1.495722,1.424404,-1.195202,1.482596,1.076654,-1.010794,0.980069,1.438602,-1.185398,0.966982,1.091694,-1.062267,1.492254,1.338222
581,4.841667,-1.021819,1.495763,1.424376,-1.195162,1.482572,1.076627,-1.010783,0.980113,1.438683,-1.185384,0.966962,1.091777,-1.062229,1.492279,1.338195
582,4.850000,-1.021863,1.495723,1.424402,-1.195191,1.482568,1.076645,-1.010803,0.980071,1.438644,-1.185390,0.966956,1.091729,-1.062269,1.492248,1.338219
583,4.858333,-1.021804,1.495783,1.424434,-1.195272,1.482603,1.076747,-1.010732,0.980132,1.438704,-1.185457,0.966992,1.091860,-1.062245,1.492302,1.338267
584,4.866667,-1.021876,1.495727,1.424404,-1.195191,1.482584,1.076639,-1.010814,0.980075,1.438626,-1.185387,0.966971,1.091704,-1.062279,1.492255,1.338218
585,4.875000,-1.021791,1.495842,1.424443,-1.195245,1.482577,1.076752,-1.010672,0.980195,1.438816,-1.185383,0.966970,1.091968,-1.062229,1.492340,1.338275
586,4.883333,-1.021819,1.495842,1.424451,-1.195233,1.482610,1.076739,-1.010739,0.980193,1.438796,-1.185410,0.967001,1.091927,-1.062246,1.492347,1.338278
587,4.891667,-1.021872,1.495729,1.424400,-1.195200,1.482589,1.076642,-1.010812,0.980077,1.438621,-1.185399,0.966976,1.091705,-1.062278,1.492258,1.338216
588,4.900000,-1.021875,1.495732,1.424397,-1.195210,1.482575,1.076643,-1.010804,0.980081,1.438636,-1.185397,0.966963,1.091725,-1.062283,1.492257,1.338214
589,4.908333,-1.021830,1.495771,1.424378,-1.195160,1.482578,1.076622,-1.010789,0.980121,1.438685,-1.185376,0.966968,1.091772,-1.062237,1.492287,1.338194
590,4.916667,-1.021815,1.495834,1.424444,-1.195251,1.482602,1.076743,-1.010740,0.980186,1.438791,-1.185434,0.966993,1.091933,-1.062248,1.492340,1.338273
591,4.925000,-1.021874,1.495726,1.424387,-1.195201,1.482577,1.076628,-1.010820,0.980074,1.438623,-1.185405,0.966965,1.091707,-1.062280,1.492253,1.338203
592,4.933333,-1.021876,1.495732,1.424395,-1.195209,1.482568,1.076640,-1.010806,0.980080,1.438645,-1.185398,0.966956,1.091733,-1.062283,1.492254,1.338212
593,4.941667,-1.021883,1.495730,1.424399,-1.195210,1.482562,1.076640,-1.010805,0.980079,1.438650,-1.185389,0.966951,1.091735,-1.062289,1.492252,1.338215
594,4.950000,-1.021877,1.495734,1.424395,-1.195226,1.482567,1.076648,-1.010805,0.980083,1.438648,-1.185413,0.966955,1.091744,-1.062288,1.492256,1.338213
595,4.958333,-1.021806,1.495846,1.424433,-1.195247,1.482600,1.076734,-1.010743,0.980198,1.438806,-1.185442,0.966992,1.091951,-1.062240,1.492349,1.338263
596,4.966667,-1.021869,1.495740,1.424392,-1.195208,1.482575,1.076640,-1.010802,0.980088,1.438644,-1.185400,0.966963,1.091735,-1.062278,1.492262,1.338209
597,4.975000,-1.021877,1.495733,1.424393,-1.195196,1.482578,1.076630,-1.010810,0.980082,1.438631,-1.185387,0.966966,1.091711,-1.062281,1.492258,1.338208
598,4.983333,-1.021800,1.495831,1.424433,-1.195242,1.482593,1.076735,-1.010740,0.980182,1.438795,-1.185438,0.966985,1.091940,-1.062235,1.492335,1.338263
599,4.991667,-1.021804,1.495838,1.424437,-1.195245,1.482590,1.076738,-1.010733,0.980190,1.438809,-1.185431,0.966982,1.091954,-1.062239,1.492340,1.338267
600,5.000000,-1.021831,1.495783,1.424420,-1.195225,1.482590,1.076697,-1.010747,0.980133,1.438706,-1.185399,0.966979,1.091826,-1.062254,1.492299,1.338244
601,5.008333,-1.021818,1.495768,1.424373,-1.195159,1.482566,1.076624,-1.010764,0.980118,1.438686,-1.185363,0.966956,1.091780,-1.062227,1.492281,1.338191
602,5.016667,-1.021874,1.495720,1.424404,-1.195191,1.482572,1.076640,-1.010826,0.980068,1.438641,-1.185402,0.966959,1.091720,-1.062278,1.492247,1.338219
603,5.025000,-1.021877,1.495723,1.424393,-1.195218,1.482558,1.076642,-1.010820,0.980071,1.438652,-1.185419,0.966946,1.091743,-1.062287,1.492245,1.338211
604,5.033333,-1.021875,1.495731,1.424402,-1.195198,1.482573,1.076641,-1.010816,0.980080,1.438649,-1.185397,0.966961,1.091732,-1.062280,1.492256,1.338217
605,5.041667,-1.021824,1.495763,1.424376,-1.195157,1.482563,1.076622,-1.010756,0.980113,1.438681,-1.185347,0.966953,1.091770,-1.062232,1.492277,1.338193
606,5.050000,-1.021845,1.495786,1.424440,-1.195244,1.482595,1.076719,-1.010753,0.980136,1.438718,-1.185410,0.966984,1.091840,-1.062269,1.492302,1.338265
607,5.058333,-1.021881,1.495733,1.424405,-1.195202,1.482578,1.076643,-1.010819,0.980081,1.438645,-1.185398,0.966966,1.091726,-1.062285,1.492258,1.338220
608,5.066667,-1.021849,1.495776,1.424390,-1.195153,1.482573,1.076622,-1.010770,0.980127,1.438694,-1.185332,0.966963,1.091769,-1.062249,1.492289,1.338204
609,5.075000,-1.021867,1.495721,1.424408,-1.195215,1.482550,1.076661,-1.010798,0.980070,1.438669,-1.185404,0.966938,1.091764,-1.062278,1.492242,1.338227
610,5.083333,-1.021804,1.495823,1.424453,-1.195236,1.482600,1.076749,-1.010707,0.980175,1.438776,-1.185396,0.966991,1.091915,-1.062236,1.492332,1.338282
611,5.091667,-1.021873,1.495734,1.424409,-1.195207,1.482570,1.076655,-1.010792,0.980083,1.438654,-1.185384,0.966959,1.091741,-1.062280,1.492257,1.338226
612,5.100000,-1.021880,1.495733,1.424403,-1.195197,1.482566,1.076640,-1.010819,0.980082,1.438663,-1.185394,0.966954,1.091742,-1.062284,1.492255,1.338218
613,5.108333,-1.021874,1.495723,1.424415,-1.195194,1.482578,1.076653,-1.010819,0.980071,1.438644,-1.185397,0.966965,1.091724,-1.062279,1.492251,1.338230
614,5.116667,-1.021824,1.495777,1.424436,-1.195246,1.482583,1.076726,-1.010756,0.980127,1.438731,-1.185435,0.966973,1.091864,-1.062253,1.492293,1.338263
615,5.125000,-1.021861,1.495770,1.424414,-1.195167,1.482568,1.076646,-1.010780,0.980121,1.438714,-1.185344,0.966958,1.091790,-1.062262,1.492284,1.338228
616,5.133333,-1.021874,1.495731,1.424411,-1.195210,1.482569,1.076657,-1.010829,0.980079,1.438670,-1.185422,0.966957,1.091758,-1.062283,1.492254,1.338228
617,5.141667,-1.021889,1.495728,1.424413,-1.195190,1.482566,1.076642,-1.010827,0.980077,1.438665,-1.185386,0.966954,1.091736,-1.062289,1.492252,1.338226
618,5.150000,-1.021793,1.495818,1.424442,-1.195253,1.482576,1.076754,-1.010715,0.980170,1.438803,-1.185433,0.966968,1.091957,-1.062232,1.492322,1.338275
619,5.158333,-1.021884,1.495727,1.424407,-1.195206,1.482561,1.076646,-1.010826,0.980076,1.438666,-1.185405,0.966949,1.091748,-1.062289,1.492249,1.338222
620,5.166667,-1.021878,1.495728,1.424414,-1.195192,1.482581,1.076649,-1.010823,0.980076,1.438647,-1.185394,0.966969,1.091723,-1.062281,1.492255,1.338229
621,5.175000,-1.021850,1.495806,1.424427,-1.195182,1.482570,1.076674,-1.010794,0.980158,1.438791,-1.185384,0.966961,1.091881,-1.062257,1.492311,1.338244
622,5.183333,-1.021883,1.495728,1.424416,-1.195200,1.482576,1.076652,-1.010828,0.980076,1.438655,-1.185402,0.966964,1.091734,-1.062287,1.492254,1.338231
623,5.191667,-1.021879,1.495729,1.424408,-1.195203,1.482573,1.076648,-1.010818,0.980078,1.438651,-1.185400,0.966961,1.091734,-1.062284,1.492254,1.338224
624,5.200000,-1.021805,1.495824,1.424448,-1.195263,1.482594,1.076757,-1.010744,0.980175,1.438798,-1.185459,0.966985,1.091951,-1.062244,1.492331,1.338280
625,5.208333,-1.021884,1.495727,1.424413,-1.195201,1.482582,1.076648,-1.010841,0.980075,1.438648,-1.185415,0.966969,1.091726,-1.062288,1.492254,1.338227
626,5.216667,-1.021888,1.495730,1.424410,-1.195207,1.482560,1.076648,-1.010819,0.980079,1.438669,-1.185396,0.966948,1.091750,-1.062293,1.492252,1.338225
627,5.225000,-1.021885,1.495738,1.424408,-1.195221,1.482571,1.076654,-1.010812,0.980086,1.438659,-1.185405,0.966960,1.091748,-1.062293,1.492260,1.338225
628,5.233333,-1.021881,1.495731,1.424405,-1.195210,1.482567,1.076647,-1.010829,0.980079,1.438663,-1.185415,0.966955,1.091748,-1.062288,1.492253,1.338221
629,5.241667,-1.021883,1.495733,1.424407,-1.195199,1.482582,1.076643,-1.010823,0.980081,1.438642,-1.185397,0.966970,1.091720,-1.062286,1.492259,1.338222
630,5.250000,-1.021882,1.495723,1.424407,-1.195215,1.482561,1.076652,-1.010815,0.980072,1.438655,-1.185407,0.966950,1.091743,-1.062290,1.492247,1.338224
631,5.258333,-1.021880,1.495721,1.424404,-1.195209,1.482554,1.076647,-1.010830,0.980069,1.438668,-1.185417,0.966943,1.091753,-1.062286,1.492243,1.338220
632,5.266667,-1.021890,1.495734,1.424411,-1.195206,1.482578,1.076647,-1.010831,0.980082,1.438654,-1.185405,0.966966,1.091733,-1.062293,1.492259,1.338225
633,5.275000,-1.021888,1.495726,1.424399,-1.195217,1.482554,1.076643,-1.010812,0.980075,1.438659,-1.185400,0.966942,1.091745,-1.062294,1.492247,1.338216
634,5.283333,-1.021883,1.495729,1.424405,-1.195203,1.482566,1.076643,-1.010834,0.980077,1.438663,-1.185412,0.966954,1.091745,-1.062287,1.492252,1.338220
635,5.291667,-1.021897,1.495736,1.424399,-1.195210,1.482569,1.076634,-1.010828,0.980085,1.438655,-1.185399,0.966957,1.091732,-1.062299,1.492258,1.338214
636,5.300000,-1.021825,1.495849,1.424446,-1.195235,1.482593,1.076732,-1.010771,0.980201,1.438838,-1.185438,0.966985,1.091968,-1.062251,1.492349,1.338272
