-0.92036,1.9998,2.361,-1.1279,1.9891,2.0324,-0.91408,1.4841,2.3742,-1.1228,1.4734,2.0465
-1.2267,1.9921,2.0273,-1.3516,1.9838,1.6592,-1.2315,1.4764,2.0408,-1.3577,1.4681,1.6734
-1.317,1.9915,1.4597,-1.4366,1.9836,1.0898,-1.322,1.4757,1.4725,-1.4429,1.4679,1.1033
-1.305,2.1872,1.4444,-1.44,2.1781,1.08,-1.3085,1.6715,1.4589,-1.4449,1.6624,1.0951
-0.99466,2.1888,1.8408,-1.1455,2.1795,1.4826,-0.99733,1.6731,1.8557,-1.1495,1.6638,1.4982
-0.82498,2.1888,2.1343,-0.9831,2.1783,1.7793,-0.82895,1.6731,2.1517,-0.98836,1.6627,1.7974
-0.86936,1.4941,2.1808,-0.97263,1.4846,1.8062,-0.87274,0.97831,2.1951,-0.9774,0.96888,1.821
-0.99588,1.4957,1.8773,-1.1062,1.4837,1.5047,-0.99383,0.97994,1.8934,-1.1055,0.96809,1.5214
-1.0219,1.4958,1.4244,-1.1952,1.4826,1.0767,-1.0108,0.98011,1.4387,-1.1854,0.96698,1.0918
-2.4884,1.5026,1.4507,-2.594,1.489,1.0768,-2.4832,0.98699,1.4683,-2.5902,0.97345,1.0949
-1.819,1.5021,2.2285,-2.0002,1.4888,1.8848,-1.8028,0.98657,2.2403,-1.9852,0.97325,1.8974
-1.2826,1.5022,2.8765,-1.5121,1.4887,2.563,-1.2647,0.98666,2.886,-1.4953,0.97311,2.5735
-1.3086,2.2025,2.8659,-1.5296,2.188,2.5464,-1.286,1.6871,2.8739,-1.5081,1.6726,2.5554
-1.6982,2.2048,2.2778,-1.8081,2.1878,1.9053,-1.6818,1.6894,2.2968,-1.7931,1.6724,1.9249
-1.6726,2.2013,1.394,-1.7451,2.1854,1.0124,-1.6568,1.6859,1.4127,-1.7306,1.6701,1.0315
-0.61514,2.0255,1.7783,-0.91544,2.0137,1.5317,-0.60238,1.5098,1.7878,-0.90348,1.498,1.5424
-0.73086,2.0232,1.4501,-0.87823,2.0144,1.0904,-0.72906,1.5074,1.4622,-0.87775,1.4986,1.1033
-0.80148,1.7258,1.4791,-0.8174,1.7124,1.0909,-0.79848,1.2102,1.497,-0.81589,1.1968,1.109
-0.65151,1.7253,1.8234,-0.77507,1.7107,1.4551,-0.64306,1.2097,1.8413,-0.76798,1.1951,1.4737
-0.94303,1.8141,1.7924,-1.1202,1.8035,1.4464,-0.9412,1.2983,1.8075,-1.1196,1.2878,1.4625
