1223478100.930405600 1223478100.0930405630
1223478108.280390300 1223478108.0280390275
1223478115.281185400 1223478115.0281185279
1223478122.828436900 1223478122.0828436769
1223478137.504287000 1223478137.0504287094
1223478206.419827700 1223478206.0419827592
1223478247.039026500 1223478247.0039026424
1223478254.456772100 1223478254.0456772010
1223478261.015348900 1223478261.0015348920
1223478355.918803000 1223478355.0918802858
1223478361.109517100 1223478361.0109517082
1223478366.251884500 1223478366.0251884576
1223478393.552917500 1223478393.0552917433
1223478400.322377900 1223478400.0322377885
1223478412.320372100 1223478412.0320372004
1223478417.483696000 1223478417.0483695875
1223478424.902072000 1223478424.0902072002
1223478429.655954800 1223478429.0655954878
1223478434.100607600 1223478434.0100607701
1223478462.097981500 1223478462.0097981350