Format Version,1.2,Take Name,Take 2020-02-07 05.23.17 PM,Capture Frame Rate,120.000000,Export Frame Rate,120.000000,Capture Start Time,2020-02-07 05.23.17.212 PM,Total Frames,647,Rotation Type,Quaternion,Length Units,Meters,Coordinate Space,Global

,,Rigid Body Marker,Rigid Body Marker,Rigid Body Marker,Rigid Body Marker,Rigid Body Marker,Rigid Body Marker,Rigid Body Marker,Rigid Body Marker,Rigid Body Marker,Rigid Body Marker,Rigid Body Marker,Rigid Body Marker,Rigid Body Marker,Rigid Body Marker,Rigid Body Marker
,,Rigid Body 1_1,Rigid Body 1_1,Rigid Body 1_1,Rigid Body 1_2,Rigid Body 1_2,Rigid Body 1_2,Rigid Body 1_3,Rigid Body 1_3,Rigid Body 1_3,Rigid Body 1_4,Rigid Body 1_4,Rigid Body 1_4,Rigid Body 1_5,Rigid Body 1_5,Rigid Body 1_5
,,"FB1F47AA496A11EAE5BE26CA05685A8D","FB1F47AA496A11EAE5BE26CA05685A8D","FB1F47AA496A11EAE5BE26CA05685A8D","FB1F47AA496A11EAE5BE26CA05685A8D","FB1F47AA496A11EAE5BE26CA05685A8D","FB1F47AA496A11EAE5BE26CA05685A8D","FB1F47AA496A11EAE5BE26CA05685A8D","FB1F47AA496A11EAE5BE26CA05685A8D","FB1F47AA496A11EAE5BE26CA05685A8D","FB1F47AA496A11EAE5BE26CA05685A8D","FB1F47AA496A11EAE5BE26CA05685A8D","FB1F47AA496A11EAE5BE26CA05685A8D","FB1F47AA496A11EAE5BE26CA05685A8D","FB1F47AA496A11EAE5BE26CA05685A8D","FB1F47AA496A11EAE5BE26CA05685A8D"
,,Position,Position,Position,Position,Position,Position,Position,Position,Position,Position,Position,Position,Position,Position,Position
Frame,Time,X,Y,Z,X,Y,Z,X,Y,Z,X,Y,Z,X,Y,Z
0,0.000000,0.367734,1.843628,0.864924,0.450201,1.838330,1.245004,0.376849,1.327115,0.855840,0.459580,1.323182,1.235795,0.385718,1.842036,0.958341
1,0.008333,0.367757,1.843601,0.865029,0.450132,1.838406,1.245130,0.376953,1.327087,0.856070,0.459592,1.323257,1.236046,0.385719,1.842034,0.958451
2,0.016667,0.367726,1.843626,0.864930,0.450203,1.838328,1.245007,0.376861,1.327113,0.855841,0.459602,1.323180,1.235794,0.385713,1.842034,0.958346
3,0.025000,0.367728,1.843638,0.864927,0.450198,1.838333,1.245006,0.376851,1.327125,0.855832,0.459586,1.323186,1.235787,0.385713,1.842045,0.958344
4,0.033333,0.367737,1.843642,0.864917,0.450197,1.838342,1.244999,0.376849,1.327128,0.855832,0.459574,1.323194,1.235789,0.385719,1.842049,0.958335
5,0.041667,0.367740,1.843631,0.864926,0.450199,1.838326,1.245007,0.376863,1.327118,0.855831,0.459586,1.323179,1.235788,0.385722,1.842038,0.958343
6,0.050000,0.367742,1.843633,0.864924,0.450201,1.838328,1.245006,0.376866,1.327120,0.855829,0.459590,1.323180,1.235786,0.385724,1.842040,0.958342
7,0.058333,0.367746,1.843636,0.864918,0.450198,1.838338,1.245001,0.376860,1.327123,0.855835,0.459577,1.323190,1.235793,0.385727,1.842044,0.958336
8,0.066667,0.367756,1.843640,0.864926,0.450211,1.838344,1.245008,0.376863,1.327127,0.855846,0.459583,1.323196,1.235805,0.385737,1.842049,0.958343
9,0.075000,0.367770,1.843645,0.864914,0.450209,1.838350,1.245000,0.376863,1.327131,0.855840,0.459566,1.323202,1.235802,0.385747,1.842054,0.958332
10,0.083333,0.367788,1.843608,0.864977,0.450298,1.838297,1.245047,0.376828,1.327093,0.855891,0.459602,1.323148,1.235837,0.385783,1.842013,0.958392
11,0.091667,0.367781,1.843640,0.864932,0.450237,1.838328,1.245014,0.376893,1.327127,0.855829,0.459613,1.323180,1.235787,0.385763,1.842045,0.958349
12,0.100000,0.367785,1.843639,0.864924,0.450238,1.838334,1.245006,0.376862,1.327125,0.855839,0.459580,1.323185,1.235797,0.385766,1.842045,0.958341
13,0.108333,0.367788,1.843640,0.864923,0.450243,1.838333,1.245005,0.376874,1.327126,0.855833,0.459593,1.323184,1.235791,0.385769,1.842046,0.958340
14,0.116667,0.367806,1.843643,0.864929,0.450264,1.838331,1.245011,0.376879,1.327129,0.855835,0.459601,1.323182,1.235793,0.385788,1.842048,0.958347
15,0.125000,0.367826,1.843652,0.864926,0.450253,1.838342,1.245014,0.376895,1.327138,0.855838,0.459587,1.323194,1.235801,0.385800,1.842057,0.958345
16,0.133333,0.367828,1.843646,0.864934,0.450282,1.838326,1.245016,0.376889,1.327132,0.855832,0.459608,1.323177,1.235790,0.385809,1.842049,0.958351
17,0.141667,0.367832,1.843643,0.864937,0.450280,1.838322,1.245021,0.376906,1.327130,0.855832,0.459619,1.323174,1.235791,0.385811,1.842046,0.958355
18,0.150000,0.367862,1.843585,0.864975,0.450356,1.838298,1.245049,0.376906,1.327070,0.855920,0.459664,1.323148,1.235870,0.385853,1.841996,0.958391
19,0.158333,0.367862,1.843655,0.864931,0.450285,1.838337,1.245020,0.376920,1.327140,0.855834,0.459608,1.323188,1.235798,0.385835,1.842058,0.958350
20,0.166667,0.367872,1.843660,0.864935,0.450298,1.838346,1.245024,0.376921,1.327145,0.855846,0.459612,1.323197,1.235810,0.385846,1.842064,0.958354
21,0.175000,0.367875,1.843655,0.864945,0.450312,1.838330,1.245031,0.376914,1.327141,0.855841,0.459616,1.323181,1.235803,0.385852,1.842057,0.958363
22,0.183333,0.367881,1.843651,0.864936,0.450309,1.838323,1.245024,0.376929,1.327137,0.855828,0.459621,1.323174,1.235792,0.385855,1.842052,0.958355
23,0.191667,0.367886,1.843652,0.864939,0.450311,1.838326,1.245028,0.376927,1.327137,0.855835,0.459617,1.323177,1.235800,0.385860,1.842053,0.958358
24,0.200000,0.367901,1.843650,0.864941,0.450345,1.838330,1.245025,0.376932,1.327136,0.855845,0.459641,1.323180,1.235805,0.385879,1.842053,0.958359
25,0.208333,0.367911,1.843657,0.864940,0.450331,1.838342,1.245030,0.376935,1.327142,0.855853,0.459620,1.323192,1.235819,0.385883,1.842062,0.958359
26,0.216667,0.367902,1.843666,0.864943,0.450345,1.838344,1.245028,0.376941,1.327152,0.855843,0.459648,1.323195,1.235804,0.385881,1.842069,0.958362
27,0.225000,0.367904,1.843658,0.864938,0.450339,1.838334,1.245024,0.376929,1.327143,0.855838,0.459629,1.323184,1.235801,0.385880,1.842060,0.958356
28,0.233333,0.367925,1.843584,0.864983,0.450414,1.838296,1.245059,0.376927,1.327068,0.855938,0.459681,1.323146,1.235888,0.385915,1.841995,0.958399
29,0.241667,0.367908,1.843645,0.864943,0.450343,1.838328,1.245030,0.376932,1.327131,0.855854,0.459631,1.323179,1.235816,0.385884,1.842049,0.958362
30,0.250000,0.367913,1.843654,0.864943,0.450352,1.838330,1.245028,0.376936,1.327139,0.855845,0.459641,1.323181,1.235806,0.385890,1.842056,0.958361
31,0.258333,0.367912,1.843658,0.864946,0.450341,1.838335,1.245034,0.376953,1.327143,0.855845,0.459646,1.323185,1.235809,0.385887,1.842060,0.958364
32,0.266667,0.367900,1.843659,0.864950,0.450339,1.838335,1.245036,0.376946,1.327144,0.855847,0.459649,1.323186,1.235808,0.385877,1.842061,0.958368
33,0.275000,0.367903,1.843652,0.864948,0.450347,1.838328,1.245032,0.376945,1.327137,0.855846,0.459654,1.323179,1.235806,0.385881,1.842054,0.958366
34,0.283333,0.367896,1.843608,0.865002,0.450411,1.838301,1.245072,0.376907,1.327093,0.855927,0.459686,1.323151,1.235872,0.385892,1.842014,0.958417
35,0.291667,0.367896,1.843657,0.864947,0.450328,1.838333,1.245034,0.376936,1.327143,0.855845,0.459633,1.323184,1.235808,0.385872,1.842059,0.958365
36,0.300000,0.367906,1.843655,0.864938,0.450321,1.838333,1.245028,0.376944,1.327140,0.855841,0.459623,1.323184,1.235807,0.385877,1.842057,0.958357
37,0.308333,0.367892,1.843654,0.864935,0.450320,1.838337,1.245023,0.376926,1.327139,0.855844,0.459619,1.323187,1.235808,0.385867,1.842058,0.958354
38,0.316667,0.367886,1.843595,0.864986,0.450379,1.838305,1.245060,0.376908,1.327080,0.855932,0.459666,1.323155,1.235881,0.385877,1.842006,0.958402
39,0.325000,0.367869,1.843597,0.864993,0.450360,1.838303,1.245068,0.376893,1.327081,0.855933,0.459649,1.323153,1.235884,0.385859,1.842006,0.958409
40,0.333333,0.367880,1.843588,0.864985,0.450369,1.838303,1.245060,0.376897,1.327072,0.855940,0.459650,1.323153,1.235890,0.385869,1.842000,0.958401
41,0.341667,0.367867,1.843584,0.864988,0.450356,1.838298,1.245063,0.376901,1.327069,0.855937,0.459655,1.323148,1.235888,0.385857,1.841995,0.958404
42,0.350000,0.367862,1.843598,0.864988,0.450343,1.838308,1.245065,0.376902,1.327083,0.855931,0.459647,1.323159,1.235883,0.385850,1.842009,0.958404
43,0.358333,0.367877,1.843627,0.865023,0.450164,1.838406,1.245143,0.376996,1.327112,0.856047,0.459548,1.323256,1.236042,0.385817,1.842054,0.958449
44,0.366667,0.367832,1.843641,0.864936,0.450262,1.838325,1.245024,0.376900,1.327127,0.855839,0.459595,1.323177,1.235803,0.385807,1.842045,0.958355
45,0.375000,0.367829,1.843637,0.864940,0.450272,1.838327,1.245025,0.376905,1.327124,0.855848,0.459613,1.323178,1.235808,0.385807,1.842043,0.958358
46,0.383333,0.367826,1.843640,0.864933,0.450251,1.838326,1.245022,0.376907,1.327126,0.855837,0.459596,1.323178,1.235801,0.385800,1.842044,0.958352
47,0.391667,0.367843,1.843617,0.865011,0.450127,1.838401,1.245132,0.376971,1.327102,0.856041,0.459519,1.323251,1.236037,0.385782,1.842045,0.958437
48,0.400000,0.367801,1.843634,0.864941,0.450250,1.838324,1.245025,0.376890,1.327120,0.855847,0.459604,1.323175,1.235806,0.385781,1.842039,0.958359
49,0.408333,0.367795,1.843637,0.864935,0.450250,1.838329,1.245017,0.376886,1.327124,0.855843,0.459606,1.323181,1.235801,0.385776,1.842043,0.958353
50,0.416667,0.367781,1.843636,0.864928,0.450222,1.838332,1.245014,0.376887,1.327123,0.855838,0.459593,1.323184,1.235799,0.385759,1.842043,0.958347
51,0.425000,0.367781,1.843588,0.864985,0.450306,1.838308,1.245052,0.376863,1.327074,0.855930,0.459653,1.323159,1.235873,0.385779,1.842001,0.958399
52,0.433333,0.367785,1.843587,0.864982,0.450302,1.838312,1.245052,0.376867,1.327073,0.855935,0.459648,1.323162,1.235880,0.385781,1.842001,0.958397
53,0.441667,0.367783,1.843648,0.864931,0.450218,1.838337,1.245018,0.376893,1.327134,0.855832,0.459593,1.323189,1.235794,0.385759,1.842053,0.958350
54,0.450000,0.367784,1.843588,0.864973,0.450293,1.838319,1.245045,0.376857,1.327074,0.855937,0.459630,1.323170,1.235883,0.385779,1.842004,0.958389
55,0.458333,0.367764,1.843582,0.864979,0.450295,1.838306,1.245046,0.376841,1.327067,0.855932,0.459637,1.323156,1.235874,0.385764,1.841995,0.958393
56,0.466667,0.367765,1.843589,0.864982,0.450301,1.838307,1.245047,0.376849,1.327075,0.855924,0.459649,1.323158,1.235865,0.385766,1.842001,0.958396
57,0.475000,0.367771,1.843579,0.864972,0.450288,1.838308,1.245041,0.376862,1.327065,0.855929,0.459644,1.323159,1.235874,0.385768,1.841994,0.958387
58,0.483333,0.367767,1.843600,0.864982,0.450297,1.838324,1.245049,0.376861,1.327085,0.855932,0.459656,1.323175,1.235874,0.385767,1.842013,0.958396
59,0.491667,0.367765,1.843611,0.864977,0.450285,1.838332,1.245046,0.376848,1.327096,0.855925,0.459633,1.323183,1.235869,0.385762,1.842024,0.958392
60,0.500000,0.367822,1.843600,0.865002,0.450129,1.838399,1.245118,0.376981,1.327085,0.856045,0.459552,1.323250,1.236037,0.385767,1.842032,0.958427
61,0.508333,0.367815,1.843600,0.865009,0.450128,1.838391,1.245123,0.376977,1.327086,0.856039,0.459554,1.323241,1.236029,0.385761,1.842030,0.958433
62,0.516667,0.367767,1.843582,0.864974,0.450306,1.838309,1.245039,0.376845,1.327067,0.855930,0.459648,1.323159,1.235870,0.385769,1.841997,0.958388
63,0.525000,0.367781,1.843592,0.864978,0.450305,1.838312,1.245046,0.376865,1.327077,0.855924,0.459653,1.323163,1.235867,0.385779,1.842005,0.958392
64,0.533333,0.367823,1.843613,0.864997,0.450136,1.838408,1.245112,0.376979,1.327098,0.856035,0.459556,1.323258,1.236025,0.385770,1.842044,0.958422
65,0.541667,0.367767,1.843601,0.864985,0.450334,1.838324,1.245043,0.376846,1.327087,0.855934,0.459677,1.323175,1.235868,0.385776,1.842015,0.958397
66,0.550000,0.367787,1.843598,0.864980,0.450299,1.838314,1.245050,0.376860,1.327084,0.855922,0.459637,1.323165,1.235868,0.385782,1.842010,0.958395
67,0.558333,0.367836,1.843610,0.865015,0.450144,1.838402,1.245130,0.376992,1.327095,0.856049,0.459565,1.323253,1.236040,0.385781,1.842040,0.958440
68,0.566667,0.367808,1.843647,0.864932,0.450262,1.838336,1.245014,0.376907,1.327133,0.855834,0.459625,1.323188,1.235793,0.385789,1.842052,0.958349
69,0.575000,0.367876,1.843623,0.865006,0.450167,1.838409,1.245125,0.376991,1.327108,0.856041,0.459546,1.323259,1.236036,0.385817,1.842052,0.958431
70,0.583333,0.367813,1.843663,0.864932,0.450275,1.838348,1.245013,0.376907,1.327149,0.855830,0.459633,1.323200,1.235787,0.385796,1.842067,0.958350
71,0.591667,0.367871,1.843623,0.865023,0.450173,1.838413,1.245140,0.376995,1.327107,0.856062,0.459563,1.323263,1.236055,0.385814,1.842053,0.958448
72,0.600000,0.367818,1.843648,0.864946,0.450299,1.838324,1.245023,0.376905,1.327134,0.855834,0.459651,1.323176,1.235786,0.385806,1.842050,0.958363
73,0.608333,0.367822,1.843654,0.864943,0.450289,1.838326,1.245023,0.376888,1.327140,0.855828,0.459619,1.323177,1.235784,0.385806,1.842055,0.958360
74,0.616667,0.367838,1.843611,0.865000,0.450376,1.838322,1.245064,0.376886,1.327096,0.855941,0.459689,1.323172,1.235881,0.385840,1.842021,0.958414
75,0.625000,0.367838,1.843658,0.864949,0.450307,1.838332,1.245028,0.376916,1.327144,0.855835,0.459650,1.323184,1.235790,0.385823,1.842059,0.958365
76,0.633333,0.367848,1.843657,0.864944,0.450322,1.838337,1.245022,0.376924,1.327144,0.855838,0.459663,1.323188,1.235791,0.385834,1.842060,0.958361
77,0.641667,0.367845,1.843646,0.864954,0.450314,1.838325,1.245033,0.376928,1.327133,0.855846,0.459662,1.323177,1.235801,0.385829,1.842049,0.958371
78,0.650000,0.367843,1.843653,0.864956,0.450314,1.838328,1.245035,0.376917,1.327139,0.855844,0.459652,1.323180,1.235799,0.385828,1.842055,0.958373
79,0.658333,0.367845,1.843657,0.864950,0.450313,1.838339,1.245029,0.376925,1.327143,0.855847,0.459657,1.323191,1.235802,0.385829,1.842060,0.958367
80,0.666667,0.367850,1.843663,0.864963,0.450334,1.838339,1.245039,0.376927,1.327150,0.855852,0.459676,1.323191,1.235803,0.385838,1.842065,0.958379
81,0.675000,0.367836,1.843660,0.864962,0.450319,1.838332,1.245038,0.376930,1.327147,0.855841,0.459677,1.323184,1.235793,0.385824,1.842061,0.958378
82,0.683333,0.367832,1.843605,0.865017,0.450404,1.838282,1.245074,0.376875,1.327090,0.855911,0.459712,1.323132,1.235844,0.385842,1.842007,0.958429
83,0.691667,0.367846,1.843660,0.864966,0.450320,1.838326,1.245044,0.376934,1.327147,0.855839,0.459672,1.323178,1.235793,0.385832,1.842059,0.958383
84,0.700000,0.367835,1.843610,0.865018,0.450413,1.838291,1.245074,0.376886,1.327095,0.855917,0.459728,1.323142,1.235848,0.385847,1.842013,0.958430
85,0.708333,0.367845,1.843668,0.864969,0.450326,1.838345,1.245046,0.376926,1.327154,0.855859,0.459671,1.323197,1.235811,0.385833,1.842070,0.958385
86,0.716667,0.367840,1.843664,0.864963,0.450309,1.838329,1.245042,0.376926,1.327151,0.855836,0.459659,1.323181,1.235790,0.385825,1.842063,0.958380
87,0.725000,0.367838,1.843650,0.864962,0.450315,1.838332,1.245039,0.376931,1.327137,0.855854,0.459672,1.323184,1.235808,0.385824,1.842054,0.958378
88,0.733333,0.367822,1.843650,0.864959,0.450312,1.838322,1.245033,0.376919,1.327137,0.855836,0.459674,1.323174,1.235787,0.385811,1.842051,0.958375
89,0.741667,0.367820,1.843659,0.864966,0.450316,1.838327,1.245039,0.376922,1.327147,0.855837,0.459682,1.323179,1.235786,0.385812,1.842059,0.958382
90,0.750000,0.367854,1.843631,0.865065,0.450210,1.838415,1.245170,0.377013,1.327116,0.856086,0.459634,1.323266,1.236067,0.385811,1.842059,0.958488
91,0.758333,0.367810,1.843624,0.865014,0.450385,1.838293,1.245070,0.376853,1.327110,0.855898,0.459692,1.323144,1.235830,0.385821,1.842024,0.958426
92,0.766667,0.367842,1.843624,0.865061,0.450216,1.838410,1.245162,0.377002,1.327109,0.856084,0.459639,1.323261,1.236061,0.385804,1.842052,0.958482
93,0.775000,0.367795,1.843620,0.865025,0.450391,1.838291,1.245076,0.376847,1.327106,0.855909,0.459708,1.323142,1.235836,0.385811,1.842021,0.958436
94,0.783333,0.367797,1.843652,0.864959,0.450278,1.838331,1.245036,0.376901,1.327139,0.855846,0.459646,1.323183,1.235798,0.385785,1.842054,0.958375
95,0.791667,0.367796,1.843650,0.864957,0.450290,1.838329,1.245031,0.376906,1.327137,0.855842,0.459665,1.323182,1.235792,0.385786,1.842053,0.958373
96,0.800000,0.367788,1.843619,0.865017,0.450354,1.838292,1.245075,0.376849,1.327105,0.855902,0.459679,1.323143,1.235836,0.385796,1.842020,0.958429
97,0.808333,0.367772,1.843652,0.864953,0.450275,1.838331,1.245025,0.376897,1.327140,0.855835,0.459663,1.323184,1.235782,0.385765,1.842055,0.958368
98,0.816667,0.367762,1.843659,0.864949,0.450259,1.838338,1.245022,0.376876,1.327146,0.855832,0.459637,1.323190,1.235781,0.385754,1.842061,0.958364
99,0.825000,0.367761,1.843646,0.864950,0.450257,1.838327,1.245024,0.376875,1.327133,0.855837,0.459635,1.323179,1.235786,0.385752,1.842049,0.958366
100,0.833333,0.367792,1.843607,0.865051,0.450189,1.838402,1.245147,0.376977,1.327093,0.856080,0.459638,1.323253,1.236051,0.385759,1.842038,0.958471
101,0.841667,0.367791,1.843605,0.865046,0.450181,1.838402,1.245144,0.376965,1.327090,0.856081,0.459619,1.323253,1.236055,0.385756,1.842036,0.958467
102,0.850000,0.367759,1.843650,0.864939,0.450258,1.838335,1.245011,0.376880,1.327138,0.855829,0.459644,1.323188,1.235777,0.385751,1.842054,0.958354
103,0.858333,0.367790,1.843621,0.865045,0.450169,1.838414,1.245146,0.376965,1.327107,0.856074,0.459608,1.323265,1.236050,0.385752,1.842052,0.958467
104,0.866667,0.367753,1.843608,0.865029,0.450219,1.838375,1.245110,0.376910,1.327094,0.856024,0.459640,1.323226,1.235981,0.385736,1.842032,0.958447
105,0.875000,0.367734,1.843639,0.864934,0.450218,1.838331,1.245010,0.376876,1.327126,0.855831,0.459624,1.323184,1.235783,0.385723,1.842044,0.958350
106,0.883333,0.367743,1.843634,0.864933,0.450218,1.838330,1.245012,0.376864,1.327121,0.855840,0.459603,1.323182,1.235794,0.385729,1.842041,0.958350
107,0.891667,0.367745,1.843641,0.864931,0.450231,1.838327,1.245006,0.376868,1.327128,0.855822,0.459619,1.323179,1.235773,0.385733,1.842045,0.958347
108,0.900000,0.367776,1.843605,0.865029,0.450168,1.838411,1.245126,0.376958,1.327091,0.856073,0.459614,1.323262,1.236046,0.385742,1.842039,0.958450
109,0.908333,0.367761,1.843609,0.865034,0.450169,1.838412,1.245128,0.376931,1.327094,0.856077,0.459603,1.323263,1.236047,0.385731,1.842042,0.958454
110,0.916667,0.367727,1.843638,0.864925,0.450230,1.838329,1.244997,0.376853,1.327125,0.855822,0.459621,1.323181,1.235770,0.385720,1.842043,0.958340
111,0.925000,0.367758,1.843588,0.865028,0.450167,1.838400,1.245122,0.376934,1.327073,0.856082,0.459608,1.323251,1.236052,0.385728,1.842023,0.958448
112,0.933333,0.367765,1.843606,0.865035,0.450155,1.838413,1.245133,0.376959,1.327092,0.856078,0.459613,1.323264,1.236051,0.385730,1.842040,0.958456
113,0.941667,0.367741,1.843600,0.865011,0.450217,1.838370,1.245089,0.376889,1.327086,0.856011,0.459630,1.323221,1.235966,0.385727,1.842025,0.958427
114,0.950000,0.367765,1.843602,0.865027,0.450159,1.838411,1.245124,0.376938,1.327088,0.856077,0.459597,1.323261,1.236049,0.385731,1.842036,0.958448
115,0.958333,0.367771,1.843599,0.865026,0.450174,1.838404,1.245121,0.376944,1.327085,0.856071,0.459611,1.323255,1.236042,0.385740,1.842033,0.958447
116,0.966667,0.367771,1.843592,0.865026,0.450179,1.838398,1.245120,0.376956,1.327078,0.856069,0.459628,1.323248,1.236039,0.385741,1.842025,0.958446
117,0.975000,0.367756,1.843635,0.864917,0.450252,1.838331,1.244991,0.376875,1.327122,0.855823,0.459635,1.323184,1.235773,0.385747,1.842042,0.958333
118,0.983333,0.367779,1.843594,0.865022,0.450197,1.838403,1.245113,0.376972,1.327080,0.856068,0.459654,1.323254,1.236036,0.385751,1.842028,0.958441
119,0.991667,0.367778,1.843605,0.865019,0.450205,1.838409,1.245109,0.376959,1.327091,0.856060,0.459651,1.323260,1.236025,0.385752,1.842038,0.958439
120,1.000000,0.367784,1.843609,0.865027,0.450201,1.838400,1.245119,0.376973,1.327095,0.856050,0.459654,1.323251,1.236017,0.385756,1.842039,0.958447
121,1.008333,0.367802,1.843590,0.865026,0.450201,1.838393,1.245122,0.376984,1.327075,0.856066,0.459647,1.323244,1.236038,0.385769,1.842022,0.958446
122,1.016667,0.367782,1.843594,0.865011,0.450257,1.838355,1.245090,0.376922,1.327079,0.856002,0.459660,1.323206,1.235957,0.385768,1.842016,0.958428
123,1.025000,0.367767,1.843601,0.864972,0.450373,1.838301,1.245021,0.376825,1.327087,0.855893,0.459697,1.323152,1.235818,0.385785,1.842009,0.958382
124,1.033333,0.367812,1.843600,0.865017,0.450234,1.838409,1.245108,0.376980,1.327085,0.856068,0.459667,1.323260,1.236035,0.385785,1.842034,0.958436
125,1.041667,0.367825,1.843607,0.865022,0.450230,1.838408,1.245117,0.376974,1.327092,0.856067,0.459644,1.323258,1.236037,0.385794,1.842039,0.958442
126,1.050000,0.367793,1.843609,0.864990,0.450375,1.838292,1.245045,0.376832,1.327094,0.855894,0.459678,1.323143,1.235824,0.385805,1.842012,0.958401
127,1.058333,0.367837,1.843584,0.865028,0.450231,1.838391,1.245125,0.376991,1.327069,0.856080,0.459649,1.323241,1.236052,0.385803,1.842018,0.958449
128,1.066667,0.367813,1.843596,0.864983,0.450393,1.838286,1.245038,0.376860,1.327082,0.855893,0.459705,1.323137,1.235824,0.385825,1.842002,0.958395
129,1.075000,0.367811,1.843609,0.864981,0.450413,1.838303,1.245032,0.376848,1.327095,0.855899,0.459715,1.323154,1.235825,0.385828,1.842016,0.958392
130,1.083333,0.367847,1.843617,0.865028,0.450285,1.838416,1.245115,0.376988,1.327102,0.856070,0.459690,1.323266,1.236033,0.385824,1.842049,0.958446
131,1.091667,0.367797,1.843622,0.864997,0.450440,1.838305,1.245038,0.376838,1.327107,0.855898,0.459746,1.323156,1.235815,0.385824,1.842026,0.958406
132,1.100000,0.367859,1.843612,0.865038,0.450284,1.838401,1.245128,0.376973,1.327097,0.856074,0.459662,1.323251,1.236040,0.385833,1.842042,0.958457
133,1.108333,0.367854,1.843600,0.865041,0.450307,1.838396,1.245125,0.376983,1.327085,0.856082,0.459700,1.323246,1.236041,0.385835,1.842031,0.958459
134,1.116667,0.367840,1.843615,0.864998,0.450420,1.838295,1.245054,0.376855,1.327100,0.855903,0.459700,1.323145,1.235834,0.385852,1.842018,0.958410
135,1.125000,0.367829,1.843619,0.865005,0.450441,1.838300,1.245053,0.376849,1.327104,0.855908,0.459726,1.323150,1.235832,0.385849,1.842022,0.958415
136,1.133333,0.367835,1.843626,0.865006,0.450438,1.838303,1.245056,0.376852,1.327111,0.855905,0.459720,1.323153,1.235830,0.385852,1.842028,0.958417
137,1.141667,0.367822,1.843617,0.865014,0.450448,1.838291,1.245059,0.376844,1.327103,0.855906,0.459734,1.323141,1.235827,0.385845,1.842019,0.958423
138,1.150000,0.367869,1.843603,0.865050,0.450300,1.838393,1.245139,0.376985,1.327088,0.856086,0.459680,1.323242,1.236050,0.385844,1.842033,0.958470
139,1.158333,0.367822,1.843608,0.865000,0.450457,1.838290,1.245043,0.376833,1.327093,0.855906,0.459733,1.323140,1.235825,0.385847,1.842012,0.958409
140,1.166667,0.367823,1.843630,0.865012,0.450450,1.838304,1.245057,0.376846,1.327115,0.855905,0.459738,1.323154,1.235825,0.385847,1.842031,0.958421
141,1.175000,0.367853,1.843616,0.865053,0.450322,1.838404,1.245133,0.376974,1.327101,0.856085,0.459708,1.323254,1.236040,0.385838,1.842045,0.958470
142,1.183333,0.367813,1.843623,0.865015,0.450429,1.838299,1.245062,0.376841,1.327109,0.855910,0.459722,1.323150,1.235832,0.385834,1.842025,0.958425
143,1.191667,0.367818,1.843608,0.865015,0.450440,1.838290,1.245061,0.376848,1.327094,0.855917,0.459734,1.323140,1.235839,0.385840,1.842012,0.958425
144,1.200000,0.367796,1.843619,0.865023,0.450440,1.838295,1.245064,0.376842,1.327105,0.855914,0.459750,1.323147,1.235830,0.385824,1.842021,0.958431
145,1.208333,0.367812,1.843607,0.865000,0.450444,1.838299,1.245044,0.376837,1.327093,0.855916,0.459733,1.323149,1.235836,0.385837,1.842013,0.958409
146,1.216667,0.367807,1.843628,0.865018,0.450410,1.838306,1.245068,0.376836,1.327113,0.855917,0.459704,1.323157,1.235842,0.385824,1.842031,0.958428
147,1.225000,0.367787,1.843624,0.865021,0.450422,1.838300,1.245064,0.376827,1.327109,0.855915,0.459726,1.323151,1.235833,0.385812,1.842026,0.958430
148,1.233333,0.367780,1.843616,0.865014,0.450412,1.838300,1.245058,0.376821,1.327101,0.855917,0.459718,1.323151,1.235836,0.385804,1.842020,0.958423
149,1.241667,0.367777,1.843606,0.865012,0.450413,1.838292,1.245055,0.376813,1.327091,0.855919,0.459714,1.323142,1.235837,0.385802,1.842010,0.958421
150,1.250000,0.367809,1.843608,0.865054,0.450283,1.838407,1.245134,0.376952,1.327093,0.856095,0.459690,1.323257,1.236050,0.385795,1.842040,0.958471
151,1.258333,0.367776,1.843614,0.865015,0.450410,1.838301,1.245058,0.376820,1.327100,0.855920,0.459718,1.323152,1.235839,0.385801,1.842019,0.958424
152,1.266667,0.367757,1.843624,0.865018,0.450394,1.838307,1.245061,0.376799,1.327110,0.855919,0.459700,1.323158,1.235837,0.385782,1.842028,0.958427
153,1.275000,0.367751,1.843609,0.865015,0.450372,1.838300,1.245061,0.376807,1.327095,0.855924,0.459693,1.323151,1.235846,0.385772,1.842015,0.958425
154,1.283333,0.367740,1.843613,0.865013,0.450376,1.838303,1.245056,0.376783,1.327098,0.855923,0.459684,1.323154,1.235842,0.385766,1.842018,0.958422
155,1.291667,0.367733,1.843603,0.865011,0.450379,1.838303,1.245052,0.376800,1.327089,0.855929,0.459711,1.323154,1.235845,0.385761,1.842011,0.958419
156,1.300000,0.367745,1.843611,0.865008,0.450370,1.838304,1.245054,0.376813,1.327097,0.855917,0.459702,1.323155,1.235838,0.385768,1.842017,0.958418
157,1.308333,0.367742,1.843617,0.865006,0.450362,1.838313,1.245052,0.376791,1.327103,0.855924,0.459675,1.323164,1.235846,0.385764,1.842024,0.958415
158,1.316667,0.367741,1.843652,0.865045,0.450229,1.838395,1.245121,0.376891,1.327139,0.856008,0.459643,1.323246,1.235959,0.385730,1.842070,0.958461
159,1.325000,0.367746,1.843604,0.865050,0.450234,1.838406,1.245127,0.376903,1.327090,0.856091,0.459655,1.323256,1.236044,0.385735,1.842037,0.958466
160,1.333333,0.367734,1.843599,0.865052,0.450247,1.838403,1.245123,0.376907,1.327085,0.856092,0.459684,1.323254,1.236039,0.385730,1.842032,0.958467
161,1.341667,0.367736,1.843607,0.865030,0.450273,1.838370,1.245095,0.376864,1.327092,0.856024,0.459665,1.323221,1.235965,0.385738,1.842030,0.958444
162,1.350000,0.367741,1.843611,0.865050,0.450254,1.838418,1.245121,0.376910,1.327096,0.856095,0.459687,1.323268,1.236042,0.385736,1.842045,0.958465
163,1.358333,0.367735,1.843623,0.865001,0.450339,1.838323,1.245051,0.376788,1.327109,0.855923,0.459656,1.323173,1.235849,0.385753,1.842031,0.958412
164,1.366667,0.367712,1.843642,0.864949,0.450279,1.838347,1.245007,0.376800,1.327128,0.855872,0.459632,1.323198,1.235806,0.385720,1.842051,0.958361
165,1.375000,0.367734,1.843592,0.864988,0.450334,1.838300,1.245039,0.376777,1.327077,0.855923,0.459642,1.323150,1.235850,0.385751,1.842002,0.958399
166,1.383333,0.367745,1.843605,0.865038,0.450231,1.838423,1.245115,0.376907,1.327090,0.856101,0.459658,1.323274,1.236054,0.385734,1.842042,0.958455
167,1.391667,0.367733,1.843595,0.864984,0.450355,1.838302,1.245030,0.376777,1.327080,0.855918,0.459664,1.323153,1.235839,0.385755,1.842005,0.958394
168,1.400000,0.367740,1.843608,0.865034,0.450250,1.838420,1.245106,0.376913,1.327094,0.856084,0.459687,1.323270,1.236031,0.385735,1.842043,0.958449
169,1.408333,0.367741,1.843623,0.865041,0.450246,1.838427,1.245115,0.376911,1.327108,0.856084,0.459680,1.323278,1.236032,0.385735,1.842056,0.958457
170,1.416667,0.367746,1.843605,0.865039,0.450243,1.838418,1.245114,0.376923,1.327091,0.856092,0.459685,1.323269,1.236042,0.385738,1.842040,0.958455
171,1.425000,0.367756,1.843604,0.865030,0.450261,1.838415,1.245103,0.376919,1.327089,0.856083,0.459688,1.323265,1.236031,0.385749,1.842038,0.958446
172,1.433333,0.367771,1.843607,0.865028,0.450263,1.838422,1.245105,0.376934,1.327092,0.856087,0.459690,1.323272,1.236038,0.385761,1.842042,0.958445
173,1.441667,0.367775,1.843601,0.865021,0.450276,1.838422,1.245095,0.376926,1.327086,0.856090,0.459692,1.323272,1.236039,0.385768,1.842038,0.958437
174,1.450000,0.367776,1.843616,0.865027,0.450267,1.838418,1.245103,0.376937,1.327101,0.856067,0.459692,1.323268,1.236019,0.385766,1.842048,0.958443
175,1.458333,0.367762,1.843615,0.864987,0.450372,1.838309,1.245036,0.376801,1.327100,0.855905,0.459675,1.323159,1.235829,0.385781,1.842021,0.958397
176,1.466667,0.367773,1.843590,0.864980,0.450394,1.838297,1.245026,0.376826,1.327075,0.855911,0.459711,1.323147,1.235833,0.385795,1.842000,0.958389
177,1.475000,0.367783,1.843611,0.864984,0.450391,1.838306,1.245033,0.376811,1.327096,0.855905,0.459683,1.323156,1.235830,0.385802,1.842018,0.958394
178,1.483333,0.367794,1.843614,0.865037,0.450305,1.838417,1.245109,0.376950,1.327099,0.856081,0.459725,1.323267,1.236028,0.385789,1.842047,0.958453
179,1.491667,0.367796,1.843621,0.865038,0.450307,1.838424,1.245110,0.376950,1.327106,0.856082,0.459725,1.323275,1.236029,0.385791,1.842054,0.958454
180,1.500000,0.367804,1.843610,0.865032,0.450310,1.838419,1.245105,0.376931,1.327095,0.856089,0.459701,1.323268,1.236037,0.385798,1.842045,0.958448
181,1.508333,0.367801,1.843592,0.864986,0.450408,1.838298,1.245035,0.376826,1.327076,0.855923,0.459697,1.323148,1.235848,0.385820,1.842001,0.958396
182,1.516667,0.367819,1.843600,0.864983,0.450405,1.838307,1.245038,0.376832,1.327084,0.855925,0.459682,1.323156,1.235855,0.385832,1.842009,0.958395
183,1.525000,0.367820,1.843600,0.864980,0.450410,1.838311,1.245033,0.376841,1.327084,0.855925,0.459696,1.323160,1.235853,0.385834,1.842010,0.958391
184,1.533333,0.367817,1.843675,0.865031,0.450313,1.838415,1.245105,0.376927,1.327160,0.855999,0.459686,1.323266,1.235949,0.385808,1.842092,0.958446
185,1.541667,0.367827,1.843611,0.864992,0.450413,1.838309,1.245046,0.376843,1.327096,0.855921,0.459693,1.323159,1.235850,0.385840,1.842019,0.958404
186,1.550000,0.367839,1.843609,0.865038,0.450311,1.838425,1.245118,0.376976,1.327093,0.856104,0.459713,1.323274,1.236060,0.385825,1.842045,0.958455
187,1.558333,0.367838,1.843599,0.865042,0.450336,1.838408,1.245117,0.376953,1.327084,0.856102,0.459715,1.323258,1.236052,0.385829,1.842034,0.958458
188,1.566667,0.367827,1.843612,0.865000,0.450422,1.838312,1.245052,0.376833,1.327097,0.855933,0.459693,1.323162,1.235860,0.385842,1.842020,0.958411
189,1.575000,0.367824,1.843608,0.864993,0.450443,1.838313,1.245040,0.376842,1.327093,0.855929,0.459726,1.323163,1.235852,0.385845,1.842018,0.958403
190,1.583333,0.367839,1.843608,0.864991,0.450431,1.838311,1.245044,0.376856,1.327093,0.855925,0.459713,1.323161,1.235853,0.385854,1.842017,0.958402
191,1.591667,0.367805,1.843634,0.865014,0.450437,1.838314,1.245058,0.376833,1.327120,0.855914,0.459729,1.323165,1.235834,0.385830,1.842037,0.958423
192,1.600000,0.367842,1.843617,0.865062,0.450313,1.838418,1.245142,0.376976,1.327102,0.856108,0.459711,1.323268,1.236064,0.385827,1.842049,0.958479
193,1.608333,0.367820,1.843598,0.865001,0.450431,1.838295,1.245050,0.376836,1.327083,0.855926,0.459712,1.323144,1.235850,0.385840,1.842005,0.958411
194,1.616667,0.367836,1.843605,0.864995,0.450427,1.838305,1.245048,0.376844,1.327090,0.855928,0.459700,1.323155,1.235856,0.385850,1.842013,0.958406
195,1.625000,0.367827,1.843617,0.865005,0.450435,1.838308,1.245054,0.376828,1.327102,0.855926,0.459701,1.323158,1.235851,0.385846,1.842023,0.958415
196,1.633333,0.367820,1.843623,0.865013,0.450427,1.838313,1.245062,0.376842,1.327108,0.855929,0.459713,1.323164,1.235854,0.385839,1.842029,0.958423
197,1.641667,0.367821,1.843615,0.865008,0.450432,1.838306,1.245056,0.376844,1.327100,0.855925,0.459720,1.323157,1.235849,0.385840,1.842021,0.958418
198,1.650000,0.367802,1.843619,0.865024,0.450416,1.838305,1.245072,0.376821,1.327104,0.855935,0.459700,1.323155,1.235858,0.385822,1.842023,0.958434
199,1.658333,0.367803,1.843612,0.865009,0.450407,1.838305,1.245059,0.376836,1.327098,0.855926,0.459705,1.323155,1.235851,0.385821,1.842018,0.958420
200,1.666667,0.367815,1.843607,0.865004,0.450416,1.838301,1.245054,0.376827,1.327092,0.855927,0.459692,1.323151,1.235853,0.385832,1.842014,0.958414
201,1.675000,0.367794,1.843620,0.865008,0.450420,1.838308,1.245053,0.376826,1.327106,0.855918,0.459717,1.323159,1.235839,0.385817,1.842025,0.958418
202,1.683333,0.367794,1.843612,0.865009,0.450412,1.838307,1.245056,0.376830,1.327097,0.855927,0.459712,1.323157,1.235850,0.385815,1.842019,0.958419
203,1.691667,0.367783,1.843609,0.865014,0.450394,1.838300,1.245062,0.376820,1.327095,0.855927,0.459695,1.323151,1.235852,0.385802,1.842015,0.958424
204,1.700000,0.367790,1.843618,0.865061,0.450295,1.838410,1.245134,0.376952,1.327104,0.856087,0.459721,1.323261,1.236036,0.385784,1.842048,0.958476
205,1.708333,0.367794,1.843620,0.865063,0.450282,1.838423,1.245140,0.376949,1.327105,0.856107,0.459701,1.323274,1.236059,0.385783,1.842053,0.958479
206,1.716667,0.367779,1.843631,0.865057,0.450279,1.838431,1.245131,0.376920,1.327116,0.856100,0.459685,1.323281,1.236049,0.385771,1.842063,0.958473
207,1.725000,0.367781,1.843614,0.865006,0.450353,1.838313,1.245063,0.376819,1.327100,0.855931,0.459655,1.323163,1.235863,0.385791,1.842022,0.958418
208,1.733333,0.367767,1.843612,0.865058,0.450277,1.838416,1.245130,0.376947,1.327098,0.856096,0.459721,1.323267,1.236043,0.385762,1.842045,0.958473
209,1.741667,0.367769,1.843611,0.865058,0.450261,1.838409,1.245134,0.376940,1.327097,0.856092,0.459696,1.323260,1.236043,0.385759,1.842043,0.958474
210,1.750000,0.367762,1.843618,0.865062,0.450271,1.838418,1.245134,0.376916,1.327103,0.856102,0.459689,1.323268,1.236049,0.385757,1.842050,0.958478
211,1.758333,0.367746,1.843627,0.865015,0.450353,1.838319,1.245064,0.376800,1.327113,0.855927,0.459672,1.323170,1.235852,0.385765,1.842033,0.958425
212,1.766667,0.367743,1.843641,0.864963,0.450299,1.838352,1.245024,0.376825,1.327127,0.855896,0.459645,1.323203,1.235832,0.385749,1.842052,0.958376
213,1.775000,0.367757,1.843635,0.865056,0.450249,1.838428,1.245131,0.376945,1.327121,0.856078,0.459701,1.323279,1.236029,0.385748,1.842065,0.958472
214,1.783333,0.367748,1.843622,0.865060,0.450244,1.838416,1.245135,0.376927,1.327108,0.856086,0.459688,1.323268,1.236036,0.385739,1.842053,0.958476
215,1.791667,0.367731,1.843599,0.865003,0.450346,1.838303,1.245051,0.376797,1.327085,0.855929,0.459677,1.323154,1.235852,0.385752,1.842008,0.958413
216,1.800000,0.367751,1.843619,0.865053,0.450248,1.838425,1.245127,0.376917,1.327104,0.856099,0.459679,1.323276,1.236049,0.385742,1.842052,0.958469
217,1.808333,0.367746,1.843609,0.865049,0.450259,1.838423,1.245120,0.376924,1.327094,0.856103,0.459701,1.323274,1.236050,0.385742,1.842044,0.958464
218,1.816667,0.367742,1.843620,0.865051,0.450243,1.838424,1.245125,0.376930,1.327106,0.856089,0.459696,1.323275,1.236039,0.385735,1.842053,0.958467
219,1.825000,0.367735,1.843607,0.864999,0.450342,1.838303,1.245048,0.376796,1.327093,0.855914,0.459668,1.323154,1.235839,0.385754,1.842014,0.958409
220,1.833333,0.367748,1.843610,0.865043,0.450241,1.838424,1.245119,0.376929,1.327096,0.856097,0.459686,1.323275,1.236048,0.385739,1.842046,0.958460
221,1.841667,0.367743,1.843601,0.865044,0.450261,1.838421,1.245115,0.376926,1.327087,0.856103,0.459708,1.323271,1.236049,0.385740,1.842038,0.958459
222,1.850000,0.367755,1.843610,0.864988,0.450338,1.838318,1.245043,0.376803,1.327095,0.855924,0.459651,1.323168,1.235854,0.385768,1.842020,0.958399
223,1.858333,0.367755,1.843626,0.864992,0.450343,1.838336,1.245046,0.376812,1.327112,0.855927,0.459664,1.323186,1.235856,0.385769,1.842036,0.958403
224,1.866667,0.367757,1.843608,0.865040,0.450257,1.838423,1.245114,0.376938,1.327093,0.856095,0.459703,1.323274,1.236044,0.385749,1.842044,0.958456
225,1.875000,0.367767,1.843593,0.865033,0.450255,1.838419,1.245111,0.376932,1.327078,0.856106,0.459684,1.323269,1.236059,0.385756,1.842031,0.958450
226,1.883333,0.367773,1.843600,0.865038,0.450271,1.838415,1.245112,0.376939,1.327085,0.856095,0.459702,1.323266,1.236045,0.385765,1.842036,0.958454
227,1.891667,0.367771,1.843611,0.864983,0.450360,1.838320,1.245037,0.376806,1.327096,0.855922,0.459659,1.323170,1.235851,0.385785,1.842021,0.958395
228,1.900000,0.367782,1.843608,0.865021,0.450280,1.838436,1.245095,0.376942,1.327092,0.856097,0.459705,1.323286,1.236048,0.385774,1.842047,0.958437
229,1.908333,0.367792,1.843608,0.864973,0.450377,1.838318,1.245028,0.376840,1.327093,0.855912,0.459690,1.323169,1.235842,0.385805,1.842019,0.958385
230,1.916667,0.367789,1.843611,0.865030,0.450295,1.838427,1.245103,0.376959,1.327096,0.856088,0.459730,1.323277,1.236036,0.385782,1.842047,0.958446
231,1.925000,0.367808,1.843605,0.865025,0.450296,1.838417,1.245102,0.376952,1.327090,0.856084,0.459704,1.323267,1.236036,0.385797,1.842040,0.958442
232,1.933333,0.367794,1.843602,0.864975,0.450401,1.838304,1.245024,0.376826,1.327087,0.855905,0.459698,1.323154,1.235830,0.385812,1.842010,0.958385
233,1.941667,0.367821,1.843601,0.864965,0.450380,1.838316,1.245025,0.376836,1.327085,0.855916,0.459660,1.323165,1.235852,0.385828,1.842013,0.958377
234,1.950000,0.367824,1.843615,0.865024,0.450314,1.838438,1.245101,0.376970,1.327100,0.856097,0.459725,1.323287,1.236049,0.385814,1.842053,0.958441
235,1.958333,0.367821,1.843610,0.864974,0.450419,1.838315,1.245025,0.376840,1.327095,0.855910,0.459702,1.323165,1.235837,0.385838,1.842020,0.958384
236,1.966667,0.367817,1.843606,0.865039,0.450319,1.838411,1.245113,0.376960,1.327091,0.856088,0.459727,1.323261,1.236037,0.385810,1.842039,0.958455
237,1.975000,0.367837,1.843599,0.865021,0.450322,1.838417,1.245099,0.376966,1.327083,0.856092,0.459716,1.323267,1.236045,0.385825,1.842035,0.958438
238,1.983333,0.367818,1.843603,0.864986,0.450427,1.838313,1.245035,0.376845,1.327087,0.855929,0.459718,1.323163,1.235854,0.385837,1.842013,0.958397
239,1.991667,0.367835,1.843622,0.864982,0.450432,1.838322,1.245034,0.376849,1.327107,0.855914,0.459711,1.323172,1.235842,0.385851,1.842030,0.958393
240,2.000000,0.367832,1.843612,0.865033,0.450336,1.838423,1.245106,0.376984,1.327097,0.856087,0.459753,1.323273,1.236036,0.385825,1.842047,0.958448
241,2.008333,0.367834,1.843659,0.865021,0.450307,1.838403,1.245100,0.376938,1.327144,0.855996,0.459675,1.323253,1.235951,0.385819,1.842077,0.958438
242,2.016667,0.367843,1.843605,0.865050,0.450319,1.838412,1.245130,0.376972,1.327090,0.856105,0.459712,1.323262,1.236060,0.385829,1.842039,0.958467
243,2.025000,0.367845,1.843594,0.864979,0.450422,1.838299,1.245035,0.376859,1.327079,0.855917,0.459700,1.323148,1.235848,0.385856,1.842003,0.958391
244,2.033333,0.367853,1.843599,0.864988,0.450433,1.838301,1.245043,0.376847,1.327083,0.855927,0.459692,1.323150,1.235857,0.385864,1.842008,0.958400
245,2.041667,0.367838,1.843623,0.865048,0.450329,1.838422,1.245124,0.376998,1.327109,0.856084,0.459753,1.323272,1.236036,0.385828,1.842055,0.958464
246,2.050000,0.367837,1.843608,0.865001,0.450442,1.838299,1.245051,0.376840,1.327093,0.855922,0.459710,1.323149,1.235847,0.385855,1.842014,0.958411
247,2.058333,0.367837,1.843605,0.864999,0.450424,1.838303,1.245052,0.376853,1.327089,0.855928,0.459705,1.323153,1.235857,0.385850,1.842012,0.958410
248,2.066667,0.367837,1.843619,0.865052,0.450339,1.838415,1.245126,0.376971,1.327104,0.856091,0.459737,1.323266,1.236040,0.385830,1.842050,0.958468
249,2.075000,0.367848,1.843609,0.864998,0.450409,1.838301,1.245057,0.376866,1.327094,0.855919,0.459692,1.323151,1.235854,0.385855,1.842015,0.958410
250,2.083333,0.367846,1.843618,0.865000,0.450418,1.838312,1.245057,0.376860,1.327103,0.855924,0.459697,1.323162,1.235857,0.385856,1.842025,0.958412
251,2.091667,0.367849,1.843612,0.864993,0.450412,1.838306,1.245052,0.376841,1.327097,0.855921,0.459668,1.323156,1.235856,0.385856,1.842019,0.958405
252,2.100000,0.367824,1.843597,0.865003,0.450432,1.838289,1.245052,0.376828,1.327081,0.855926,0.459700,1.323139,1.235850,0.385843,1.842003,0.958413
253,2.108333,0.367812,1.843595,0.865004,0.450430,1.838292,1.245050,0.376836,1.327080,0.855927,0.459720,1.323142,1.235849,0.385833,1.842002,0.958413
254,2.116667,0.367815,1.843611,0.865015,0.450402,1.838297,1.245068,0.376836,1.327097,0.855926,0.459688,1.323148,1.235855,0.385828,1.842016,0.958426
255,2.125000,0.367817,1.843634,0.865015,0.450401,1.838317,1.245069,0.376841,1.327119,0.855922,0.459690,1.323168,1.235852,0.385830,1.842038,0.958427
256,2.133333,0.367817,1.843614,0.865062,0.450316,1.838422,1.245136,0.376961,1.327099,0.856114,0.459725,1.323272,1.236064,0.385809,1.842048,0.958478
257,2.141667,0.367814,1.843619,0.865063,0.450303,1.838427,1.245139,0.376956,1.327104,0.856116,0.459709,1.323277,1.236068,0.385804,1.842053,0.958479
258,2.150000,0.367810,1.843607,0.865060,0.450294,1.838402,1.245137,0.376932,1.327092,0.856100,0.459681,1.323252,1.236053,0.385798,1.842038,0.958477
259,2.158333,0.367804,1.843595,0.865060,0.450291,1.838402,1.245137,0.376965,1.327080,0.856109,0.459717,1.323252,1.236061,0.385793,1.842029,0.958477
260,2.166667,0.367788,1.843607,0.865016,0.450392,1.838302,1.245066,0.376824,1.327093,0.855935,0.459693,1.323153,1.235861,0.385806,1.842014,0.958426
261,2.175000,0.367790,1.843607,0.865004,0.450381,1.838314,1.245057,0.376828,1.327092,0.855939,0.459684,1.323164,1.235868,0.385804,1.842016,0.958415
262,2.183333,0.367771,1.843614,0.865013,0.450379,1.838310,1.245062,0.376824,1.327099,0.855930,0.459696,1.323161,1.235855,0.385789,1.842021,0.958423
263,2.191667,0.367761,1.843623,0.865025,0.450357,1.838309,1.245076,0.376809,1.327108,0.855930,0.459670,1.323160,1.235857,0.385777,1.842027,0.958436
264,2.200000,0.367750,1.843596,0.865017,0.450373,1.838289,1.245062,0.376801,1.327081,0.855930,0.459689,1.323140,1.235852,0.385772,1.842002,0.958426
265,2.208333,0.367764,1.843608,0.865066,0.450264,1.838411,1.245140,0.376924,1.327094,0.856108,0.459688,1.323261,1.236057,0.385756,1.842041,0.958481
266,2.216667,0.367776,1.843612,0.865061,0.450273,1.838416,1.245135,0.376934,1.327097,0.856106,0.459695,1.323267,1.236056,0.385768,1.842045,0.958477
267,2.225000,0.367773,1.843611,0.865053,0.450276,1.838421,1.245127,0.376941,1.327096,0.856104,0.459708,1.323272,1.236052,0.385766,1.842046,0.958469
268,2.233333,0.367746,1.843613,0.865011,0.450355,1.838308,1.245060,0.376807,1.327099,0.855926,0.459680,1.323159,1.235850,0.385765,1.842020,0.958422
269,2.241667,0.367760,1.843614,0.865062,0.450236,1.838425,1.245142,0.376933,1.327100,0.856113,0.459673,1.323276,1.236068,0.385746,1.842049,0.958479
270,2.250000,0.367756,1.843606,0.865060,0.450245,1.838415,1.245136,0.376922,1.327091,0.856110,0.459675,1.323266,1.236062,0.385746,1.842040,0.958476
271,2.258333,0.367753,1.843595,0.865000,0.450349,1.838294,1.245051,0.376803,1.327080,0.855922,0.459664,1.323145,1.235850,0.385769,1.842002,0.958410
272,2.266667,0.367754,1.843600,0.865001,0.450354,1.838305,1.245052,0.376814,1.327085,0.855928,0.459679,1.323155,1.235855,0.385771,1.842009,0.958411
273,2.275000,0.367738,1.843618,0.865005,0.450365,1.838316,1.245050,0.376790,1.327103,0.855924,0.459682,1.323166,1.235845,0.385761,1.842025,0.958414
274,2.283333,0.367758,1.843598,0.865046,0.450254,1.838416,1.245122,0.376928,1.327083,0.856107,0.459688,1.323266,1.236058,0.385749,1.842035,0.958463
275,2.291667,0.367747,1.843613,0.865008,0.450345,1.838304,1.245059,0.376803,1.327099,0.855917,0.459666,1.323155,1.235844,0.385763,1.842019,0.958419
276,2.300000,0.367747,1.843609,0.864999,0.450343,1.838308,1.245051,0.376813,1.327095,0.855918,0.459674,1.323159,1.235845,0.385763,1.842016,0.958410
277,2.308333,0.367762,1.843613,0.865044,0.450237,1.838422,1.245123,0.376936,1.327098,0.856092,0.459676,1.323273,1.236047,0.385748,1.842047,0.958461
278,2.316667,0.367770,1.843602,0.865043,0.450253,1.838412,1.245121,0.376935,1.327087,0.856095,0.459683,1.323263,1.236048,0.385758,1.842037,0.958460
279,2.325000,0.367760,1.843606,0.865049,0.450246,1.838418,1.245126,0.376943,1.327092,0.856099,0.459694,1.323269,1.236052,0.385749,1.842041,0.958466
280,2.333333,0.367752,1.843591,0.864989,0.450361,1.838290,1.245038,0.376820,1.327077,0.855907,0.459694,1.323141,1.235831,0.385771,1.841999,0.958400
281,2.341667,0.367776,1.843611,0.865038,0.450242,1.838419,1.245119,0.376954,1.327096,0.856084,0.459685,1.323270,1.236041,0.385760,1.842045,0.958455
282,2.350000,0.367776,1.843607,0.865031,0.450261,1.838419,1.245109,0.376949,1.327092,0.856084,0.459699,1.323269,1.236037,0.385765,1.842042,0.958448
283,2.358333,0.367780,1.843617,0.865035,0.450260,1.838431,1.245114,0.376961,1.327102,0.856089,0.459706,1.323282,1.236043,0.385767,1.842052,0.958452
284,2.366667,0.367788,1.843610,0.865033,0.450254,1.838423,1.245115,0.376955,1.327095,0.856088,0.459686,1.323273,1.236045,0.385772,1.842045,0.958451
285,2.375000,0.367798,1.843607,0.865035,0.450251,1.838423,1.245119,0.376961,1.327092,0.856096,0.459678,1.323273,1.236055,0.385779,1.842043,0.958453
286,2.383333,0.367798,1.843599,0.865031,0.450257,1.838416,1.245114,0.376973,1.327085,0.856090,0.459696,1.323267,1.236049,0.385781,1.842036,0.958449
287,2.391667,0.367801,1.843597,0.865030,0.450274,1.838415,1.245110,0.376973,1.327082,0.856091,0.459710,1.323265,1.236047,0.385787,1.842033,0.958447
288,2.400000,0.367806,1.843602,0.865029,0.450285,1.838414,1.245108,0.376973,1.327087,0.856083,0.459717,1.323264,1.236037,0.385793,1.842037,0.958446
289,2.408333,0.367804,1.843602,0.865022,0.450293,1.838418,1.245099,0.376970,1.327087,0.856082,0.459723,1.323268,1.236034,0.385794,1.842038,0.958439
290,2.416667,0.367823,1.843609,0.865030,0.450265,1.838415,1.245117,0.376966,1.327094,0.856083,0.459672,1.323265,1.236045,0.385801,1.842043,0.958449
291,2.425000,0.367819,1.843602,0.865036,0.450286,1.838411,1.245117,0.376963,1.327087,0.856091,0.459695,1.323261,1.236047,0.385803,1.842036,0.958454
292,2.433333,0.367822,1.843605,0.865032,0.450283,1.838408,1.245114,0.376969,1.327090,0.856079,0.459694,1.323259,1.236037,0.385805,1.842038,0.958449
293,2.441667,0.367828,1.843602,0.865027,0.450297,1.838412,1.245108,0.376979,1.327087,0.856082,0.459713,1.323262,1.236038,0.385812,1.842036,0.958444
294,2.450000,0.367837,1.843617,0.865034,0.450303,1.838420,1.245115,0.376986,1.327102,0.856079,0.459717,1.323270,1.236036,0.385821,1.842050,0.958451
295,2.458333,0.367835,1.843601,0.865035,0.450297,1.838407,1.245117,0.376994,1.327087,0.856082,0.459721,1.323257,1.236039,0.385818,1.842035,0.958452
296,2.466667,0.367837,1.843604,0.865033,0.450288,1.838410,1.245118,0.376979,1.327088,0.856086,0.459694,1.323260,1.236046,0.385817,1.842037,0.958452
297,2.475000,0.367822,1.843589,0.864981,0.450418,1.838282,1.245033,0.376839,1.327073,0.855903,0.459700,1.323132,1.235830,0.385837,1.841995,0.958392
298,2.483333,0.367817,1.843613,0.864992,0.450424,1.838302,1.245041,0.376845,1.327099,0.855904,0.459717,1.323153,1.235829,0.385835,1.842019,0.958402
299,2.491667,0.367848,1.843603,0.865038,0.450310,1.838409,1.245120,0.376999,1.327088,0.856087,0.459725,1.323260,1.236045,0.385831,1.842037,0.958455
300,2.500000,0.367837,1.843611,0.864990,0.450429,1.838306,1.245042,0.376856,1.327096,0.855913,0.459713,1.323156,1.235841,0.385852,1.842018,0.958401
301,2.508333,0.367835,1.843610,0.865049,0.450314,1.838409,1.245127,0.376991,1.327095,0.856088,0.459733,1.323260,1.236042,0.385822,1.842042,0.958465
302,2.516667,0.367847,1.843598,0.865042,0.450304,1.838395,1.245126,0.376995,1.327083,0.856081,0.459717,1.323246,1.236040,0.385828,1.842029,0.958460
303,2.525000,0.367819,1.843608,0.865001,0.450421,1.838294,1.245051,0.376834,1.327094,0.855911,0.459701,1.323144,1.235837,0.385836,1.842013,0.958411
304,2.533333,0.367838,1.843610,0.865051,0.450307,1.838405,1.245132,0.376967,1.327095,0.856091,0.459700,1.323255,1.236047,0.385822,1.842041,0.958468
305,2.541667,0.367835,1.843613,0.865000,0.450414,1.838305,1.245055,0.376864,1.327098,0.855918,0.459708,1.323156,1.235849,0.385846,1.842019,0.958411
306,2.550000,0.367837,1.843607,0.865049,0.450305,1.838406,1.245130,0.376987,1.327092,0.856089,0.459719,1.323256,1.236046,0.385822,1.842039,0.958466
307,2.558333,0.367832,1.843614,0.865053,0.450292,1.838405,1.245136,0.376988,1.327100,0.856081,0.459712,1.323255,1.236039,0.385814,1.842044,0.958471
308,2.566667,0.367818,1.843608,0.865037,0.450335,1.838362,1.245106,0.376923,1.327094,0.856024,0.459704,1.323213,1.235969,0.385814,1.842029,0.958451
309,2.575000,0.367824,1.843614,0.865041,0.450346,1.838367,1.245110,0.376929,1.327099,0.856027,0.459716,1.323218,1.235971,0.385821,1.842035,0.958456
310,2.583333,0.367824,1.843614,0.865058,0.450297,1.838410,1.245138,0.376982,1.327099,0.856093,0.459719,1.323261,1.236049,0.385810,1.842045,0.958476
311,2.591667,0.367819,1.843613,0.865007,0.450399,1.838295,1.245062,0.376843,1.327098,0.855912,0.459688,1.323146,1.235843,0.385831,1.842017,0.958418
312,2.600000,0.367815,1.843606,0.865057,0.450292,1.838403,1.245136,0.376963,1.327091,0.856095,0.459704,1.323254,1.236050,0.385802,1.842037,0.958474
313,2.608333,0.367815,1.843604,0.865055,0.450273,1.838402,1.245138,0.376970,1.327089,0.856093,0.459693,1.323253,1.236051,0.385797,1.842035,0.958472
314,2.616667,0.367815,1.843607,0.865054,0.450274,1.838409,1.245137,0.376963,1.327092,0.856098,0.459687,1.323259,1.236057,0.385797,1.842040,0.958472
315,2.625000,0.367813,1.843621,0.865060,0.450278,1.838418,1.245142,0.376979,1.327107,0.856095,0.459707,1.323269,1.236052,0.385797,1.842052,0.958478
316,2.633333,0.367809,1.843616,0.865059,0.450274,1.838416,1.245141,0.376953,1.327101,0.856102,0.459682,1.323266,1.236059,0.385793,1.842048,0.958477
317,2.641667,0.367786,1.843626,0.865017,0.450368,1.838307,1.245072,0.376818,1.327112,0.855918,0.459665,1.323157,1.235848,0.385798,1.842030,0.958429
318,2.650000,0.367798,1.843615,0.865059,0.450261,1.838415,1.245141,0.376943,1.327100,0.856101,0.459670,1.323265,1.236059,0.385781,1.842047,0.958476
319,2.658333,0.367796,1.843608,0.865061,0.450273,1.838403,1.245140,0.376945,1.327093,0.856095,0.459687,1.323253,1.236049,0.385783,1.842039,0.958478
320,2.666667,0.367804,1.843607,0.865059,0.450281,1.838400,1.245138,0.376975,1.327092,0.856088,0.459716,1.323251,1.236042,0.385791,1.842037,0.958476
321,2.675000,0.367788,1.843627,0.865013,0.450367,1.838309,1.245068,0.376824,1.327113,0.855914,0.459667,1.323159,1.235845,0.385799,1.842031,0.958425
322,2.683333,0.367793,1.843618,0.865063,0.450255,1.838418,1.245145,0.376950,1.327103,0.856103,0.459676,1.323268,1.236061,0.385776,1.842050,0.958480
323,2.691667,0.367781,1.843618,0.865057,0.450250,1.838410,1.245137,0.376943,1.327103,0.856085,0.459677,1.323261,1.236041,0.385765,1.842048,0.958474
324,2.700000,0.367777,1.843602,0.865059,0.450261,1.838395,1.245136,0.376939,1.327087,0.856088,0.459687,1.323246,1.236041,0.385766,1.842032,0.958475
325,2.708333,0.367775,1.843599,0.865037,0.450291,1.838357,1.245107,0.376913,1.327085,0.856022,0.459693,1.323208,1.235967,0.385771,1.842021,0.958452
326,2.716667,0.367786,1.843608,0.865057,0.450268,1.838408,1.245135,0.376951,1.327094,0.856094,0.459697,1.323258,1.236048,0.385774,1.842040,0.958474
327,2.725000,0.367785,1.843618,0.865061,0.450253,1.838414,1.245142,0.376964,1.327103,0.856092,0.459697,1.323265,1.236048,0.385770,1.842049,0.958479
328,2.733333,0.367792,1.843611,0.865060,0.450270,1.838405,1.245139,0.376942,1.327096,0.856092,0.459684,1.323255,1.236047,0.385779,1.842042,0.958477
329,2.741667,0.367787,1.843599,0.865052,0.450246,1.838405,1.245135,0.376950,1.327084,0.856099,0.459673,1.323255,1.236057,0.385769,1.842032,0.958469
330,2.750000,0.367790,1.843602,0.865047,0.450269,1.838400,1.245125,0.376941,1.327087,0.856085,0.459684,1.323251,1.236039,0.385778,1.842034,0.958463
331,2.758333,0.367782,1.843605,0.865029,0.450294,1.838369,1.245100,0.376909,1.327090,0.856026,0.459686,1.323220,1.235972,0.385777,1.842028,0.958445
332,2.766667,0.367797,1.843606,0.865041,0.450281,1.838408,1.245119,0.376948,1.327091,0.856085,0.459695,1.323259,1.236038,0.385785,1.842039,0.958458
333,2.775000,0.367799,1.843605,0.865049,0.450280,1.838409,1.245127,0.376949,1.327090,0.856096,0.459694,1.323259,1.236049,0.385786,1.842038,0.958466
334,2.783333,0.367803,1.843607,0.865047,0.450285,1.838410,1.245125,0.376951,1.327092,0.856092,0.459697,1.323260,1.236045,0.385790,1.842040,0.958463
335,2.791667,0.367801,1.843600,0.865045,0.450277,1.838406,1.245124,0.376953,1.327085,0.856094,0.459693,1.323256,1.236049,0.385787,1.842034,0.958462
336,2.800000,0.367799,1.843605,0.865048,0.450289,1.838406,1.245124,0.376965,1.327090,0.856087,0.459720,1.323257,1.236038,0.385789,1.842037,0.958464
337,2.808333,0.367815,1.843607,0.865034,0.450280,1.838413,1.245116,0.376963,1.327092,0.856084,0.459694,1.323263,1.236041,0.385798,1.842041,0.958452
338,2.816667,0.367791,1.843602,0.864987,0.450412,1.838300,1.245033,0.376820,1.327087,0.855912,0.459706,1.323151,1.235833,0.385813,1.842010,0.958396
339,2.825000,0.367803,1.843604,0.865026,0.450326,1.838369,1.245095,0.376929,1.327089,0.856023,0.459716,1.323219,1.235967,0.385801,1.842028,0.958441
340,2.833333,0.367830,1.843600,0.865036,0.450280,1.838408,1.245121,0.376990,1.327085,0.856086,0.459705,1.323258,1.236047,0.385810,1.842034,0.958455
341,2.841667,0.367835,1.843600,0.865027,0.450278,1.838412,1.245114,0.376967,1.327084,0.856091,0.459674,1.323262,1.236053,0.385814,1.842035,0.958446
342,2.850000,0.367841,1.843610,0.865031,0.450287,1.838416,1.245116,0.376988,1.327095,0.856081,0.459699,1.323266,1.236042,0.385820,1.842043,0.958449
343,2.858333,0.367818,1.843615,0.865019,0.450341,1.838381,1.245088,0.376935,1.327100,0.856019,0.459722,1.323231,1.235963,0.385816,1.842039,0.958434
344,2.866667,0.367832,1.843623,0.864981,0.450403,1.838316,1.245038,0.376855,1.327108,0.855901,0.459690,1.323166,1.235834,0.385842,1.842029,0.958393
345,2.875000,0.367845,1.843611,0.865031,0.450299,1.838423,1.245115,0.376980,1.327096,0.856092,0.459699,1.323273,1.236051,0.385826,1.842046,0.958449
346,2.883333,0.367806,1.843632,0.864932,0.450348,1.838333,1.244996,0.376883,1.327118,0.855853,0.459689,1.323184,1.235793,0.385809,1.842040,0.958345
347,2.891667,0.367841,1.843607,0.865010,0.450343,1.838370,1.245083,0.376940,1.327091,0.856011,0.459706,1.323220,1.235960,0.385834,1.842030,0.958425
348,2.900000,0.367849,1.843611,0.865026,0.450310,1.838414,1.245108,0.377000,1.327096,0.856070,0.459726,1.323264,1.236028,0.385832,1.842044,0.958443
349,2.908333,0.367833,1.843614,0.864986,0.450435,1.838312,1.245037,0.376857,1.327099,0.855913,0.459724,1.323162,1.235839,0.385850,1.842022,0.958397
350,2.916667,0.367832,1.843611,0.864989,0.450421,1.838305,1.245042,0.376854,1.327096,0.855910,0.459707,1.323155,1.235839,0.385846,1.842018,0.958400
351,2.925000,0.367860,1.843598,0.865025,0.450301,1.838408,1.245112,0.376991,1.327082,0.856085,0.459697,1.323257,1.236047,0.385838,1.842032,0.958443
352,2.933333,0.367855,1.843600,0.865034,0.450303,1.838403,1.245119,0.376982,1.327085,0.856084,0.459694,1.323252,1.236045,0.385835,1.842033,0.958452
353,2.941667,0.367844,1.843615,0.865041,0.450318,1.838412,1.245121,0.376991,1.327100,0.856079,0.459729,1.323262,1.236034,0.385830,1.842046,0.958458
354,2.950000,0.367849,1.843621,0.865038,0.450324,1.838421,1.245117,0.376978,1.327105,0.856084,0.459718,1.323271,1.236038,0.385835,1.842053,0.958455
355,2.958333,0.367851,1.843611,0.865040,0.450339,1.838406,1.245117,0.376993,1.327097,0.856076,0.459745,1.323256,1.236028,0.385840,1.842042,0.958457
356,2.966667,0.367859,1.843609,0.865038,0.450315,1.838408,1.245121,0.376982,1.327093,0.856084,0.459702,1.323258,1.236043,0.385840,1.842041,0.958456
357,2.975000,0.367848,1.843604,0.865038,0.450308,1.838404,1.245121,0.376957,1.327088,0.856089,0.459682,1.323253,1.236047,0.385830,1.842036,0.958456
358,2.983333,0.367837,1.843599,0.865044,0.450331,1.838397,1.245120,0.376978,1.327084,0.856085,0.459736,1.323247,1.236035,0.385828,1.842031,0.958461
359,2.991667,0.367846,1.843608,0.865047,0.450318,1.838407,1.245127,0.376986,1.327093,0.856089,0.459722,1.323257,1.236044,0.385832,1.842040,0.958464
360,3.000000,0.367847,1.843602,0.865043,0.450335,1.838411,1.245120,0.376996,1.327087,0.856096,0.459748,1.323261,1.236048,0.385836,1.842037,0.958459
361,3.008333,0.367842,1.843601,0.865047,0.450323,1.838405,1.245125,0.376993,1.327086,0.856092,0.459738,1.323255,1.236046,0.385830,1.842034,0.958463
362,3.016667,0.367831,1.843614,0.865063,0.450315,1.838402,1.245140,0.376971,1.327099,0.856091,0.459719,1.323253,1.236043,0.385819,1.842043,0.958479
363,3.025000,0.367841,1.843602,0.865050,0.450294,1.838405,1.245135,0.376986,1.327086,0.856097,0.459703,1.323255,1.236057,0.385822,1.842034,0.958468
364,3.033333,0.367823,1.843594,0.865051,0.450307,1.838396,1.245128,0.376967,1.327079,0.856096,0.459715,1.323246,1.236049,0.385812,1.842026,0.958467
365,3.041667,0.367805,1.843619,0.865003,0.450406,1.838307,1.245053,0.376832,1.327104,0.855915,0.459698,1.323158,1.235841,0.385822,1.842024,0.958413
366,3.050000,0.367818,1.843606,0.865051,0.450299,1.838405,1.245130,0.376973,1.327091,0.856090,0.459718,1.323255,1.236044,0.385806,1.842038,0.958468
367,3.058333,0.367806,1.843611,0.865060,0.450290,1.838403,1.245137,0.376965,1.327096,0.856089,0.459714,1.323254,1.236042,0.385794,1.842041,0.958476
368,3.066667,0.367810,1.843590,0.865058,0.450290,1.838397,1.245137,0.376953,1.327075,0.856110,0.459697,1.323247,1.236064,0.385797,1.842024,0.958475
369,3.075000,0.367812,1.843613,0.865057,0.450294,1.838399,1.245135,0.376952,1.327099,0.856081,0.459698,1.323249,1.236034,0.385800,1.842042,0.958474
370,3.083333,0.367809,1.843611,0.865056,0.450286,1.838417,1.245135,0.376964,1.327096,0.856104,0.459705,1.323267,1.236059,0.385796,1.842044,0.958473
371,3.091667,0.367797,1.843620,0.865064,0.450277,1.838409,1.245142,0.376976,1.327106,0.856084,0.459720,1.323260,1.236037,0.385785,1.842049,0.958481
372,3.100000,0.367790,1.843657,0.865050,0.450257,1.838395,1.245131,0.376919,1.327143,0.856013,0.459650,1.323247,1.235969,0.385774,1.842074,0.958467
373,3.108333,0.367783,1.843605,0.865036,0.450318,1.838362,1.245102,0.376897,1.327091,0.856024,0.459697,1.323212,1.235965,0.385784,1.842027,0.958450
374,3.116667,0.367790,1.843603,0.865058,0.450271,1.838404,1.245136,0.376959,1.327088,0.856096,0.459704,1.323254,1.236050,0.385777,1.842035,0.958475
375,3.125000,0.367776,1.843616,0.865059,0.450266,1.838411,1.245136,0.376939,1.327101,0.856092,0.459693,1.323262,1.236043,0.385766,1.842046,0.958476
376,3.133333,0.367770,1.843614,0.865039,0.450297,1.838364,1.245107,0.376901,1.327100,0.856015,0.459692,1.323215,1.235958,0.385769,1.842034,0.958454
377,3.141667,0.367774,1.843610,0.865039,0.450288,1.838364,1.245110,0.376902,1.327096,0.856022,0.459681,1.323215,1.235968,0.385770,1.842031,0.958454
378,3.150000,0.367767,1.843603,0.865059,0.450262,1.838404,1.245134,0.376951,1.327089,0.856095,0.459710,1.323255,1.236045,0.385758,1.842035,0.958475
379,3.158333,0.367769,1.843604,0.865055,0.450275,1.838409,1.245127,0.376949,1.327090,0.856096,0.459718,1.323260,1.236044,0.385763,1.842037,0.958470
380,3.166667,0.367772,1.843605,0.865057,0.450248,1.838413,1.245136,0.376947,1.327091,0.856102,0.459688,1.323263,1.236057,0.385758,1.842039,0.958474
381,3.175000,0.367760,1.843618,0.865040,0.450290,1.838377,1.245107,0.376898,1.327103,0.856028,0.459693,1.323228,1.235970,0.385759,1.842040,0.958454
382,3.183333,0.367769,1.843612,0.865052,0.450257,1.838411,1.245129,0.376934,1.327097,0.856089,0.459686,1.323262,1.236041,0.385759,1.842044,0.958469
383,3.191667,0.367763,1.843609,0.865053,0.450256,1.838414,1.245128,0.376943,1.327094,0.856094,0.459700,1.323265,1.236045,0.385754,1.842042,0.958469
384,3.200000,0.367762,1.843603,0.865034,0.450287,1.838369,1.245102,0.376888,1.327088,0.856033,0.459677,1.323220,1.235977,0.385760,1.842026,0.958448
385,3.208333,0.367763,1.843605,0.865050,0.450247,1.838407,1.245128,0.376938,1.327090,0.856089,0.459686,1.323258,1.236042,0.385752,1.842037,0.958467
386,3.216667,0.367763,1.843619,0.865002,0.450367,1.838308,1.245051,0.376807,1.327104,0.855912,0.459675,1.323159,1.235838,0.385781,1.842024,0.958412
387,3.225000,0.367777,1.843612,0.865041,0.450258,1.838421,1.245119,0.376940,1.327097,0.856092,0.459685,1.323272,1.236045,0.385765,1.842046,0.958458
388,3.233333,0.367776,1.843614,0.865048,0.450267,1.838422,1.245124,0.376926,1.327099,0.856099,0.459682,1.323272,1.236050,0.385766,1.842048,0.958464
389,3.241667,0.367778,1.843603,0.865042,0.450250,1.838413,1.245122,0.376940,1.327088,0.856095,0.459676,1.323264,1.236050,0.385763,1.842037,0.958459
390,3.250000,0.367764,1.843607,0.864996,0.450368,1.838302,1.245046,0.376820,1.327092,0.855911,0.459688,1.323153,1.235837,0.385782,1.842013,0.958406
391,3.258333,0.367780,1.843605,0.865039,0.450287,1.838410,1.245112,0.376950,1.327090,0.856083,0.459721,1.323261,1.236031,0.385774,1.842038,0.958455
392,3.266667,0.367787,1.843605,0.865034,0.450264,1.838418,1.245113,0.376962,1.327091,0.856088,0.459703,1.323269,1.236042,0.385774,1.842040,0.958451
393,3.275000,0.367801,1.843605,0.865025,0.450299,1.838412,1.245099,0.376964,1.327090,0.856072,0.459726,1.323263,1.236022,0.385793,1.842039,0.958441
394,3.283333,0.367787,1.843616,0.865018,0.450316,1.838375,1.245085,0.376917,1.327101,0.856006,0.459711,1.323226,1.235949,0.385786,1.842038,0.958432
395,3.291667,0.367780,1.843607,0.864982,0.450406,1.838303,1.245027,0.376827,1.327092,0.855900,0.459718,1.323154,1.235821,0.385803,1.842014,0.958391
396,3.300000,0.367782,1.843616,0.865011,0.450321,1.838373,1.245076,0.376906,1.327101,0.855998,0.459709,1.323224,1.235938,0.385784,1.842038,0.958425
397,3.308333,0.367787,1.843617,0.864982,0.450394,1.838313,1.245031,0.376830,1.327103,0.855901,0.459702,1.323164,1.235826,0.385806,1.842024,0.958392
398,3.316667,0.367805,1.843608,0.864973,0.450404,1.838302,1.245024,0.376839,1.327093,0.855891,0.459703,1.323152,1.235818,0.385822,1.842015,0.958384
399,3.325000,0.367828,1.843617,0.865023,0.450306,1.838416,1.245102,0.376964,1.327102,0.856067,0.459706,1.323266,1.236021,0.385815,1.842049,0.958440
400,3.333333,0.367823,1.843616,0.865025,0.450312,1.838419,1.245101,0.376969,1.327101,0.856071,0.459723,1.323270,1.236023,0.385813,1.842049,0.958441
401,3.341667,0.367809,1.843608,0.864972,0.450413,1.838302,1.245022,0.376854,1.327094,0.855889,0.459722,1.323153,1.235815,0.385827,1.842015,0.958383
402,3.350000,0.367812,1.843597,0.864972,0.450431,1.838291,1.245019,0.376830,1.327082,0.855893,0.459712,1.323141,1.235816,0.385834,1.842004,0.958382
403,3.358333,0.367805,1.843629,0.864979,0.450420,1.838316,1.245027,0.376833,1.327115,0.855889,0.459713,1.323166,1.235812,0.385826,1.842034,0.958389
404,3.366667,0.367825,1.843622,0.864971,0.450420,1.838314,1.245023,0.376848,1.327107,0.855889,0.459708,1.323164,1.235817,0.385840,1.842028,0.958382
405,3.375000,0.367835,1.843610,0.865015,0.450312,1.838412,1.245094,0.376992,1.327096,0.856057,0.459734,1.323263,1.236012,0.385822,1.842043,0.958432
406,3.383333,0.367812,1.843603,0.864969,0.450444,1.838297,1.245013,0.376865,1.327088,0.855884,0.459762,1.323148,1.235804,0.385837,1.842009,0.958379
407,3.391667,0.367821,1.843613,0.864973,0.450445,1.838305,1.245019,0.376840,1.327097,0.855892,0.459728,1.323155,1.235813,0.385844,1.842019,0.958383
408,3.400000,0.367834,1.843616,0.865026,0.450325,1.838422,1.245102,0.376961,1.327101,0.856079,0.459717,1.323271,1.236030,0.385824,1.842050,0.958442
409,3.408333,0.367827,1.843615,0.864976,0.450444,1.838304,1.245023,0.376850,1.327101,0.855889,0.459731,1.323154,1.235812,0.385848,1.842021,0.958386
410,3.416667,0.367814,1.843610,0.864982,0.450427,1.838304,1.245030,0.376861,1.327096,0.855898,0.459738,1.323155,1.235822,0.385834,1.842016,0.958392
411,3.425000,0.367832,1.843612,0.864972,0.450428,1.838305,1.245024,0.376844,1.327096,0.855895,0.459704,1.323155,1.235822,0.385848,1.842018,0.958383
412,3.433333,0.367830,1.843605,0.865019,0.450315,1.838410,1.245097,0.376972,1.327090,0.856068,0.459721,1.323260,1.236021,0.385819,1.842038,0.958436
413,3.441667,0.367833,1.843608,0.864977,0.450432,1.838300,1.245028,0.376842,1.327093,0.855897,0.459706,1.323150,1.235824,0.385849,1.842014,0.958387
414,3.450000,0.367811,1.843640,0.864991,0.450415,1.838322,1.245041,0.376818,1.327125,0.855899,0.459687,1.323172,1.235825,0.385829,1.842044,0.958401
415,3.458333,0.367811,1.843619,0.864983,0.450402,1.838311,1.245036,0.376833,1.327104,0.855902,0.459688,1.323161,1.235830,0.385826,1.842026,0.958395
416,3.466667,0.367814,1.843604,0.864978,0.450427,1.838302,1.245026,0.376838,1.327089,0.855903,0.459715,1.323152,1.235827,0.385834,1.842012,0.958388
417,3.475000,0.367816,1.843608,0.864984,0.450415,1.838307,1.245035,0.376843,1.327093,0.855911,0.459707,1.323157,1.235838,0.385832,1.842016,0.958394
418,3.483333,0.367806,1.843626,0.864989,0.450407,1.838312,1.245039,0.376830,1.327111,0.855900,0.459696,1.323162,1.235826,0.385823,1.842030,0.958399
419,3.491667,0.367797,1.843660,0.864948,0.450327,1.838350,1.245014,0.376875,1.327146,0.855854,0.459670,1.323201,1.235795,0.385797,1.842065,0.958362
420,3.500000,0.367795,1.843641,0.865000,0.450394,1.838323,1.245051,0.376827,1.327126,0.855903,0.459690,1.323174,1.235830,0.385811,1.842044,0.958410
421,3.508333,0.367797,1.843628,0.865003,0.450394,1.838317,1.245055,0.376822,1.327113,0.855918,0.459684,1.323168,1.235845,0.385813,1.842033,0.958414
422,3.516667,0.367804,1.843609,0.865045,0.450281,1.838412,1.245124,0.376951,1.327094,0.856090,0.459693,1.323262,1.236044,0.385790,1.842042,0.958462
423,3.525000,0.367815,1.843603,0.865046,0.450262,1.838411,1.245132,0.376964,1.327088,0.856099,0.459676,1.323261,1.236060,0.385794,1.842037,0.958465
424,3.533333,0.367771,1.843616,0.865008,0.450386,1.838302,1.245055,0.376815,1.327102,0.855913,0.459695,1.323153,1.235836,0.385792,1.842021,0.958418
425,3.541667,0.367780,1.843623,0.865051,0.450268,1.838429,1.245128,0.376949,1.327109,0.856096,0.459701,1.323279,1.236048,0.385769,1.842057,0.958468
426,3.550000,0.367777,1.843610,0.865052,0.450279,1.838413,1.245126,0.376953,1.327095,0.856092,0.459718,1.323264,1.236041,0.385770,1.842042,0.958468
427,3.558333,0.367788,1.843616,0.865059,0.450271,1.838409,1.245136,0.376961,1.327102,0.856084,0.459709,1.323260,1.236037,0.385776,1.842046,0.958475
428,3.566667,0.367776,1.843603,0.865055,0.450278,1.838413,1.245129,0.376949,1.327088,0.856105,0.459716,1.323264,1.236054,0.385769,1.842037,0.958471
429,3.575000,0.367773,1.843613,0.865044,0.450298,1.838368,1.245111,0.376905,1.327099,0.856026,0.459695,1.323219,1.235970,0.385771,1.842034,0.958458
430,3.583333,0.367755,1.843600,0.865008,0.450399,1.838296,1.245050,0.376808,1.327085,0.855926,0.459716,1.323147,1.235842,0.385783,1.842007,0.958417
431,3.591667,0.367780,1.843606,0.865056,0.450249,1.838418,1.245137,0.376950,1.327091,0.856111,0.459683,1.323269,1.236068,0.385765,1.842041,0.958474
432,3.600000,0.367762,1.843620,0.865016,0.450382,1.838304,1.245062,0.376814,1.327106,0.855916,0.459698,1.323155,1.235838,0.385784,1.842024,0.958426
433,3.608333,0.367777,1.843602,0.865060,0.450243,1.838409,1.245141,0.376931,1.327087,0.856111,0.459661,1.323260,1.236068,0.385761,1.842036,0.958477
434,3.616667,0.367770,1.843605,0.865060,0.450252,1.838415,1.245138,0.376945,1.327090,0.856110,0.459691,1.323266,1.236063,0.385757,1.842039,0.958477
435,3.625000,0.367753,1.843637,0.864959,0.450289,1.838342,1.245023,0.376834,1.327123,0.855883,0.459635,1.323193,1.235824,0.385754,1.842046,0.958372
436,3.633333,0.367765,1.843616,0.865043,0.450291,1.838377,1.245111,0.376908,1.327102,0.856031,0.459699,1.323228,1.235974,0.385763,1.842039,0.958457
437,3.641667,0.367777,1.843605,0.865051,0.450273,1.838410,1.245126,0.376930,1.327090,0.856098,0.459690,1.323261,1.236049,0.385769,1.842038,0.958467
438,3.650000,0.367770,1.843607,0.865005,0.450377,1.838298,1.245054,0.376804,1.327093,0.855919,0.459675,1.323148,1.235844,0.385788,1.842013,0.958415
439,3.658333,0.367779,1.843613,0.865055,0.450267,1.838403,1.245132,0.376952,1.327099,0.856077,0.459705,1.323254,1.236029,0.385768,1.842042,0.958472
440,3.666667,0.367780,1.843607,0.865047,0.450261,1.838416,1.245125,0.376950,1.327092,0.856095,0.459696,1.323266,1.236049,0.385767,1.842041,0.958463
441,3.675000,0.367783,1.843604,0.865042,0.450268,1.838411,1.245120,0.376953,1.327089,0.856089,0.459703,1.323262,1.236041,0.385772,1.842038,0.958459
442,3.683333,0.367777,1.843607,0.864997,0.450377,1.838300,1.245048,0.376808,1.327092,0.855916,0.459673,1.323151,1.235842,0.385794,1.842013,0.958408
443,3.691667,0.367759,1.843630,0.864946,0.450314,1.838337,1.245007,0.376830,1.327115,0.855876,0.459650,1.323188,1.235813,0.385765,1.842039,0.958359
444,3.700000,0.367783,1.843608,0.865030,0.450305,1.838368,1.245099,0.376918,1.327094,0.856019,0.459704,1.323219,1.235964,0.385781,1.842031,0.958445
445,3.708333,0.367798,1.843607,0.865038,0.450260,1.838408,1.245120,0.376965,1.327093,0.856077,0.459692,1.323258,1.236034,0.385781,1.842039,0.958455
446,3.716667,0.367777,1.843591,0.864980,0.450405,1.838288,1.245025,0.376815,1.327077,0.855900,0.459708,1.323138,1.235820,0.385800,1.841998,0.958389
447,3.725000,0.367772,1.843623,0.864998,0.450406,1.838315,1.245041,0.376808,1.327108,0.855913,0.459707,1.323166,1.235832,0.385797,1.842029,0.958407
448,3.733333,0.367783,1.843611,0.864996,0.450400,1.838300,1.245044,0.376820,1.327097,0.855907,0.459701,1.323151,1.235830,0.385804,1.842017,0.958406
449,3.741667,0.367813,1.843594,0.865034,0.450283,1.838408,1.245114,0.376964,1.327079,0.856094,0.459699,1.323258,1.236050,0.385798,1.842030,0.958451
450,3.750000,0.367799,1.843602,0.864986,0.450417,1.838292,1.245032,0.376800,1.327087,0.855905,0.459683,1.323142,1.235828,0.385820,1.842008,0.958395
451,3.758333,0.367796,1.843611,0.864987,0.450410,1.838301,1.245034,0.376826,1.327096,0.855900,0.459706,1.323151,1.235823,0.385816,1.842016,0.958397
452,3.766667,0.367795,1.843618,0.864988,0.450398,1.838306,1.245038,0.376824,1.327103,0.855901,0.459693,1.323157,1.235826,0.385812,1.842023,0.958399
453,3.775000,0.367801,1.843624,0.864992,0.450402,1.838317,1.245042,0.376826,1.327109,0.855910,0.459691,1.323167,1.235837,0.385818,1.842031,0.958402
454,3.783333,0.367824,1.843622,0.865030,0.450298,1.838416,1.245110,0.376986,1.327108,0.856061,0.459724,1.323267,1.236016,0.385810,1.842053,0.958447
455,3.791667,0.367803,1.843616,0.864983,0.450428,1.838306,1.245028,0.376821,1.327101,0.855899,0.459712,1.323156,1.235820,0.385826,1.842021,0.958393
456,3.800000,0.367807,1.843615,0.864981,0.450423,1.838304,1.245028,0.376814,1.327100,0.855899,0.459694,1.323154,1.235822,0.385828,1.842020,0.958391
457,3.808333,0.367795,1.843629,0.864991,0.450430,1.838314,1.245034,0.376829,1.327115,0.855895,0.459728,1.323164,1.235814,0.385820,1.842034,0.958400
458,3.816667,0.367808,1.843633,0.864985,0.450418,1.838321,1.245033,0.376832,1.327118,0.855897,0.459707,1.323171,1.235822,0.385827,1.842038,0.958395
459,3.825000,0.367838,1.843621,0.865024,0.450329,1.838419,1.245100,0.376983,1.327106,0.856064,0.459738,1.323269,1.236015,0.385828,1.842052,0.958440
460,3.833333,0.367822,1.843611,0.864981,0.450427,1.838298,1.245030,0.376847,1.327096,0.855892,0.459716,1.323148,1.235817,0.385840,1.842016,0.958391
461,3.841667,0.367831,1.843597,0.864978,0.450438,1.838293,1.245027,0.376851,1.327082,0.855902,0.459723,1.323143,1.235827,0.385849,1.842004,0.958388
462,3.850000,0.367818,1.843607,0.864979,0.450430,1.838299,1.245028,0.376833,1.327091,0.855900,0.459710,1.323149,1.235824,0.385838,1.842013,0.958389
463,3.858333,0.367819,1.843628,0.864991,0.450425,1.838310,1.245040,0.376838,1.327114,0.855895,0.459708,1.323160,1.235820,0.385838,1.842032,0.958401
464,3.866667,0.367819,1.843636,0.864989,0.450437,1.838316,1.245036,0.376839,1.327121,0.855892,0.459721,1.323166,1.235815,0.385840,1.842039,0.958399
465,3.875000,0.367823,1.843621,0.864987,0.450426,1.838309,1.245037,0.376838,1.327106,0.855901,0.459706,1.323159,1.235827,0.385840,1.842026,0.958397
466,3.883333,0.367830,1.843612,0.865013,0.450351,1.838375,1.245082,0.376932,1.327097,0.856012,0.459717,1.323225,1.235957,0.385827,1.842035,0.958428
467,3.891667,0.367823,1.843609,0.864994,0.450423,1.838298,1.245044,0.376856,1.327094,0.855906,0.459720,1.323149,1.235833,0.385840,1.842014,0.958404
468,3.900000,0.367825,1.843612,0.864980,0.450424,1.838304,1.245031,0.376857,1.327097,0.855896,0.459721,1.323154,1.235823,0.385841,1.842018,0.958391
469,3.908333,0.367815,1.843622,0.864993,0.450422,1.838307,1.245042,0.376851,1.327108,0.855898,0.459722,1.323157,1.235823,0.385834,1.842026,0.958403
470,3.916667,0.367828,1.843602,0.865032,0.450309,1.838413,1.245111,0.376973,1.327087,0.856090,0.459718,1.323263,1.236043,0.385815,1.842037,0.958449
471,3.925000,0.367823,1.843612,0.864989,0.450428,1.838297,1.245039,0.376829,1.327097,0.855902,0.459698,1.323147,1.235828,0.385841,1.842017,0.958400
472,3.933333,0.367828,1.843607,0.865038,0.450302,1.838410,1.245118,0.376986,1.327092,0.856082,0.459724,1.323260,1.236037,0.385814,1.842039,0.958455
473,3.941667,0.367806,1.843608,0.864998,0.450414,1.838298,1.245047,0.376834,1.327093,0.855912,0.459706,1.323148,1.235836,0.385825,1.842013,0.958408
474,3.950000,0.367802,1.843615,0.865003,0.450416,1.838301,1.245051,0.376838,1.327100,0.855910,0.459717,1.323151,1.235833,0.385823,1.842019,0.958413
475,3.958333,0.367825,1.843612,0.865042,0.450302,1.838411,1.245121,0.376972,1.327097,0.856081,0.459714,1.323261,1.236036,0.385811,1.842044,0.958459
476,3.966667,0.367816,1.843612,0.865052,0.450272,1.838418,1.245135,0.376967,1.327097,0.856102,0.459687,1.323269,1.236061,0.385797,1.842045,0.958470
477,3.975000,0.367820,1.843608,0.865041,0.450267,1.838415,1.245126,0.376978,1.327094,0.856089,0.459690,1.323265,1.236050,0.385799,1.842042,0.958459
478,3.983333,0.367789,1.843593,0.864999,0.450415,1.838291,1.245044,0.376847,1.327078,0.855917,0.459738,1.323141,1.235838,0.385812,1.842000,0.958408
479,3.991667,0.367816,1.843606,0.865048,0.450273,1.838408,1.245131,0.376985,1.327091,0.856088,0.459705,1.323259,1.236047,0.385798,1.842038,0.958466
480,4.000000,0.367792,1.843613,0.865054,0.450261,1.838420,1.245135,0.376951,1.327098,0.856103,0.459685,1.323270,1.236059,0.385777,1.842047,0.958472
481,4.008333,0.367785,1.843618,0.865033,0.450320,1.838374,1.245098,0.376903,1.327104,0.856019,0.459703,1.323225,1.235960,0.385786,1.842040,0.958447
482,4.016667,0.367767,1.843626,0.864945,0.450316,1.838337,1.245007,0.376844,1.327112,0.855879,0.459657,1.323188,1.235817,0.385771,1.842037,0.958358
483,4.025000,0.367812,1.843602,0.865043,0.450260,1.838406,1.245128,0.376960,1.327087,0.856090,0.459672,1.323256,1.236051,0.385792,1.842035,0.958461
484,4.033333,0.367764,1.843632,0.864957,0.450306,1.838338,1.245020,0.376847,1.327118,0.855883,0.459654,1.323190,1.235822,0.385766,1.842042,0.958370
485,4.041667,0.367775,1.843604,0.865004,0.450391,1.838295,1.245051,0.376820,1.327090,0.855914,0.459701,1.323145,1.235838,0.385796,1.842010,0.958413
486,4.050000,0.367795,1.843614,0.865049,0.450267,1.838416,1.245130,0.376957,1.327099,0.856092,0.459693,1.323267,1.236047,0.385780,1.842046,0.958467
487,4.058333,0.367792,1.843618,0.865051,0.450261,1.838417,1.245131,0.376951,1.327104,0.856088,0.459685,1.323267,1.236044,0.385776,1.842050,0.958468
488,4.066667,0.367761,1.843607,0.865018,0.450376,1.838301,1.245065,0.376815,1.327092,0.855932,0.459695,1.323152,1.235855,0.385781,1.842013,0.958428
489,4.075000,0.367790,1.843609,0.865055,0.450254,1.838416,1.245137,0.376938,1.327094,0.856106,0.459666,1.323266,1.236063,0.385774,1.842043,0.958472
490,4.083333,0.367791,1.843602,0.865052,0.450260,1.838406,1.245133,0.376945,1.327087,0.856098,0.459678,1.323256,1.236054,0.385776,1.842035,0.958469
491,4.091667,0.367777,1.843616,0.865055,0.450263,1.838414,1.245132,0.376939,1.327101,0.856092,0.459689,1.323265,1.236044,0.385766,1.842047,0.958471
492,4.100000,0.367779,1.843612,0.865058,0.450259,1.838418,1.245136,0.376955,1.327098,0.856101,0.459699,1.323269,1.236055,0.385767,1.842046,0.958475
493,4.108333,0.367802,1.843611,0.865045,0.450262,1.838409,1.245127,0.376963,1.327097,0.856081,0.459687,1.323260,1.236039,0.385785,1.842043,0.958462
494,4.116667,0.367788,1.843603,0.865049,0.450257,1.838411,1.245130,0.376951,1.327088,0.856099,0.459684,1.323261,1.236055,0.385773,1.842037,0.958466
495,4.125000,0.367783,1.843612,0.865052,0.450262,1.838409,1.245131,0.376946,1.327097,0.856086,0.459689,1.323260,1.236040,0.385770,1.842043,0.958469
496,4.133333,0.367784,1.843607,0.865049,0.450272,1.838409,1.245126,0.376948,1.327093,0.856090,0.459701,1.323260,1.236042,0.385773,1.842040,0.958466
497,4.141667,0.367801,1.843613,0.865040,0.450269,1.838416,1.245121,0.376954,1.327098,0.856084,0.459686,1.323266,1.236040,0.385785,1.842046,0.958457
498,4.150000,0.367794,1.843605,0.865039,0.450280,1.838411,1.245116,0.376961,1.327090,0.856085,0.459711,1.323262,1.236038,0.385783,1.842038,0.958456
499,4.158333,0.367787,1.843602,0.865025,0.450301,1.838374,1.245096,0.376910,1.327088,0.856032,0.459689,1.323224,1.235978,0.385783,1.842028,0.958440
500,4.166667,0.367785,1.843596,0.864989,0.450388,1.838291,1.245039,0.376828,1.327081,0.855907,0.459695,1.323141,1.235833,0.385802,1.842003,0.958399
501,4.175000,0.367788,1.843607,0.864990,0.450394,1.838299,1.245039,0.376836,1.327093,0.855902,0.459706,1.323149,1.235827,0.385806,1.842013,0.958400
502,4.183333,0.367796,1.843613,0.865031,0.450278,1.838418,1.245109,0.376955,1.327099,0.856077,0.459701,1.323269,1.236030,0.385784,1.842047,0.958448
503,4.191667,0.367803,1.843611,0.865036,0.450278,1.838416,1.245116,0.376970,1.327096,0.856081,0.459709,1.323267,1.236036,0.385789,1.842044,0.958454
504,4.200000,0.367798,1.843601,0.864982,0.450398,1.838297,1.245033,0.376833,1.327086,0.855902,0.459697,1.323147,1.235829,0.385815,1.842008,0.958393
505,4.208333,0.367819,1.843596,0.865032,0.450295,1.838408,1.245111,0.376966,1.327081,0.856089,0.459706,1.323258,1.236044,0.385805,1.842031,0.958449
506,4.216667,0.367812,1.843608,0.865031,0.450287,1.838416,1.245111,0.376973,1.327093,0.856080,0.459713,1.323266,1.236034,0.385798,1.842042,0.958448
507,4.225000,0.367814,1.843605,0.865024,0.450310,1.838409,1.245099,0.376968,1.327090,0.856069,0.459728,1.323259,1.236019,0.385806,1.842038,0.958440
508,4.233333,0.367825,1.843601,0.865030,0.450303,1.838415,1.245109,0.376971,1.327085,0.856091,0.459713,1.323264,1.236045,0.385812,1.842036,0.958447
509,4.241667,0.367809,1.843595,0.864977,0.450409,1.838298,1.245028,0.376840,1.327080,0.855909,0.459704,1.323148,1.235835,0.385826,1.842004,0.958388
510,4.250000,0.367824,1.843609,0.865030,0.450308,1.838409,1.245107,0.376975,1.327094,0.856071,0.459724,1.323260,1.236024,0.385812,1.842041,0.958446
511,4.258333,0.367831,1.843602,0.865028,0.450309,1.838408,1.245107,0.376971,1.327087,0.856080,0.459714,1.323258,1.236034,0.385818,1.842036,0.958445
512,4.266667,0.367846,1.843598,0.865023,0.450308,1.838407,1.245106,0.376984,1.327083,0.856079,0.459712,1.323257,1.236037,0.385829,1.842033,0.958441
513,4.275000,0.367827,1.843610,0.865007,0.450340,1.838379,1.245078,0.376950,1.327095,0.856011,0.459727,1.323230,1.235957,0.385823,1.842035,0.958422
514,4.283333,0.367834,1.843615,0.865033,0.450311,1.838414,1.245112,0.376965,1.327099,0.856078,0.459707,1.323264,1.236033,0.385820,1.842047,0.958450
515,4.291667,0.367832,1.843602,0.865023,0.450328,1.838412,1.245098,0.376982,1.327087,0.856077,0.459742,1.323262,1.236027,0.385823,1.842036,0.958439
516,4.300000,0.367840,1.843593,0.865027,0.450321,1.838402,1.245106,0.376984,1.327077,0.856082,0.459729,1.323252,1.236036,0.385828,1.842027,0.958444
517,4.308333,0.367834,1.843606,0.865028,0.450304,1.838410,1.245109,0.376978,1.327091,0.856076,0.459712,1.323260,1.236032,0.385819,1.842039,0.958445
518,4.316667,0.367837,1.843612,0.865033,0.450318,1.838416,1.245111,0.376987,1.327097,0.856079,0.459732,1.323267,1.236033,0.385825,1.842045,0.958449
519,4.325000,0.367845,1.843607,0.865029,0.450329,1.838415,1.245107,0.376984,1.327092,0.856083,0.459732,1.323265,1.236036,0.385833,1.842041,0.958446
520,4.333333,0.367846,1.843614,0.865026,0.450296,1.838419,1.245111,0.376969,1.327099,0.856080,0.459683,1.323269,1.236041,0.385826,1.842048,0.958444
521,4.341667,0.367840,1.843616,0.865028,0.450299,1.838417,1.245111,0.376968,1.327101,0.856076,0.459692,1.323267,1.236034,0.385822,1.842048,0.958446
522,4.350000,0.367855,1.843598,0.865023,0.450301,1.838408,1.245109,0.376981,1.327083,0.856083,0.459692,1.323257,1.236044,0.385834,1.842033,0.958441
523,4.358333,0.367832,1.843606,0.864982,0.450402,1.838301,1.245039,0.376857,1.327091,0.855905,0.459692,1.323151,1.235838,0.385842,1.842013,0.958394
524,4.366667,0.367847,1.843610,0.865030,0.450306,1.838426,1.245114,0.376974,1.327094,0.856100,0.459696,1.323276,1.236058,0.385829,1.842046,0.958448
525,4.375000,0.367806,1.843625,0.864993,0.450423,1.838308,1.245040,0.376826,1.327111,0.855899,0.459709,1.323158,1.235821,0.385827,1.842029,0.958403
526,4.383333,0.367834,1.843616,0.865035,0.450290,1.838421,1.245118,0.376965,1.327100,0.856087,0.459686,1.323270,1.236046,0.385815,1.842049,0.958453
527,4.391667,0.367806,1.843607,0.864986,0.450412,1.838300,1.245036,0.376843,1.327092,0.855903,0.459713,1.323151,1.235828,0.385824,1.842013,0.958396
528,4.400000,0.367804,1.843602,0.864988,0.450412,1.838296,1.245037,0.376841,1.327087,0.855906,0.459714,1.323146,1.235831,0.385823,1.842008,0.958398
529,4.408333,0.367798,1.843609,0.864994,0.450398,1.838300,1.245045,0.376841,1.327094,0.855907,0.459706,1.323150,1.235833,0.385815,1.842015,0.958405
530,4.416667,0.367788,1.843621,0.865005,0.450405,1.838310,1.245052,0.376851,1.327107,0.855911,0.459732,1.323161,1.235833,0.385809,1.842026,0.958414
531,4.425000,0.367788,1.843638,0.864935,0.450324,1.838352,1.245000,0.376855,1.327124,0.855875,0.459655,1.323203,1.235816,0.385789,1.842050,0.958349
532,4.433333,0.367796,1.843615,0.865029,0.450331,1.838374,1.245095,0.376915,1.327101,0.856019,0.459714,1.323225,1.235960,0.385797,1.842037,0.958443
533,4.441667,0.367808,1.843610,0.865052,0.450282,1.838415,1.245132,0.376960,1.327095,0.856100,0.459698,1.323265,1.236055,0.385794,1.842044,0.958470
534,4.450000,0.367790,1.843611,0.865002,0.450400,1.838304,1.245051,0.376840,1.327097,0.855915,0.459714,1.323155,1.235839,0.385809,1.842017,0.958412
535,4.458333,0.367802,1.843609,0.865052,0.450276,1.838411,1.245132,0.376971,1.327095,0.856091,0.459709,1.323261,1.236047,0.385788,1.842041,0.958469
536,4.466667,0.367790,1.843606,0.865002,0.450371,1.838296,1.245057,0.376850,1.327091,0.855911,0.459696,1.323147,1.235842,0.385802,1.842011,0.958413
537,4.475000,0.367796,1.843600,0.865051,0.450280,1.838404,1.245129,0.376982,1.327085,0.856090,0.459729,1.323255,1.236043,0.385785,1.842033,0.958467
538,4.483333,0.367798,1.843604,0.865059,0.450269,1.838397,1.245139,0.376967,1.327090,0.856086,0.459703,1.323248,1.236042,0.385783,1.842035,0.958476
539,4.491667,0.367765,1.843610,0.865012,0.450385,1.838298,1.245059,0.376834,1.327096,0.855915,0.459718,1.323149,1.235837,0.385787,1.842015,0.958422
540,4.500000,0.367777,1.843621,0.865009,0.450380,1.838304,1.245059,0.376826,1.327107,0.855910,0.459693,1.323155,1.235835,0.385795,1.842025,0.958419
541,4.508333,0.367768,1.843625,0.865010,0.450382,1.838306,1.245057,0.376822,1.327111,0.855906,0.459700,1.323157,1.235830,0.385788,1.842028,0.958420
542,4.516667,0.367764,1.843635,0.864960,0.450305,1.838344,1.245024,0.376851,1.327121,0.855890,0.459657,1.323195,1.235829,0.385766,1.842045,0.958374
543,4.525000,0.367783,1.843612,0.865056,0.450249,1.838410,1.245138,0.376967,1.327098,0.856088,0.459698,1.323261,1.236045,0.385767,1.842043,0.958474
544,4.533333,0.367784,1.843599,0.865051,0.450265,1.838410,1.245129,0.376972,1.327085,0.856099,0.459718,1.323261,1.236052,0.385772,1.842034,0.958468
545,4.541667,0.367770,1.843611,0.865005,0.450390,1.838304,1.245051,0.376818,1.327096,0.855918,0.459703,1.323155,1.235841,0.385792,1.842017,0.958414
546,4.550000,0.367760,1.843638,0.865011,0.450383,1.838317,1.245056,0.376833,1.327124,0.855901,0.459720,1.323169,1.235822,0.385783,1.842040,0.958420
547,4.558333,0.367779,1.843602,0.865054,0.450273,1.838414,1.245130,0.376953,1.327088,0.856106,0.459711,1.323265,1.236057,0.385770,1.842037,0.958470
548,4.566667,0.367792,1.843607,0.865051,0.450265,1.838418,1.245131,0.376943,1.327092,0.856107,0.459681,1.323268,1.236063,0.385777,1.842042,0.958468
549,4.575000,0.367771,1.843606,0.865001,0.450368,1.838296,1.245053,0.376799,1.327092,0.855916,0.459662,1.323147,1.235843,0.385787,1.842012,0.958412
550,4.583333,0.367763,1.843607,0.865006,0.450381,1.838297,1.245053,0.376830,1.327093,0.855911,0.459712,1.323148,1.235834,0.385785,1.842012,0.958416
551,4.591667,0.367764,1.843630,0.865018,0.450387,1.838310,1.245063,0.376829,1.327116,0.855910,0.459717,1.323161,1.235831,0.385786,1.842033,0.958427
552,4.600000,0.367766,1.843628,0.865009,0.450392,1.838318,1.245054,0.376820,1.327114,0.855918,0.459710,1.323169,1.235838,0.385789,1.842033,0.958419
553,4.608333,0.367780,1.843625,0.864999,0.450374,1.838309,1.245051,0.376821,1.327111,0.855902,0.459679,1.323159,1.235830,0.385795,1.842029,0.958410
554,4.616667,0.367770,1.843597,0.864998,0.450405,1.838294,1.245041,0.376839,1.327083,0.855912,0.459738,1.323145,1.235831,0.385795,1.842004,0.958407
555,4.625000,0.367769,1.843603,0.865000,0.450400,1.838302,1.245044,0.376828,1.327089,0.855920,0.459724,1.323153,1.235839,0.385793,1.842011,0.958409
556,4.633333,0.367778,1.843622,0.864996,0.450375,1.838315,1.245048,0.376804,1.327107,0.855916,0.459666,1.323166,1.235843,0.385794,1.842029,0.958407
557,4.641667,0.367796,1.843621,0.864999,0.450387,1.838313,1.245052,0.376841,1.327107,0.855913,0.459696,1.323164,1.235842,0.385811,1.842027,0.958410
558,4.650000,0.367789,1.843614,0.864997,0.450391,1.838307,1.245047,0.376841,1.327100,0.855910,0.459707,1.323158,1.235837,0.385806,1.842021,0.958407
559,4.658333,0.367792,1.843603,0.864987,0.450396,1.838297,1.245037,0.376833,1.327089,0.855904,0.459701,1.323148,1.235830,0.385810,1.842010,0.958397
560,4.666667,0.367806,1.843605,0.865040,0.450296,1.838413,1.245117,0.376948,1.327089,0.856094,0.459703,1.323263,1.236045,0.385796,1.842039,0.958457
561,4.675000,0.367792,1.843616,0.864988,0.450383,1.838308,1.245040,0.376820,1.327101,0.855905,0.459675,1.323158,1.235833,0.385807,1.842022,0.958399
562,4.683333,0.367784,1.843639,0.864999,0.450391,1.838323,1.245048,0.376834,1.327125,0.855899,0.459706,1.323174,1.235824,0.385802,1.842043,0.958409
563,4.691667,0.367795,1.843646,0.865001,0.450392,1.838327,1.245053,0.376835,1.327132,0.855901,0.459696,1.323178,1.235828,0.385811,1.842049,0.958412
564,4.700000,0.367822,1.843609,0.865032,0.450307,1.838419,1.245110,0.376965,1.327094,0.856088,0.459713,1.323269,1.236041,0.385811,1.842044,0.958449
565,4.708333,0.367800,1.843609,0.864989,0.450405,1.838307,1.245039,0.376849,1.327095,0.855910,0.459719,1.323158,1.235835,0.385818,1.842017,0.958400
566,4.716667,0.367798,1.843603,0.864989,0.450417,1.838296,1.245036,0.376836,1.327089,0.855905,0.459719,1.323146,1.235827,0.385819,1.842009,0.958399
567,4.725000,0.367808,1.843606,0.864984,0.450416,1.838306,1.245033,0.376846,1.327091,0.855910,0.459719,1.323156,1.235835,0.385826,1.842014,0.958394
568,4.733333,0.367805,1.843619,0.864990,0.450409,1.838315,1.245040,0.376847,1.327104,0.855910,0.459715,1.323166,1.235836,0.385823,1.842026,0.958400
569,4.741667,0.367800,1.843624,0.864986,0.450394,1.838321,1.245038,0.376838,1.327109,0.855909,0.459697,1.323171,1.235836,0.385815,1.842031,0.958397
570,4.750000,0.367803,1.843610,0.864986,0.450414,1.838302,1.245035,0.376833,1.327095,0.855904,0.459708,1.323153,1.235828,0.385823,1.842016,0.958397
571,4.758333,0.367797,1.843618,0.864994,0.450415,1.838304,1.245041,0.376828,1.327103,0.855902,0.459711,1.323154,1.235825,0.385818,1.842022,0.958404
572,4.766667,0.367834,1.843592,0.865023,0.450320,1.838406,1.245100,0.376981,1.327077,0.856083,0.459730,1.323256,1.236036,0.385823,1.842028,0.958440
573,4.775000,0.367814,1.843610,0.864982,0.450400,1.838305,1.245036,0.376852,1.327096,0.855900,0.459702,1.323155,1.235830,0.385827,1.842017,0.958393
574,4.783333,0.367815,1.843613,0.865028,0.450308,1.838432,1.245104,0.376967,1.327098,0.856094,0.459724,1.323282,1.236045,0.385806,1.842050,0.958444
575,4.791667,0.367808,1.843618,0.864991,0.450400,1.838314,1.245044,0.376834,1.327103,0.855915,0.459691,1.323164,1.235844,0.385823,1.842025,0.958402
576,4.800000,0.367836,1.843588,0.865018,0.450319,1.838412,1.245097,0.376972,1.327072,0.856096,0.459720,1.323261,1.236049,0.385824,1.842026,0.958435
577,4.808333,0.367795,1.843615,0.864993,0.450414,1.838308,1.245039,0.376837,1.327101,0.855907,0.459721,1.323159,1.235829,0.385816,1.842021,0.958402
578,4.816667,0.367800,1.843610,0.864991,0.450418,1.838307,1.245039,0.376836,1.327095,0.855914,0.459718,1.323158,1.235837,0.385821,1.842017,0.958401
579,4.825000,0.367798,1.843612,0.864995,0.450423,1.838307,1.245041,0.376837,1.327097,0.855913,0.459727,1.323157,1.235834,0.385821,1.842019,0.958405
580,4.833333,0.367782,1.843628,0.865006,0.450411,1.838316,1.245051,0.376820,1.327113,0.855916,0.459714,1.323167,1.235836,0.385806,1.842033,0.958416
581,4.841667,0.367791,1.843603,0.864987,0.450411,1.838299,1.245033,0.376843,1.327089,0.855904,0.459729,1.323150,1.235826,0.385813,1.842010,0.958396
582,4.850000,0.367813,1.843604,0.865042,0.450289,1.838409,1.245121,0.376952,1.327088,0.856093,0.459692,1.323259,1.236048,0.385799,1.842037,0.958459
583,4.858333,0.367798,1.843602,0.864995,0.450395,1.838303,1.245046,0.376846,1.327087,0.855920,0.459707,1.323153,1.235847,0.385814,1.842010,0.958406
584,4.866667,0.367798,1.843606,0.864985,0.450401,1.838303,1.245035,0.376842,1.327091,0.855905,0.459710,1.323154,1.235831,0.385816,1.842013,0.958395
585,4.875000,0.367786,1.843611,0.864995,0.450413,1.838306,1.245040,0.376841,1.327097,0.855909,0.459733,1.323156,1.235830,0.385809,1.842018,0.958405
586,4.883333,0.367774,1.843601,0.864995,0.450417,1.838299,1.245036,0.376821,1.327087,0.855914,0.459728,1.323149,1.235831,0.385802,1.842009,0.958403
587,4.891667,0.367787,1.843600,0.864991,0.450384,1.838295,1.245042,0.376814,1.327085,0.855913,0.459676,1.323145,1.235840,0.385803,1.842007,0.958402
588,4.900000,0.367779,1.843619,0.865003,0.450394,1.838305,1.245051,0.376821,1.327104,0.855909,0.459700,1.323156,1.235833,0.385799,1.842023,0.958413
589,4.908333,0.367785,1.843612,0.865000,0.450397,1.838300,1.245048,0.376827,1.327097,0.855909,0.459704,1.323151,1.235832,0.385805,1.842017,0.958410
590,4.916667,0.367775,1.843618,0.865004,0.450391,1.838304,1.245051,0.376811,1.327104,0.855910,0.459691,1.323155,1.235833,0.385795,1.842023,0.958414
591,4.925000,0.367761,1.843621,0.865011,0.450406,1.838308,1.245052,0.376810,1.327107,0.855915,0.459719,1.323159,1.235832,0.385789,1.842026,0.958419
592,4.933333,0.367755,1.843616,0.865014,0.450387,1.838307,1.245058,0.376815,1.327102,0.855922,0.459712,1.323158,1.235842,0.385779,1.842022,0.958423
593,4.941667,0.367759,1.843603,0.865007,0.450378,1.838292,1.245054,0.376823,1.327089,0.855912,0.459708,1.323143,1.235834,0.385780,1.842008,0.958417
594,4.950000,0.367781,1.843592,0.865000,0.450373,1.838288,1.245053,0.376831,1.327078,0.855917,0.459688,1.323138,1.235845,0.385796,1.841999,0.958411
595,4.958333,0.367769,1.843612,0.865002,0.450368,1.838304,1.245053,0.376827,1.327098,0.855912,0.459690,1.323155,1.235839,0.385786,1.842018,0.958412
596,4.966667,0.367762,1.843618,0.865012,0.450375,1.838300,1.245060,0.376814,1.327104,0.855910,0.459692,1.323151,1.235834,0.385782,1.842021,0.958422
597,4.975000,0.367777,1.843610,0.865059,0.450270,1.838417,1.245135,0.376938,1.327095,0.856107,0.459695,1.323267,1.236058,0.385768,1.842044,0.958475
598,4.983333,0.367752,1.843600,0.865016,0.450391,1.838291,1.245058,0.376807,1.327086,0.855925,0.459710,1.323142,1.235843,0.385778,1.842006,0.958424
599,4.991667,0.367757,1.843615,0.865008,0.450369,1.838307,1.245057,0.376816,1.327100,0.855920,0.459693,1.323158,1.235843,0.385777,1.842021,0.958419
600,5.000000,0.367777,1.843606,0.865004,0.450381,1.838295,1.245054,0.376831,1.327092,0.855911,0.459699,1.323146,1.235836,0.385795,1.842012,0.958415
601,5.008333,0.367768,1.843618,0.865016,0.450383,1.838308,1.245063,0.376807,1.327103,0.855927,0.459688,1.323158,1.235850,0.385788,1.842023,0.958426
602,5.016667,0.367792,1.843627,0.865058,0.450282,1.838414,1.245134,0.376935,1.327112,0.856083,0.459689,1.323265,1.236035,0.385782,1.842056,0.958475
603,5.025000,0.367771,1.843608,0.865000,0.450369,1.838303,1.245052,0.376822,1.327094,0.855917,0.459685,1.323154,1.235844,0.385787,1.842015,0.958411
604,5.033333,0.367755,1.843627,0.865018,0.450380,1.838307,1.245063,0.376819,1.327113,0.855912,0.459709,1.323159,1.235832,0.385778,1.842030,0.958428
605,5.041667,0.367775,1.843612,0.865012,0.450382,1.838303,1.245061,0.376814,1.327098,0.855925,0.459686,1.323154,1.235850,0.385794,1.842018,0.958422
606,5.050000,0.367771,1.843642,0.865023,0.450371,1.838329,1.245074,0.376824,1.327128,0.855927,0.459689,1.323180,1.235854,0.385787,1.842047,0.958433
607,5.058333,0.367777,1.843621,0.865012,0.450384,1.838304,1.245061,0.376817,1.327107,0.855914,0.459688,1.323155,1.235839,0.385795,1.842025,0.958422
608,5.066667,0.367780,1.843598,0.864999,0.450385,1.838289,1.245049,0.376831,1.327084,0.855910,0.459701,1.323140,1.235835,0.385798,1.842004,0.958409
609,5.075000,0.367778,1.843611,0.865011,0.450367,1.838296,1.245064,0.376827,1.327097,0.855915,0.459681,1.323147,1.235844,0.385792,1.842015,0.958423
610,5.083333,0.367783,1.843616,0.865006,0.450381,1.838312,1.245057,0.376846,1.327102,0.855922,0.459709,1.323163,1.235848,0.385799,1.842023,0.958417
611,5.091667,0.367789,1.843614,0.865001,0.450406,1.838307,1.245048,0.376840,1.327100,0.855913,0.459721,1.323157,1.235836,0.385810,1.842020,0.958411
612,5.100000,0.367773,1.843641,0.865021,0.450387,1.838325,1.245068,0.376828,1.327127,0.855921,0.459706,1.323176,1.235844,0.385794,1.842045,0.958431
613,5.108333,0.367782,1.843617,0.865003,0.450414,1.838312,1.245047,0.376822,1.327102,0.855922,0.459719,1.323163,1.235841,0.385806,1.842024,0.958412
614,5.116667,0.367788,1.843606,0.865000,0.450400,1.838300,1.245048,0.376846,1.327092,0.855911,0.459723,1.323151,1.235835,0.385808,1.842013,0.958410
615,5.125000,0.367813,1.843608,0.865024,0.450353,1.838362,1.245089,0.376911,1.327093,0.856012,0.459716,1.323212,1.235953,0.385815,1.842029,0.958438
616,5.133333,0.367809,1.843605,0.864997,0.450415,1.838300,1.245046,0.376852,1.327091,0.855915,0.459722,1.323151,1.235840,0.385827,1.842012,0.958407
617,5.141667,0.367821,1.843606,0.864991,0.450410,1.838304,1.245044,0.376854,1.327091,0.855915,0.459707,1.323154,1.235844,0.385835,1.842013,0.958402
618,5.150000,0.367799,1.843611,0.864990,0.450412,1.838309,1.245038,0.376849,1.327096,0.855911,0.459727,1.323159,1.235834,0.385819,1.842018,0.958400
619,5.158333,0.367790,1.843606,0.865001,0.450437,1.838299,1.245042,0.376829,1.327091,0.855917,0.459741,1.323150,1.235833,0.385819,1.842012,0.958410
620,5.166667,0.367810,1.843604,0.864998,0.450408,1.838300,1.245049,0.376843,1.327089,0.855919,0.459706,1.323150,1.235846,0.385826,1.842011,0.958409
621,5.175000,0.367822,1.843624,0.865004,0.450401,1.838310,1.245059,0.376849,1.327109,0.855914,0.459693,1.323160,1.235845,0.385834,1.842028,0.958416
622,5.183333,0.367819,1.843609,0.864986,0.450431,1.838302,1.245034,0.376861,1.327095,0.855901,0.459738,1.323152,1.235824,0.385838,1.842016,0.958396
623,5.191667,0.367809,1.843613,0.864993,0.450432,1.838313,1.245039,0.376849,1.327099,0.855917,0.459737,1.323163,1.235839,0.385832,1.842021,0.958403
624,5.200000,0.367811,1.843618,0.865000,0.450432,1.838310,1.245046,0.376842,1.327103,0.855915,0.459728,1.323161,1.235837,0.385833,1.842024,0.958409
625,5.208333,0.367810,1.843614,0.865000,0.450412,1.838297,1.245050,0.376852,1.327099,0.855903,0.459719,1.323148,1.235828,0.385827,1.842017,0.958411
626,5.216667,0.367809,1.843603,0.864990,0.450411,1.838293,1.245040,0.376848,1.327088,0.855902,0.459714,1.323143,1.235828,0.385826,1.842008,0.958400
627,5.225000,0.367809,1.843612,0.864998,0.450430,1.838304,1.245044,0.376832,1.327097,0.855915,0.459718,1.323154,1.235837,0.385831,1.842018,0.958408
628,5.233333,0.367818,1.843608,0.864995,0.450426,1.838300,1.245044,0.376845,1.327093,0.855912,0.459717,1.323150,1.235837,0.385837,1.842014,0.958405
629,5.241667,0.367799,1.843617,0.864994,0.450430,1.838308,1.245038,0.376849,1.327103,0.855904,0.459744,1.323159,1.235824,0.385824,1.842023,0.958403
630,5.250000,0.367796,1.843615,0.864995,0.450406,1.838311,1.245043,0.376837,1.327100,0.855915,0.459712,1.323162,1.235839,0.385815,1.842022,0.958405
631,5.258333,0.367819,1.843606,0.865049,0.450294,1.838409,1.245129,0.376983,1.327091,0.856093,0.459722,1.323260,1.236047,0.385805,1.842038,0.958466
632,5.266667,0.367806,1.843615,0.865003,0.450417,1.838300,1.245051,0.376844,1.327100,0.855909,0.459718,1.323151,1.235833,0.385826,1.842019,0.958413
633,5.275000,0.367799,1.843612,0.864995,0.450423,1.838303,1.245040,0.376851,1.327097,0.855905,0.459740,1.323154,1.235826,0.385822,1.842018,0.958404
634,5.283333,0.367806,1.843614,0.864997,0.450419,1.838307,1.245045,0.376829,1.327099,0.855917,0.459707,1.323158,1.235841,0.385826,1.842021,0.958407
635,5.291667,0.367798,1.843622,0.865007,0.450405,1.838308,1.245056,0.376825,1.327107,0.855917,0.459695,1.323158,1.235842,0.385817,1.842026,0.958417
636,5.300000,0.367800,1.843597,0.864997,0.450415,1.838295,1.245045,0.376846,1.327083,0.855918,0.459726,1.323146,1.235841,0.385820,1.842005,0.958407
637,5.308333,0.367813,1.843606,0.865040,0.450294,1.838412,1.245118,0.376959,1.327091,0.856090,0.459704,1.323262,1.236044,0.385801,1.842040,0.958457
638,5.316667,0.367795,1.843618,0.865001,0.450384,1.838308,1.245055,0.376841,1.327104,0.855911,0.459695,1.323159,1.235840,0.385809,1.842024,0.958413
639,5.325000,0.367814,1.843615,0.865045,0.450302,1.838422,1.245122,0.376986,1.327101,0.856090,0.459739,1.323273,1.236042,0.385803,1.842049,0.958462
640,5.333333,0.367810,1.843604,0.865000,0.450380,1.838299,1.245058,0.376844,1.327089,0.855921,0.459678,1.323150,1.235855,0.385820,1.842011,0.958412
641,5.341667,0.367804,1.843613,0.865052,0.450284,1.838404,1.245131,0.376971,1.327099,0.856077,0.459715,1.323255,1.236031,0.385791,1.842043,0.958469
642,5.350000,0.367783,1.843603,0.865001,0.450394,1.838294,1.245049,0.376818,1.327088,0.855915,0.459693,1.323144,1.235839,0.385802,1.842009,0.958411
643,5.358333,0.367784,1.843609,0.865014,0.450383,1.838296,1.245064,0.376820,1.327095,0.855922,0.459685,1.323147,1.235848,0.385800,1.842014,0.958424
644,5.366667,0.367806,1.843593,0.865044,0.450300,1.838398,1.245119,0.376961,1.327078,0.856090,0.459719,1.323248,1.236041,0.385797,1.842026,0.958460
645,5.375000,0.367766,1.843626,0.865015,0.450384,1.838313,1.245062,0.376813,1.327112,0.855921,0.459695,1.323164,1.235844,0.385787,1.842031,0.958425
646,5.383333,0.367746,1.843624,0.865028,0.450384,1.838305,1.245071,0.376787,1.327109,0.855927,0.459690,1.323156,1.235845,0.385772,1.842027,0.958437
