Scan1;64:f6:9d:b3:f4:ef,iiNet Free WiFi,-77,0,0,0;d8:c7:c8:4c:ea:51,TAFE-Events,-77,0,0,0;d8:c7:c8:4c:de:b0,TAFENSW,-69,0,0,0;d8:c7:c8:4c:de:b1,TAFE-Events,-69,0,0,0;00:02:6f:12:34:50,Telstra Air,-76,0,0,0;d8:c7:c8:4c:de:a0,TAFENSW,-72,0,0,0;64:f6:9d:b3:f4:e0,iiNet Free WiFi,-68,0,0,0;d8:c7:c8:4c:de:a1,TAFE-Events,-72,0,0,0;d8:c7:c8:4c:f4:d0,TAFENSW,-77,0,0,0;d8:c7:c8:4c:ea:50,TAFENSW,-77,0,0,0;a0:04:60:a5:e5:ac,iiMAV_1,-92,0,0,0;b0:4e:26:8c:66:8f,22aMaryAnn 5G,-87,0,0,0;d8:c7:c8:4c:f4:d1,TAFE-Events,-77,0,0,0;d0:65:ca:54:fb:90,WiFi-7DUR,-74,0,0,0;00:11:74:88:03:d0,CAPA Staff,-86,0,0,0;00:11:74:88:03:e0,CAPA Student,-75,0,0,0;64:f6:9d:b3:f4:ee,iiNet Customer,-78,0,0,0;88:e3:ab:55:aa:32,TPG-7BCP,-82,0,0,0;c8:b5:ad:31:16:f0,TAFENSW,-88,0,0,0;c4:71:54:46:90:f1,WiFi-90F1,-80,0,0,0;c8:b5:ad:31:16:f1,TAFE-Events,-87,0,0,0;d8:c7:c8:4c:f7:31,TAFE-Events,-91,0,0,0;70:3a:cb:18:03:ff,gwi,-78,0,0,0;44:1e:98:14:ec:ac,INSEARCH Secure,-86,0,0,0;34:6b:46:bc:65:95,OPTUS_BC6592,-82,0,0,0;44:1e:98:15:8b:28,INSEARCH Secure,-85,0,0,0;d8:c7:c8:4c:f4:10,TAFENSW,-90,0,0,0;c4:71:54:46:90:f3,WiFi-90F1-5G,-90,0,0,0;d8:c7:c8:4c:f7:30,TAFENSW,-93,0,0,0;00:02:6f:12:34:56,Telstra Air,-67,0,0,0;d8:c7:c8:4c:f4:11,TAFE-Events,-89,0,0,0;

Scan2;64:f6:9d:b3:f4:ef,iiNet Free WiFi,-77,0,0,0;d8:c7:c8:4c:ea:51,TAFE-Events,-77,0,0,0;d8:c7:c8:4c:de:b0,TAFENSW,-69,0,0,0;d8:c7:c8:4c:de:b1,TAFE-Events,-69,0,0,0;00:02:6f:12:34:50,Telstra Air,-76,0,0,0;d8:c7:c8:4c:de:a0,TAFENSW,-72,0,0,0;64:f6:9d:b3:f4:e0,iiNet Free WiFi,-68,0,0,0;d8:c7:c8:4c:de:a1,TAFE-Events,-72,0,0,0;d8:c7:c8:4c:f4:d0,TAFENSW,-77,0,0,0;d8:c7:c8:4c:ea:50,TAFENSW,-77,0,0,0;a0:04:60:a5:e5:ac,iiMAV_1,-92,0,0,0;b0:4e:26:8c:66:8f,22aMaryAnn 5G,-87,0,0,0;d8:c7:c8:4c:f4:d1,TAFE-Events,-77,0,0,0;d0:65:ca:54:fb:90,WiFi-7DUR,-74,0,0,0;00:11:74:88:03:d0,CAPA Staff,-86,0,0,0;00:11:74:88:03:e0,CAPA Student,-75,0,0,0;64:f6:9d:b3:f4:ee,iiNet Customer,-78,0,0,0;88:e3:ab:55:aa:32,TPG-7BCP,-82,0,0,0;c8:b5:ad:31:16:f0,TAFENSW,-88,0,0,0;c4:71:54:46:90:f1,WiFi-90F1,-80,0,0,0;c8:b5:ad:31:16:f1,TAFE-Events,-87,0,0,0;d8:c7:c8:4c:f7:31,TAFE-Events,-91,0,0,0;70:3a:cb:18:03:ff,gwi,-78,0,0,0;44:1e:98:14:ec:ac,INSEARCH Secure,-86,0,0,0;34:6b:46:bc:65:95,OPTUS_BC6592,-82,0,0,0;44:1e:98:15:8b:28,INSEARCH Secure,-85,0,0,0;d8:c7:c8:4c:f4:10,TAFENSW,-90,0,0,0;c4:71:54:46:90:f3,WiFi-90F1-5G,-90,0,0,0;d8:c7:c8:4c:f7:30,TAFENSW,-93,0,0,0;00:02:6f:12:34:56,Telstra Air,-67,0,0,0;d8:c7:c8:4c:f4:11,TAFE-Events,-89,0,0,0;

Scan3;64:f6:9d:b3:f4:ef,iiNet Free WiFi,-77,0,0,0;d8:c7:c8:4c:ea:51,TAFE-Events,-77,0,0,0;d8:c7:c8:4c:de:b0,TAFENSW,-69,0,0,0;d8:c7:c8:4c:de:b1,TAFE-Events,-69,0,0,0;00:02:6f:12:34:50,Telstra Air,-76,0,0,0;d8:c7:c8:4c:de:a0,TAFENSW,-72,0,0,0;64:f6:9d:b3:f4:e0,iiNet Free WiFi,-68,0,0,0;d8:c7:c8:4c:de:a1,TAFE-Events,-72,0,0,0;d8:c7:c8:4c:f4:d0,TAFENSW,-77,0,0,0;d8:c7:c8:4c:ea:50,TAFENSW,-77,0,0,0;a0:04:60:a5:e5:ac,iiMAV_1,-92,0,0,0;b0:4e:26:8c:66:8f,22aMaryAnn 5G,-87,0,0,0;d8:c7:c8:4c:f4:d1,TAFE-Events,-77,0,0,0;d0:65:ca:54:fb:90,WiFi-7DUR,-74,0,0,0;00:11:74:88:03:d0,CAPA Staff,-86,0,0,0;00:11:74:88:03:e0,CAPA Student,-75,0,0,0;64:f6:9d:b3:f4:ee,iiNet Customer,-78,0,0,0;88:e3:ab:55:aa:32,TPG-7BCP,-82,0,0,0;c8:b5:ad:31:16:f0,TAFENSW,-88,0,0,0;c4:71:54:46:90:f1,WiFi-90F1,-80,0,0,0;c8:b5:ad:31:16:f1,TAFE-Events,-87,0,0,0;d8:c7:c8:4c:f7:31,TAFE-Events,-91,0,0,0;70:3a:cb:18:03:ff,gwi,-78,0,0,0;44:1e:98:14:ec:ac,INSEARCH Secure,-86,0,0,0;34:6b:46:bc:65:95,OPTUS_BC6592,-82,0,0,0;44:1e:98:15:8b:28,INSEARCH Secure,-85,0,0,0;d8:c7:c8:4c:f4:10,TAFENSW,-90,0,0,0;c4:71:54:46:90:f3,WiFi-90F1-5G,-90,0,0,0;d8:c7:c8:4c:f7:30,TAFENSW,-93,0,0,0;00:02:6f:12:34:56,Telstra Air,-67,0,0,0;d8:c7:c8:4c:f4:11,TAFE-Events,-89,0,0,0;

Scan4;64:f6:9d:b3:f4:ef,iiNet Free WiFi,-77,0,0,0;d8:c7:c8:4c:ea:51,TAFE-Events,-77,0,0,0;d8:c7:c8:4c:de:b0,TAFENSW,-69,0,0,0;d8:c7:c8:4c:de:b1,TAFE-Events,-69,0,0,0;00:02:6f:12:34:50,Telstra Air,-76,0,0,0;d8:c7:c8:4c:de:a0,TAFENSW,-72,0,0,0;64:f6:9d:b3:f4:e0,iiNet Free WiFi,-68,0,0,0;d8:c7:c8:4c:de:a1,TAFE-Events,-72,0,0,0;d8:c7:c8:4c:f4:d0,TAFENSW,-77,0,0,0;d8:c7:c8:4c:ea:50,TAFENSW,-77,0,0,0;a0:04:60:a5:e5:ac,iiMAV_1,-92,0,0,0;b0:4e:26:8c:66:8f,22aMaryAnn 5G,-87,0,0,0;d8:c7:c8:4c:f4:d1,TAFE-Events,-77,0,0,0;d0:65:ca:54:fb:90,WiFi-7DUR,-74,0,0,0;00:11:74:88:03:d0,CAPA Staff,-86,0,0,0;00:11:74:88:03:e0,CAPA Student,-75,0,0,0;64:f6:9d:b3:f4:ee,iiNet Customer,-78,0,0,0;88:e3:ab:55:aa:32,TPG-7BCP,-82,0,0,0;c8:b5:ad:31:16:f0,TAFENSW,-88,0,0,0;c4:71:54:46:90:f1,WiFi-90F1,-80,0,0,0;c8:b5:ad:31:16:f1,TAFE-Events,-87,0,0,0;d8:c7:c8:4c:f7:31,TAFE-Events,-91,0,0,0;70:3a:cb:18:03:ff,gwi,-78,0,0,0;44:1e:98:14:ec:ac,INSEARCH Secure,-86,0,0,0;34:6b:46:bc:65:95,OPTUS_BC6592,-82,0,0,0;44:1e:98:15:8b:28,INSEARCH Secure,-85,0,0,0;d8:c7:c8:4c:f4:10,TAFENSW,-90,0,0,0;c4:71:54:46:90:f3,WiFi-90F1-5G,-90,0,0,0;d8:c7:c8:4c:f7:30,TAFENSW,-93,0,0,0;00:02:6f:12:34:56,Telstra Air,-67,0,0,0;d8:c7:c8:4c:f4:11,TAFE-Events,-89,0,0,0;

Scan5;64:f6:9d:b3:f4:ef,iiNet Free WiFi,-77,0,0,0;d8:c7:c8:4c:ea:51,TAFE-Events,-77,0,0,0;d8:c7:c8:4c:de:b0,TAFENSW,-69,0,0,0;d8:c7:c8:4c:de:b1,TAFE-Events,-69,0,0,0;00:02:6f:12:34:50,Telstra Air,-76,0,0,0;d8:c7:c8:4c:de:a0,TAFENSW,-72,0,0,0;64:f6:9d:b3:f4:e0,iiNet Free WiFi,-68,0,0,0;d8:c7:c8:4c:de:a1,TAFE-Events,-72,0,0,0;d8:c7:c8:4c:f4:d0,TAFENSW,-77,0,0,0;d8:c7:c8:4c:ea:50,TAFENSW,-77,0,0,0;a0:04:60:a5:e5:ac,iiMAV_1,-92,0,0,0;b0:4e:26:8c:66:8f,22aMaryAnn 5G,-87,0,0,0;d8:c7:c8:4c:f4:d1,TAFE-Events,-77,0,0,0;d0:65:ca:54:fb:90,WiFi-7DUR,-74,0,0,0;00:11:74:88:03:d0,CAPA Staff,-86,0,0,0;00:11:74:88:03:e0,CAPA Student,-75,0,0,0;64:f6:9d:b3:f4:ee,iiNet Customer,-78,0,0,0;88:e3:ab:55:aa:32,TPG-7BCP,-82,0,0,0;c8:b5:ad:31:16:f0,TAFENSW,-88,0,0,0;c4:71:54:46:90:f1,WiFi-90F1,-80,0,0,0;c8:b5:ad:31:16:f1,TAFE-Events,-87,0,0,0;d8:c7:c8:4c:f7:31,TAFE-Events,-91,0,0,0;70:3a:cb:18:03:ff,gwi,-78,0,0,0;44:1e:98:14:ec:ac,INSEARCH Secure,-86,0,0,0;34:6b:46:bc:65:95,OPTUS_BC6592,-82,0,0,0;44:1e:98:15:8b:28,INSEARCH Secure,-85,0,0,0;d8:c7:c8:4c:f4:10,TAFENSW,-90,0,0,0;c4:71:54:46:90:f3,WiFi-90F1-5G,-90,0,0,0;d8:c7:c8:4c:f7:30,TAFENSW,-93,0,0,0;00:02:6f:12:34:56,Telstra Air,-67,0,0,0;d8:c7:c8:4c:f4:11,TAFE-Events,-89,0,0,0;

Scan6;64:f6:9d:b3:f4:ef,iiNet Free WiFi,-77,0,0,0;d8:c7:c8:4c:ea:51,TAFE-Events,-77,0,0,0;d8:c7:c8:4c:de:b0,TAFENSW,-69,0,0,0;d8:c7:c8:4c:de:b1,TAFE-Events,-69,0,0,0;00:02:6f:12:34:50,Telstra Air,-76,0,0,0;d8:c7:c8:4c:de:a0,TAFENSW,-72,0,0,0;64:f6:9d:b3:f4:e0,iiNet Free WiFi,-68,0,0,0;d8:c7:c8:4c:de:a1,TAFE-Events,-72,0,0,0;d8:c7:c8:4c:f4:d0,TAFENSW,-77,0,0,0;d8:c7:c8:4c:ea:50,TAFENSW,-77,0,0,0;a0:04:60:a5:e5:ac,iiMAV_1,-92,0,0,0;b0:4e:26:8c:66:8f,22aMaryAnn 5G,-87,0,0,0;d8:c7:c8:4c:f4:d1,TAFE-Events,-77,0,0,0;d0:65:ca:54:fb:90,WiFi-7DUR,-74,0,0,0;00:11:74:88:03:d0,CAPA Staff,-86,0,0,0;00:11:74:88:03:e0,CAPA Student,-75,0,0,0;64:f6:9d:b3:f4:ee,iiNet Customer,-78,0,0,0;88:e3:ab:55:aa:32,TPG-7BCP,-82,0,0,0;c8:b5:ad:31:16:f0,TAFENSW,-88,0,0,0;c4:71:54:46:90:f1,WiFi-90F1,-80,0,0,0;c8:b5:ad:31:16:f1,TAFE-Events,-87,0,0,0;d8:c7:c8:4c:f7:31,TAFE-Events,-91,0,0,0;70:3a:cb:18:03:ff,gwi,-78,0,0,0;44:1e:98:14:ec:ac,INSEARCH Secure,-86,0,0,0;34:6b:46:bc:65:95,OPTUS_BC6592,-82,0,0,0;44:1e:98:15:8b:28,INSEARCH Secure,-85,0,0,0;d8:c7:c8:4c:f4:10,TAFENSW,-90,0,0,0;c4:71:54:46:90:f3,WiFi-90F1-5G,-90,0,0,0;d8:c7:c8:4c:f7:30,TAFENSW,-93,0,0,0;00:02:6f:12:34:56,Telstra Air,-67,0,0,0;d8:c7:c8:4c:f4:11,TAFE-Events,-89,0,0,0;

Scan7;64:f6:9d:b3:f4:ef,iiNet Free WiFi,-77,0,0,0;d8:c7:c8:4c:ea:51,TAFE-Events,-77,0,0,0;d8:c7:c8:4c:de:b0,TAFENSW,-69,0,0,0;d8:c7:c8:4c:de:b1,TAFE-Events,-69,0,0,0;00:02:6f:12:34:50,Telstra Air,-76,0,0,0;d8:c7:c8:4c:de:a0,TAFENSW,-72,0,0,0;64:f6:9d:b3:f4:e0,iiNet Free WiFi,-68,0,0,0;d8:c7:c8:4c:de:a1,TAFE-Events,-72,0,0,0;d8:c7:c8:4c:f4:d0,TAFENSW,-77,0,0,0;d8:c7:c8:4c:ea:50,TAFENSW,-77,0,0,0;a0:04:60:a5:e5:ac,iiMAV_1,-92,0,0,0;b0:4e:26:8c:66:8f,22aMaryAnn 5G,-87,0,0,0;d8:c7:c8:4c:f4:d1,TAFE-Events,-77,0,0,0;d0:65:ca:54:fb:90,WiFi-7DUR,-74,0,0,0;00:11:74:88:03:d0,CAPA Staff,-86,0,0,0;00:11:74:88:03:e0,CAPA Student,-75,0,0,0;64:f6:9d:b3:f4:ee,iiNet Customer,-78,0,0,0;88:e3:ab:55:aa:32,TPG-7BCP,-82,0,0,0;c8:b5:ad:31:16:f0,TAFENSW,-88,0,0,0;c4:71:54:46:90:f1,WiFi-90F1,-80,0,0,0;c8:b5:ad:31:16:f1,TAFE-Events,-87,0,0,0;d8:c7:c8:4c:f7:31,TAFE-Events,-91,0,0,0;70:3a:cb:18:03:ff,gwi,-78,0,0,0;44:1e:98:14:ec:ac,INSEARCH Secure,-86,0,0,0;34:6b:46:bc:65:95,OPTUS_BC6592,-82,0,0,0;44:1e:98:15:8b:28,INSEARCH Secure,-85,0,0,0;d8:c7:c8:4c:f4:10,TAFENSW,-90,0,0,0;c4:71:54:46:90:f3,WiFi-90F1-5G,-90,0,0,0;d8:c7:c8:4c:f7:30,TAFENSW,-93,0,0,0;00:02:6f:12:34:56,Telstra Air,-67,0,0,0;d8:c7:c8:4c:f4:11,TAFE-Events,-89,0,0,0;

Scan8;64:f6:9d:b3:f4:ef,iiNet Free WiFi,-77,0,0,0;d8:c7:c8:4c:ea:51,TAFE-Events,-77,0,0,0;d8:c7:c8:4c:de:b0,TAFENSW,-69,0,0,0;d8:c7:c8:4c:de:b1,TAFE-Events,-69,0,0,0;00:02:6f:12:34:50,Telstra Air,-76,0,0,0;d8:c7:c8:4c:de:a0,TAFENSW,-72,0,0,0;64:f6:9d:b3:f4:e0,iiNet Free WiFi,-68,0,0,0;d8:c7:c8:4c:de:a1,TAFE-Events,-72,0,0,0;d8:c7:c8:4c:f4:d0,TAFENSW,-77,0,0,0;d8:c7:c8:4c:ea:50,TAFENSW,-77,0,0,0;a0:04:60:a5:e5:ac,iiMAV_1,-92,0,0,0;b0:4e:26:8c:66:8f,22aMaryAnn 5G,-87,0,0,0;d8:c7:c8:4c:f4:d1,TAFE-Events,-77,0,0,0;d0:65:ca:54:fb:90,WiFi-7DUR,-74,0,0,0;00:11:74:88:03:d0,CAPA Staff,-86,0,0,0;00:11:74:88:03:e0,CAPA Student,-75,0,0,0;64:f6:9d:b3:f4:ee,iiNet Customer,-78,0,0,0;88:e3:ab:55:aa:32,TPG-7BCP,-82,0,0,0;c8:b5:ad:31:16:f0,TAFENSW,-88,0,0,0;c4:71:54:46:90:f1,WiFi-90F1,-80,0,0,0;c8:b5:ad:31:16:f1,TAFE-Events,-87,0,0,0;d8:c7:c8:4c:f7:31,TAFE-Events,-91,0,0,0;70:3a:cb:18:03:ff,gwi,-78,0,0,0;44:1e:98:14:ec:ac,INSEARCH Secure,-86,0,0,0;34:6b:46:bc:65:95,OPTUS_BC6592,-82,0,0,0;44:1e:98:15:8b:28,INSEARCH Secure,-85,0,0,0;d8:c7:c8:4c:f4:10,TAFENSW,-90,0,0,0;c4:71:54:46:90:f3,WiFi-90F1-5G,-90,0,0,0;d8:c7:c8:4c:f7:30,TAFENSW,-93,0,0,0;00:02:6f:12:34:56,Telstra Air,-67,0,0,0;d8:c7:c8:4c:f4:11,TAFE-Events,-89,0,0,0;

Scan9;64:f6:9d:b3:f4:ef,iiNet Free WiFi,-77,0,0,0;d8:c7:c8:4c:ea:51,TAFE-Events,-77,0,0,0;d8:c7:c8:4c:de:b0,TAFENSW,-69,0,0,0;d8:c7:c8:4c:de:b1,TAFE-Events,-69,0,0,0;00:02:6f:12:34:50,Telstra Air,-76,0,0,0;d8:c7:c8:4c:de:a0,TAFENSW,-72,0,0,0;64:f6:9d:b3:f4:e0,iiNet Free WiFi,-68,0,0,0;d8:c7:c8:4c:de:a1,TAFE-Events,-72,0,0,0;d8:c7:c8:4c:f4:d0,TAFENSW,-77,0,0,0;d8:c7:c8:4c:ea:50,TAFENSW,-77,0,0,0;a0:04:60:a5:e5:ac,iiMAV_1,-92,0,0,0;b0:4e:26:8c:66:8f,22aMaryAnn 5G,-87,0,0,0;d8:c7:c8:4c:f4:d1,TAFE-Events,-77,0,0,0;d0:65:ca:54:fb:90,WiFi-7DUR,-74,0,0,0;00:11:74:88:03:d0,CAPA Staff,-86,0,0,0;00:11:74:88:03:e0,CAPA Student,-75,0,0,0;64:f6:9d:b3:f4:ee,iiNet Customer,-78,0,0,0;88:e3:ab:55:aa:32,TPG-7BCP,-82,0,0,0;c8:b5:ad:31:16:f0,TAFENSW,-88,0,0,0;c4:71:54:46:90:f1,WiFi-90F1,-80,0,0,0;c8:b5:ad:31:16:f1,TAFE-Events,-87,0,0,0;d8:c7:c8:4c:f7:31,TAFE-Events,-91,0,0,0;70:3a:cb:18:03:ff,gwi,-78,0,0,0;44:1e:98:14:ec:ac,INSEARCH Secure,-86,0,0,0;34:6b:46:bc:65:95,OPTUS_BC6592,-82,0,0,0;44:1e:98:15:8b:28,INSEARCH Secure,-85,0,0,0;d8:c7:c8:4c:f4:10,TAFENSW,-90,0,0,0;c4:71:54:46:90:f3,WiFi-90F1-5G,-90,0,0,0;d8:c7:c8:4c:f7:30,TAFENSW,-93,0,0,0;00:02:6f:12:34:56,Telstra Air,-67,0,0,0;d8:c7:c8:4c:f4:11,TAFE-Events,-89,0,0,0;

Scan10;64:f6:9d:b3:f4:ef,iiNet Free WiFi,-77,0,0,0;d8:c7:c8:4c:ea:51,TAFE-Events,-77,0,0,0;d8:c7:c8:4c:de:b0,TAFENSW,-69,0,0,0;d8:c7:c8:4c:de:b1,TAFE-Events,-69,0,0,0;00:02:6f:12:34:50,Telstra Air,-76,0,0,0;d8:c7:c8:4c:de:a0,TAFENSW,-72,0,0,0;64:f6:9d:b3:f4:e0,iiNet Free WiFi,-68,0,0,0;d8:c7:c8:4c:de:a1,TAFE-Events,-72,0,0,0;d8:c7:c8:4c:f4:d0,TAFENSW,-77,0,0,0;d8:c7:c8:4c:ea:50,TAFENSW,-77,0,0,0;a0:04:60:a5:e5:ac,iiMAV_1,-92,0,0,0;b0:4e:26:8c:66:8f,22aMaryAnn 5G,-87,0,0,0;d8:c7:c8:4c:f4:d1,TAFE-Events,-77,0,0,0;d0:65:ca:54:fb:90,WiFi-7DUR,-74,0,0,0;00:11:74:88:03:d0,CAPA Staff,-86,0,0,0;00:11:74:88:03:e0,CAPA Student,-75,0,0,0;64:f6:9d:b3:f4:ee,iiNet Customer,-78,0,0,0;88:e3:ab:55:aa:32,TPG-7BCP,-82,0,0,0;c8:b5:ad:31:16:f0,TAFENSW,-88,0,0,0;c4:71:54:46:90:f1,WiFi-90F1,-80,0,0,0;c8:b5:ad:31:16:f1,TAFE-Events,-87,0,0,0;d8:c7:c8:4c:f7:31,TAFE-Events,-91,0,0,0;70:3a:cb:18:03:ff,gwi,-78,0,0,0;44:1e:98:14:ec:ac,INSEARCH Secure,-86,0,0,0;34:6b:46:bc:65:95,OPTUS_BC6592,-82,0,0,0;44:1e:98:15:8b:28,INSEARCH Secure,-85,0,0,0;d8:c7:c8:4c:f4:10,TAFENSW,-90,0,0,0;c4:71:54:46:90:f3,WiFi-90F1-5G,-90,0,0,0;d8:c7:c8:4c:f7:30,TAFENSW,-93,0,0,0;00:02:6f:12:34:56,Telstra Air,-67,0,0,0;d8:c7:c8:4c:f4:11,TAFE-Events,-89,0,0,0;

Scan11;64:f6:9d:b3:f4:ef,iiNet Free WiFi,-82,0,0,0;d8:c7:c8:4c:ea:51,TAFE-Events,-82,0,0,0;d8:c7:c8:4c:de:b0,TAFENSW,-66,0,0,0;d8:c7:c8:4c:de:b1,TAFE-Events,-67,0,0,0;00:02:6f:12:34:50,Telstra Air,-72,0,0,0;d8:c7:c8:4c:de:a0,TAFENSW,-69,0,0,0;64:f6:9d:b3:f4:e0,iiNet Free WiFi,-68,0,0,0;d8:c7:c8:4c:de:a1,TAFE-Events,-69,0,0,0;d8:c7:c8:4c:f4:d0,TAFENSW,-73,0,0,0;d8:c7:c8:4c:ea:50,TAFENSW,-82,0,0,0;b0:4e:26:8c:66:8f,22aMaryAnn 5G,-83,0,0,0;d8:c7:c8:4c:f4:d1,TAFE-Events,-73,0,0,0;d0:65:ca:54:fb:90,WiFi-7DUR,-78,0,0,0;00:11:74:88:03:d0,CAPA Staff,-75,0,0,0;00:11:74:88:03:e0,CAPA Student,-76,0,0,0;88:e3:ab:55:aa:32,TPG-7BCP,-75,0,0,0;d8:c7:c8:4c:f7:31,TAFE-Events,-90,0,0,0;44:1e:98:14:ec:ac,INSEARCH Secure,-86,0,0,0;d8:c7:c8:4c:f4:10,TAFENSW,-89,0,0,0;d8:c7:c8:4c:f7:30,TAFENSW,-89,0,0,0;d8:c7:c8:4c:f4:c0,TAFENSW,-73,0,0,0;5c:a8:6a:07:ac:30,WiFi-VVU2,-77,0,0,0;e8:94:f6:fa:07:02,Hubris,-80,0,0,0;70:3a:0e:34:0b:b1,UTS-WPA,-85,0,0,0;d0:65:ca:54:3a:fc,WiFi-B2VY,-82,0,0,0;70:3a:0e:34:0b:b3,UEL Internal 2018,-87,0,0,0;18:64:72:30:1f:70,eduroam,-88,0,0,0;18:64:72:30:1f:73,UEL Internal 2018,-89,0,0,0;18:64:72:30:1f:71,UTS-WPA,-89,0,0,0;b4:5d:50:75:73:73,UEL Internal 2018,-89,0,0,0;70:3a:0e:34:0b:b0,eduroam,-89,0,0,0;b4:5d:50:75:73:71,UTS-WPA,-90,0,0,0;18:64:72:2f:f3:b3,UEL Internal 2018,-90,0,0,0;18:64:72:2f:f3:b0,eduroam,-90,0,0,0;b4:5d:50:75:73:70,eduroam,-90,0,0,0;18:64:72:2f:f3:b1,UTS-WPA,-91,0,0,0;18:64:72:30:21:93,UEL Internal 2018,-91,0,0,0;40:e3:d6:e8:05:11,UTS-WPA,-91,0,0,0;40:e3:d6:e8:05:13,UEL Internal 2018,-91,0,0,0;18:64:72:30:21:90,eduroam,-91,0,0,0;18:64:72:30:21:91,UTS-WPA,-92,0,0,0;28:c7:ce:a2:40:0d,Cisco860_Guest3,-68,0,0,0;28:c7:ce:a2:40:0b,Cisco860_Guest1,-69,0,0,0;00:02:6f:12:34:56,,-70,0,0,0;d8:c7:c8:4c:f4:c1,TAFE-Events,-71,0,0,0;28:c7:ce:a2:40:0c,Cisco860_Guest2,-73,0,0,0;7e:26:64:01:8e:4f,Fon WiFi,-82,0,0,0;12:13:31:e7:35:7f,Telstra Air,-82,0,0,0;12:13:31:e7:35:70,Fon WiFi,-82,0,0,0;

Scan12;64:f6:9d:b3:f4:ef,iiNet Free WiFi,-82,0,0,0;d8:c7:c8:4c:ea:51,TAFE-Events,-82,0,0,0;d8:c7:c8:4c:de:b0,TAFENSW,-66,0,0,0;d8:c7:c8:4c:de:b1,TAFE-Events,-67,0,0,0;00:02:6f:12:34:50,Telstra Air,-72,0,0,0;d8:c7:c8:4c:de:a0,TAFENSW,-69,0,0,0;64:f6:9d:b3:f4:e0,iiNet Free WiFi,-68,0,0,0;d8:c7:c8:4c:de:a1,TAFE-Events,-69,0,0,0;d8:c7:c8:4c:f4:d0,TAFENSW,-73,0,0,0;d8:c7:c8:4c:ea:50,TAFENSW,-82,0,0,0;b0:4e:26:8c:66:8f,22aMaryAnn 5G,-83,0,0,0;d8:c7:c8:4c:f4:d1,TAFE-Events,-73,0,0,0;d0:65:ca:54:fb:90,WiFi-7DUR,-78,0,0,0;00:11:74:88:03:d0,CAPA Staff,-75,0,0,0;00:11:74:88:03:e0,CAPA Student,-76,0,0,0;88:e3:ab:55:aa:32,TPG-7BCP,-75,0,0,0;d8:c7:c8:4c:f7:31,TAFE-Events,-90,0,0,0;44:1e:98:14:ec:ac,INSEARCH Secure,-86,0,0,0;d8:c7:c8:4c:f4:10,TAFENSW,-89,0,0,0;d8:c7:c8:4c:f7:30,TAFENSW,-89,0,0,0;d8:c7:c8:4c:f4:c0,TAFENSW,-73,0,0,0;5c:a8:6a:07:ac:30,WiFi-VVU2,-77,0,0,0;e8:94:f6:fa:07:02,Hubris,-80,0,0,0;70:3a:0e:34:0b:b1,UTS-WPA,-85,0,0,0;d0:65:ca:54:3a:fc,WiFi-B2VY,-82,0,0,0;70:3a:0e:34:0b:b3,UEL Internal 2018,-87,0,0,0;18:64:72:30:1f:70,eduroam,-88,0,0,0;18:64:72:30:1f:73,UEL Internal 2018,-89,0,0,0;18:64:72:30:1f:71,UTS-WPA,-89,0,0,0;b4:5d:50:75:73:73,UEL Internal 2018,-89,0,0,0;70:3a:0e:34:0b:b0,eduroam,-89,0,0,0;b4:5d:50:75:73:71,UTS-WPA,-90,0,0,0;18:64:72:2f:f3:b3,UEL Internal 2018,-90,0,0,0;18:64:72:2f:f3:b0,eduroam,-90,0,0,0;b4:5d:50:75:73:70,eduroam,-90,0,0,0;18:64:72:2f:f3:b1,UTS-WPA,-91,0,0,0;18:64:72:30:21:93,UEL Internal 2018,-91,0,0,0;40:e3:d6:e8:05:11,UTS-WPA,-91,0,0,0;40:e3:d6:e8:05:13,UEL Internal 2018,-91,0,0,0;18:64:72:30:21:90,eduroam,-91,0,0,0;18:64:72:30:21:91,UTS-WPA,-92,0,0,0;28:c7:ce:a2:40:0d,Cisco860_Guest3,-68,0,0,0;28:c7:ce:a2:40:0b,Cisco860_Guest1,-69,0,0,0;00:02:6f:12:34:56,,-70,0,0,0;d8:c7:c8:4c:f4:c1,TAFE-Events,-71,0,0,0;28:c7:ce:a2:40:0c,Cisco860_Guest2,-73,0,0,0;7e:26:64:01:8e:4f,Fon WiFi,-82,0,0,0;12:13:31:e7:35:7f,Telstra Air,-82,0,0,0;12:13:31:e7:35:70,Fon WiFi,-82,0,0,0;

Scan13;64:f6:9d:b3:f4:ef,iiNet Free WiFi,-82,0,0,0;d8:c7:c8:4c:ea:51,TAFE-Events,-82,0,0,0;d8:c7:c8:4c:de:b0,TAFENSW,-66,0,0,0;d8:c7:c8:4c:de:b1,TAFE-Events,-67,0,0,0;00:02:6f:12:34:50,Telstra Air,-72,0,0,0;d8:c7:c8:4c:de:a0,TAFENSW,-69,0,0,0;64:f6:9d:b3:f4:e0,iiNet Free WiFi,-68,0,0,0;d8:c7:c8:4c:de:a1,TAFE-Events,-69,0,0,0;d8:c7:c8:4c:f4:d0,TAFENSW,-73,0,0,0;d8:c7:c8:4c:ea:50,TAFENSW,-82,0,0,0;b0:4e:26:8c:66:8f,22aMaryAnn 5G,-83,0,0,0;d8:c7:c8:4c:f4:d1,TAFE-Events,-73,0,0,0;d0:65:ca:54:fb:90,WiFi-7DUR,-78,0,0,0;00:11:74:88:03:d0,CAPA Staff,-75,0,0,0;00:11:74:88:03:e0,CAPA Student,-76,0,0,0;88:e3:ab:55:aa:32,TPG-7BCP,-75,0,0,0;d8:c7:c8:4c:f7:31,TAFE-Events,-90,0,0,0;44:1e:98:14:ec:ac,INSEARCH Secure,-86,0,0,0;d8:c7:c8:4c:f4:10,TAFENSW,-89,0,0,0;d8:c7:c8:4c:f7:30,TAFENSW,-89,0,0,0;d8:c7:c8:4c:f4:c0,TAFENSW,-73,0,0,0;5c:a8:6a:07:ac:30,WiFi-VVU2,-77,0,0,0;e8:94:f6:fa:07:02,Hubris,-80,0,0,0;70:3a:0e:34:0b:b1,UTS-WPA,-85,0,0,0;d0:65:ca:54:3a:fc,WiFi-B2VY,-82,0,0,0;70:3a:0e:34:0b:b3,UEL Internal 2018,-87,0,0,0;18:64:72:30:1f:70,eduroam,-88,0,0,0;18:64:72:30:1f:73,UEL Internal 2018,-89,0,0,0;18:64:72:30:1f:71,UTS-WPA,-89,0,0,0;b4:5d:50:75:73:73,UEL Internal 2018,-89,0,0,0;70:3a:0e:34:0b:b0,eduroam,-89,0,0,0;b4:5d:50:75:73:71,UTS-WPA,-90,0,0,0;18:64:72:2f:f3:b3,UEL Internal 2018,-90,0,0,0;18:64:72:2f:f3:b0,eduroam,-90,0,0,0;b4:5d:50:75:73:70,eduroam,-90,0,0,0;18:64:72:2f:f3:b1,UTS-WPA,-91,0,0,0;18:64:72:30:21:93,UEL Internal 2018,-91,0,0,0;40:e3:d6:e8:05:11,UTS-WPA,-91,0,0,0;40:e3:d6:e8:05:13,UEL Internal 2018,-91,0,0,0;18:64:72:30:21:90,eduroam,-91,0,0,0;18:64:72:30:21:91,UTS-WPA,-92,0,0,0;28:c7:ce:a2:40:0d,Cisco860_Guest3,-68,0,0,0;28:c7:ce:a2:40:0b,Cisco860_Guest1,-69,0,0,0;00:02:6f:12:34:56,,-70,0,0,0;d8:c7:c8:4c:f4:c1,TAFE-Events,-71,0,0,0;28:c7:ce:a2:40:0c,Cisco860_Guest2,-73,0,0,0;7e:26:64:01:8e:4f,Fon WiFi,-82,0,0,0;12:13:31:e7:35:7f,Telstra Air,-82,0,0,0;12:13:31:e7:35:70,Fon WiFi,-82,0,0,0;

