Scan1;a0:04:60:a5:e5:a8,iiMAV_2,-72,0,0,0;64:f6:9d:b3:f4:ef,iiNet Free WiFi,-80,0,0,0;d8:c7:c8:4c:ea:51,TAFE-Events,-82,0,0,0;d8:c7:c8:4c:de:b0,TAFENSW,-72,0,0,0;d8:c7:c8:4c:de:b1,TAFE-Events,-73,0,0,0;00:02:6f:12:34:50,Telstra Air,-79,0,0,0;d8:c7:c8:4c:de:a0,TAFENSW,-70,0,0,0;64:f6:9d:b3:f4:e0,iiNet Free WiFi,-66,0,0,0;d8:c7:c8:4c:de:a1,TAFE-Events,-70,0,0,0;d8:c7:c8:4c:f4:d0,TAFENSW,-77,0,0,0;24:7f:20:49:6b:1a,OPTUS_496B19,-75,0,0,0;64:f6:9d:b3:f4:ee,iiNet Customer,-80,0,0,0;d8:c7:c8:4c:ea:50,TAFENSW,-81,0,0,0;a0:04:60:a5:e5:ac,iiMAV_1,-88,0,0,0;4e:ef:c0:b4:cb:74,,-92,0,0,0;d0:65:ca:54:fb:94,WiFi-7DUR-5G,-86,0,0,0;c4:71:54:46:90:f3,WiFi-90F1-5G,-88,0,0,0;28:c7:ce:a2:40:0a,Fork and Grind,-67,0,0,0;b0:4e:26:8c:66:8d,22aMaryAnn,-80,0,0,0;d8:c7:c8:4f:cb:90,TAFENSW,-89,0,0,0;b0:4e:26:8c:66:8f,22aMaryAnn 5G,-84,0,0,0;d8:c7:c8:4c:f4:10,TAFENSW,-89,0,0,0;28:c7:ce:a2:40:0c,Cisco860_Guest2,-65,0,0,0;28:c7:ce:a2:40:0d,Cisco860_Guest3,-66,0,0,0;28:c7:ce:a2:40:0b,Cisco860_Guest1,-67,0,0,0;d8:c7:c8:4c:f4:c1,TAFE-Events,-72,0,0,0;d8:c7:c8:4c:f4:d1,TAFE-Events,-78,0,0,0;d8:c7:c8:4f:cb:91,TAFE-Events,-89,0,0,0;fa:8f:ca:72:cc:f4,,-82,0,0,0;d8:c7:c8:4c:f4:c0,TAFENSW,-71,0,0,0;d8:c7:c8:4c:ea:40,TAFENSW,-78,0,0,0;70:3a:cb:18:03:ff,gwi,-79,0,0,0;d0:65:ca:54:fb:90,WiFi-7DUR,-79,0,0,0;24:7f:20:49:6b:1b,OPTUS_496B19_5GHz,-85,0,0,0;d8:c7:c8:4f:cb:80,TAFENSW,-82,0,0,0;c4:71:54:46:90:f1,WiFi-90F1,-83,0,0,0;14:cc:20:e1:11:fe,,-88,0,0,0;d8:c7:c8:4f:cb:81,TAFE-Events,-81,0,0,0;d8:c7:c8:4c:f4:11,TAFE-Events,-89,0,0,0;

Scan2;a0:04:60:a5:e5:a8,iiMAV_2,-72,0,0,0;64:f6:9d:b3:f4:ef,iiNet Free WiFi,-80,0,0,0;d8:c7:c8:4c:ea:51,TAFE-Events,-82,0,0,0;d8:c7:c8:4c:de:b0,TAFENSW,-72,0,0,0;d8:c7:c8:4c:de:b1,TAFE-Events,-73,0,0,0;00:02:6f:12:34:50,Telstra Air,-79,0,0,0;d8:c7:c8:4c:de:a0,TAFENSW,-70,0,0,0;64:f6:9d:b3:f4:e0,iiNet Free WiFi,-66,0,0,0;d8:c7:c8:4c:de:a1,TAFE-Events,-70,0,0,0;d8:c7:c8:4c:f4:d0,TAFENSW,-77,0,0,0;24:7f:20:49:6b:1a,OPTUS_496B19,-75,0,0,0;64:f6:9d:b3:f4:ee,iiNet Customer,-80,0,0,0;d8:c7:c8:4c:ea:50,TAFENSW,-81,0,0,0;a0:04:60:a5:e5:ac,iiMAV_1,-88,0,0,0;4e:ef:c0:b4:cb:74,,-92,0,0,0;d0:65:ca:54:fb:94,WiFi-7DUR-5G,-86,0,0,0;c4:71:54:46:90:f3,WiFi-90F1-5G,-88,0,0,0;28:c7:ce:a2:40:0a,Fork and Grind,-67,0,0,0;b0:4e:26:8c:66:8d,22aMaryAnn,-80,0,0,0;d8:c7:c8:4f:cb:90,TAFENSW,-89,0,0,0;b0:4e:26:8c:66:8f,22aMaryAnn 5G,-84,0,0,0;d8:c7:c8:4c:f4:10,TAFENSW,-89,0,0,0;28:c7:ce:a2:40:0c,Cisco860_Guest2,-65,0,0,0;28:c7:ce:a2:40:0d,Cisco860_Guest3,-66,0,0,0;28:c7:ce:a2:40:0b,Cisco860_Guest1,-67,0,0,0;d8:c7:c8:4c:f4:c1,TAFE-Events,-72,0,0,0;d8:c7:c8:4c:f4:d1,TAFE-Events,-78,0,0,0;d8:c7:c8:4f:cb:91,TAFE-Events,-89,0,0,0;fa:8f:ca:72:cc:f4,,-82,0,0,0;d8:c7:c8:4c:f4:c0,TAFENSW,-71,0,0,0;d8:c7:c8:4c:ea:40,TAFENSW,-78,0,0,0;70:3a:cb:18:03:ff,gwi,-79,0,0,0;d0:65:ca:54:fb:90,WiFi-7DUR,-79,0,0,0;24:7f:20:49:6b:1b,OPTUS_496B19_5GHz,-85,0,0,0;d8:c7:c8:4f:cb:80,TAFENSW,-82,0,0,0;c4:71:54:46:90:f1,WiFi-90F1,-83,0,0,0;14:cc:20:e1:11:fe,,-88,0,0,0;d8:c7:c8:4f:cb:81,TAFE-Events,-81,0,0,0;d8:c7:c8:4c:f4:11,TAFE-Events,-89,0,0,0;

Scan3;a0:04:60:a5:e5:a8,iiMAV_2,-72,0,0,0;64:f6:9d:b3:f4:ef,iiNet Free WiFi,-80,0,0,0;d8:c7:c8:4c:ea:51,TAFE-Events,-82,0,0,0;d8:c7:c8:4c:de:b0,TAFENSW,-72,0,0,0;d8:c7:c8:4c:de:b1,TAFE-Events,-73,0,0,0;00:02:6f:12:34:50,Telstra Air,-79,0,0,0;d8:c7:c8:4c:de:a0,TAFENSW,-70,0,0,0;64:f6:9d:b3:f4:e0,iiNet Free WiFi,-66,0,0,0;d8:c7:c8:4c:de:a1,TAFE-Events,-70,0,0,0;d8:c7:c8:4c:f4:d0,TAFENSW,-77,0,0,0;24:7f:20:49:6b:1a,OPTUS_496B19,-75,0,0,0;64:f6:9d:b3:f4:ee,iiNet Customer,-80,0,0,0;d8:c7:c8:4c:ea:50,TAFENSW,-81,0,0,0;a0:04:60:a5:e5:ac,iiMAV_1,-88,0,0,0;4e:ef:c0:b4:cb:74,,-92,0,0,0;d0:65:ca:54:fb:94,WiFi-7DUR-5G,-86,0,0,0;c4:71:54:46:90:f3,WiFi-90F1-5G,-88,0,0,0;28:c7:ce:a2:40:0a,Fork and Grind,-67,0,0,0;b0:4e:26:8c:66:8d,22aMaryAnn,-80,0,0,0;d8:c7:c8:4f:cb:90,TAFENSW,-89,0,0,0;b0:4e:26:8c:66:8f,22aMaryAnn 5G,-84,0,0,0;d8:c7:c8:4c:f4:10,TAFENSW,-89,0,0,0;28:c7:ce:a2:40:0c,Cisco860_Guest2,-65,0,0,0;28:c7:ce:a2:40:0d,Cisco860_Guest3,-66,0,0,0;28:c7:ce:a2:40:0b,Cisco860_Guest1,-67,0,0,0;d8:c7:c8:4c:f4:c1,TAFE-Events,-72,0,0,0;d8:c7:c8:4c:f4:d1,TAFE-Events,-78,0,0,0;d8:c7:c8:4f:cb:91,TAFE-Events,-89,0,0,0;fa:8f:ca:72:cc:f4,,-82,0,0,0;d8:c7:c8:4c:f4:c0,TAFENSW,-71,0,0,0;d8:c7:c8:4c:ea:40,TAFENSW,-78,0,0,0;70:3a:cb:18:03:ff,gwi,-79,0,0,0;d0:65:ca:54:fb:90,WiFi-7DUR,-79,0,0,0;24:7f:20:49:6b:1b,OPTUS_496B19_5GHz,-85,0,0,0;d8:c7:c8:4f:cb:80,TAFENSW,-82,0,0,0;c4:71:54:46:90:f1,WiFi-90F1,-83,0,0,0;14:cc:20:e1:11:fe,,-88,0,0,0;d8:c7:c8:4f:cb:81,TAFE-Events,-81,0,0,0;d8:c7:c8:4c:f4:11,TAFE-Events,-89,0,0,0;

Scan4;a0:04:60:a5:e5:a8,iiMAV_2,-72,0,0,0;64:f6:9d:b3:f4:ef,iiNet Free WiFi,-80,0,0,0;d8:c7:c8:4c:ea:51,TAFE-Events,-82,0,0,0;d8:c7:c8:4c:de:b0,TAFENSW,-72,0,0,0;d8:c7:c8:4c:de:b1,TAFE-Events,-73,0,0,0;00:02:6f:12:34:50,Telstra Air,-79,0,0,0;d8:c7:c8:4c:de:a0,TAFENSW,-70,0,0,0;64:f6:9d:b3:f4:e0,iiNet Free WiFi,-66,0,0,0;d8:c7:c8:4c:de:a1,TAFE-Events,-70,0,0,0;d8:c7:c8:4c:f4:d0,TAFENSW,-77,0,0,0;24:7f:20:49:6b:1a,OPTUS_496B19,-75,0,0,0;64:f6:9d:b3:f4:ee,iiNet Customer,-80,0,0,0;d8:c7:c8:4c:ea:50,TAFENSW,-81,0,0,0;a0:04:60:a5:e5:ac,iiMAV_1,-88,0,0,0;4e:ef:c0:b4:cb:74,,-92,0,0,0;d0:65:ca:54:fb:94,WiFi-7DUR-5G,-86,0,0,0;c4:71:54:46:90:f3,WiFi-90F1-5G,-88,0,0,0;28:c7:ce:a2:40:0a,Fork and Grind,-67,0,0,0;b0:4e:26:8c:66:8d,22aMaryAnn,-80,0,0,0;d8:c7:c8:4f:cb:90,TAFENSW,-89,0,0,0;b0:4e:26:8c:66:8f,22aMaryAnn 5G,-84,0,0,0;d8:c7:c8:4c:f4:10,TAFENSW,-89,0,0,0;28:c7:ce:a2:40:0c,Cisco860_Guest2,-65,0,0,0;28:c7:ce:a2:40:0d,Cisco860_Guest3,-66,0,0,0;28:c7:ce:a2:40:0b,Cisco860_Guest1,-67,0,0,0;d8:c7:c8:4c:f4:c1,TAFE-Events,-72,0,0,0;d8:c7:c8:4c:f4:d1,TAFE-Events,-78,0,0,0;d8:c7:c8:4f:cb:91,TAFE-Events,-89,0,0,0;fa:8f:ca:72:cc:f4,,-82,0,0,0;d8:c7:c8:4c:f4:c0,TAFENSW,-71,0,0,0;d8:c7:c8:4c:ea:40,TAFENSW,-78,0,0,0;70:3a:cb:18:03:ff,gwi,-79,0,0,0;d0:65:ca:54:fb:90,WiFi-7DUR,-79,0,0,0;24:7f:20:49:6b:1b,OPTUS_496B19_5GHz,-85,0,0,0;d8:c7:c8:4f:cb:80,TAFENSW,-82,0,0,0;c4:71:54:46:90:f1,WiFi-90F1,-83,0,0,0;14:cc:20:e1:11:fe,,-88,0,0,0;d8:c7:c8:4f:cb:81,TAFE-Events,-81,0,0,0;d8:c7:c8:4c:f4:11,TAFE-Events,-89,0,0,0;

Scan5;a0:04:60:a5:e5:a8,iiMAV_2,-72,0,0,0;64:f6:9d:b3:f4:ef,iiNet Free WiFi,-80,0,0,0;d8:c7:c8:4c:ea:51,TAFE-Events,-82,0,0,0;d8:c7:c8:4c:de:b0,TAFENSW,-72,0,0,0;d8:c7:c8:4c:de:b1,TAFE-Events,-73,0,0,0;00:02:6f:12:34:50,Telstra Air,-79,0,0,0;d8:c7:c8:4c:de:a0,TAFENSW,-70,0,0,0;64:f6:9d:b3:f4:e0,iiNet Free WiFi,-66,0,0,0;d8:c7:c8:4c:de:a1,TAFE-Events,-70,0,0,0;d8:c7:c8:4c:f4:d0,TAFENSW,-77,0,0,0;24:7f:20:49:6b:1a,OPTUS_496B19,-75,0,0,0;64:f6:9d:b3:f4:ee,iiNet Customer,-80,0,0,0;d8:c7:c8:4c:ea:50,TAFENSW,-81,0,0,0;a0:04:60:a5:e5:ac,iiMAV_1,-88,0,0,0;4e:ef:c0:b4:cb:74,,-92,0,0,0;d0:65:ca:54:fb:94,WiFi-7DUR-5G,-86,0,0,0;c4:71:54:46:90:f3,WiFi-90F1-5G,-88,0,0,0;28:c7:ce:a2:40:0a,Fork and Grind,-67,0,0,0;b0:4e:26:8c:66:8d,22aMaryAnn,-80,0,0,0;d8:c7:c8:4f:cb:90,TAFENSW,-89,0,0,0;b0:4e:26:8c:66:8f,22aMaryAnn 5G,-84,0,0,0;d8:c7:c8:4c:f4:10,TAFENSW,-89,0,0,0;28:c7:ce:a2:40:0c,Cisco860_Guest2,-65,0,0,0;28:c7:ce:a2:40:0d,Cisco860_Guest3,-66,0,0,0;28:c7:ce:a2:40:0b,Cisco860_Guest1,-67,0,0,0;d8:c7:c8:4c:f4:c1,TAFE-Events,-72,0,0,0;d8:c7:c8:4c:f4:d1,TAFE-Events,-78,0,0,0;d8:c7:c8:4f:cb:91,TAFE-Events,-89,0,0,0;fa:8f:ca:72:cc:f4,,-82,0,0,0;d8:c7:c8:4c:f4:c0,TAFENSW,-71,0,0,0;d8:c7:c8:4c:ea:40,TAFENSW,-78,0,0,0;70:3a:cb:18:03:ff,gwi,-79,0,0,0;d0:65:ca:54:fb:90,WiFi-7DUR,-79,0,0,0;24:7f:20:49:6b:1b,OPTUS_496B19_5GHz,-85,0,0,0;d8:c7:c8:4f:cb:80,TAFENSW,-82,0,0,0;c4:71:54:46:90:f1,WiFi-90F1,-83,0,0,0;14:cc:20:e1:11:fe,,-88,0,0,0;d8:c7:c8:4f:cb:81,TAFE-Events,-81,0,0,0;d8:c7:c8:4c:f4:11,TAFE-Events,-89,0,0,0;

Scan6;a0:04:60:a5:e5:a8,iiMAV_2,-72,0,0,0;64:f6:9d:b3:f4:ef,iiNet Free WiFi,-80,0,0,0;d8:c7:c8:4c:ea:51,TAFE-Events,-82,0,0,0;d8:c7:c8:4c:de:b0,TAFENSW,-72,0,0,0;d8:c7:c8:4c:de:b1,TAFE-Events,-73,0,0,0;00:02:6f:12:34:50,Telstra Air,-79,0,0,0;d8:c7:c8:4c:de:a0,TAFENSW,-70,0,0,0;64:f6:9d:b3:f4:e0,iiNet Free WiFi,-66,0,0,0;d8:c7:c8:4c:de:a1,TAFE-Events,-70,0,0,0;d8:c7:c8:4c:f4:d0,TAFENSW,-77,0,0,0;24:7f:20:49:6b:1a,OPTUS_496B19,-75,0,0,0;64:f6:9d:b3:f4:ee,iiNet Customer,-80,0,0,0;d8:c7:c8:4c:ea:50,TAFENSW,-81,0,0,0;a0:04:60:a5:e5:ac,iiMAV_1,-88,0,0,0;4e:ef:c0:b4:cb:74,,-92,0,0,0;d0:65:ca:54:fb:94,WiFi-7DUR-5G,-86,0,0,0;c4:71:54:46:90:f3,WiFi-90F1-5G,-88,0,0,0;28:c7:ce:a2:40:0a,Fork and Grind,-67,0,0,0;b0:4e:26:8c:66:8d,22aMaryAnn,-80,0,0,0;d8:c7:c8:4f:cb:90,TAFENSW,-89,0,0,0;b0:4e:26:8c:66:8f,22aMaryAnn 5G,-84,0,0,0;d8:c7:c8:4c:f4:10,TAFENSW,-89,0,0,0;28:c7:ce:a2:40:0c,Cisco860_Guest2,-65,0,0,0;28:c7:ce:a2:40:0d,Cisco860_Guest3,-66,0,0,0;28:c7:ce:a2:40:0b,Cisco860_Guest1,-67,0,0,0;d8:c7:c8:4c:f4:c1,TAFE-Events,-72,0,0,0;d8:c7:c8:4c:f4:d1,TAFE-Events,-78,0,0,0;d8:c7:c8:4f:cb:91,TAFE-Events,-89,0,0,0;fa:8f:ca:72:cc:f4,,-82,0,0,0;d8:c7:c8:4c:f4:c0,TAFENSW,-71,0,0,0;d8:c7:c8:4c:ea:40,TAFENSW,-78,0,0,0;70:3a:cb:18:03:ff,gwi,-79,0,0,0;d0:65:ca:54:fb:90,WiFi-7DUR,-79,0,0,0;24:7f:20:49:6b:1b,OPTUS_496B19_5GHz,-85,0,0,0;d8:c7:c8:4f:cb:80,TAFENSW,-82,0,0,0;c4:71:54:46:90:f1,WiFi-90F1,-83,0,0,0;14:cc:20:e1:11:fe,,-88,0,0,0;d8:c7:c8:4f:cb:81,TAFE-Events,-81,0,0,0;d8:c7:c8:4c:f4:11,TAFE-Events,-89,0,0,0;

Scan7;a0:04:60:a5:e5:a8,iiMAV_2,-76,0,0,0;64:f6:9d:b3:f4:ef,iiNet Free WiFi,-80,0,0,0;d8:c7:c8:4c:ea:51,TAFE-Events,-76,0,0,0;d8:c7:c8:4c:de:b0,TAFENSW,-72,0,0,0;d8:c7:c8:4c:de:b1,TAFE-Events,-73,0,0,0;00:02:6f:12:34:50,Telstra Air,-73,0,0,0;d8:c7:c8:4c:de:a0,TAFENSW,-70,0,0,0;64:f6:9d:b3:f4:e0,iiNet Free WiFi,-66,0,0,0;d8:c7:c8:4c:de:a1,TAFE-Events,-70,0,0,0;d8:c7:c8:4c:f4:d0,TAFENSW,-76,0,0,0;d8:c7:c8:4c:ea:50,TAFENSW,-76,0,0,0;a0:04:60:a5:e5:ac,iiMAV_1,-92,0,0,0;d0:65:ca:54:fb:94,WiFi-7DUR-5G,-87,0,0,0;28:c7:ce:a2:40:0a,Fork and Grind,-66,0,0,0;b0:4e:26:8c:66:8d,22aMaryAnn,-69,0,0,0;b0:4e:26:8c:66:8f,22aMaryAnn 5G,-82,0,0,0;28:c7:ce:a2:40:0c,Cisco860_Guest2,-65,0,0,0;28:c7:ce:a2:40:0d,Cisco860_Guest3,-64,0,0,0;28:c7:ce:a2:40:0b,Cisco860_Guest1,-62,0,0,0;d8:c7:c8:4c:f4:d1,TAFE-Events,-76,0,0,0;70:3a:cb:18:03:ff,gwi,-82,0,0,0;d0:65:ca:54:fb:90,WiFi-7DUR,-82,0,0,0;44:1e:98:14:ec:ac,INSEARCH Secure,-87,0,0,0;44:c3:46:7f:3b:d8,Doodeeee,-83,0,0,0;34:6b:46:bc:65:94,OPTUS_BC6592_5GHz,-88,0,0,0;00:11:74:88:03:d0,CAPA Staff,-88,0,0,0;00:11:74:88:03:e0,CAPA Student,-84,0,0,0;54:5a:a6:93:18:9d,LSX_G6_93189D,-84,0,0,0;a8:c8:3a:2c:4f:24,WiFi-S5Q7,-86,0,0,0;

Scan8;a0:04:60:a5:e5:a8,iiMAV_2,-76,0,0,0;64:f6:9d:b3:f4:ef,iiNet Free WiFi,-80,0,0,0;d8:c7:c8:4c:ea:51,TAFE-Events,-76,0,0,0;d8:c7:c8:4c:de:b0,TAFENSW,-72,0,0,0;d8:c7:c8:4c:de:b1,TAFE-Events,-73,0,0,0;00:02:6f:12:34:50,Telstra Air,-73,0,0,0;d8:c7:c8:4c:de:a0,TAFENSW,-70,0,0,0;64:f6:9d:b3:f4:e0,iiNet Free WiFi,-66,0,0,0;d8:c7:c8:4c:de:a1,TAFE-Events,-70,0,0,0;d8:c7:c8:4c:f4:d0,TAFENSW,-76,0,0,0;d8:c7:c8:4c:ea:50,TAFENSW,-76,0,0,0;a0:04:60:a5:e5:ac,iiMAV_1,-92,0,0,0;d0:65:ca:54:fb:94,WiFi-7DUR-5G,-87,0,0,0;28:c7:ce:a2:40:0a,Fork and Grind,-66,0,0,0;b0:4e:26:8c:66:8d,22aMaryAnn,-69,0,0,0;b0:4e:26:8c:66:8f,22aMaryAnn 5G,-82,0,0,0;28:c7:ce:a2:40:0c,Cisco860_Guest2,-65,0,0,0;28:c7:ce:a2:40:0d,Cisco860_Guest3,-64,0,0,0;28:c7:ce:a2:40:0b,Cisco860_Guest1,-62,0,0,0;d8:c7:c8:4c:f4:d1,TAFE-Events,-76,0,0,0;70:3a:cb:18:03:ff,gwi,-82,0,0,0;d0:65:ca:54:fb:90,WiFi-7DUR,-82,0,0,0;44:1e:98:14:ec:ac,INSEARCH Secure,-87,0,0,0;44:c3:46:7f:3b:d8,Doodeeee,-83,0,0,0;34:6b:46:bc:65:94,OPTUS_BC6592_5GHz,-88,0,0,0;00:11:74:88:03:d0,CAPA Staff,-88,0,0,0;00:11:74:88:03:e0,CAPA Student,-84,0,0,0;54:5a:a6:93:18:9d,LSX_G6_93189D,-84,0,0,0;a8:c8:3a:2c:4f:24,WiFi-S5Q7,-86,0,0,0;

Scan9;a0:04:60:a5:e5:a8,iiMAV_2,-76,0,0,0;64:f6:9d:b3:f4:ef,iiNet Free WiFi,-80,0,0,0;d8:c7:c8:4c:ea:51,TAFE-Events,-76,0,0,0;d8:c7:c8:4c:de:b0,TAFENSW,-72,0,0,0;d8:c7:c8:4c:de:b1,TAFE-Events,-73,0,0,0;00:02:6f:12:34:50,Telstra Air,-73,0,0,0;d8:c7:c8:4c:de:a0,TAFENSW,-70,0,0,0;64:f6:9d:b3:f4:e0,iiNet Free WiFi,-66,0,0,0;d8:c7:c8:4c:de:a1,TAFE-Events,-70,0,0,0;d8:c7:c8:4c:f4:d0,TAFENSW,-76,0,0,0;d8:c7:c8:4c:ea:50,TAFENSW,-76,0,0,0;a0:04:60:a5:e5:ac,iiMAV_1,-92,0,0,0;d0:65:ca:54:fb:94,WiFi-7DUR-5G,-87,0,0,0;28:c7:ce:a2:40:0a,Fork and Grind,-66,0,0,0;b0:4e:26:8c:66:8d,22aMaryAnn,-69,0,0,0;b0:4e:26:8c:66:8f,22aMaryAnn 5G,-82,0,0,0;28:c7:ce:a2:40:0c,Cisco860_Guest2,-65,0,0,0;28:c7:ce:a2:40:0d,Cisco860_Guest3,-64,0,0,0;28:c7:ce:a2:40:0b,Cisco860_Guest1,-62,0,0,0;d8:c7:c8:4c:f4:d1,TAFE-Events,-76,0,0,0;70:3a:cb:18:03:ff,gwi,-82,0,0,0;d0:65:ca:54:fb:90,WiFi-7DUR,-82,0,0,0;44:1e:98:14:ec:ac,INSEARCH Secure,-87,0,0,0;44:c3:46:7f:3b:d8,Doodeeee,-83,0,0,0;34:6b:46:bc:65:94,OPTUS_BC6592_5GHz,-88,0,0,0;00:11:74:88:03:d0,CAPA Staff,-88,0,0,0;00:11:74:88:03:e0,CAPA Student,-84,0,0,0;54:5a:a6:93:18:9d,LSX_G6_93189D,-84,0,0,0;a8:c8:3a:2c:4f:24,WiFi-S5Q7,-86,0,0,0;

Scan10;a0:04:60:a5:e5:a8,iiMAV_2,-76,0,0,0;64:f6:9d:b3:f4:ef,iiNet Free WiFi,-80,0,0,0;d8:c7:c8:4c:ea:51,TAFE-Events,-76,0,0,0;d8:c7:c8:4c:de:b0,TAFENSW,-72,0,0,0;d8:c7:c8:4c:de:b1,TAFE-Events,-73,0,0,0;00:02:6f:12:34:50,Telstra Air,-73,0,0,0;d8:c7:c8:4c:de:a0,TAFENSW,-70,0,0,0;64:f6:9d:b3:f4:e0,iiNet Free WiFi,-66,0,0,0;d8:c7:c8:4c:de:a1,TAFE-Events,-70,0,0,0;d8:c7:c8:4c:f4:d0,TAFENSW,-76,0,0,0;d8:c7:c8:4c:ea:50,TAFENSW,-76,0,0,0;a0:04:60:a5:e5:ac,iiMAV_1,-92,0,0,0;d0:65:ca:54:fb:94,WiFi-7DUR-5G,-87,0,0,0;28:c7:ce:a2:40:0a,Fork and Grind,-66,0,0,0;b0:4e:26:8c:66:8d,22aMaryAnn,-69,0,0,0;b0:4e:26:8c:66:8f,22aMaryAnn 5G,-82,0,0,0;28:c7:ce:a2:40:0c,Cisco860_Guest2,-65,0,0,0;28:c7:ce:a2:40:0d,Cisco860_Guest3,-64,0,0,0;28:c7:ce:a2:40:0b,Cisco860_Guest1,-62,0,0,0;d8:c7:c8:4c:f4:d1,TAFE-Events,-76,0,0,0;70:3a:cb:18:03:ff,gwi,-82,0,0,0;d0:65:ca:54:fb:90,WiFi-7DUR,-82,0,0,0;44:1e:98:14:ec:ac,INSEARCH Secure,-87,0,0,0;44:c3:46:7f:3b:d8,Doodeeee,-83,0,0,0;34:6b:46:bc:65:94,OPTUS_BC6592_5GHz,-88,0,0,0;00:11:74:88:03:d0,CAPA Staff,-88,0,0,0;00:11:74:88:03:e0,CAPA Student,-84,0,0,0;54:5a:a6:93:18:9d,LSX_G6_93189D,-84,0,0,0;a8:c8:3a:2c:4f:24,WiFi-S5Q7,-86,0,0,0;

Scan11;a0:04:60:a5:e5:a8,iiMAV_2,-76,0,0,0;64:f6:9d:b3:f4:ef,iiNet Free WiFi,-80,0,0,0;d8:c7:c8:4c:ea:51,TAFE-Events,-76,0,0,0;d8:c7:c8:4c:de:b0,TAFENSW,-72,0,0,0;d8:c7:c8:4c:de:b1,TAFE-Events,-73,0,0,0;00:02:6f:12:34:50,Telstra Air,-73,0,0,0;d8:c7:c8:4c:de:a0,TAFENSW,-70,0,0,0;64:f6:9d:b3:f4:e0,iiNet Free WiFi,-66,0,0,0;d8:c7:c8:4c:de:a1,TAFE-Events,-70,0,0,0;d8:c7:c8:4c:f4:d0,TAFENSW,-76,0,0,0;d8:c7:c8:4c:ea:50,TAFENSW,-76,0,0,0;a0:04:60:a5:e5:ac,iiMAV_1,-92,0,0,0;d0:65:ca:54:fb:94,WiFi-7DUR-5G,-87,0,0,0;28:c7:ce:a2:40:0a,Fork and Grind,-66,0,0,0;b0:4e:26:8c:66:8d,22aMaryAnn,-69,0,0,0;b0:4e:26:8c:66:8f,22aMaryAnn 5G,-82,0,0,0;28:c7:ce:a2:40:0c,Cisco860_Guest2,-65,0,0,0;28:c7:ce:a2:40:0d,Cisco860_Guest3,-64,0,0,0;28:c7:ce:a2:40:0b,Cisco860_Guest1,-62,0,0,0;d8:c7:c8:4c:f4:d1,TAFE-Events,-76,0,0,0;70:3a:cb:18:03:ff,gwi,-82,0,0,0;d0:65:ca:54:fb:90,WiFi-7DUR,-82,0,0,0;44:1e:98:14:ec:ac,INSEARCH Secure,-87,0,0,0;44:c3:46:7f:3b:d8,Doodeeee,-83,0,0,0;34:6b:46:bc:65:94,OPTUS_BC6592_5GHz,-88,0,0,0;00:11:74:88:03:d0,CAPA Staff,-88,0,0,0;00:11:74:88:03:e0,CAPA Student,-84,0,0,0;54:5a:a6:93:18:9d,LSX_G6_93189D,-84,0,0,0;a8:c8:3a:2c:4f:24,WiFi-S5Q7,-86,0,0,0;

Scan12;a0:04:60:a5:e5:a8,iiMAV_2,-76,0,0,0;64:f6:9d:b3:f4:ef,iiNet Free WiFi,-80,0,0,0;d8:c7:c8:4c:ea:51,TAFE-Events,-76,0,0,0;d8:c7:c8:4c:de:b0,TAFENSW,-72,0,0,0;d8:c7:c8:4c:de:b1,TAFE-Events,-73,0,0,0;00:02:6f:12:34:50,Telstra Air,-73,0,0,0;d8:c7:c8:4c:de:a0,TAFENSW,-70,0,0,0;64:f6:9d:b3:f4:e0,iiNet Free WiFi,-66,0,0,0;d8:c7:c8:4c:de:a1,TAFE-Events,-70,0,0,0;d8:c7:c8:4c:f4:d0,TAFENSW,-76,0,0,0;d8:c7:c8:4c:ea:50,TAFENSW,-76,0,0,0;a0:04:60:a5:e5:ac,iiMAV_1,-92,0,0,0;d0:65:ca:54:fb:94,WiFi-7DUR-5G,-87,0,0,0;28:c7:ce:a2:40:0a,Fork and Grind,-66,0,0,0;b0:4e:26:8c:66:8d,22aMaryAnn,-69,0,0,0;b0:4e:26:8c:66:8f,22aMaryAnn 5G,-82,0,0,0;28:c7:ce:a2:40:0c,Cisco860_Guest2,-65,0,0,0;28:c7:ce:a2:40:0d,Cisco860_Guest3,-64,0,0,0;28:c7:ce:a2:40:0b,Cisco860_Guest1,-62,0,0,0;d8:c7:c8:4c:f4:d1,TAFE-Events,-76,0,0,0;70:3a:cb:18:03:ff,gwi,-82,0,0,0;d0:65:ca:54:fb:90,WiFi-7DUR,-82,0,0,0;44:1e:98:14:ec:ac,INSEARCH Secure,-87,0,0,0;44:c3:46:7f:3b:d8,Doodeeee,-83,0,0,0;34:6b:46:bc:65:94,OPTUS_BC6592_5GHz,-88,0,0,0;00:11:74:88:03:d0,CAPA Staff,-88,0,0,0;00:11:74:88:03:e0,CAPA Student,-84,0,0,0;54:5a:a6:93:18:9d,LSX_G6_93189D,-84,0,0,0;a8:c8:3a:2c:4f:24,WiFi-S5Q7,-86,0,0,0;

Scan13;a0:04:60:a5:e5:a8,iiMAV_2,-76,0,0,0;64:f6:9d:b3:f4:ef,iiNet Free WiFi,-80,0,0,0;d8:c7:c8:4c:ea:51,TAFE-Events,-76,0,0,0;d8:c7:c8:4c:de:b0,TAFENSW,-72,0,0,0;d8:c7:c8:4c:de:b1,TAFE-Events,-73,0,0,0;00:02:6f:12:34:50,Telstra Air,-73,0,0,0;d8:c7:c8:4c:de:a0,TAFENSW,-70,0,0,0;64:f6:9d:b3:f4:e0,iiNet Free WiFi,-66,0,0,0;d8:c7:c8:4c:de:a1,TAFE-Events,-70,0,0,0;d8:c7:c8:4c:f4:d0,TAFENSW,-76,0,0,0;d8:c7:c8:4c:ea:50,TAFENSW,-76,0,0,0;a0:04:60:a5:e5:ac,iiMAV_1,-92,0,0,0;d0:65:ca:54:fb:94,WiFi-7DUR-5G,-87,0,0,0;28:c7:ce:a2:40:0a,Fork and Grind,-66,0,0,0;b0:4e:26:8c:66:8d,22aMaryAnn,-69,0,0,0;b0:4e:26:8c:66:8f,22aMaryAnn 5G,-82,0,0,0;28:c7:ce:a2:40:0c,Cisco860_Guest2,-65,0,0,0;28:c7:ce:a2:40:0d,Cisco860_Guest3,-64,0,0,0;28:c7:ce:a2:40:0b,Cisco860_Guest1,-62,0,0,0;d8:c7:c8:4c:f4:d1,TAFE-Events,-76,0,0,0;70:3a:cb:18:03:ff,gwi,-82,0,0,0;d0:65:ca:54:fb:90,WiFi-7DUR,-82,0,0,0;44:1e:98:14:ec:ac,INSEARCH Secure,-87,0,0,0;44:c3:46:7f:3b:d8,Doodeeee,-83,0,0,0;34:6b:46:bc:65:94,OPTUS_BC6592_5GHz,-88,0,0,0;00:11:74:88:03:d0,CAPA Staff,-88,0,0,0;00:11:74:88:03:e0,CAPA Student,-84,0,0,0;54:5a:a6:93:18:9d,LSX_G6_93189D,-84,0,0,0;a8:c8:3a:2c:4f:24,WiFi-S5Q7,-86,0,0,0;

Scan14;a0:04:60:a5:e5:a8,iiMAV_2,-76,0,0,0;64:f6:9d:b3:f4:ef,iiNet Free WiFi,-80,0,0,0;d8:c7:c8:4c:ea:51,TAFE-Events,-76,0,0,0;d8:c7:c8:4c:de:b0,TAFENSW,-72,0,0,0;d8:c7:c8:4c:de:b1,TAFE-Events,-73,0,0,0;00:02:6f:12:34:50,Telstra Air,-73,0,0,0;d8:c7:c8:4c:de:a0,TAFENSW,-70,0,0,0;64:f6:9d:b3:f4:e0,iiNet Free WiFi,-66,0,0,0;d8:c7:c8:4c:de:a1,TAFE-Events,-70,0,0,0;d8:c7:c8:4c:f4:d0,TAFENSW,-76,0,0,0;d8:c7:c8:4c:ea:50,TAFENSW,-76,0,0,0;a0:04:60:a5:e5:ac,iiMAV_1,-92,0,0,0;d0:65:ca:54:fb:94,WiFi-7DUR-5G,-87,0,0,0;28:c7:ce:a2:40:0a,Fork and Grind,-66,0,0,0;b0:4e:26:8c:66:8d,22aMaryAnn,-69,0,0,0;b0:4e:26:8c:66:8f,22aMaryAnn 5G,-82,0,0,0;28:c7:ce:a2:40:0c,Cisco860_Guest2,-65,0,0,0;28:c7:ce:a2:40:0d,Cisco860_Guest3,-64,0,0,0;28:c7:ce:a2:40:0b,Cisco860_Guest1,-62,0,0,0;d8:c7:c8:4c:f4:d1,TAFE-Events,-76,0,0,0;70:3a:cb:18:03:ff,gwi,-82,0,0,0;d0:65:ca:54:fb:90,WiFi-7DUR,-82,0,0,0;44:1e:98:14:ec:ac,INSEARCH Secure,-87,0,0,0;44:c3:46:7f:3b:d8,Doodeeee,-83,0,0,0;34:6b:46:bc:65:94,OPTUS_BC6592_5GHz,-88,0,0,0;00:11:74:88:03:d0,CAPA Staff,-88,0,0,0;00:11:74:88:03:e0,CAPA Student,-84,0,0,0;54:5a:a6:93:18:9d,LSX_G6_93189D,-84,0,0,0;a8:c8:3a:2c:4f:24,WiFi-S5Q7,-86,0,0,0;

