Scan1;6c:f3:7f:a1:4a:f0,TAFENSW,-85,0,0,0;6c:f3:7f:a1:4a:f1,TAFE-Events,-85,0,0,0;d8:c7:c8:4f:cb:90,TAFENSW,-66,0,0,0;54:5a:a6:93:18:9d,LSX_G6_93189D,-68,0,0,0;d8:c7:c8:4f:cb:91,TAFE-Events,-66,0,0,0;d8:c7:c8:4f:cb:81,TAFE-Events,-71,0,0,0;d8:c7:c8:4f:cb:80,TAFENSW,-69,0,0,0;d8:c7:c8:4f:b6:b0,TAFENSW,-81,0,0,0;54:b8:0a:5c:28:10,Yiannis,-66,0,0,0;d8:c7:c8:4f:b6:b1,TAFE-Events,-81,0,0,0;d8:c7:c8:4c:ee:30,TAFENSW,-83,0,0,0;d8:c7:c8:4c:ee:31,TAFE-Events,-84,0,0,0;d8:c7:c8:4c:fb:91,TAFE-Events,-82,0,0,0;d8:c7:c8:4f:cc:50,TAFENSW,-79,0,0,0;6c:f3:7f:a1:3c:10,TAFENSW,-83,0,0,0;6c:f3:7f:a1:3c:11,TAFE-Events,-84,0,0,0;d8:c7:c8:4c:fb:51,TAFE-Events,-77,0,0,0;d8:c7:c8:4c:fb:50,TAFENSW,-76,0,0,0;d8:c7:c8:4f:95:30,TAFENSW,-85,0,0,0;70:3a:0e:43:40:f1,UTS-WPA,-85,0,0,0;70:3a:0e:43:40:f3,ISF-Guest,-87,0,0,0;d8:c7:c8:4c:de:60,TAFENSW,-72,0,0,0;d8:c7:c8:4c:de:61,TAFE-Events,-72,0,0,0;70:3a:0e:43:40:f0,eduroam,-86,0,0,0;18:a6:f7:e8:e7:9f,2400 baud modem f,-78,0,0,0;d8:c7:c8:4c:fa:f0,TAFENSW,-81,0,0,0;d8:c7:c8:4c:fa:f1,TAFE-Events,-81,0,0,0;d8:c7:c8:4f:95:31,TAFE-Events,-84,0,0,0;6c:f3:7f:a1:46:c0,TAFENSW,-70,0,0,0;6c:f3:7f:a1:46:d0,TAFENSW,-78,0,0,0;d8:c7:c8:4c:fb:90,TAFENSW,-82,0,0,0;6c:f3:7f:a1:46:c1,TAFE-Events,-71,0,0,0;6c:f3:7f:a1:46:d1,TAFE-Events,-78,0,0,0;d8:c7:c8:4c:f4:10,TAFENSW,-91,0,0,0;84:d4:7e:f9:c2:b3,ISF-Guest,-89,0,0,0;84:d4:7e:f9:c2:b0,eduroam,-89,0,0,0;84:d4:7e:f9:ba:d2,UTS-WPA,-92,0,0,0;84:d4:7e:f9:c2:b1,UTS-WPA,-90,0,0,0;d8:c7:c8:4c:f4:11,TAFE-Events,-90,0,0,0;d8:c7:c8:4f:b6:a0,TAFENSW,-78,0,0,0;d8:c7:c8:4c:fa:70,TAFENSW,-83,0,0,0;6c:f3:7f:a1:3c:00,TAFENSW,-79,0,0,0;d8:c7:c8:4c:97:a0,TAFENSW,-82,0,0,0;d8:c7:c8:4c:f5:20,TAFENSW,-82,0,0,0;18:64:72:30:20:92,UTS-WPA,-88,0,0,0;18:64:72:30:20:91,UTS-FunctionCenter,-89,0,0,0;d8:c7:c8:4c:96:50,TAFENSW,-89,0,0,0;18:64:72:30:20:90,eduroam,-89,0,0,0;94:b4:0f:09:7e:93,ISF-Guest,-90,0,0,0;94:b4:0f:09:7e:91,UTS-WPA,-90,0,0,0;94:b4:0f:09:7e:90,eduroam,-91,0,0,0;9c:1c:12:8f:b9:30,UTS-WPA,-91,0,0,0;f4:cb:52:88:b6:08,WiFi-RF4A-5G,-93,0,0,0;d8:c7:c8:4f:cc:51,TAFE-Events,-79,0,0,0;d8:c7:c8:4c:fa:71,TAFE-Events,-82,0,0,0;d8:c7:c8:4f:b6:a1,TAFE-Events,-79,0,0,0;64:f6:9d:b3:f4:e0,iiNet Free WiFi,-81,0,0,0;6c:f3:7f:a1:4a:e1,TAFE-Events,-84,0,0,0;d8:c7:c8:4c:96:51,TAFE-Events,-89,0,0,0;

Scan2;6c:f3:7f:a1:4a:f0,TAFENSW,-85,0,0,0;6c:f3:7f:a1:4a:f1,TAFE-Events,-85,0,0,0;d8:c7:c8:4f:cb:90,TAFENSW,-66,0,0,0;54:5a:a6:93:18:9d,LSX_G6_93189D,-68,0,0,0;d8:c7:c8:4f:cb:91,TAFE-Events,-66,0,0,0;d8:c7:c8:4f:cb:81,TAFE-Events,-71,0,0,0;d8:c7:c8:4f:cb:80,TAFENSW,-69,0,0,0;d8:c7:c8:4f:b6:b0,TAFENSW,-81,0,0,0;54:b8:0a:5c:28:10,Yiannis,-66,0,0,0;d8:c7:c8:4f:b6:b1,TAFE-Events,-81,0,0,0;d8:c7:c8:4c:ee:30,TAFENSW,-83,0,0,0;d8:c7:c8:4c:ee:31,TAFE-Events,-84,0,0,0;d8:c7:c8:4c:fb:91,TAFE-Events,-82,0,0,0;d8:c7:c8:4f:cc:50,TAFENSW,-79,0,0,0;6c:f3:7f:a1:3c:10,TAFENSW,-83,0,0,0;6c:f3:7f:a1:3c:11,TAFE-Events,-84,0,0,0;d8:c7:c8:4c:fb:51,TAFE-Events,-77,0,0,0;d8:c7:c8:4c:fb:50,TAFENSW,-76,0,0,0;d8:c7:c8:4f:95:30,TAFENSW,-85,0,0,0;70:3a:0e:43:40:f1,UTS-WPA,-85,0,0,0;70:3a:0e:43:40:f3,ISF-Guest,-87,0,0,0;d8:c7:c8:4c:de:60,TAFENSW,-72,0,0,0;d8:c7:c8:4c:de:61,TAFE-Events,-72,0,0,0;70:3a:0e:43:40:f0,eduroam,-86,0,0,0;18:a6:f7:e8:e7:9f,2400 baud modem f,-78,0,0,0;d8:c7:c8:4c:fa:f0,TAFENSW,-81,0,0,0;d8:c7:c8:4c:fa:f1,TAFE-Events,-81,0,0,0;d8:c7:c8:4f:95:31,TAFE-Events,-84,0,0,0;6c:f3:7f:a1:46:c0,TAFENSW,-70,0,0,0;6c:f3:7f:a1:46:d0,TAFENSW,-78,0,0,0;d8:c7:c8:4c:fb:90,TAFENSW,-82,0,0,0;6c:f3:7f:a1:46:c1,TAFE-Events,-71,0,0,0;6c:f3:7f:a1:46:d1,TAFE-Events,-78,0,0,0;d8:c7:c8:4c:f4:10,TAFENSW,-91,0,0,0;84:d4:7e:f9:c2:b3,ISF-Guest,-89,0,0,0;84:d4:7e:f9:c2:b0,eduroam,-89,0,0,0;84:d4:7e:f9:ba:d2,UTS-WPA,-92,0,0,0;84:d4:7e:f9:c2:b1,UTS-WPA,-90,0,0,0;d8:c7:c8:4c:f4:11,TAFE-Events,-90,0,0,0;d8:c7:c8:4f:b6:a0,TAFENSW,-78,0,0,0;d8:c7:c8:4c:fa:70,TAFENSW,-83,0,0,0;6c:f3:7f:a1:3c:00,TAFENSW,-79,0,0,0;d8:c7:c8:4c:97:a0,TAFENSW,-82,0,0,0;d8:c7:c8:4c:f5:20,TAFENSW,-82,0,0,0;18:64:72:30:20:92,UTS-WPA,-88,0,0,0;18:64:72:30:20:91,UTS-FunctionCenter,-89,0,0,0;d8:c7:c8:4c:96:50,TAFENSW,-89,0,0,0;18:64:72:30:20:90,eduroam,-89,0,0,0;94:b4:0f:09:7e:93,ISF-Guest,-90,0,0,0;94:b4:0f:09:7e:91,UTS-WPA,-90,0,0,0;94:b4:0f:09:7e:90,eduroam,-91,0,0,0;9c:1c:12:8f:b9:30,UTS-WPA,-91,0,0,0;f4:cb:52:88:b6:08,WiFi-RF4A-5G,-93,0,0,0;d8:c7:c8:4f:cc:51,TAFE-Events,-79,0,0,0;d8:c7:c8:4c:fa:71,TAFE-Events,-82,0,0,0;d8:c7:c8:4f:b6:a1,TAFE-Events,-79,0,0,0;64:f6:9d:b3:f4:e0,iiNet Free WiFi,-81,0,0,0;6c:f3:7f:a1:4a:e1,TAFE-Events,-84,0,0,0;d8:c7:c8:4c:96:51,TAFE-Events,-89,0,0,0;

Scan3;6c:f3:7f:a1:4a:f0,TAFENSW,-85,0,0,0;6c:f3:7f:a1:4a:f1,TAFE-Events,-85,0,0,0;d8:c7:c8:4f:cb:90,TAFENSW,-66,0,0,0;54:5a:a6:93:18:9d,LSX_G6_93189D,-68,0,0,0;d8:c7:c8:4f:cb:91,TAFE-Events,-66,0,0,0;d8:c7:c8:4f:cb:81,TAFE-Events,-71,0,0,0;d8:c7:c8:4f:cb:80,TAFENSW,-69,0,0,0;d8:c7:c8:4f:b6:b0,TAFENSW,-81,0,0,0;54:b8:0a:5c:28:10,Yiannis,-66,0,0,0;d8:c7:c8:4f:b6:b1,TAFE-Events,-81,0,0,0;d8:c7:c8:4c:ee:30,TAFENSW,-83,0,0,0;d8:c7:c8:4c:ee:31,TAFE-Events,-84,0,0,0;d8:c7:c8:4c:fb:91,TAFE-Events,-82,0,0,0;d8:c7:c8:4f:cc:50,TAFENSW,-79,0,0,0;6c:f3:7f:a1:3c:10,TAFENSW,-83,0,0,0;6c:f3:7f:a1:3c:11,TAFE-Events,-84,0,0,0;d8:c7:c8:4c:fb:51,TAFE-Events,-77,0,0,0;d8:c7:c8:4c:fb:50,TAFENSW,-76,0,0,0;d8:c7:c8:4f:95:30,TAFENSW,-85,0,0,0;70:3a:0e:43:40:f1,UTS-WPA,-85,0,0,0;70:3a:0e:43:40:f3,ISF-Guest,-87,0,0,0;d8:c7:c8:4c:de:60,TAFENSW,-72,0,0,0;d8:c7:c8:4c:de:61,TAFE-Events,-72,0,0,0;70:3a:0e:43:40:f0,eduroam,-86,0,0,0;18:a6:f7:e8:e7:9f,2400 baud modem f,-78,0,0,0;d8:c7:c8:4c:fa:f0,TAFENSW,-81,0,0,0;d8:c7:c8:4c:fa:f1,TAFE-Events,-81,0,0,0;d8:c7:c8:4f:95:31,TAFE-Events,-84,0,0,0;6c:f3:7f:a1:46:c0,TAFENSW,-70,0,0,0;6c:f3:7f:a1:46:d0,TAFENSW,-78,0,0,0;d8:c7:c8:4c:fb:90,TAFENSW,-82,0,0,0;6c:f3:7f:a1:46:c1,TAFE-Events,-71,0,0,0;6c:f3:7f:a1:46:d1,TAFE-Events,-78,0,0,0;d8:c7:c8:4c:f4:10,TAFENSW,-91,0,0,0;84:d4:7e:f9:c2:b3,ISF-Guest,-89,0,0,0;84:d4:7e:f9:c2:b0,eduroam,-89,0,0,0;84:d4:7e:f9:ba:d2,UTS-WPA,-92,0,0,0;84:d4:7e:f9:c2:b1,UTS-WPA,-90,0,0,0;d8:c7:c8:4c:f4:11,TAFE-Events,-90,0,0,0;d8:c7:c8:4f:b6:a0,TAFENSW,-78,0,0,0;d8:c7:c8:4c:fa:70,TAFENSW,-83,0,0,0;6c:f3:7f:a1:3c:00,TAFENSW,-79,0,0,0;d8:c7:c8:4c:97:a0,TAFENSW,-82,0,0,0;d8:c7:c8:4c:f5:20,TAFENSW,-82,0,0,0;18:64:72:30:20:92,UTS-WPA,-88,0,0,0;18:64:72:30:20:91,UTS-FunctionCenter,-89,0,0,0;d8:c7:c8:4c:96:50,TAFENSW,-89,0,0,0;18:64:72:30:20:90,eduroam,-89,0,0,0;94:b4:0f:09:7e:93,ISF-Guest,-90,0,0,0;94:b4:0f:09:7e:91,UTS-WPA,-90,0,0,0;94:b4:0f:09:7e:90,eduroam,-91,0,0,0;9c:1c:12:8f:b9:30,UTS-WPA,-91,0,0,0;f4:cb:52:88:b6:08,WiFi-RF4A-5G,-93,0,0,0;d8:c7:c8:4f:cc:51,TAFE-Events,-79,0,0,0;d8:c7:c8:4c:fa:71,TAFE-Events,-82,0,0,0;d8:c7:c8:4f:b6:a1,TAFE-Events,-79,0,0,0;64:f6:9d:b3:f4:e0,iiNet Free WiFi,-81,0,0,0;6c:f3:7f:a1:4a:e1,TAFE-Events,-84,0,0,0;d8:c7:c8:4c:96:51,TAFE-Events,-89,0,0,0;

Scan4;6c:f3:7f:a1:4a:f0,TAFENSW,-85,0,0,0;6c:f3:7f:a1:4a:f1,TAFE-Events,-85,0,0,0;d8:c7:c8:4f:cb:90,TAFENSW,-66,0,0,0;54:5a:a6:93:18:9d,LSX_G6_93189D,-68,0,0,0;d8:c7:c8:4f:cb:91,TAFE-Events,-66,0,0,0;d8:c7:c8:4f:cb:81,TAFE-Events,-71,0,0,0;d8:c7:c8:4f:cb:80,TAFENSW,-69,0,0,0;d8:c7:c8:4f:b6:b0,TAFENSW,-81,0,0,0;54:b8:0a:5c:28:10,Yiannis,-66,0,0,0;d8:c7:c8:4f:b6:b1,TAFE-Events,-81,0,0,0;d8:c7:c8:4c:ee:30,TAFENSW,-83,0,0,0;d8:c7:c8:4c:ee:31,TAFE-Events,-84,0,0,0;d8:c7:c8:4c:fb:91,TAFE-Events,-82,0,0,0;d8:c7:c8:4f:cc:50,TAFENSW,-79,0,0,0;6c:f3:7f:a1:3c:10,TAFENSW,-83,0,0,0;6c:f3:7f:a1:3c:11,TAFE-Events,-84,0,0,0;d8:c7:c8:4c:fb:51,TAFE-Events,-77,0,0,0;d8:c7:c8:4c:fb:50,TAFENSW,-76,0,0,0;d8:c7:c8:4f:95:30,TAFENSW,-85,0,0,0;70:3a:0e:43:40:f1,UTS-WPA,-85,0,0,0;70:3a:0e:43:40:f3,ISF-Guest,-87,0,0,0;d8:c7:c8:4c:de:60,TAFENSW,-72,0,0,0;d8:c7:c8:4c:de:61,TAFE-Events,-72,0,0,0;70:3a:0e:43:40:f0,eduroam,-86,0,0,0;18:a6:f7:e8:e7:9f,2400 baud modem f,-78,0,0,0;d8:c7:c8:4c:fa:f0,TAFENSW,-81,0,0,0;d8:c7:c8:4c:fa:f1,TAFE-Events,-81,0,0,0;d8:c7:c8:4f:95:31,TAFE-Events,-84,0,0,0;6c:f3:7f:a1:46:c0,TAFENSW,-70,0,0,0;6c:f3:7f:a1:46:d0,TAFENSW,-78,0,0,0;d8:c7:c8:4c:fb:90,TAFENSW,-82,0,0,0;6c:f3:7f:a1:46:c1,TAFE-Events,-71,0,0,0;6c:f3:7f:a1:46:d1,TAFE-Events,-78,0,0,0;d8:c7:c8:4c:f4:10,TAFENSW,-91,0,0,0;84:d4:7e:f9:c2:b3,ISF-Guest,-89,0,0,0;84:d4:7e:f9:c2:b0,eduroam,-89,0,0,0;84:d4:7e:f9:ba:d2,UTS-WPA,-92,0,0,0;84:d4:7e:f9:c2:b1,UTS-WPA,-90,0,0,0;d8:c7:c8:4c:f4:11,TAFE-Events,-90,0,0,0;d8:c7:c8:4f:b6:a0,TAFENSW,-78,0,0,0;d8:c7:c8:4c:fa:70,TAFENSW,-83,0,0,0;6c:f3:7f:a1:3c:00,TAFENSW,-79,0,0,0;d8:c7:c8:4c:97:a0,TAFENSW,-82,0,0,0;d8:c7:c8:4c:f5:20,TAFENSW,-82,0,0,0;18:64:72:30:20:92,UTS-WPA,-88,0,0,0;18:64:72:30:20:91,UTS-FunctionCenter,-89,0,0,0;d8:c7:c8:4c:96:50,TAFENSW,-89,0,0,0;18:64:72:30:20:90,eduroam,-89,0,0,0;94:b4:0f:09:7e:93,ISF-Guest,-90,0,0,0;94:b4:0f:09:7e:91,UTS-WPA,-90,0,0,0;94:b4:0f:09:7e:90,eduroam,-91,0,0,0;9c:1c:12:8f:b9:30,UTS-WPA,-91,0,0,0;f4:cb:52:88:b6:08,WiFi-RF4A-5G,-93,0,0,0;d8:c7:c8:4f:cc:51,TAFE-Events,-79,0,0,0;d8:c7:c8:4c:fa:71,TAFE-Events,-82,0,0,0;d8:c7:c8:4f:b6:a1,TAFE-Events,-79,0,0,0;64:f6:9d:b3:f4:e0,iiNet Free WiFi,-81,0,0,0;6c:f3:7f:a1:4a:e1,TAFE-Events,-84,0,0,0;d8:c7:c8:4c:96:51,TAFE-Events,-89,0,0,0;

Scan5;6c:f3:7f:a1:4a:f0,TAFENSW,-85,0,0,0;6c:f3:7f:a1:4a:f1,TAFE-Events,-85,0,0,0;d8:c7:c8:4f:cb:90,TAFENSW,-66,0,0,0;54:5a:a6:93:18:9d,LSX_G6_93189D,-68,0,0,0;d8:c7:c8:4f:cb:91,TAFE-Events,-66,0,0,0;d8:c7:c8:4f:cb:81,TAFE-Events,-71,0,0,0;d8:c7:c8:4f:cb:80,TAFENSW,-69,0,0,0;d8:c7:c8:4f:b6:b0,TAFENSW,-81,0,0,0;54:b8:0a:5c:28:10,Yiannis,-66,0,0,0;d8:c7:c8:4f:b6:b1,TAFE-Events,-81,0,0,0;d8:c7:c8:4c:ee:30,TAFENSW,-83,0,0,0;d8:c7:c8:4c:ee:31,TAFE-Events,-84,0,0,0;d8:c7:c8:4c:fb:91,TAFE-Events,-82,0,0,0;d8:c7:c8:4f:cc:50,TAFENSW,-79,0,0,0;6c:f3:7f:a1:3c:10,TAFENSW,-83,0,0,0;6c:f3:7f:a1:3c:11,TAFE-Events,-84,0,0,0;d8:c7:c8:4c:fb:51,TAFE-Events,-77,0,0,0;d8:c7:c8:4c:fb:50,TAFENSW,-76,0,0,0;d8:c7:c8:4f:95:30,TAFENSW,-85,0,0,0;70:3a:0e:43:40:f1,UTS-WPA,-85,0,0,0;70:3a:0e:43:40:f3,ISF-Guest,-87,0,0,0;d8:c7:c8:4c:de:60,TAFENSW,-72,0,0,0;d8:c7:c8:4c:de:61,TAFE-Events,-72,0,0,0;70:3a:0e:43:40:f0,eduroam,-86,0,0,0;18:a6:f7:e8:e7:9f,2400 baud modem f,-78,0,0,0;d8:c7:c8:4c:fa:f0,TAFENSW,-81,0,0,0;d8:c7:c8:4c:fa:f1,TAFE-Events,-81,0,0,0;d8:c7:c8:4f:95:31,TAFE-Events,-84,0,0,0;6c:f3:7f:a1:46:c0,TAFENSW,-70,0,0,0;6c:f3:7f:a1:46:d0,TAFENSW,-78,0,0,0;d8:c7:c8:4c:fb:90,TAFENSW,-82,0,0,0;6c:f3:7f:a1:46:c1,TAFE-Events,-71,0,0,0;6c:f3:7f:a1:46:d1,TAFE-Events,-78,0,0,0;d8:c7:c8:4c:f4:10,TAFENSW,-91,0,0,0;84:d4:7e:f9:c2:b3,ISF-Guest,-89,0,0,0;84:d4:7e:f9:c2:b0,eduroam,-89,0,0,0;84:d4:7e:f9:ba:d2,UTS-WPA,-92,0,0,0;84:d4:7e:f9:c2:b1,UTS-WPA,-90,0,0,0;d8:c7:c8:4c:f4:11,TAFE-Events,-90,0,0,0;d8:c7:c8:4f:b6:a0,TAFENSW,-78,0,0,0;d8:c7:c8:4c:fa:70,TAFENSW,-83,0,0,0;6c:f3:7f:a1:3c:00,TAFENSW,-79,0,0,0;d8:c7:c8:4c:97:a0,TAFENSW,-82,0,0,0;d8:c7:c8:4c:f5:20,TAFENSW,-82,0,0,0;18:64:72:30:20:92,UTS-WPA,-88,0,0,0;18:64:72:30:20:91,UTS-FunctionCenter,-89,0,0,0;d8:c7:c8:4c:96:50,TAFENSW,-89,0,0,0;18:64:72:30:20:90,eduroam,-89,0,0,0;94:b4:0f:09:7e:93,ISF-Guest,-90,0,0,0;94:b4:0f:09:7e:91,UTS-WPA,-90,0,0,0;94:b4:0f:09:7e:90,eduroam,-91,0,0,0;9c:1c:12:8f:b9:30,UTS-WPA,-91,0,0,0;f4:cb:52:88:b6:08,WiFi-RF4A-5G,-93,0,0,0;d8:c7:c8:4f:cc:51,TAFE-Events,-79,0,0,0;d8:c7:c8:4c:fa:71,TAFE-Events,-82,0,0,0;d8:c7:c8:4f:b6:a1,TAFE-Events,-79,0,0,0;64:f6:9d:b3:f4:e0,iiNet Free WiFi,-81,0,0,0;6c:f3:7f:a1:4a:e1,TAFE-Events,-84,0,0,0;d8:c7:c8:4c:96:51,TAFE-Events,-89,0,0,0;

Scan6;6c:f3:7f:a1:4a:f0,TAFENSW,-85,0,0,0;6c:f3:7f:a1:4a:f1,TAFE-Events,-85,0,0,0;d8:c7:c8:4f:cb:90,TAFENSW,-66,0,0,0;54:5a:a6:93:18:9d,LSX_G6_93189D,-68,0,0,0;d8:c7:c8:4f:cb:91,TAFE-Events,-66,0,0,0;d8:c7:c8:4f:cb:81,TAFE-Events,-71,0,0,0;d8:c7:c8:4f:cb:80,TAFENSW,-69,0,0,0;d8:c7:c8:4f:b6:b0,TAFENSW,-81,0,0,0;54:b8:0a:5c:28:10,Yiannis,-66,0,0,0;d8:c7:c8:4f:b6:b1,TAFE-Events,-81,0,0,0;d8:c7:c8:4c:ee:30,TAFENSW,-83,0,0,0;d8:c7:c8:4c:ee:31,TAFE-Events,-84,0,0,0;d8:c7:c8:4c:fb:91,TAFE-Events,-82,0,0,0;d8:c7:c8:4f:cc:50,TAFENSW,-79,0,0,0;6c:f3:7f:a1:3c:10,TAFENSW,-83,0,0,0;6c:f3:7f:a1:3c:11,TAFE-Events,-84,0,0,0;d8:c7:c8:4c:fb:51,TAFE-Events,-77,0,0,0;d8:c7:c8:4c:fb:50,TAFENSW,-76,0,0,0;d8:c7:c8:4f:95:30,TAFENSW,-85,0,0,0;70:3a:0e:43:40:f1,UTS-WPA,-85,0,0,0;70:3a:0e:43:40:f3,ISF-Guest,-87,0,0,0;d8:c7:c8:4c:de:60,TAFENSW,-72,0,0,0;d8:c7:c8:4c:de:61,TAFE-Events,-72,0,0,0;70:3a:0e:43:40:f0,eduroam,-86,0,0,0;18:a6:f7:e8:e7:9f,2400 baud modem f,-78,0,0,0;d8:c7:c8:4c:fa:f0,TAFENSW,-81,0,0,0;d8:c7:c8:4c:fa:f1,TAFE-Events,-81,0,0,0;d8:c7:c8:4f:95:31,TAFE-Events,-84,0,0,0;6c:f3:7f:a1:46:c0,TAFENSW,-70,0,0,0;6c:f3:7f:a1:46:d0,TAFENSW,-78,0,0,0;d8:c7:c8:4c:fb:90,TAFENSW,-82,0,0,0;6c:f3:7f:a1:46:c1,TAFE-Events,-71,0,0,0;6c:f3:7f:a1:46:d1,TAFE-Events,-78,0,0,0;d8:c7:c8:4c:f4:10,TAFENSW,-91,0,0,0;84:d4:7e:f9:c2:b3,ISF-Guest,-89,0,0,0;84:d4:7e:f9:c2:b0,eduroam,-89,0,0,0;84:d4:7e:f9:ba:d2,UTS-WPA,-92,0,0,0;84:d4:7e:f9:c2:b1,UTS-WPA,-90,0,0,0;d8:c7:c8:4c:f4:11,TAFE-Events,-90,0,0,0;d8:c7:c8:4f:b6:a0,TAFENSW,-78,0,0,0;d8:c7:c8:4c:fa:70,TAFENSW,-83,0,0,0;6c:f3:7f:a1:3c:00,TAFENSW,-79,0,0,0;d8:c7:c8:4c:97:a0,TAFENSW,-82,0,0,0;d8:c7:c8:4c:f5:20,TAFENSW,-82,0,0,0;18:64:72:30:20:92,UTS-WPA,-88,0,0,0;18:64:72:30:20:91,UTS-FunctionCenter,-89,0,0,0;d8:c7:c8:4c:96:50,TAFENSW,-89,0,0,0;18:64:72:30:20:90,eduroam,-89,0,0,0;94:b4:0f:09:7e:93,ISF-Guest,-90,0,0,0;94:b4:0f:09:7e:91,UTS-WPA,-90,0,0,0;94:b4:0f:09:7e:90,eduroam,-91,0,0,0;9c:1c:12:8f:b9:30,UTS-WPA,-91,0,0,0;f4:cb:52:88:b6:08,WiFi-RF4A-5G,-93,0,0,0;d8:c7:c8:4f:cc:51,TAFE-Events,-79,0,0,0;d8:c7:c8:4c:fa:71,TAFE-Events,-82,0,0,0;d8:c7:c8:4f:b6:a1,TAFE-Events,-79,0,0,0;64:f6:9d:b3:f4:e0,iiNet Free WiFi,-81,0,0,0;6c:f3:7f:a1:4a:e1,TAFE-Events,-84,0,0,0;d8:c7:c8:4c:96:51,TAFE-Events,-89,0,0,0;

Scan7;6c:f3:7f:a1:4a:f0,TAFENSW,-84,0,0,0;6c:f3:7f:a1:4a:f1,TAFE-Events,-83,0,0,0;d8:c7:c8:4f:cb:90,TAFENSW,-66,0,0,0;54:5a:a6:93:18:9d,LSX_G6_93189D,-65,0,0,0;d8:c7:c8:4f:cb:91,TAFE-Events,-65,0,0,0;d8:c7:c8:4f:cb:81,TAFE-Events,-74,0,0,0;d8:c7:c8:4f:cb:80,TAFENSW,-72,0,0,0;d8:c7:c8:4f:b6:b0,TAFENSW,-81,0,0,0;54:b8:0a:5c:28:10,Yiannis,-73,0,0,0;d8:c7:c8:4f:b6:b1,TAFE-Events,-81,0,0,0;d8:c7:c8:4c:ee:30,TAFENSW,-84,0,0,0;d8:c7:c8:4c:ee:31,TAFE-Events,-84,0,0,0;d8:c7:c8:4c:fb:91,TAFE-Events,-84,0,0,0;d8:c7:c8:4f:cc:50,TAFENSW,-80,0,0,0;6c:f3:7f:a1:3c:10,TAFENSW,-84,0,0,0;6c:f3:7f:a1:3c:11,TAFE-Events,-84,0,0,0;d8:c7:c8:4c:fb:51,TAFE-Events,-78,0,0,0;d8:c7:c8:4c:fb:50,TAFENSW,-78,0,0,0;d8:c7:c8:4f:95:30,TAFENSW,-89,0,0,0;70:3a:0e:43:40:f1,UTS-WPA,-81,0,0,0;70:3a:0e:43:40:f3,ISF-Guest,-82,0,0,0;d8:c7:c8:4c:de:60,TAFENSW,-74,0,0,0;d8:c7:c8:4c:de:61,TAFE-Events,-75,0,0,0;70:3a:0e:43:40:f0,eduroam,-82,0,0,0;d8:c7:c8:4f:95:31,TAFE-Events,-88,0,0,0;6c:f3:7f:a1:46:c0,TAFENSW,-69,0,0,0;6c:f3:7f:a1:46:d0,TAFENSW,-78,0,0,0;d8:c7:c8:4c:fb:90,TAFENSW,-84,0,0,0;6c:f3:7f:a1:46:c1,TAFE-Events,-70,0,0,0;6c:f3:7f:a1:46:d1,TAFE-Events,-78,0,0,0;d8:c7:c8:4c:f4:10,TAFENSW,-87,0,0,0;84:d4:7e:f9:ba:d2,UTS-WPA,-91,0,0,0;d8:c7:c8:4c:f4:11,TAFE-Events,-86,0,0,0;d8:c7:c8:4c:fa:70,TAFENSW,-87,0,0,0;9c:1c:12:8f:b9:30,UTS-WPA,-91,0,0,0;d8:c7:c8:4f:cc:51,TAFE-Events,-80,0,0,0;d8:c7:c8:4c:fa:71,TAFE-Events,-86,0,0,0;6c:f3:7f:a1:4a:e1,TAFE-Events,-82,0,0,0;d8:c7:c8:4c:96:51,TAFE-Events,-91,0,0,0;d8:c7:c8:4c:fa:d0,TAFENSW,-66,0,0,0;d8:c7:c8:4c:fa:c0,TAFENSW,-72,0,0,0;d8:c7:c8:4c:ee:20,TAFENSW,-74,0,0,0;d8:c7:c8:4c:de:70,TAFENSW,-79,0,0,0;d8:c7:c8:4c:fa:e0,TAFENSW,-77,0,0,0;d8:c7:c8:4c:fb:40,TAFENSW,-78,0,0,0;18:64:72:2f:f3:b0,eduroam,-88,0,0,0;c8:94:bb:b6:7c:e8,WiFi-T3FL-5G,-88,0,0,0;18:64:72:2f:f3:b1,UTS-WPA,-88,0,0,0;18:64:72:2f:f3:b3,UEL Internal 2018,-88,0,0,0;d8:c7:c8:4c:96:e0,TAFENSW,-84,0,0,0;d8:c7:c8:4c:f5:30,TAFENSW,-90,0,0,0;d8:c7:c8:4c:96:f0,TAFENSW,-90,0,0,0;84:d4:7e:f9:c3:11,UTS-WPA,-92,0,0,0;84:d4:7e:f9:ba:d0,eduroam,-93,0,0,0;84:d4:7e:f9:ba:d1,UTS-FunctionCenter,-93,0,0,0;d8:c7:c8:4c:fa:d1,TAFE-Events,-66,0,0,0;d8:c7:c8:4c:fa:c1,TAFE-Events,-74,0,0,0;d8:c7:c8:4c:de:71,TAFE-Events,-79,0,0,0;d8:c7:c8:4c:ee:21,TAFE-Events,-76,0,0,0;d8:c7:c8:4c:fa:e1,TAFE-Events,-76,0,0,0;12:13:31:dd:b5:69,Telstra Air,-84,0,0,0;d8:c7:c8:4c:f5:31,TAFE-Events,-90,0,0,0;

Scan8;6c:f3:7f:a1:4a:f0,TAFENSW,-84,0,0,0;6c:f3:7f:a1:4a:f1,TAFE-Events,-83,0,0,0;d8:c7:c8:4f:cb:90,TAFENSW,-66,0,0,0;54:5a:a6:93:18:9d,LSX_G6_93189D,-65,0,0,0;d8:c7:c8:4f:cb:91,TAFE-Events,-65,0,0,0;d8:c7:c8:4f:cb:81,TAFE-Events,-74,0,0,0;d8:c7:c8:4f:cb:80,TAFENSW,-72,0,0,0;d8:c7:c8:4f:b6:b0,TAFENSW,-81,0,0,0;54:b8:0a:5c:28:10,Yiannis,-73,0,0,0;d8:c7:c8:4f:b6:b1,TAFE-Events,-81,0,0,0;d8:c7:c8:4c:ee:30,TAFENSW,-84,0,0,0;d8:c7:c8:4c:ee:31,TAFE-Events,-84,0,0,0;d8:c7:c8:4c:fb:91,TAFE-Events,-84,0,0,0;d8:c7:c8:4f:cc:50,TAFENSW,-80,0,0,0;6c:f3:7f:a1:3c:10,TAFENSW,-84,0,0,0;6c:f3:7f:a1:3c:11,TAFE-Events,-84,0,0,0;d8:c7:c8:4c:fb:51,TAFE-Events,-78,0,0,0;d8:c7:c8:4c:fb:50,TAFENSW,-78,0,0,0;d8:c7:c8:4f:95:30,TAFENSW,-89,0,0,0;70:3a:0e:43:40:f1,UTS-WPA,-81,0,0,0;70:3a:0e:43:40:f3,ISF-Guest,-82,0,0,0;d8:c7:c8:4c:de:60,TAFENSW,-74,0,0,0;d8:c7:c8:4c:de:61,TAFE-Events,-75,0,0,0;70:3a:0e:43:40:f0,eduroam,-82,0,0,0;d8:c7:c8:4f:95:31,TAFE-Events,-88,0,0,0;6c:f3:7f:a1:46:c0,TAFENSW,-69,0,0,0;6c:f3:7f:a1:46:d0,TAFENSW,-78,0,0,0;d8:c7:c8:4c:fb:90,TAFENSW,-84,0,0,0;6c:f3:7f:a1:46:c1,TAFE-Events,-70,0,0,0;6c:f3:7f:a1:46:d1,TAFE-Events,-78,0,0,0;d8:c7:c8:4c:f4:10,TAFENSW,-87,0,0,0;84:d4:7e:f9:ba:d2,UTS-WPA,-91,0,0,0;d8:c7:c8:4c:f4:11,TAFE-Events,-86,0,0,0;d8:c7:c8:4c:fa:70,TAFENSW,-87,0,0,0;9c:1c:12:8f:b9:30,UTS-WPA,-91,0,0,0;d8:c7:c8:4f:cc:51,TAFE-Events,-80,0,0,0;d8:c7:c8:4c:fa:71,TAFE-Events,-86,0,0,0;6c:f3:7f:a1:4a:e1,TAFE-Events,-82,0,0,0;d8:c7:c8:4c:96:51,TAFE-Events,-91,0,0,0;d8:c7:c8:4c:fa:d0,TAFENSW,-66,0,0,0;d8:c7:c8:4c:fa:c0,TAFENSW,-72,0,0,0;d8:c7:c8:4c:ee:20,TAFENSW,-74,0,0,0;d8:c7:c8:4c:de:70,TAFENSW,-79,0,0,0;d8:c7:c8:4c:fa:e0,TAFENSW,-77,0,0,0;d8:c7:c8:4c:fb:40,TAFENSW,-78,0,0,0;18:64:72:2f:f3:b0,eduroam,-88,0,0,0;c8:94:bb:b6:7c:e8,WiFi-T3FL-5G,-88,0,0,0;18:64:72:2f:f3:b1,UTS-WPA,-88,0,0,0;18:64:72:2f:f3:b3,UEL Internal 2018,-88,0,0,0;d8:c7:c8:4c:96:e0,TAFENSW,-84,0,0,0;d8:c7:c8:4c:f5:30,TAFENSW,-90,0,0,0;d8:c7:c8:4c:96:f0,TAFENSW,-90,0,0,0;84:d4:7e:f9:c3:11,UTS-WPA,-92,0,0,0;84:d4:7e:f9:ba:d0,eduroam,-93,0,0,0;84:d4:7e:f9:ba:d1,UTS-FunctionCenter,-93,0,0,0;d8:c7:c8:4c:fa:d1,TAFE-Events,-66,0,0,0;d8:c7:c8:4c:fa:c1,TAFE-Events,-74,0,0,0;d8:c7:c8:4c:de:71,TAFE-Events,-79,0,0,0;d8:c7:c8:4c:ee:21,TAFE-Events,-76,0,0,0;d8:c7:c8:4c:fa:e1,TAFE-Events,-76,0,0,0;12:13:31:dd:b5:69,Telstra Air,-84,0,0,0;d8:c7:c8:4c:f5:31,TAFE-Events,-90,0,0,0;

Scan9;6c:f3:7f:a1:4a:f0,TAFENSW,-84,0,0,0;6c:f3:7f:a1:4a:f1,TAFE-Events,-83,0,0,0;d8:c7:c8:4f:cb:90,TAFENSW,-66,0,0,0;54:5a:a6:93:18:9d,LSX_G6_93189D,-65,0,0,0;d8:c7:c8:4f:cb:91,TAFE-Events,-65,0,0,0;d8:c7:c8:4f:cb:81,TAFE-Events,-74,0,0,0;d8:c7:c8:4f:cb:80,TAFENSW,-72,0,0,0;d8:c7:c8:4f:b6:b0,TAFENSW,-81,0,0,0;54:b8:0a:5c:28:10,Yiannis,-73,0,0,0;d8:c7:c8:4f:b6:b1,TAFE-Events,-81,0,0,0;d8:c7:c8:4c:ee:30,TAFENSW,-84,0,0,0;d8:c7:c8:4c:ee:31,TAFE-Events,-84,0,0,0;d8:c7:c8:4c:fb:91,TAFE-Events,-84,0,0,0;d8:c7:c8:4f:cc:50,TAFENSW,-80,0,0,0;6c:f3:7f:a1:3c:10,TAFENSW,-84,0,0,0;6c:f3:7f:a1:3c:11,TAFE-Events,-84,0,0,0;d8:c7:c8:4c:fb:51,TAFE-Events,-78,0,0,0;d8:c7:c8:4c:fb:50,TAFENSW,-78,0,0,0;d8:c7:c8:4f:95:30,TAFENSW,-89,0,0,0;70:3a:0e:43:40:f1,UTS-WPA,-81,0,0,0;70:3a:0e:43:40:f3,ISF-Guest,-82,0,0,0;d8:c7:c8:4c:de:60,TAFENSW,-74,0,0,0;d8:c7:c8:4c:de:61,TAFE-Events,-75,0,0,0;70:3a:0e:43:40:f0,eduroam,-82,0,0,0;d8:c7:c8:4f:95:31,TAFE-Events,-88,0,0,0;6c:f3:7f:a1:46:c0,TAFENSW,-69,0,0,0;6c:f3:7f:a1:46:d0,TAFENSW,-78,0,0,0;d8:c7:c8:4c:fb:90,TAFENSW,-84,0,0,0;6c:f3:7f:a1:46:c1,TAFE-Events,-70,0,0,0;6c:f3:7f:a1:46:d1,TAFE-Events,-78,0,0,0;d8:c7:c8:4c:f4:10,TAFENSW,-87,0,0,0;84:d4:7e:f9:ba:d2,UTS-WPA,-91,0,0,0;d8:c7:c8:4c:f4:11,TAFE-Events,-86,0,0,0;d8:c7:c8:4c:fa:70,TAFENSW,-87,0,0,0;9c:1c:12:8f:b9:30,UTS-WPA,-91,0,0,0;d8:c7:c8:4f:cc:51,TAFE-Events,-80,0,0,0;d8:c7:c8:4c:fa:71,TAFE-Events,-86,0,0,0;6c:f3:7f:a1:4a:e1,TAFE-Events,-82,0,0,0;d8:c7:c8:4c:96:51,TAFE-Events,-91,0,0,0;d8:c7:c8:4c:fa:d0,TAFENSW,-66,0,0,0;d8:c7:c8:4c:fa:c0,TAFENSW,-72,0,0,0;d8:c7:c8:4c:ee:20,TAFENSW,-74,0,0,0;d8:c7:c8:4c:de:70,TAFENSW,-79,0,0,0;d8:c7:c8:4c:fa:e0,TAFENSW,-77,0,0,0;d8:c7:c8:4c:fb:40,TAFENSW,-78,0,0,0;18:64:72:2f:f3:b0,eduroam,-88,0,0,0;c8:94:bb:b6:7c:e8,WiFi-T3FL-5G,-88,0,0,0;18:64:72:2f:f3:b1,UTS-WPA,-88,0,0,0;18:64:72:2f:f3:b3,UEL Internal 2018,-88,0,0,0;d8:c7:c8:4c:96:e0,TAFENSW,-84,0,0,0;d8:c7:c8:4c:f5:30,TAFENSW,-90,0,0,0;d8:c7:c8:4c:96:f0,TAFENSW,-90,0,0,0;84:d4:7e:f9:c3:11,UTS-WPA,-92,0,0,0;84:d4:7e:f9:ba:d0,eduroam,-93,0,0,0;84:d4:7e:f9:ba:d1,UTS-FunctionCenter,-93,0,0,0;d8:c7:c8:4c:fa:d1,TAFE-Events,-66,0,0,0;d8:c7:c8:4c:fa:c1,TAFE-Events,-74,0,0,0;d8:c7:c8:4c:de:71,TAFE-Events,-79,0,0,0;d8:c7:c8:4c:ee:21,TAFE-Events,-76,0,0,0;d8:c7:c8:4c:fa:e1,TAFE-Events,-76,0,0,0;12:13:31:dd:b5:69,Telstra Air,-84,0,0,0;d8:c7:c8:4c:f5:31,TAFE-Events,-90,0,0,0;

Scan10;6c:f3:7f:a1:4a:f0,TAFENSW,-84,0,0,0;6c:f3:7f:a1:4a:f1,TAFE-Events,-83,0,0,0;d8:c7:c8:4f:cb:90,TAFENSW,-66,0,0,0;54:5a:a6:93:18:9d,LSX_G6_93189D,-65,0,0,0;d8:c7:c8:4f:cb:91,TAFE-Events,-65,0,0,0;d8:c7:c8:4f:cb:81,TAFE-Events,-74,0,0,0;d8:c7:c8:4f:cb:80,TAFENSW,-72,0,0,0;d8:c7:c8:4f:b6:b0,TAFENSW,-81,0,0,0;54:b8:0a:5c:28:10,Yiannis,-73,0,0,0;d8:c7:c8:4f:b6:b1,TAFE-Events,-81,0,0,0;d8:c7:c8:4c:ee:30,TAFENSW,-84,0,0,0;d8:c7:c8:4c:ee:31,TAFE-Events,-84,0,0,0;d8:c7:c8:4c:fb:91,TAFE-Events,-84,0,0,0;d8:c7:c8:4f:cc:50,TAFENSW,-80,0,0,0;6c:f3:7f:a1:3c:10,TAFENSW,-84,0,0,0;6c:f3:7f:a1:3c:11,TAFE-Events,-84,0,0,0;d8:c7:c8:4c:fb:51,TAFE-Events,-78,0,0,0;d8:c7:c8:4c:fb:50,TAFENSW,-78,0,0,0;d8:c7:c8:4f:95:30,TAFENSW,-89,0,0,0;70:3a:0e:43:40:f1,UTS-WPA,-81,0,0,0;70:3a:0e:43:40:f3,ISF-Guest,-82,0,0,0;d8:c7:c8:4c:de:60,TAFENSW,-74,0,0,0;d8:c7:c8:4c:de:61,TAFE-Events,-75,0,0,0;70:3a:0e:43:40:f0,eduroam,-82,0,0,0;d8:c7:c8:4f:95:31,TAFE-Events,-88,0,0,0;6c:f3:7f:a1:46:c0,TAFENSW,-69,0,0,0;6c:f3:7f:a1:46:d0,TAFENSW,-78,0,0,0;d8:c7:c8:4c:fb:90,TAFENSW,-84,0,0,0;6c:f3:7f:a1:46:c1,TAFE-Events,-70,0,0,0;6c:f3:7f:a1:46:d1,TAFE-Events,-78,0,0,0;d8:c7:c8:4c:f4:10,TAFENSW,-87,0,0,0;84:d4:7e:f9:ba:d2,UTS-WPA,-91,0,0,0;d8:c7:c8:4c:f4:11,TAFE-Events,-86,0,0,0;d8:c7:c8:4c:fa:70,TAFENSW,-87,0,0,0;9c:1c:12:8f:b9:30,UTS-WPA,-91,0,0,0;d8:c7:c8:4f:cc:51,TAFE-Events,-80,0,0,0;d8:c7:c8:4c:fa:71,TAFE-Events,-86,0,0,0;6c:f3:7f:a1:4a:e1,TAFE-Events,-82,0,0,0;d8:c7:c8:4c:96:51,TAFE-Events,-91,0,0,0;d8:c7:c8:4c:fa:d0,TAFENSW,-66,0,0,0;d8:c7:c8:4c:fa:c0,TAFENSW,-72,0,0,0;d8:c7:c8:4c:ee:20,TAFENSW,-74,0,0,0;d8:c7:c8:4c:de:70,TAFENSW,-79,0,0,0;d8:c7:c8:4c:fa:e0,TAFENSW,-77,0,0,0;d8:c7:c8:4c:fb:40,TAFENSW,-78,0,0,0;18:64:72:2f:f3:b0,eduroam,-88,0,0,0;c8:94:bb:b6:7c:e8,WiFi-T3FL-5G,-88,0,0,0;18:64:72:2f:f3:b1,UTS-WPA,-88,0,0,0;18:64:72:2f:f3:b3,UEL Internal 2018,-88,0,0,0;d8:c7:c8:4c:96:e0,TAFENSW,-84,0,0,0;d8:c7:c8:4c:f5:30,TAFENSW,-90,0,0,0;d8:c7:c8:4c:96:f0,TAFENSW,-90,0,0,0;84:d4:7e:f9:c3:11,UTS-WPA,-92,0,0,0;84:d4:7e:f9:ba:d0,eduroam,-93,0,0,0;84:d4:7e:f9:ba:d1,UTS-FunctionCenter,-93,0,0,0;d8:c7:c8:4c:fa:d1,TAFE-Events,-66,0,0,0;d8:c7:c8:4c:fa:c1,TAFE-Events,-74,0,0,0;d8:c7:c8:4c:de:71,TAFE-Events,-79,0,0,0;d8:c7:c8:4c:ee:21,TAFE-Events,-76,0,0,0;d8:c7:c8:4c:fa:e1,TAFE-Events,-76,0,0,0;12:13:31:dd:b5:69,Telstra Air,-84,0,0,0;d8:c7:c8:4c:f5:31,TAFE-Events,-90,0,0,0;

Scan11;6c:f3:7f:a1:4a:f0,TAFENSW,-84,0,0,0;6c:f3:7f:a1:4a:f1,TAFE-Events,-83,0,0,0;d8:c7:c8:4f:cb:90,TAFENSW,-66,0,0,0;54:5a:a6:93:18:9d,LSX_G6_93189D,-65,0,0,0;d8:c7:c8:4f:cb:91,TAFE-Events,-65,0,0,0;d8:c7:c8:4f:cb:81,TAFE-Events,-74,0,0,0;d8:c7:c8:4f:cb:80,TAFENSW,-72,0,0,0;d8:c7:c8:4f:b6:b0,TAFENSW,-81,0,0,0;54:b8:0a:5c:28:10,Yiannis,-73,0,0,0;d8:c7:c8:4f:b6:b1,TAFE-Events,-81,0,0,0;d8:c7:c8:4c:ee:30,TAFENSW,-84,0,0,0;d8:c7:c8:4c:ee:31,TAFE-Events,-84,0,0,0;d8:c7:c8:4c:fb:91,TAFE-Events,-84,0,0,0;d8:c7:c8:4f:cc:50,TAFENSW,-80,0,0,0;6c:f3:7f:a1:3c:10,TAFENSW,-84,0,0,0;6c:f3:7f:a1:3c:11,TAFE-Events,-84,0,0,0;d8:c7:c8:4c:fb:51,TAFE-Events,-78,0,0,0;d8:c7:c8:4c:fb:50,TAFENSW,-78,0,0,0;d8:c7:c8:4f:95:30,TAFENSW,-89,0,0,0;70:3a:0e:43:40:f1,UTS-WPA,-81,0,0,0;70:3a:0e:43:40:f3,ISF-Guest,-82,0,0,0;d8:c7:c8:4c:de:60,TAFENSW,-74,0,0,0;d8:c7:c8:4c:de:61,TAFE-Events,-75,0,0,0;70:3a:0e:43:40:f0,eduroam,-82,0,0,0;d8:c7:c8:4f:95:31,TAFE-Events,-88,0,0,0;6c:f3:7f:a1:46:c0,TAFENSW,-69,0,0,0;6c:f3:7f:a1:46:d0,TAFENSW,-78,0,0,0;d8:c7:c8:4c:fb:90,TAFENSW,-84,0,0,0;6c:f3:7f:a1:46:c1,TAFE-Events,-70,0,0,0;6c:f3:7f:a1:46:d1,TAFE-Events,-78,0,0,0;d8:c7:c8:4c:f4:10,TAFENSW,-87,0,0,0;84:d4:7e:f9:ba:d2,UTS-WPA,-91,0,0,0;d8:c7:c8:4c:f4:11,TAFE-Events,-86,0,0,0;d8:c7:c8:4c:fa:70,TAFENSW,-87,0,0,0;9c:1c:12:8f:b9:30,UTS-WPA,-91,0,0,0;d8:c7:c8:4f:cc:51,TAFE-Events,-80,0,0,0;d8:c7:c8:4c:fa:71,TAFE-Events,-86,0,0,0;6c:f3:7f:a1:4a:e1,TAFE-Events,-82,0,0,0;d8:c7:c8:4c:96:51,TAFE-Events,-91,0,0,0;d8:c7:c8:4c:fa:d0,TAFENSW,-66,0,0,0;d8:c7:c8:4c:fa:c0,TAFENSW,-72,0,0,0;d8:c7:c8:4c:ee:20,TAFENSW,-74,0,0,0;d8:c7:c8:4c:de:70,TAFENSW,-79,0,0,0;d8:c7:c8:4c:fa:e0,TAFENSW,-77,0,0,0;d8:c7:c8:4c:fb:40,TAFENSW,-78,0,0,0;18:64:72:2f:f3:b0,eduroam,-88,0,0,0;c8:94:bb:b6:7c:e8,WiFi-T3FL-5G,-88,0,0,0;18:64:72:2f:f3:b1,UTS-WPA,-88,0,0,0;18:64:72:2f:f3:b3,UEL Internal 2018,-88,0,0,0;d8:c7:c8:4c:96:e0,TAFENSW,-84,0,0,0;d8:c7:c8:4c:f5:30,TAFENSW,-90,0,0,0;d8:c7:c8:4c:96:f0,TAFENSW,-90,0,0,0;84:d4:7e:f9:c3:11,UTS-WPA,-92,0,0,0;84:d4:7e:f9:ba:d0,eduroam,-93,0,0,0;84:d4:7e:f9:ba:d1,UTS-FunctionCenter,-93,0,0,0;d8:c7:c8:4c:fa:d1,TAFE-Events,-66,0,0,0;d8:c7:c8:4c:fa:c1,TAFE-Events,-74,0,0,0;d8:c7:c8:4c:de:71,TAFE-Events,-79,0,0,0;d8:c7:c8:4c:ee:21,TAFE-Events,-76,0,0,0;d8:c7:c8:4c:fa:e1,TAFE-Events,-76,0,0,0;12:13:31:dd:b5:69,Telstra Air,-84,0,0,0;d8:c7:c8:4c:f5:31,TAFE-Events,-90,0,0,0;

Scan12;6c:f3:7f:a1:4a:f0,TAFENSW,-84,0,0,0;6c:f3:7f:a1:4a:f1,TAFE-Events,-83,0,0,0;d8:c7:c8:4f:cb:90,TAFENSW,-66,0,0,0;54:5a:a6:93:18:9d,LSX_G6_93189D,-65,0,0,0;d8:c7:c8:4f:cb:91,TAFE-Events,-65,0,0,0;d8:c7:c8:4f:cb:81,TAFE-Events,-74,0,0,0;d8:c7:c8:4f:cb:80,TAFENSW,-72,0,0,0;d8:c7:c8:4f:b6:b0,TAFENSW,-81,0,0,0;54:b8:0a:5c:28:10,Yiannis,-73,0,0,0;d8:c7:c8:4f:b6:b1,TAFE-Events,-81,0,0,0;d8:c7:c8:4c:ee:30,TAFENSW,-84,0,0,0;d8:c7:c8:4c:ee:31,TAFE-Events,-84,0,0,0;d8:c7:c8:4c:fb:91,TAFE-Events,-84,0,0,0;d8:c7:c8:4f:cc:50,TAFENSW,-80,0,0,0;6c:f3:7f:a1:3c:10,TAFENSW,-84,0,0,0;6c:f3:7f:a1:3c:11,TAFE-Events,-84,0,0,0;d8:c7:c8:4c:fb:51,TAFE-Events,-78,0,0,0;d8:c7:c8:4c:fb:50,TAFENSW,-78,0,0,0;d8:c7:c8:4f:95:30,TAFENSW,-89,0,0,0;70:3a:0e:43:40:f1,UTS-WPA,-81,0,0,0;70:3a:0e:43:40:f3,ISF-Guest,-82,0,0,0;d8:c7:c8:4c:de:60,TAFENSW,-74,0,0,0;d8:c7:c8:4c:de:61,TAFE-Events,-75,0,0,0;70:3a:0e:43:40:f0,eduroam,-82,0,0,0;d8:c7:c8:4f:95:31,TAFE-Events,-88,0,0,0;6c:f3:7f:a1:46:c0,TAFENSW,-69,0,0,0;6c:f3:7f:a1:46:d0,TAFENSW,-78,0,0,0;d8:c7:c8:4c:fb:90,TAFENSW,-84,0,0,0;6c:f3:7f:a1:46:c1,TAFE-Events,-70,0,0,0;6c:f3:7f:a1:46:d1,TAFE-Events,-78,0,0,0;d8:c7:c8:4c:f4:10,TAFENSW,-87,0,0,0;84:d4:7e:f9:ba:d2,UTS-WPA,-91,0,0,0;d8:c7:c8:4c:f4:11,TAFE-Events,-86,0,0,0;d8:c7:c8:4c:fa:70,TAFENSW,-87,0,0,0;9c:1c:12:8f:b9:30,UTS-WPA,-91,0,0,0;d8:c7:c8:4f:cc:51,TAFE-Events,-80,0,0,0;d8:c7:c8:4c:fa:71,TAFE-Events,-86,0,0,0;6c:f3:7f:a1:4a:e1,TAFE-Events,-82,0,0,0;d8:c7:c8:4c:96:51,TAFE-Events,-91,0,0,0;d8:c7:c8:4c:fa:d0,TAFENSW,-66,0,0,0;d8:c7:c8:4c:fa:c0,TAFENSW,-72,0,0,0;d8:c7:c8:4c:ee:20,TAFENSW,-74,0,0,0;d8:c7:c8:4c:de:70,TAFENSW,-79,0,0,0;d8:c7:c8:4c:fa:e0,TAFENSW,-77,0,0,0;d8:c7:c8:4c:fb:40,TAFENSW,-78,0,0,0;18:64:72:2f:f3:b0,eduroam,-88,0,0,0;c8:94:bb:b6:7c:e8,WiFi-T3FL-5G,-88,0,0,0;18:64:72:2f:f3:b1,UTS-WPA,-88,0,0,0;18:64:72:2f:f3:b3,UEL Internal 2018,-88,0,0,0;d8:c7:c8:4c:96:e0,TAFENSW,-84,0,0,0;d8:c7:c8:4c:f5:30,TAFENSW,-90,0,0,0;d8:c7:c8:4c:96:f0,TAFENSW,-90,0,0,0;84:d4:7e:f9:c3:11,UTS-WPA,-92,0,0,0;84:d4:7e:f9:ba:d0,eduroam,-93,0,0,0;84:d4:7e:f9:ba:d1,UTS-FunctionCenter,-93,0,0,0;d8:c7:c8:4c:fa:d1,TAFE-Events,-66,0,0,0;d8:c7:c8:4c:fa:c1,TAFE-Events,-74,0,0,0;d8:c7:c8:4c:de:71,TAFE-Events,-79,0,0,0;d8:c7:c8:4c:ee:21,TAFE-Events,-76,0,0,0;d8:c7:c8:4c:fa:e1,TAFE-Events,-76,0,0,0;12:13:31:dd:b5:69,Telstra Air,-84,0,0,0;d8:c7:c8:4c:f5:31,TAFE-Events,-90,0,0,0;

