Scan1;00:02:6f:12:34:50,Telstra Air,-63,0,0,0;00:11:74:88:03:d0,CAPA Staff,-80,0,0,0;00:11:74:88:03:e0,CAPA Student,-77,0,0,0;c8:b5:ad:31:16:f0,TAFENSW,-77,0,0,0;a8:c8:3a:2b:8f:44,TGP_wifi,-88,0,0,0;c8:b5:ad:31:16:f1,TAFE-Events,-76,0,0,0;d8:c7:c8:4c:f7:30,TAFENSW,-90,0,0,0;44:1e:98:15:8b:2c,INSEARCH Secure,-82,0,0,0;d8:c7:c8:4c:f7:31,TAFE-Events,-90,0,0,0;44:1e:98:15:8b:28,INSEARCH Secure,-63,0,0,0;88:e3:ab:55:aa:32,TPG-7BCP,-75,0,0,0;b0:4e:26:8c:66:8d,22aMaryAnn,-82,0,0,0;44:1e:98:14:e8:1c,INSEARCH Secure,-86,0,0,0;c8:b5:ad:31:7f:70,TAFENSW,-87,0,0,0;c8:b5:ad:31:7f:71,TAFE-Events,-86,0,0,0;28:24:ff:94:be:27,ClickShare-A1.13A,-87,0,0,0;28:24:ff:94:bc:87,ClickShare-1871778305,-85,0,0,0;24:f2:7f:bc:9a:81,TAFE-Events,-72,0,0,0;24:f2:7f:bc:99:81,TAFE-Events,-74,0,0,0;24:f2:7f:bc:99:90,TAFENSW,-75,0,0,0;c8:b5:ad:31:16:e0,TAFENSW,-75,0,0,0;24:f2:7f:bc:99:80,TAFENSW,-74,0,0,0;44:1e:98:14:d9:4c,INSEARCH Secure,-83,0,0,0;12:13:31:e6:96:b5,TelstraE696AD,-87,0,0,0;d0:65:ca:54:fb:90,WiFi-7DUR,-80,0,0,0;70:3a:cb:19:5e:5e,Byzantium,-81,0,0,0;c0:25:e9:3a:dd:c9,NETGEAR60,-81,0,0,0;e8:94:f6:fa:07:02,Hubris,-83,0,0,0;24:f2:7f:bc:99:91,TAFE-Events,-75,0,0,0;c8:b5:ad:31:16:e1,TAFE-Events,-75,0,0,0;c8:b5:ad:31:1a:80,TAFENSW,-76,0,0,0;10:13:31:e6:96:ad,TelstraE696AD,-77,0,0,0;3c:67:8c:b4:fb:9c,GY-H3GR,-79,0,0,0;d0:65:ca:54:3a:fc,WiFi-B2VY,-79,0,0,0;c4:04:15:0c:ae:9c,GY-R7000,-80,0,0,0;e8:1d:a8:2d:ec:5c,INSEARCH Secure,-85,0,0,0;f4:cb:52:89:57:f0,WiFi-QR7W,-81,0,0,0;c4:71:54:46:90:f1,WiFi-90F1,-83,0,0,0;b8:ee:0e:69:e5:fe,OPTUS_69E5FD,-86,0,0,0;70:3a:cb:86:bc:72,Sauropodsgooglewifi,-91,0,0,0;72:3a:cb:86:bc:70,SauropodsGuest,-91,0,0,0;12:13:31:e7:35:85,TelstraE7357D,-92,0,0,0;00:02:6f:12:34:56,,-55,0,0,0;fa:8f:ca:72:cc:f4,,-84,0,0,0;84:18:3a:20:70:1c,Meriton Guest WiFi,-93,0,0,0;

Scan2;00:02:6f:12:34:50,Telstra Air,-63,0,0,0;00:11:74:88:03:d0,CAPA Staff,-80,0,0,0;00:11:74:88:03:e0,CAPA Student,-77,0,0,0;c8:b5:ad:31:16:f0,TAFENSW,-77,0,0,0;a8:c8:3a:2b:8f:44,TGP_wifi,-88,0,0,0;c8:b5:ad:31:16:f1,TAFE-Events,-76,0,0,0;d8:c7:c8:4c:f7:30,TAFENSW,-90,0,0,0;44:1e:98:15:8b:2c,INSEARCH Secure,-82,0,0,0;d8:c7:c8:4c:f7:31,TAFE-Events,-90,0,0,0;44:1e:98:15:8b:28,INSEARCH Secure,-63,0,0,0;88:e3:ab:55:aa:32,TPG-7BCP,-75,0,0,0;b0:4e:26:8c:66:8d,22aMaryAnn,-82,0,0,0;44:1e:98:14:e8:1c,INSEARCH Secure,-86,0,0,0;c8:b5:ad:31:7f:70,TAFENSW,-87,0,0,0;c8:b5:ad:31:7f:71,TAFE-Events,-86,0,0,0;28:24:ff:94:be:27,ClickShare-A1.13A,-87,0,0,0;28:24:ff:94:bc:87,ClickShare-1871778305,-85,0,0,0;24:f2:7f:bc:9a:81,TAFE-Events,-72,0,0,0;24:f2:7f:bc:99:81,TAFE-Events,-74,0,0,0;24:f2:7f:bc:99:90,TAFENSW,-75,0,0,0;c8:b5:ad:31:16:e0,TAFENSW,-75,0,0,0;24:f2:7f:bc:99:80,TAFENSW,-74,0,0,0;44:1e:98:14:d9:4c,INSEARCH Secure,-83,0,0,0;12:13:31:e6:96:b5,TelstraE696AD,-87,0,0,0;d0:65:ca:54:fb:90,WiFi-7DUR,-80,0,0,0;70:3a:cb:19:5e:5e,Byzantium,-81,0,0,0;c0:25:e9:3a:dd:c9,NETGEAR60,-81,0,0,0;e8:94:f6:fa:07:02,Hubris,-83,0,0,0;24:f2:7f:bc:99:91,TAFE-Events,-75,0,0,0;c8:b5:ad:31:16:e1,TAFE-Events,-75,0,0,0;c8:b5:ad:31:1a:80,TAFENSW,-76,0,0,0;10:13:31:e6:96:ad,TelstraE696AD,-77,0,0,0;3c:67:8c:b4:fb:9c,GY-H3GR,-79,0,0,0;d0:65:ca:54:3a:fc,WiFi-B2VY,-79,0,0,0;c4:04:15:0c:ae:9c,GY-R7000,-80,0,0,0;e8:1d:a8:2d:ec:5c,INSEARCH Secure,-85,0,0,0;f4:cb:52:89:57:f0,WiFi-QR7W,-81,0,0,0;c4:71:54:46:90:f1,WiFi-90F1,-83,0,0,0;b8:ee:0e:69:e5:fe,OPTUS_69E5FD,-86,0,0,0;70:3a:cb:86:bc:72,Sauropodsgooglewifi,-91,0,0,0;72:3a:cb:86:bc:70,SauropodsGuest,-91,0,0,0;12:13:31:e7:35:85,TelstraE7357D,-92,0,0,0;00:02:6f:12:34:56,,-55,0,0,0;fa:8f:ca:72:cc:f4,,-84,0,0,0;84:18:3a:20:70:1c,Meriton Guest WiFi,-93,0,0,0;

Scan3;00:02:6f:12:34:50,Telstra Air,-63,0,0,0;00:11:74:88:03:d0,CAPA Staff,-80,0,0,0;00:11:74:88:03:e0,CAPA Student,-77,0,0,0;c8:b5:ad:31:16:f0,TAFENSW,-77,0,0,0;a8:c8:3a:2b:8f:44,TGP_wifi,-88,0,0,0;c8:b5:ad:31:16:f1,TAFE-Events,-76,0,0,0;d8:c7:c8:4c:f7:30,TAFENSW,-90,0,0,0;44:1e:98:15:8b:2c,INSEARCH Secure,-82,0,0,0;d8:c7:c8:4c:f7:31,TAFE-Events,-90,0,0,0;44:1e:98:15:8b:28,INSEARCH Secure,-63,0,0,0;88:e3:ab:55:aa:32,TPG-7BCP,-75,0,0,0;b0:4e:26:8c:66:8d,22aMaryAnn,-82,0,0,0;44:1e:98:14:e8:1c,INSEARCH Secure,-86,0,0,0;c8:b5:ad:31:7f:70,TAFENSW,-87,0,0,0;c8:b5:ad:31:7f:71,TAFE-Events,-86,0,0,0;28:24:ff:94:be:27,ClickShare-A1.13A,-87,0,0,0;28:24:ff:94:bc:87,ClickShare-1871778305,-85,0,0,0;24:f2:7f:bc:9a:81,TAFE-Events,-72,0,0,0;24:f2:7f:bc:99:81,TAFE-Events,-74,0,0,0;24:f2:7f:bc:99:90,TAFENSW,-75,0,0,0;c8:b5:ad:31:16:e0,TAFENSW,-75,0,0,0;24:f2:7f:bc:99:80,TAFENSW,-74,0,0,0;44:1e:98:14:d9:4c,INSEARCH Secure,-83,0,0,0;12:13:31:e6:96:b5,TelstraE696AD,-87,0,0,0;d0:65:ca:54:fb:90,WiFi-7DUR,-80,0,0,0;70:3a:cb:19:5e:5e,Byzantium,-81,0,0,0;c0:25:e9:3a:dd:c9,NETGEAR60,-81,0,0,0;e8:94:f6:fa:07:02,Hubris,-83,0,0,0;24:f2:7f:bc:99:91,TAFE-Events,-75,0,0,0;c8:b5:ad:31:16:e1,TAFE-Events,-75,0,0,0;c8:b5:ad:31:1a:80,TAFENSW,-76,0,0,0;10:13:31:e6:96:ad,TelstraE696AD,-77,0,0,0;3c:67:8c:b4:fb:9c,GY-H3GR,-79,0,0,0;d0:65:ca:54:3a:fc,WiFi-B2VY,-79,0,0,0;c4:04:15:0c:ae:9c,GY-R7000,-80,0,0,0;e8:1d:a8:2d:ec:5c,INSEARCH Secure,-85,0,0,0;f4:cb:52:89:57:f0,WiFi-QR7W,-81,0,0,0;c4:71:54:46:90:f1,WiFi-90F1,-83,0,0,0;b8:ee:0e:69:e5:fe,OPTUS_69E5FD,-86,0,0,0;70:3a:cb:86:bc:72,Sauropodsgooglewifi,-91,0,0,0;72:3a:cb:86:bc:70,SauropodsGuest,-91,0,0,0;12:13:31:e7:35:85,TelstraE7357D,-92,0,0,0;00:02:6f:12:34:56,,-55,0,0,0;fa:8f:ca:72:cc:f4,,-84,0,0,0;84:18:3a:20:70:1c,Meriton Guest WiFi,-93,0,0,0;

Scan4;00:02:6f:12:34:50,Telstra Air,-63,0,0,0;00:11:74:88:03:d0,CAPA Staff,-80,0,0,0;00:11:74:88:03:e0,CAPA Student,-77,0,0,0;c8:b5:ad:31:16:f0,TAFENSW,-77,0,0,0;a8:c8:3a:2b:8f:44,TGP_wifi,-88,0,0,0;c8:b5:ad:31:16:f1,TAFE-Events,-76,0,0,0;d8:c7:c8:4c:f7:30,TAFENSW,-90,0,0,0;44:1e:98:15:8b:2c,INSEARCH Secure,-82,0,0,0;d8:c7:c8:4c:f7:31,TAFE-Events,-90,0,0,0;44:1e:98:15:8b:28,INSEARCH Secure,-63,0,0,0;88:e3:ab:55:aa:32,TPG-7BCP,-75,0,0,0;b0:4e:26:8c:66:8d,22aMaryAnn,-82,0,0,0;44:1e:98:14:e8:1c,INSEARCH Secure,-86,0,0,0;c8:b5:ad:31:7f:70,TAFENSW,-87,0,0,0;c8:b5:ad:31:7f:71,TAFE-Events,-86,0,0,0;28:24:ff:94:be:27,ClickShare-A1.13A,-87,0,0,0;28:24:ff:94:bc:87,ClickShare-1871778305,-85,0,0,0;24:f2:7f:bc:9a:81,TAFE-Events,-72,0,0,0;24:f2:7f:bc:99:81,TAFE-Events,-74,0,0,0;24:f2:7f:bc:99:90,TAFENSW,-75,0,0,0;c8:b5:ad:31:16:e0,TAFENSW,-75,0,0,0;24:f2:7f:bc:99:80,TAFENSW,-74,0,0,0;44:1e:98:14:d9:4c,INSEARCH Secure,-83,0,0,0;12:13:31:e6:96:b5,TelstraE696AD,-87,0,0,0;d0:65:ca:54:fb:90,WiFi-7DUR,-80,0,0,0;70:3a:cb:19:5e:5e,Byzantium,-81,0,0,0;c0:25:e9:3a:dd:c9,NETGEAR60,-81,0,0,0;e8:94:f6:fa:07:02,Hubris,-83,0,0,0;24:f2:7f:bc:99:91,TAFE-Events,-75,0,0,0;c8:b5:ad:31:16:e1,TAFE-Events,-75,0,0,0;c8:b5:ad:31:1a:80,TAFENSW,-76,0,0,0;10:13:31:e6:96:ad,TelstraE696AD,-77,0,0,0;3c:67:8c:b4:fb:9c,GY-H3GR,-79,0,0,0;d0:65:ca:54:3a:fc,WiFi-B2VY,-79,0,0,0;c4:04:15:0c:ae:9c,GY-R7000,-80,0,0,0;e8:1d:a8:2d:ec:5c,INSEARCH Secure,-85,0,0,0;f4:cb:52:89:57:f0,WiFi-QR7W,-81,0,0,0;c4:71:54:46:90:f1,WiFi-90F1,-83,0,0,0;b8:ee:0e:69:e5:fe,OPTUS_69E5FD,-86,0,0,0;70:3a:cb:86:bc:72,Sauropodsgooglewifi,-91,0,0,0;72:3a:cb:86:bc:70,SauropodsGuest,-91,0,0,0;12:13:31:e7:35:85,TelstraE7357D,-92,0,0,0;00:02:6f:12:34:56,,-55,0,0,0;fa:8f:ca:72:cc:f4,,-84,0,0,0;84:18:3a:20:70:1c,Meriton Guest WiFi,-93,0,0,0;

Scan5;00:02:6f:12:34:50,Telstra Air,-63,0,0,0;00:11:74:88:03:d0,CAPA Staff,-80,0,0,0;00:11:74:88:03:e0,CAPA Student,-77,0,0,0;c8:b5:ad:31:16:f0,TAFENSW,-77,0,0,0;a8:c8:3a:2b:8f:44,TGP_wifi,-88,0,0,0;c8:b5:ad:31:16:f1,TAFE-Events,-76,0,0,0;d8:c7:c8:4c:f7:30,TAFENSW,-90,0,0,0;44:1e:98:15:8b:2c,INSEARCH Secure,-82,0,0,0;d8:c7:c8:4c:f7:31,TAFE-Events,-90,0,0,0;44:1e:98:15:8b:28,INSEARCH Secure,-63,0,0,0;88:e3:ab:55:aa:32,TPG-7BCP,-75,0,0,0;b0:4e:26:8c:66:8d,22aMaryAnn,-82,0,0,0;44:1e:98:14:e8:1c,INSEARCH Secure,-86,0,0,0;c8:b5:ad:31:7f:70,TAFENSW,-87,0,0,0;c8:b5:ad:31:7f:71,TAFE-Events,-86,0,0,0;28:24:ff:94:be:27,ClickShare-A1.13A,-87,0,0,0;28:24:ff:94:bc:87,ClickShare-1871778305,-85,0,0,0;24:f2:7f:bc:9a:81,TAFE-Events,-72,0,0,0;24:f2:7f:bc:99:81,TAFE-Events,-74,0,0,0;24:f2:7f:bc:99:90,TAFENSW,-75,0,0,0;c8:b5:ad:31:16:e0,TAFENSW,-75,0,0,0;24:f2:7f:bc:99:80,TAFENSW,-74,0,0,0;44:1e:98:14:d9:4c,INSEARCH Secure,-83,0,0,0;12:13:31:e6:96:b5,TelstraE696AD,-87,0,0,0;d0:65:ca:54:fb:90,WiFi-7DUR,-80,0,0,0;70:3a:cb:19:5e:5e,Byzantium,-81,0,0,0;c0:25:e9:3a:dd:c9,NETGEAR60,-81,0,0,0;e8:94:f6:fa:07:02,Hubris,-83,0,0,0;24:f2:7f:bc:99:91,TAFE-Events,-75,0,0,0;c8:b5:ad:31:16:e1,TAFE-Events,-75,0,0,0;c8:b5:ad:31:1a:80,TAFENSW,-76,0,0,0;10:13:31:e6:96:ad,TelstraE696AD,-77,0,0,0;3c:67:8c:b4:fb:9c,GY-H3GR,-79,0,0,0;d0:65:ca:54:3a:fc,WiFi-B2VY,-79,0,0,0;c4:04:15:0c:ae:9c,GY-R7000,-80,0,0,0;e8:1d:a8:2d:ec:5c,INSEARCH Secure,-85,0,0,0;f4:cb:52:89:57:f0,WiFi-QR7W,-81,0,0,0;c4:71:54:46:90:f1,WiFi-90F1,-83,0,0,0;b8:ee:0e:69:e5:fe,OPTUS_69E5FD,-86,0,0,0;70:3a:cb:86:bc:72,Sauropodsgooglewifi,-91,0,0,0;72:3a:cb:86:bc:70,SauropodsGuest,-91,0,0,0;12:13:31:e7:35:85,TelstraE7357D,-92,0,0,0;00:02:6f:12:34:56,,-55,0,0,0;fa:8f:ca:72:cc:f4,,-84,0,0,0;84:18:3a:20:70:1c,Meriton Guest WiFi,-93,0,0,0;

Scan6;00:02:6f:12:34:50,Telstra Air,-63,0,0,0;00:11:74:88:03:d0,CAPA Staff,-80,0,0,0;00:11:74:88:03:e0,CAPA Student,-77,0,0,0;c8:b5:ad:31:16:f0,TAFENSW,-77,0,0,0;a8:c8:3a:2b:8f:44,TGP_wifi,-88,0,0,0;c8:b5:ad:31:16:f1,TAFE-Events,-76,0,0,0;d8:c7:c8:4c:f7:30,TAFENSW,-90,0,0,0;44:1e:98:15:8b:2c,INSEARCH Secure,-82,0,0,0;d8:c7:c8:4c:f7:31,TAFE-Events,-90,0,0,0;44:1e:98:15:8b:28,INSEARCH Secure,-63,0,0,0;88:e3:ab:55:aa:32,TPG-7BCP,-75,0,0,0;b0:4e:26:8c:66:8d,22aMaryAnn,-82,0,0,0;44:1e:98:14:e8:1c,INSEARCH Secure,-86,0,0,0;c8:b5:ad:31:7f:70,TAFENSW,-87,0,0,0;c8:b5:ad:31:7f:71,TAFE-Events,-86,0,0,0;28:24:ff:94:be:27,ClickShare-A1.13A,-87,0,0,0;28:24:ff:94:bc:87,ClickShare-1871778305,-85,0,0,0;24:f2:7f:bc:9a:81,TAFE-Events,-72,0,0,0;24:f2:7f:bc:99:81,TAFE-Events,-74,0,0,0;24:f2:7f:bc:99:90,TAFENSW,-75,0,0,0;c8:b5:ad:31:16:e0,TAFENSW,-75,0,0,0;24:f2:7f:bc:99:80,TAFENSW,-74,0,0,0;44:1e:98:14:d9:4c,INSEARCH Secure,-83,0,0,0;12:13:31:e6:96:b5,TelstraE696AD,-87,0,0,0;d0:65:ca:54:fb:90,WiFi-7DUR,-80,0,0,0;70:3a:cb:19:5e:5e,Byzantium,-81,0,0,0;c0:25:e9:3a:dd:c9,NETGEAR60,-81,0,0,0;e8:94:f6:fa:07:02,Hubris,-83,0,0,0;24:f2:7f:bc:99:91,TAFE-Events,-75,0,0,0;c8:b5:ad:31:16:e1,TAFE-Events,-75,0,0,0;c8:b5:ad:31:1a:80,TAFENSW,-76,0,0,0;10:13:31:e6:96:ad,TelstraE696AD,-77,0,0,0;3c:67:8c:b4:fb:9c,GY-H3GR,-79,0,0,0;d0:65:ca:54:3a:fc,WiFi-B2VY,-79,0,0,0;c4:04:15:0c:ae:9c,GY-R7000,-80,0,0,0;e8:1d:a8:2d:ec:5c,INSEARCH Secure,-85,0,0,0;f4:cb:52:89:57:f0,WiFi-QR7W,-81,0,0,0;c4:71:54:46:90:f1,WiFi-90F1,-83,0,0,0;b8:ee:0e:69:e5:fe,OPTUS_69E5FD,-86,0,0,0;70:3a:cb:86:bc:72,Sauropodsgooglewifi,-91,0,0,0;72:3a:cb:86:bc:70,SauropodsGuest,-91,0,0,0;12:13:31:e7:35:85,TelstraE7357D,-92,0,0,0;00:02:6f:12:34:56,,-55,0,0,0;fa:8f:ca:72:cc:f4,,-84,0,0,0;84:18:3a:20:70:1c,Meriton Guest WiFi,-93,0,0,0;

Scan7;00:02:6f:12:34:50,Telstra Air,-63,0,0,0;00:11:74:88:03:d0,CAPA Staff,-80,0,0,0;00:11:74:88:03:e0,CAPA Student,-77,0,0,0;c8:b5:ad:31:16:f0,TAFENSW,-77,0,0,0;a8:c8:3a:2b:8f:44,TGP_wifi,-88,0,0,0;c8:b5:ad:31:16:f1,TAFE-Events,-76,0,0,0;d8:c7:c8:4c:f7:30,TAFENSW,-90,0,0,0;44:1e:98:15:8b:2c,INSEARCH Secure,-82,0,0,0;d8:c7:c8:4c:f7:31,TAFE-Events,-90,0,0,0;44:1e:98:15:8b:28,INSEARCH Secure,-63,0,0,0;88:e3:ab:55:aa:32,TPG-7BCP,-75,0,0,0;b0:4e:26:8c:66:8d,22aMaryAnn,-82,0,0,0;44:1e:98:14:e8:1c,INSEARCH Secure,-86,0,0,0;c8:b5:ad:31:7f:70,TAFENSW,-87,0,0,0;c8:b5:ad:31:7f:71,TAFE-Events,-86,0,0,0;28:24:ff:94:be:27,ClickShare-A1.13A,-87,0,0,0;28:24:ff:94:bc:87,ClickShare-1871778305,-85,0,0,0;24:f2:7f:bc:9a:81,TAFE-Events,-72,0,0,0;24:f2:7f:bc:99:81,TAFE-Events,-74,0,0,0;24:f2:7f:bc:99:90,TAFENSW,-75,0,0,0;c8:b5:ad:31:16:e0,TAFENSW,-75,0,0,0;24:f2:7f:bc:99:80,TAFENSW,-74,0,0,0;44:1e:98:14:d9:4c,INSEARCH Secure,-83,0,0,0;12:13:31:e6:96:b5,TelstraE696AD,-87,0,0,0;d0:65:ca:54:fb:90,WiFi-7DUR,-80,0,0,0;70:3a:cb:19:5e:5e,Byzantium,-81,0,0,0;c0:25:e9:3a:dd:c9,NETGEAR60,-81,0,0,0;e8:94:f6:fa:07:02,Hubris,-83,0,0,0;24:f2:7f:bc:99:91,TAFE-Events,-75,0,0,0;c8:b5:ad:31:16:e1,TAFE-Events,-75,0,0,0;c8:b5:ad:31:1a:80,TAFENSW,-76,0,0,0;10:13:31:e6:96:ad,TelstraE696AD,-77,0,0,0;3c:67:8c:b4:fb:9c,GY-H3GR,-79,0,0,0;d0:65:ca:54:3a:fc,WiFi-B2VY,-79,0,0,0;c4:04:15:0c:ae:9c,GY-R7000,-80,0,0,0;e8:1d:a8:2d:ec:5c,INSEARCH Secure,-85,0,0,0;f4:cb:52:89:57:f0,WiFi-QR7W,-81,0,0,0;c4:71:54:46:90:f1,WiFi-90F1,-83,0,0,0;b8:ee:0e:69:e5:fe,OPTUS_69E5FD,-86,0,0,0;70:3a:cb:86:bc:72,Sauropodsgooglewifi,-91,0,0,0;72:3a:cb:86:bc:70,SauropodsGuest,-91,0,0,0;12:13:31:e7:35:85,TelstraE7357D,-92,0,0,0;00:02:6f:12:34:56,,-55,0,0,0;fa:8f:ca:72:cc:f4,,-84,0,0,0;84:18:3a:20:70:1c,Meriton Guest WiFi,-93,0,0,0;

Scan8;00:02:6f:12:34:50,Telstra Air,-63,0,0,0;00:11:74:88:03:d0,CAPA Staff,-80,0,0,0;00:11:74:88:03:e0,CAPA Student,-77,0,0,0;c8:b5:ad:31:16:f0,TAFENSW,-77,0,0,0;a8:c8:3a:2b:8f:44,TGP_wifi,-88,0,0,0;c8:b5:ad:31:16:f1,TAFE-Events,-76,0,0,0;d8:c7:c8:4c:f7:30,TAFENSW,-90,0,0,0;44:1e:98:15:8b:2c,INSEARCH Secure,-82,0,0,0;d8:c7:c8:4c:f7:31,TAFE-Events,-90,0,0,0;44:1e:98:15:8b:28,INSEARCH Secure,-63,0,0,0;88:e3:ab:55:aa:32,TPG-7BCP,-75,0,0,0;b0:4e:26:8c:66:8d,22aMaryAnn,-82,0,0,0;44:1e:98:14:e8:1c,INSEARCH Secure,-86,0,0,0;c8:b5:ad:31:7f:70,TAFENSW,-87,0,0,0;c8:b5:ad:31:7f:71,TAFE-Events,-86,0,0,0;28:24:ff:94:be:27,ClickShare-A1.13A,-87,0,0,0;28:24:ff:94:bc:87,ClickShare-1871778305,-85,0,0,0;24:f2:7f:bc:9a:81,TAFE-Events,-72,0,0,0;24:f2:7f:bc:99:81,TAFE-Events,-74,0,0,0;24:f2:7f:bc:99:90,TAFENSW,-75,0,0,0;c8:b5:ad:31:16:e0,TAFENSW,-75,0,0,0;24:f2:7f:bc:99:80,TAFENSW,-74,0,0,0;44:1e:98:14:d9:4c,INSEARCH Secure,-83,0,0,0;12:13:31:e6:96:b5,TelstraE696AD,-87,0,0,0;d0:65:ca:54:fb:90,WiFi-7DUR,-80,0,0,0;70:3a:cb:19:5e:5e,Byzantium,-81,0,0,0;c0:25:e9:3a:dd:c9,NETGEAR60,-81,0,0,0;e8:94:f6:fa:07:02,Hubris,-83,0,0,0;24:f2:7f:bc:99:91,TAFE-Events,-75,0,0,0;c8:b5:ad:31:16:e1,TAFE-Events,-75,0,0,0;c8:b5:ad:31:1a:80,TAFENSW,-76,0,0,0;10:13:31:e6:96:ad,TelstraE696AD,-77,0,0,0;3c:67:8c:b4:fb:9c,GY-H3GR,-79,0,0,0;d0:65:ca:54:3a:fc,WiFi-B2VY,-79,0,0,0;c4:04:15:0c:ae:9c,GY-R7000,-80,0,0,0;e8:1d:a8:2d:ec:5c,INSEARCH Secure,-85,0,0,0;f4:cb:52:89:57:f0,WiFi-QR7W,-81,0,0,0;c4:71:54:46:90:f1,WiFi-90F1,-83,0,0,0;b8:ee:0e:69:e5:fe,OPTUS_69E5FD,-86,0,0,0;70:3a:cb:86:bc:72,Sauropodsgooglewifi,-91,0,0,0;72:3a:cb:86:bc:70,SauropodsGuest,-91,0,0,0;12:13:31:e7:35:85,TelstraE7357D,-92,0,0,0;00:02:6f:12:34:56,,-55,0,0,0;fa:8f:ca:72:cc:f4,,-84,0,0,0;84:18:3a:20:70:1c,Meriton Guest WiFi,-93,0,0,0;

Scan9;00:02:6f:12:34:50,Telstra Air,-63,0,0,0;00:11:74:88:03:d0,CAPA Staff,-80,0,0,0;00:11:74:88:03:e0,CAPA Student,-77,0,0,0;c8:b5:ad:31:16:f0,TAFENSW,-77,0,0,0;a8:c8:3a:2b:8f:44,TGP_wifi,-88,0,0,0;c8:b5:ad:31:16:f1,TAFE-Events,-76,0,0,0;d8:c7:c8:4c:f7:30,TAFENSW,-90,0,0,0;44:1e:98:15:8b:2c,INSEARCH Secure,-82,0,0,0;d8:c7:c8:4c:f7:31,TAFE-Events,-90,0,0,0;44:1e:98:15:8b:28,INSEARCH Secure,-63,0,0,0;88:e3:ab:55:aa:32,TPG-7BCP,-75,0,0,0;b0:4e:26:8c:66:8d,22aMaryAnn,-82,0,0,0;44:1e:98:14:e8:1c,INSEARCH Secure,-86,0,0,0;c8:b5:ad:31:7f:70,TAFENSW,-87,0,0,0;c8:b5:ad:31:7f:71,TAFE-Events,-86,0,0,0;28:24:ff:94:be:27,ClickShare-A1.13A,-87,0,0,0;28:24:ff:94:bc:87,ClickShare-1871778305,-85,0,0,0;24:f2:7f:bc:9a:81,TAFE-Events,-72,0,0,0;24:f2:7f:bc:99:81,TAFE-Events,-74,0,0,0;24:f2:7f:bc:99:90,TAFENSW,-75,0,0,0;c8:b5:ad:31:16:e0,TAFENSW,-75,0,0,0;24:f2:7f:bc:99:80,TAFENSW,-74,0,0,0;44:1e:98:14:d9:4c,INSEARCH Secure,-83,0,0,0;12:13:31:e6:96:b5,TelstraE696AD,-87,0,0,0;d0:65:ca:54:fb:90,WiFi-7DUR,-80,0,0,0;70:3a:cb:19:5e:5e,Byzantium,-81,0,0,0;c0:25:e9:3a:dd:c9,NETGEAR60,-81,0,0,0;e8:94:f6:fa:07:02,Hubris,-83,0,0,0;24:f2:7f:bc:99:91,TAFE-Events,-75,0,0,0;c8:b5:ad:31:16:e1,TAFE-Events,-75,0,0,0;c8:b5:ad:31:1a:80,TAFENSW,-76,0,0,0;10:13:31:e6:96:ad,TelstraE696AD,-77,0,0,0;3c:67:8c:b4:fb:9c,GY-H3GR,-79,0,0,0;d0:65:ca:54:3a:fc,WiFi-B2VY,-79,0,0,0;c4:04:15:0c:ae:9c,GY-R7000,-80,0,0,0;e8:1d:a8:2d:ec:5c,INSEARCH Secure,-85,0,0,0;f4:cb:52:89:57:f0,WiFi-QR7W,-81,0,0,0;c4:71:54:46:90:f1,WiFi-90F1,-83,0,0,0;b8:ee:0e:69:e5:fe,OPTUS_69E5FD,-86,0,0,0;70:3a:cb:86:bc:72,Sauropodsgooglewifi,-91,0,0,0;72:3a:cb:86:bc:70,SauropodsGuest,-91,0,0,0;12:13:31:e7:35:85,TelstraE7357D,-92,0,0,0;00:02:6f:12:34:56,,-55,0,0,0;fa:8f:ca:72:cc:f4,,-84,0,0,0;84:18:3a:20:70:1c,Meriton Guest WiFi,-93,0,0,0;

Scan10;00:02:6f:12:34:50,Telstra Air,-63,0,0,0;00:11:74:88:03:d0,CAPA Staff,-80,0,0,0;00:11:74:88:03:e0,CAPA Student,-77,0,0,0;c8:b5:ad:31:16:f0,TAFENSW,-77,0,0,0;a8:c8:3a:2b:8f:44,TGP_wifi,-88,0,0,0;c8:b5:ad:31:16:f1,TAFE-Events,-76,0,0,0;d8:c7:c8:4c:f7:30,TAFENSW,-90,0,0,0;44:1e:98:15:8b:2c,INSEARCH Secure,-82,0,0,0;d8:c7:c8:4c:f7:31,TAFE-Events,-90,0,0,0;44:1e:98:15:8b:28,INSEARCH Secure,-63,0,0,0;88:e3:ab:55:aa:32,TPG-7BCP,-75,0,0,0;b0:4e:26:8c:66:8d,22aMaryAnn,-82,0,0,0;44:1e:98:14:e8:1c,INSEARCH Secure,-86,0,0,0;c8:b5:ad:31:7f:70,TAFENSW,-87,0,0,0;c8:b5:ad:31:7f:71,TAFE-Events,-86,0,0,0;28:24:ff:94:be:27,ClickShare-A1.13A,-87,0,0,0;28:24:ff:94:bc:87,ClickShare-1871778305,-85,0,0,0;24:f2:7f:bc:9a:81,TAFE-Events,-72,0,0,0;24:f2:7f:bc:99:81,TAFE-Events,-74,0,0,0;24:f2:7f:bc:99:90,TAFENSW,-75,0,0,0;c8:b5:ad:31:16:e0,TAFENSW,-75,0,0,0;24:f2:7f:bc:99:80,TAFENSW,-74,0,0,0;44:1e:98:14:d9:4c,INSEARCH Secure,-83,0,0,0;12:13:31:e6:96:b5,TelstraE696AD,-87,0,0,0;d0:65:ca:54:fb:90,WiFi-7DUR,-80,0,0,0;70:3a:cb:19:5e:5e,Byzantium,-81,0,0,0;c0:25:e9:3a:dd:c9,NETGEAR60,-81,0,0,0;e8:94:f6:fa:07:02,Hubris,-83,0,0,0;24:f2:7f:bc:99:91,TAFE-Events,-75,0,0,0;c8:b5:ad:31:16:e1,TAFE-Events,-75,0,0,0;c8:b5:ad:31:1a:80,TAFENSW,-76,0,0,0;10:13:31:e6:96:ad,TelstraE696AD,-77,0,0,0;3c:67:8c:b4:fb:9c,GY-H3GR,-79,0,0,0;d0:65:ca:54:3a:fc,WiFi-B2VY,-79,0,0,0;c4:04:15:0c:ae:9c,GY-R7000,-80,0,0,0;e8:1d:a8:2d:ec:5c,INSEARCH Secure,-85,0,0,0;f4:cb:52:89:57:f0,WiFi-QR7W,-81,0,0,0;c4:71:54:46:90:f1,WiFi-90F1,-83,0,0,0;b8:ee:0e:69:e5:fe,OPTUS_69E5FD,-86,0,0,0;70:3a:cb:86:bc:72,Sauropodsgooglewifi,-91,0,0,0;72:3a:cb:86:bc:70,SauropodsGuest,-91,0,0,0;12:13:31:e7:35:85,TelstraE7357D,-92,0,0,0;00:02:6f:12:34:56,,-55,0,0,0;fa:8f:ca:72:cc:f4,,-84,0,0,0;84:18:3a:20:70:1c,Meriton Guest WiFi,-93,0,0,0;

Scan11;00:02:6f:12:34:50,Telstra Air,-63,0,0,0;00:11:74:88:03:e0,CAPA Student,-81,0,0,0;c8:b5:ad:31:16:f0,TAFENSW,-79,0,0,0;a8:c8:3a:2b:8f:44,TGP_wifi,-91,0,0,0;c8:b5:ad:31:16:f1,TAFE-Events,-79,0,0,0;44:1e:98:15:8b:2c,INSEARCH Secure,-80,0,0,0;44:1e:98:15:8b:28,INSEARCH Secure,-63,0,0,0;88:e3:ab:55:aa:32,TPG-7BCP,-77,0,0,0;44:1e:98:14:e8:1c,INSEARCH Secure,-86,0,0,0;c8:b5:ad:31:7f:70,TAFENSW,-83,0,0,0;c8:b5:ad:31:7f:71,TAFE-Events,-82,0,0,0;28:24:ff:94:be:27,ClickShare-A1.13A,-84,0,0,0;28:24:ff:94:bc:87,ClickShare-1871778305,-74,0,0,0;24:f2:7f:bc:99:81,TAFE-Events,-74,0,0,0;24:f2:7f:bc:99:90,TAFENSW,-71,0,0,0;24:f2:7f:bc:99:80,TAFENSW,-74,0,0,0;12:13:31:e6:96:b5,TelstraE696AD,-78,0,0,0;d0:65:ca:54:fb:90,WiFi-7DUR,-84,0,0,0;c0:25:e9:3a:dd:c9,NETGEAR60,-82,0,0,0;24:f2:7f:bc:99:91,TAFE-Events,-72,0,0,0;c8:b5:ad:31:16:e1,TAFE-Events,-79,0,0,0;c8:b5:ad:31:1a:80,TAFENSW,-76,0,0,0;10:13:31:e6:96:ad,TelstraE696AD,-67,0,0,0;d0:65:ca:54:3a:fc,WiFi-B2VY,-79,0,0,0;e8:1d:a8:2d:ec:5c,INSEARCH Secure,-80,0,0,0;00:02:6f:12:34:56,,-53,0,0,0;f2:03:8c:90:4c:fa,DIRECT-UKUM-SH001-A144msBM,-72,0,0,0;24:f2:7f:bc:9a:90,TAFENSW,-78,0,0,0;44:1e:98:14:d9:48,INSEARCH Secure,-76,0,0,0;c8:b5:ad:31:1a:90,TAFENSW,-82,0,0,0;64:eb:8c:c1:13:53,EB308AD5-PE8EkCC8hL09Ouz,-80,0,0,0;e4:f4:c6:19:30:c9,NETGEAR51,-80,0,0,0;44:1e:98:14:d2:1c,INSEARCH Secure,-86,0,0,0;e8:1d:a8:2d:ef:0c,INSEARCH Secure,-87,0,0,0;08:3e:5d:12:95:91,Telstra12958B,-84,0,0,0;28:24:ff:94:bb:5f,ClickShare-A2.24,-89,0,0,0;c8:94:bb:b5:e1:b8,WiFi-E2G6,-86,0,0,0;28:24:ff:8f:37:7e,ClickShare-A1.44,-91,0,0,0;d0:65:ca:54:fb:94,WiFi-7DUR-5G,-91,0,0,0;d8:c7:c8:4c:eb:50,TAFENSW,-92,0,0,0;24:f2:7f:bc:9a:91,TAFE-Events,-77,0,0,0;c8:b5:ad:31:1a:91,TAFE-Events,-81,0,0,0;0a:3e:5d:12:95:92,Telstra Air,-82,0,0,0;0a:3e:5d:12:95:93,Fon WiFi,-84,0,0,0;d8:c7:c8:4c:eb:51,TAFE-Events,-91,0,0,0;

Scan12;00:02:6f:12:34:50,Telstra Air,-63,0,0,0;00:11:74:88:03:e0,CAPA Student,-81,0,0,0;c8:b5:ad:31:16:f0,TAFENSW,-79,0,0,0;a8:c8:3a:2b:8f:44,TGP_wifi,-91,0,0,0;c8:b5:ad:31:16:f1,TAFE-Events,-79,0,0,0;44:1e:98:15:8b:2c,INSEARCH Secure,-80,0,0,0;44:1e:98:15:8b:28,INSEARCH Secure,-63,0,0,0;88:e3:ab:55:aa:32,TPG-7BCP,-77,0,0,0;44:1e:98:14:e8:1c,INSEARCH Secure,-86,0,0,0;c8:b5:ad:31:7f:70,TAFENSW,-83,0,0,0;c8:b5:ad:31:7f:71,TAFE-Events,-82,0,0,0;28:24:ff:94:be:27,ClickShare-A1.13A,-84,0,0,0;28:24:ff:94:bc:87,ClickShare-1871778305,-74,0,0,0;24:f2:7f:bc:99:81,TAFE-Events,-74,0,0,0;24:f2:7f:bc:99:90,TAFENSW,-71,0,0,0;24:f2:7f:bc:99:80,TAFENSW,-74,0,0,0;12:13:31:e6:96:b5,TelstraE696AD,-78,0,0,0;d0:65:ca:54:fb:90,WiFi-7DUR,-84,0,0,0;c0:25:e9:3a:dd:c9,NETGEAR60,-82,0,0,0;24:f2:7f:bc:99:91,TAFE-Events,-72,0,0,0;c8:b5:ad:31:16:e1,TAFE-Events,-79,0,0,0;c8:b5:ad:31:1a:80,TAFENSW,-76,0,0,0;10:13:31:e6:96:ad,TelstraE696AD,-67,0,0,0;d0:65:ca:54:3a:fc,WiFi-B2VY,-79,0,0,0;e8:1d:a8:2d:ec:5c,INSEARCH Secure,-80,0,0,0;00:02:6f:12:34:56,,-53,0,0,0;f2:03:8c:90:4c:fa,DIRECT-UKUM-SH001-A144msBM,-72,0,0,0;24:f2:7f:bc:9a:90,TAFENSW,-78,0,0,0;44:1e:98:14:d9:48,INSEARCH Secure,-76,0,0,0;c8:b5:ad:31:1a:90,TAFENSW,-82,0,0,0;64:eb:8c:c1:13:53,EB308AD5-PE8EkCC8hL09Ouz,-80,0,0,0;e4:f4:c6:19:30:c9,NETGEAR51,-80,0,0,0;44:1e:98:14:d2:1c,INSEARCH Secure,-86,0,0,0;e8:1d:a8:2d:ef:0c,INSEARCH Secure,-87,0,0,0;08:3e:5d:12:95:91,Telstra12958B,-84,0,0,0;28:24:ff:94:bb:5f,ClickShare-A2.24,-89,0,0,0;c8:94:bb:b5:e1:b8,WiFi-E2G6,-86,0,0,0;28:24:ff:8f:37:7e,ClickShare-A1.44,-91,0,0,0;d0:65:ca:54:fb:94,WiFi-7DUR-5G,-91,0,0,0;d8:c7:c8:4c:eb:50,TAFENSW,-92,0,0,0;24:f2:7f:bc:9a:91,TAFE-Events,-77,0,0,0;c8:b5:ad:31:1a:91,TAFE-Events,-81,0,0,0;0a:3e:5d:12:95:92,Telstra Air,-82,0,0,0;0a:3e:5d:12:95:93,Fon WiFi,-84,0,0,0;d8:c7:c8:4c:eb:51,TAFE-Events,-91,0,0,0;

