Scan1;d8:c7:c8:4c:de:b0,TAFENSW,-79,0,0,0;d8:c7:c8:4c:de:b1,TAFE-Events,-80,0,0,0;00:02:6f:12:34:50,Telstra Air,-63,0,0,0;00:11:74:88:03:d0,CAPA Staff,-78,0,0,0;00:11:74:88:03:e0,CAPA Student,-73,0,0,0;28:c7:ce:a2:40:0b,Cisco860_Guest1,-82,0,0,0;28:c7:ce:a2:40:0a,Fork and Grind,-80,0,0,0;12:13:31:e7:35:85,TelstraE7357D,-86,0,0,0;c8:b5:ad:31:16:f0,TAFENSW,-81,0,0,0;a8:c8:3a:2b:8f:44,TGP_wifi,-91,0,0,0;c8:b5:ad:31:16:f1,TAFE-Events,-81,0,0,0;a8:c8:3a:2b:8f:40,TGP_wifi,-72,0,0,0;d8:c7:c8:4c:f7:30,TAFENSW,-77,0,0,0;44:1e:98:14:ec:ac,INSEARCH Secure,-87,0,0,0;44:1e:98:15:8b:2c,INSEARCH Secure,-85,0,0,0;00:02:6f:12:34:56,,-64,0,0,0;d8:c7:c8:4c:f7:31,TAFE-Events,-78,0,0,0;d8:c7:c8:4c:f7:20,TAFENSW,-77,0,0,0;d8:c7:c8:4c:f7:21,TAFE-Events,-75,0,0,0;44:1e:98:15:8b:28,INSEARCH Secure,-70,0,0,0;00:11:74:88:05:80,CAPA Staff,-85,0,0,0;d8:c7:c8:4c:f6:d0,TAFENSW,-91,0,0,0;24:f2:7f:bc:9a:90,TAFENSW,-85,0,0,0;ac:07:5f:e0:c0:6b,VodafonePocketWiFi-C06B67,-76,0,0,0;64:eb:8c:c1:13:53,EB308AD5-PE8EkCC8hL09Ouz,-81,0,0,0;88:e3:ab:55:aa:32,TPG-7BCP,-81,0,0,0;70:3a:cb:19:5e:5e,Byzantium,-81,0,0,0;e8:94:f6:fa:07:02,Hubris,-82,0,0,0;d0:65:ca:54:fb:90,WiFi-7DUR,-83,0,0,0;24:f2:7f:bc:9a:91,TAFE-Events,-83,0,0,0;c8:b5:ad:31:16:e1,TAFE-Events,-79,0,0,0;7e:26:64:01:8e:4e,Telstra Air,-84,0,0,0;d8:c7:c8:4c:f4:11,TAFE-Events,-92,0,0,0;

Scan2;d8:c7:c8:4c:de:b0,TAFENSW,-79,0,0,0;d8:c7:c8:4c:de:b1,TAFE-Events,-80,0,0,0;00:02:6f:12:34:50,Telstra Air,-63,0,0,0;00:11:74:88:03:d0,CAPA Staff,-78,0,0,0;00:11:74:88:03:e0,CAPA Student,-73,0,0,0;28:c7:ce:a2:40:0b,Cisco860_Guest1,-82,0,0,0;28:c7:ce:a2:40:0a,Fork and Grind,-80,0,0,0;12:13:31:e7:35:85,TelstraE7357D,-86,0,0,0;c8:b5:ad:31:16:f0,TAFENSW,-81,0,0,0;a8:c8:3a:2b:8f:44,TGP_wifi,-91,0,0,0;c8:b5:ad:31:16:f1,TAFE-Events,-81,0,0,0;a8:c8:3a:2b:8f:40,TGP_wifi,-72,0,0,0;d8:c7:c8:4c:f7:30,TAFENSW,-77,0,0,0;44:1e:98:14:ec:ac,INSEARCH Secure,-87,0,0,0;44:1e:98:15:8b:2c,INSEARCH Secure,-85,0,0,0;00:02:6f:12:34:56,,-64,0,0,0;d8:c7:c8:4c:f7:31,TAFE-Events,-78,0,0,0;d8:c7:c8:4c:f7:20,TAFENSW,-77,0,0,0;d8:c7:c8:4c:f7:21,TAFE-Events,-75,0,0,0;44:1e:98:15:8b:28,INSEARCH Secure,-70,0,0,0;00:11:74:88:05:80,CAPA Staff,-85,0,0,0;d8:c7:c8:4c:f6:d0,TAFENSW,-91,0,0,0;24:f2:7f:bc:9a:90,TAFENSW,-85,0,0,0;ac:07:5f:e0:c0:6b,VodafonePocketWiFi-C06B67,-76,0,0,0;64:eb:8c:c1:13:53,EB308AD5-PE8EkCC8hL09Ouz,-81,0,0,0;88:e3:ab:55:aa:32,TPG-7BCP,-81,0,0,0;70:3a:cb:19:5e:5e,Byzantium,-81,0,0,0;e8:94:f6:fa:07:02,Hubris,-82,0,0,0;d0:65:ca:54:fb:90,WiFi-7DUR,-83,0,0,0;24:f2:7f:bc:9a:91,TAFE-Events,-83,0,0,0;c8:b5:ad:31:16:e1,TAFE-Events,-79,0,0,0;7e:26:64:01:8e:4e,Telstra Air,-84,0,0,0;d8:c7:c8:4c:f4:11,TAFE-Events,-92,0,0,0;

Scan3;d8:c7:c8:4c:de:b0,TAFENSW,-79,0,0,0;d8:c7:c8:4c:de:b1,TAFE-Events,-80,0,0,0;00:02:6f:12:34:50,Telstra Air,-63,0,0,0;00:11:74:88:03:d0,CAPA Staff,-78,0,0,0;00:11:74:88:03:e0,CAPA Student,-73,0,0,0;28:c7:ce:a2:40:0b,Cisco860_Guest1,-82,0,0,0;28:c7:ce:a2:40:0a,Fork and Grind,-80,0,0,0;12:13:31:e7:35:85,TelstraE7357D,-86,0,0,0;c8:b5:ad:31:16:f0,TAFENSW,-81,0,0,0;a8:c8:3a:2b:8f:44,TGP_wifi,-91,0,0,0;c8:b5:ad:31:16:f1,TAFE-Events,-81,0,0,0;a8:c8:3a:2b:8f:40,TGP_wifi,-72,0,0,0;d8:c7:c8:4c:f7:30,TAFENSW,-77,0,0,0;44:1e:98:14:ec:ac,INSEARCH Secure,-87,0,0,0;44:1e:98:15:8b:2c,INSEARCH Secure,-85,0,0,0;00:02:6f:12:34:56,,-64,0,0,0;d8:c7:c8:4c:f7:31,TAFE-Events,-78,0,0,0;d8:c7:c8:4c:f7:20,TAFENSW,-77,0,0,0;d8:c7:c8:4c:f7:21,TAFE-Events,-75,0,0,0;44:1e:98:15:8b:28,INSEARCH Secure,-70,0,0,0;00:11:74:88:05:80,CAPA Staff,-85,0,0,0;d8:c7:c8:4c:f6:d0,TAFENSW,-91,0,0,0;24:f2:7f:bc:9a:90,TAFENSW,-85,0,0,0;ac:07:5f:e0:c0:6b,VodafonePocketWiFi-C06B67,-76,0,0,0;64:eb:8c:c1:13:53,EB308AD5-PE8EkCC8hL09Ouz,-81,0,0,0;88:e3:ab:55:aa:32,TPG-7BCP,-81,0,0,0;70:3a:cb:19:5e:5e,Byzantium,-81,0,0,0;e8:94:f6:fa:07:02,Hubris,-82,0,0,0;d0:65:ca:54:fb:90,WiFi-7DUR,-83,0,0,0;24:f2:7f:bc:9a:91,TAFE-Events,-83,0,0,0;c8:b5:ad:31:16:e1,TAFE-Events,-79,0,0,0;7e:26:64:01:8e:4e,Telstra Air,-84,0,0,0;d8:c7:c8:4c:f4:11,TAFE-Events,-92,0,0,0;

Scan4;d8:c7:c8:4c:de:b0,TAFENSW,-79,0,0,0;d8:c7:c8:4c:de:b1,TAFE-Events,-80,0,0,0;00:02:6f:12:34:50,Telstra Air,-63,0,0,0;00:11:74:88:03:d0,CAPA Staff,-78,0,0,0;00:11:74:88:03:e0,CAPA Student,-73,0,0,0;28:c7:ce:a2:40:0b,Cisco860_Guest1,-82,0,0,0;28:c7:ce:a2:40:0a,Fork and Grind,-80,0,0,0;12:13:31:e7:35:85,TelstraE7357D,-86,0,0,0;c8:b5:ad:31:16:f0,TAFENSW,-81,0,0,0;a8:c8:3a:2b:8f:44,TGP_wifi,-91,0,0,0;c8:b5:ad:31:16:f1,TAFE-Events,-81,0,0,0;a8:c8:3a:2b:8f:40,TGP_wifi,-72,0,0,0;d8:c7:c8:4c:f7:30,TAFENSW,-77,0,0,0;44:1e:98:14:ec:ac,INSEARCH Secure,-87,0,0,0;44:1e:98:15:8b:2c,INSEARCH Secure,-85,0,0,0;00:02:6f:12:34:56,,-64,0,0,0;d8:c7:c8:4c:f7:31,TAFE-Events,-78,0,0,0;d8:c7:c8:4c:f7:20,TAFENSW,-77,0,0,0;d8:c7:c8:4c:f7:21,TAFE-Events,-75,0,0,0;44:1e:98:15:8b:28,INSEARCH Secure,-70,0,0,0;00:11:74:88:05:80,CAPA Staff,-85,0,0,0;d8:c7:c8:4c:f6:d0,TAFENSW,-91,0,0,0;24:f2:7f:bc:9a:90,TAFENSW,-85,0,0,0;ac:07:5f:e0:c0:6b,VodafonePocketWiFi-C06B67,-76,0,0,0;64:eb:8c:c1:13:53,EB308AD5-PE8EkCC8hL09Ouz,-81,0,0,0;88:e3:ab:55:aa:32,TPG-7BCP,-81,0,0,0;70:3a:cb:19:5e:5e,Byzantium,-81,0,0,0;e8:94:f6:fa:07:02,Hubris,-82,0,0,0;d0:65:ca:54:fb:90,WiFi-7DUR,-83,0,0,0;24:f2:7f:bc:9a:91,TAFE-Events,-83,0,0,0;c8:b5:ad:31:16:e1,TAFE-Events,-79,0,0,0;7e:26:64:01:8e:4e,Telstra Air,-84,0,0,0;d8:c7:c8:4c:f4:11,TAFE-Events,-92,0,0,0;

Scan5;d8:c7:c8:4c:de:b0,TAFENSW,-79,0,0,0;d8:c7:c8:4c:de:b1,TAFE-Events,-80,0,0,0;00:02:6f:12:34:50,Telstra Air,-63,0,0,0;00:11:74:88:03:d0,CAPA Staff,-78,0,0,0;00:11:74:88:03:e0,CAPA Student,-73,0,0,0;28:c7:ce:a2:40:0b,Cisco860_Guest1,-82,0,0,0;28:c7:ce:a2:40:0a,Fork and Grind,-80,0,0,0;12:13:31:e7:35:85,TelstraE7357D,-86,0,0,0;c8:b5:ad:31:16:f0,TAFENSW,-81,0,0,0;a8:c8:3a:2b:8f:44,TGP_wifi,-91,0,0,0;c8:b5:ad:31:16:f1,TAFE-Events,-81,0,0,0;a8:c8:3a:2b:8f:40,TGP_wifi,-72,0,0,0;d8:c7:c8:4c:f7:30,TAFENSW,-77,0,0,0;44:1e:98:14:ec:ac,INSEARCH Secure,-87,0,0,0;44:1e:98:15:8b:2c,INSEARCH Secure,-85,0,0,0;00:02:6f:12:34:56,,-64,0,0,0;d8:c7:c8:4c:f7:31,TAFE-Events,-78,0,0,0;d8:c7:c8:4c:f7:20,TAFENSW,-77,0,0,0;d8:c7:c8:4c:f7:21,TAFE-Events,-75,0,0,0;44:1e:98:15:8b:28,INSEARCH Secure,-70,0,0,0;00:11:74:88:05:80,CAPA Staff,-85,0,0,0;d8:c7:c8:4c:f6:d0,TAFENSW,-91,0,0,0;24:f2:7f:bc:9a:90,TAFENSW,-85,0,0,0;ac:07:5f:e0:c0:6b,VodafonePocketWiFi-C06B67,-76,0,0,0;64:eb:8c:c1:13:53,EB308AD5-PE8EkCC8hL09Ouz,-81,0,0,0;88:e3:ab:55:aa:32,TPG-7BCP,-81,0,0,0;70:3a:cb:19:5e:5e,Byzantium,-81,0,0,0;e8:94:f6:fa:07:02,Hubris,-82,0,0,0;d0:65:ca:54:fb:90,WiFi-7DUR,-83,0,0,0;24:f2:7f:bc:9a:91,TAFE-Events,-83,0,0,0;c8:b5:ad:31:16:e1,TAFE-Events,-79,0,0,0;7e:26:64:01:8e:4e,Telstra Air,-84,0,0,0;d8:c7:c8:4c:f4:11,TAFE-Events,-92,0,0,0;

Scan6;d8:c7:c8:4c:de:b0,TAFENSW,-79,0,0,0;d8:c7:c8:4c:de:b1,TAFE-Events,-80,0,0,0;00:02:6f:12:34:50,Telstra Air,-63,0,0,0;00:11:74:88:03:d0,CAPA Staff,-78,0,0,0;00:11:74:88:03:e0,CAPA Student,-73,0,0,0;28:c7:ce:a2:40:0b,Cisco860_Guest1,-82,0,0,0;28:c7:ce:a2:40:0a,Fork and Grind,-80,0,0,0;12:13:31:e7:35:85,TelstraE7357D,-86,0,0,0;c8:b5:ad:31:16:f0,TAFENSW,-81,0,0,0;a8:c8:3a:2b:8f:44,TGP_wifi,-91,0,0,0;c8:b5:ad:31:16:f1,TAFE-Events,-81,0,0,0;a8:c8:3a:2b:8f:40,TGP_wifi,-72,0,0,0;d8:c7:c8:4c:f7:30,TAFENSW,-77,0,0,0;44:1e:98:14:ec:ac,INSEARCH Secure,-87,0,0,0;44:1e:98:15:8b:2c,INSEARCH Secure,-85,0,0,0;00:02:6f:12:34:56,,-64,0,0,0;d8:c7:c8:4c:f7:31,TAFE-Events,-78,0,0,0;d8:c7:c8:4c:f7:20,TAFENSW,-77,0,0,0;d8:c7:c8:4c:f7:21,TAFE-Events,-75,0,0,0;44:1e:98:15:8b:28,INSEARCH Secure,-70,0,0,0;00:11:74:88:05:80,CAPA Staff,-85,0,0,0;d8:c7:c8:4c:f6:d0,TAFENSW,-91,0,0,0;24:f2:7f:bc:9a:90,TAFENSW,-85,0,0,0;ac:07:5f:e0:c0:6b,VodafonePocketWiFi-C06B67,-76,0,0,0;64:eb:8c:c1:13:53,EB308AD5-PE8EkCC8hL09Ouz,-81,0,0,0;88:e3:ab:55:aa:32,TPG-7BCP,-81,0,0,0;70:3a:cb:19:5e:5e,Byzantium,-81,0,0,0;e8:94:f6:fa:07:02,Hubris,-82,0,0,0;d0:65:ca:54:fb:90,WiFi-7DUR,-83,0,0,0;24:f2:7f:bc:9a:91,TAFE-Events,-83,0,0,0;c8:b5:ad:31:16:e1,TAFE-Events,-79,0,0,0;7e:26:64:01:8e:4e,Telstra Air,-84,0,0,0;d8:c7:c8:4c:f4:11,TAFE-Events,-92,0,0,0;

Scan7;00:02:6f:12:34:50,Telstra Air,-59,0,0,0;00:11:74:88:03:d0,CAPA Staff,-74,0,0,0;00:11:74:88:03:e0,CAPA Student,-71,0,0,0;28:c7:ce:a2:40:0b,Cisco860_Guest1,-83,0,0,0;28:c7:ce:a2:40:0a,Fork and Grind,-81,0,0,0;12:13:31:e7:35:85,TelstraE7357D,-87,0,0,0;c8:b5:ad:31:16:f0,TAFENSW,-84,0,0,0;a8:c8:3a:2b:8f:44,TGP_wifi,-88,0,0,0;c8:b5:ad:31:16:f1,TAFE-Events,-84,0,0,0;a8:c8:3a:2b:8f:40,TGP_wifi,-73,0,0,0;d8:c7:c8:4c:f7:30,TAFENSW,-80,0,0,0;44:1e:98:14:ec:ac,INSEARCH Secure,-86,0,0,0;44:1e:98:15:8b:2c,INSEARCH Secure,-86,0,0,0;00:02:6f:12:34:56,,-54,0,0,0;d8:c7:c8:4c:f7:31,TAFE-Events,-80,0,0,0;d8:c7:c8:4c:f7:20,TAFENSW,-70,0,0,0;d8:c7:c8:4c:f7:21,TAFE-Events,-72,0,0,0;44:1e:98:15:8b:28,INSEARCH Secure,-72,0,0,0;24:f2:7f:bc:9a:90,TAFENSW,-81,0,0,0;88:e3:ab:55:aa:32,TPG-7BCP,-77,0,0,0;e8:94:f6:fa:07:02,Hubris,-79,0,0,0;24:f2:7f:bc:9a:91,TAFE-Events,-81,0,0,0;c8:b5:ad:31:16:e1,TAFE-Events,-79,0,0,0;b0:4e:26:8c:66:8d,22aMaryAnn,-76,0,0,0;c8:b5:ad:31:16:e0,TAFENSW,-78,0,0,0;e0:b9:e5:ad:77:05,TelstraAD7705,-80,0,0,0;5c:a8:6a:07:ac:30,WiFi-VVU2,-81,0,0,0;c8:b5:ad:31:7e:f0,TAFENSW,-86,0,0,0;10:13:31:e7:35:7d,TelstraE7357D,-82,0,0,0;44:1e:98:14:e8:1c,INSEARCH Secure,-87,0,0,0;c8:b5:ad:31:7f:70,TAFENSW,-88,0,0,0;12:13:31:e6:96:b5,TelstraE696AD,-89,0,0,0;24:f2:7f:bc:99:90,TAFENSW,-89,0,0,0;e2:b9:e5:ad:77:08,Fon WiFi,-78,0,0,0;12:13:31:e7:35:7f,Telstra Air,-80,0,0,0;e2:b9:e5:ad:77:07,Telstra Air,-80,0,0,0;c8:b5:ad:31:7e:f1,TAFE-Events,-86,0,0,0;12:13:31:e7:35:70,Fon WiFi,-82,0,0,0;28:c7:ce:a2:40:0d,Cisco860_Guest3,-83,0,0,0;28:c7:ce:a2:40:0c,Cisco860_Guest2,-83,0,0,0;c8:b5:ad:31:7f:71,TAFE-Events,-89,0,0,0;24:f2:7f:bc:99:91,TAFE-Events,-90,0,0,0;

Scan8;00:02:6f:12:34:50,Telstra Air,-59,0,0,0;00:11:74:88:03:d0,CAPA Staff,-74,0,0,0;00:11:74:88:03:e0,CAPA Student,-71,0,0,0;28:c7:ce:a2:40:0b,Cisco860_Guest1,-83,0,0,0;28:c7:ce:a2:40:0a,Fork and Grind,-81,0,0,0;12:13:31:e7:35:85,TelstraE7357D,-87,0,0,0;c8:b5:ad:31:16:f0,TAFENSW,-84,0,0,0;a8:c8:3a:2b:8f:44,TGP_wifi,-88,0,0,0;c8:b5:ad:31:16:f1,TAFE-Events,-84,0,0,0;a8:c8:3a:2b:8f:40,TGP_wifi,-73,0,0,0;d8:c7:c8:4c:f7:30,TAFENSW,-80,0,0,0;44:1e:98:14:ec:ac,INSEARCH Secure,-86,0,0,0;44:1e:98:15:8b:2c,INSEARCH Secure,-86,0,0,0;00:02:6f:12:34:56,,-54,0,0,0;d8:c7:c8:4c:f7:31,TAFE-Events,-80,0,0,0;d8:c7:c8:4c:f7:20,TAFENSW,-70,0,0,0;d8:c7:c8:4c:f7:21,TAFE-Events,-72,0,0,0;44:1e:98:15:8b:28,INSEARCH Secure,-72,0,0,0;24:f2:7f:bc:9a:90,TAFENSW,-81,0,0,0;88:e3:ab:55:aa:32,TPG-7BCP,-77,0,0,0;e8:94:f6:fa:07:02,Hubris,-79,0,0,0;24:f2:7f:bc:9a:91,TAFE-Events,-81,0,0,0;c8:b5:ad:31:16:e1,TAFE-Events,-79,0,0,0;b0:4e:26:8c:66:8d,22aMaryAnn,-76,0,0,0;c8:b5:ad:31:16:e0,TAFENSW,-78,0,0,0;e0:b9:e5:ad:77:05,TelstraAD7705,-80,0,0,0;5c:a8:6a:07:ac:30,WiFi-VVU2,-81,0,0,0;c8:b5:ad:31:7e:f0,TAFENSW,-86,0,0,0;10:13:31:e7:35:7d,TelstraE7357D,-82,0,0,0;44:1e:98:14:e8:1c,INSEARCH Secure,-87,0,0,0;c8:b5:ad:31:7f:70,TAFENSW,-88,0,0,0;12:13:31:e6:96:b5,TelstraE696AD,-89,0,0,0;24:f2:7f:bc:99:90,TAFENSW,-89,0,0,0;e2:b9:e5:ad:77:08,Fon WiFi,-78,0,0,0;12:13:31:e7:35:7f,Telstra Air,-80,0,0,0;e2:b9:e5:ad:77:07,Telstra Air,-80,0,0,0;c8:b5:ad:31:7e:f1,TAFE-Events,-86,0,0,0;12:13:31:e7:35:70,Fon WiFi,-82,0,0,0;28:c7:ce:a2:40:0d,Cisco860_Guest3,-83,0,0,0;28:c7:ce:a2:40:0c,Cisco860_Guest2,-83,0,0,0;c8:b5:ad:31:7f:71,TAFE-Events,-89,0,0,0;24:f2:7f:bc:99:91,TAFE-Events,-90,0,0,0;

Scan9;00:02:6f:12:34:50,Telstra Air,-59,0,0,0;00:11:74:88:03:d0,CAPA Staff,-74,0,0,0;00:11:74:88:03:e0,CAPA Student,-71,0,0,0;28:c7:ce:a2:40:0b,Cisco860_Guest1,-83,0,0,0;28:c7:ce:a2:40:0a,Fork and Grind,-81,0,0,0;12:13:31:e7:35:85,TelstraE7357D,-87,0,0,0;c8:b5:ad:31:16:f0,TAFENSW,-84,0,0,0;a8:c8:3a:2b:8f:44,TGP_wifi,-88,0,0,0;c8:b5:ad:31:16:f1,TAFE-Events,-84,0,0,0;a8:c8:3a:2b:8f:40,TGP_wifi,-73,0,0,0;d8:c7:c8:4c:f7:30,TAFENSW,-80,0,0,0;44:1e:98:14:ec:ac,INSEARCH Secure,-86,0,0,0;44:1e:98:15:8b:2c,INSEARCH Secure,-86,0,0,0;00:02:6f:12:34:56,,-54,0,0,0;d8:c7:c8:4c:f7:31,TAFE-Events,-80,0,0,0;d8:c7:c8:4c:f7:20,TAFENSW,-70,0,0,0;d8:c7:c8:4c:f7:21,TAFE-Events,-72,0,0,0;44:1e:98:15:8b:28,INSEARCH Secure,-72,0,0,0;24:f2:7f:bc:9a:90,TAFENSW,-81,0,0,0;88:e3:ab:55:aa:32,TPG-7BCP,-77,0,0,0;e8:94:f6:fa:07:02,Hubris,-79,0,0,0;24:f2:7f:bc:9a:91,TAFE-Events,-81,0,0,0;c8:b5:ad:31:16:e1,TAFE-Events,-79,0,0,0;b0:4e:26:8c:66:8d,22aMaryAnn,-76,0,0,0;c8:b5:ad:31:16:e0,TAFENSW,-78,0,0,0;e0:b9:e5:ad:77:05,TelstraAD7705,-80,0,0,0;5c:a8:6a:07:ac:30,WiFi-VVU2,-81,0,0,0;c8:b5:ad:31:7e:f0,TAFENSW,-86,0,0,0;10:13:31:e7:35:7d,TelstraE7357D,-82,0,0,0;44:1e:98:14:e8:1c,INSEARCH Secure,-87,0,0,0;c8:b5:ad:31:7f:70,TAFENSW,-88,0,0,0;12:13:31:e6:96:b5,TelstraE696AD,-89,0,0,0;24:f2:7f:bc:99:90,TAFENSW,-89,0,0,0;e2:b9:e5:ad:77:08,Fon WiFi,-78,0,0,0;12:13:31:e7:35:7f,Telstra Air,-80,0,0,0;e2:b9:e5:ad:77:07,Telstra Air,-80,0,0,0;c8:b5:ad:31:7e:f1,TAFE-Events,-86,0,0,0;12:13:31:e7:35:70,Fon WiFi,-82,0,0,0;28:c7:ce:a2:40:0d,Cisco860_Guest3,-83,0,0,0;28:c7:ce:a2:40:0c,Cisco860_Guest2,-83,0,0,0;c8:b5:ad:31:7f:71,TAFE-Events,-89,0,0,0;24:f2:7f:bc:99:91,TAFE-Events,-90,0,0,0;

Scan10;00:02:6f:12:34:50,Telstra Air,-59,0,0,0;00:11:74:88:03:d0,CAPA Staff,-74,0,0,0;00:11:74:88:03:e0,CAPA Student,-71,0,0,0;28:c7:ce:a2:40:0b,Cisco860_Guest1,-83,0,0,0;28:c7:ce:a2:40:0a,Fork and Grind,-81,0,0,0;12:13:31:e7:35:85,TelstraE7357D,-87,0,0,0;c8:b5:ad:31:16:f0,TAFENSW,-84,0,0,0;a8:c8:3a:2b:8f:44,TGP_wifi,-88,0,0,0;c8:b5:ad:31:16:f1,TAFE-Events,-84,0,0,0;a8:c8:3a:2b:8f:40,TGP_wifi,-73,0,0,0;d8:c7:c8:4c:f7:30,TAFENSW,-80,0,0,0;44:1e:98:14:ec:ac,INSEARCH Secure,-86,0,0,0;44:1e:98:15:8b:2c,INSEARCH Secure,-86,0,0,0;00:02:6f:12:34:56,,-54,0,0,0;d8:c7:c8:4c:f7:31,TAFE-Events,-80,0,0,0;d8:c7:c8:4c:f7:20,TAFENSW,-70,0,0,0;d8:c7:c8:4c:f7:21,TAFE-Events,-72,0,0,0;44:1e:98:15:8b:28,INSEARCH Secure,-72,0,0,0;24:f2:7f:bc:9a:90,TAFENSW,-81,0,0,0;88:e3:ab:55:aa:32,TPG-7BCP,-77,0,0,0;e8:94:f6:fa:07:02,Hubris,-79,0,0,0;24:f2:7f:bc:9a:91,TAFE-Events,-81,0,0,0;c8:b5:ad:31:16:e1,TAFE-Events,-79,0,0,0;b0:4e:26:8c:66:8d,22aMaryAnn,-76,0,0,0;c8:b5:ad:31:16:e0,TAFENSW,-78,0,0,0;e0:b9:e5:ad:77:05,TelstraAD7705,-80,0,0,0;5c:a8:6a:07:ac:30,WiFi-VVU2,-81,0,0,0;c8:b5:ad:31:7e:f0,TAFENSW,-86,0,0,0;10:13:31:e7:35:7d,TelstraE7357D,-82,0,0,0;44:1e:98:14:e8:1c,INSEARCH Secure,-87,0,0,0;c8:b5:ad:31:7f:70,TAFENSW,-88,0,0,0;12:13:31:e6:96:b5,TelstraE696AD,-89,0,0,0;24:f2:7f:bc:99:90,TAFENSW,-89,0,0,0;e2:b9:e5:ad:77:08,Fon WiFi,-78,0,0,0;12:13:31:e7:35:7f,Telstra Air,-80,0,0,0;e2:b9:e5:ad:77:07,Telstra Air,-80,0,0,0;c8:b5:ad:31:7e:f1,TAFE-Events,-86,0,0,0;12:13:31:e7:35:70,Fon WiFi,-82,0,0,0;28:c7:ce:a2:40:0d,Cisco860_Guest3,-83,0,0,0;28:c7:ce:a2:40:0c,Cisco860_Guest2,-83,0,0,0;c8:b5:ad:31:7f:71,TAFE-Events,-89,0,0,0;24:f2:7f:bc:99:91,TAFE-Events,-90,0,0,0;

Scan11;00:02:6f:12:34:50,Telstra Air,-59,0,0,0;00:11:74:88:03:d0,CAPA Staff,-74,0,0,0;00:11:74:88:03:e0,CAPA Student,-71,0,0,0;28:c7:ce:a2:40:0b,Cisco860_Guest1,-83,0,0,0;28:c7:ce:a2:40:0a,Fork and Grind,-81,0,0,0;12:13:31:e7:35:85,TelstraE7357D,-87,0,0,0;c8:b5:ad:31:16:f0,TAFENSW,-84,0,0,0;a8:c8:3a:2b:8f:44,TGP_wifi,-88,0,0,0;c8:b5:ad:31:16:f1,TAFE-Events,-84,0,0,0;a8:c8:3a:2b:8f:40,TGP_wifi,-73,0,0,0;d8:c7:c8:4c:f7:30,TAFENSW,-80,0,0,0;44:1e:98:14:ec:ac,INSEARCH Secure,-86,0,0,0;44:1e:98:15:8b:2c,INSEARCH Secure,-86,0,0,0;00:02:6f:12:34:56,,-54,0,0,0;d8:c7:c8:4c:f7:31,TAFE-Events,-80,0,0,0;d8:c7:c8:4c:f7:20,TAFENSW,-70,0,0,0;d8:c7:c8:4c:f7:21,TAFE-Events,-72,0,0,0;44:1e:98:15:8b:28,INSEARCH Secure,-72,0,0,0;24:f2:7f:bc:9a:90,TAFENSW,-81,0,0,0;88:e3:ab:55:aa:32,TPG-7BCP,-77,0,0,0;e8:94:f6:fa:07:02,Hubris,-79,0,0,0;24:f2:7f:bc:9a:91,TAFE-Events,-81,0,0,0;c8:b5:ad:31:16:e1,TAFE-Events,-79,0,0,0;b0:4e:26:8c:66:8d,22aMaryAnn,-76,0,0,0;c8:b5:ad:31:16:e0,TAFENSW,-78,0,0,0;e0:b9:e5:ad:77:05,TelstraAD7705,-80,0,0,0;5c:a8:6a:07:ac:30,WiFi-VVU2,-81,0,0,0;c8:b5:ad:31:7e:f0,TAFENSW,-86,0,0,0;10:13:31:e7:35:7d,TelstraE7357D,-82,0,0,0;44:1e:98:14:e8:1c,INSEARCH Secure,-87,0,0,0;c8:b5:ad:31:7f:70,TAFENSW,-88,0,0,0;12:13:31:e6:96:b5,TelstraE696AD,-89,0,0,0;24:f2:7f:bc:99:90,TAFENSW,-89,0,0,0;e2:b9:e5:ad:77:08,Fon WiFi,-78,0,0,0;12:13:31:e7:35:7f,Telstra Air,-80,0,0,0;e2:b9:e5:ad:77:07,Telstra Air,-80,0,0,0;c8:b5:ad:31:7e:f1,TAFE-Events,-86,0,0,0;12:13:31:e7:35:70,Fon WiFi,-82,0,0,0;28:c7:ce:a2:40:0d,Cisco860_Guest3,-83,0,0,0;28:c7:ce:a2:40:0c,Cisco860_Guest2,-83,0,0,0;c8:b5:ad:31:7f:71,TAFE-Events,-89,0,0,0;24:f2:7f:bc:99:91,TAFE-Events,-90,0,0,0;

Scan12;00:02:6f:12:34:50,Telstra Air,-59,0,0,0;00:11:74:88:03:d0,CAPA Staff,-74,0,0,0;00:11:74:88:03:e0,CAPA Student,-71,0,0,0;28:c7:ce:a2:40:0b,Cisco860_Guest1,-83,0,0,0;28:c7:ce:a2:40:0a,Fork and Grind,-81,0,0,0;12:13:31:e7:35:85,TelstraE7357D,-87,0,0,0;c8:b5:ad:31:16:f0,TAFENSW,-84,0,0,0;a8:c8:3a:2b:8f:44,TGP_wifi,-88,0,0,0;c8:b5:ad:31:16:f1,TAFE-Events,-84,0,0,0;a8:c8:3a:2b:8f:40,TGP_wifi,-73,0,0,0;d8:c7:c8:4c:f7:30,TAFENSW,-80,0,0,0;44:1e:98:14:ec:ac,INSEARCH Secure,-86,0,0,0;44:1e:98:15:8b:2c,INSEARCH Secure,-86,0,0,0;00:02:6f:12:34:56,,-54,0,0,0;d8:c7:c8:4c:f7:31,TAFE-Events,-80,0,0,0;d8:c7:c8:4c:f7:20,TAFENSW,-70,0,0,0;d8:c7:c8:4c:f7:21,TAFE-Events,-72,0,0,0;44:1e:98:15:8b:28,INSEARCH Secure,-72,0,0,0;24:f2:7f:bc:9a:90,TAFENSW,-81,0,0,0;88:e3:ab:55:aa:32,TPG-7BCP,-77,0,0,0;e8:94:f6:fa:07:02,Hubris,-79,0,0,0;24:f2:7f:bc:9a:91,TAFE-Events,-81,0,0,0;c8:b5:ad:31:16:e1,TAFE-Events,-79,0,0,0;b0:4e:26:8c:66:8d,22aMaryAnn,-76,0,0,0;c8:b5:ad:31:16:e0,TAFENSW,-78,0,0,0;e0:b9:e5:ad:77:05,TelstraAD7705,-80,0,0,0;5c:a8:6a:07:ac:30,WiFi-VVU2,-81,0,0,0;c8:b5:ad:31:7e:f0,TAFENSW,-86,0,0,0;10:13:31:e7:35:7d,TelstraE7357D,-82,0,0,0;44:1e:98:14:e8:1c,INSEARCH Secure,-87,0,0,0;c8:b5:ad:31:7f:70,TAFENSW,-88,0,0,0;12:13:31:e6:96:b5,TelstraE696AD,-89,0,0,0;24:f2:7f:bc:99:90,TAFENSW,-89,0,0,0;e2:b9:e5:ad:77:08,Fon WiFi,-78,0,0,0;12:13:31:e7:35:7f,Telstra Air,-80,0,0,0;e2:b9:e5:ad:77:07,Telstra Air,-80,0,0,0;c8:b5:ad:31:7e:f1,TAFE-Events,-86,0,0,0;12:13:31:e7:35:70,Fon WiFi,-82,0,0,0;28:c7:ce:a2:40:0d,Cisco860_Guest3,-83,0,0,0;28:c7:ce:a2:40:0c,Cisco860_Guest2,-83,0,0,0;c8:b5:ad:31:7f:71,TAFE-Events,-89,0,0,0;24:f2:7f:bc:99:91,TAFE-Events,-90,0,0,0;

Scan13;00:02:6f:12:34:50,Telstra Air,-59,0,0,0;00:11:74:88:03:d0,CAPA Staff,-74,0,0,0;00:11:74:88:03:e0,CAPA Student,-71,0,0,0;28:c7:ce:a2:40:0b,Cisco860_Guest1,-83,0,0,0;28:c7:ce:a2:40:0a,Fork and Grind,-81,0,0,0;12:13:31:e7:35:85,TelstraE7357D,-87,0,0,0;c8:b5:ad:31:16:f0,TAFENSW,-84,0,0,0;a8:c8:3a:2b:8f:44,TGP_wifi,-88,0,0,0;c8:b5:ad:31:16:f1,TAFE-Events,-84,0,0,0;a8:c8:3a:2b:8f:40,TGP_wifi,-73,0,0,0;d8:c7:c8:4c:f7:30,TAFENSW,-80,0,0,0;44:1e:98:14:ec:ac,INSEARCH Secure,-86,0,0,0;44:1e:98:15:8b:2c,INSEARCH Secure,-86,0,0,0;00:02:6f:12:34:56,,-54,0,0,0;d8:c7:c8:4c:f7:31,TAFE-Events,-80,0,0,0;d8:c7:c8:4c:f7:20,TAFENSW,-70,0,0,0;d8:c7:c8:4c:f7:21,TAFE-Events,-72,0,0,0;44:1e:98:15:8b:28,INSEARCH Secure,-72,0,0,0;24:f2:7f:bc:9a:90,TAFENSW,-81,0,0,0;88:e3:ab:55:aa:32,TPG-7BCP,-77,0,0,0;e8:94:f6:fa:07:02,Hubris,-79,0,0,0;24:f2:7f:bc:9a:91,TAFE-Events,-81,0,0,0;c8:b5:ad:31:16:e1,TAFE-Events,-79,0,0,0;b0:4e:26:8c:66:8d,22aMaryAnn,-76,0,0,0;c8:b5:ad:31:16:e0,TAFENSW,-78,0,0,0;e0:b9:e5:ad:77:05,TelstraAD7705,-80,0,0,0;5c:a8:6a:07:ac:30,WiFi-VVU2,-81,0,0,0;c8:b5:ad:31:7e:f0,TAFENSW,-86,0,0,0;10:13:31:e7:35:7d,TelstraE7357D,-82,0,0,0;44:1e:98:14:e8:1c,INSEARCH Secure,-87,0,0,0;c8:b5:ad:31:7f:70,TAFENSW,-88,0,0,0;12:13:31:e6:96:b5,TelstraE696AD,-89,0,0,0;24:f2:7f:bc:99:90,TAFENSW,-89,0,0,0;e2:b9:e5:ad:77:08,Fon WiFi,-78,0,0,0;12:13:31:e7:35:7f,Telstra Air,-80,0,0,0;e2:b9:e5:ad:77:07,Telstra Air,-80,0,0,0;c8:b5:ad:31:7e:f1,TAFE-Events,-86,0,0,0;12:13:31:e7:35:70,Fon WiFi,-82,0,0,0;28:c7:ce:a2:40:0d,Cisco860_Guest3,-83,0,0,0;28:c7:ce:a2:40:0c,Cisco860_Guest2,-83,0,0,0;c8:b5:ad:31:7f:71,TAFE-Events,-89,0,0,0;24:f2:7f:bc:99:91,TAFE-Events,-90,0,0,0;

