Scan1;d8:c7:c8:4c:de:b0,TAFENSW,-80,0,0,0;d8:c7:c8:4c:de:b1,TAFE-Events,-80,0,0,0;00:02:6f:12:34:50,Telstra Air,-67,0,0,0;d8:c7:c8:4c:f4:d0,TAFENSW,-90,0,0,0;b0:4e:26:8c:66:8f,22aMaryAnn 5G,-90,0,0,0;d8:c7:c8:4c:f4:d1,TAFE-Events,-91,0,0,0;00:11:74:88:03:d0,CAPA Staff,-74,0,0,0;00:11:74:88:03:e0,CAPA Student,-71,0,0,0;28:c7:ce:a2:40:0d,Cisco860_Guest3,-79,0,0,0;28:c7:ce:a2:40:0b,Cisco860_Guest1,-78,0,0,0;28:c7:ce:a2:40:0c,Cisco860_Guest2,-81,0,0,0;b0:4e:26:8c:66:8d,22aMaryAnn,-77,0,0,0;28:c7:ce:a2:40:0a,Fork and Grind,-80,0,0,0;d8:c7:c8:4c:fa:f0,TAFENSW,-87,0,0,0;12:13:31:e7:35:85,TelstraE7357D,-81,0,0,0;d8:c7:c8:4c:fa:f1,TAFE-Events,-87,0,0,0;10:13:31:e7:35:7d,TelstraE7357D,-80,0,0,0;e8:94:f6:fa:07:04,Hubris,-87,0,0,0;c8:b5:ad:31:16:f0,TAFENSW,-89,0,0,0;a8:c8:3a:2b:8f:44,TGP_wifi,-85,0,0,0;12:13:31:e7:35:70,Fon WiFi,-80,0,0,0;12:13:31:e7:35:7f,Telstra Air,-79,0,0,0;d8:c7:c8:4c:f4:11,TAFE-Events,-88,0,0,0;c8:b5:ad:31:16:f1,TAFE-Events,-90,0,0,0;18:a6:f7:e8:e7:9f,2400 baud modem f,-74,0,0,0;64:f6:9d:b3:f4:ef,iiNet Free WiFi,-88,0,0,0;a8:c8:3a:2b:8f:40,TGP_wifi,-74,0,0,0;fa:8f:ca:72:cc:f4,,-84,0,0,0;44:1e:98:15:8b:28,INSEARCH Secure,-70,0,0,0;7c:8b:ca:fb:ce:9d,WIFI-MHJL,-77,0,0,0;d8:c7:c8:4c:f7:30,TAFENSW,-82,0,0,0;d8:c7:c8:4c:fa:e0,TAFENSW,-78,0,0,0;b8:ee:0e:7f:b8:88,BelongM4DMRYQD,-80,0,0,0;e0:b9:e5:ad:77:05,TelstraAD7705,-80,0,0,0;d0:65:ca:54:fb:90,WiFi-7DUR,-81,0,0,0;d0:65:ca:54:3a:fc,WiFi-B2VY,-81,0,0,0;44:1e:98:14:ec:ac,INSEARCH Secure,-86,0,0,0;88:e3:ab:55:aa:32,TPG-7BCP,-82,0,0,0;c0:4a:00:d2:50:be,TP-LINK_D250BE,-82,0,0,0;a4:ca:a0:83:f8:b0,WiFi-SMK6,-83,0,0,0;18:64:72:2f:f3:b0,eduroam,-88,0,0,0;18:64:72:2f:f3:b3,UEL Internal 2018,-88,0,0,0;18:64:72:2f:f3:b1,UTS-WPA,-88,0,0,0;c8:b5:ad:31:7f:70,TAFENSW,-88,0,0,0;d8:c7:c8:4c:f4:c0,TAFENSW,-84,0,0,0;64:eb:8c:c1:13:53,EB308AD5-PE8EkCC8hL09Ouz,-84,0,0,0;10:13:31:e6:96:ad,TelstraE696AD,-84,0,0,0;44:1e:98:15:8b:2c,INSEARCH Secure,-89,0,0,0;e8:94:f6:fa:07:02,Hubris,-86,0,0,0;84:d4:7e:f9:c2:b3,ISF-Guest,-94,0,0,0;84:18:3a:65:96:5c,,-94,0,0,0;00:02:6f:12:34:56,,-64,0,0,0;d8:c7:c8:4c:f7:31,TAFE-Events,-82,0,0,0;d8:c7:c8:4c:fa:e1,TAFE-Events,-78,0,0,0;e2:b9:e5:ad:77:08,Fon WiFi,-80,0,0,0;e2:b9:e5:ad:77:07,Telstra Air,-81,0,0,0;c8:b5:ad:31:7f:61,TAFE-Events,-82,0,0,0;c8:b5:ad:31:7f:71,TAFE-Events,-88,0,0,0;d8:c7:c8:4c:f4:c1,TAFE-Events,-85,0,0,0;84:18:3a:25:96:5c,Meriton Guest WiFi,-92,0,0,0;

Scan2;d8:c7:c8:4c:de:b0,TAFENSW,-79,0,0,0;d8:c7:c8:4c:de:b1,TAFE-Events,-79,0,0,0;00:02:6f:12:34:50,Telstra Air,-69,0,0,0;b0:4e:26:8c:66:8f,22aMaryAnn 5G,-87,0,0,0;00:11:74:88:03:d0,CAPA Staff,-78,0,0,0;00:11:74:88:03:e0,CAPA Student,-73,0,0,0;28:c7:ce:a2:40:0d,Cisco860_Guest3,-82,0,0,0;28:c7:ce:a2:40:0b,Cisco860_Guest1,-82,0,0,0;28:c7:ce:a2:40:0c,Cisco860_Guest2,-82,0,0,0;28:c7:ce:a2:40:0a,Fork and Grind,-81,0,0,0;d8:c7:c8:4c:fa:f0,TAFENSW,-88,0,0,0;12:13:31:e7:35:85,TelstraE7357D,-87,0,0,0;10:13:31:e7:35:7d,TelstraE7357D,-79,0,0,0;e8:94:f6:fa:07:04,Hubris,-88,0,0,0;c8:b5:ad:31:16:f0,TAFENSW,-85,0,0,0;a8:c8:3a:2b:8f:44,TGP_wifi,-86,0,0,0;12:13:31:e7:35:70,Fon WiFi,-79,0,0,0;12:13:31:e7:35:7f,Telstra Air,-80,0,0,0;c8:b5:ad:31:16:f1,TAFE-Events,-85,0,0,0;18:a6:f7:e8:e7:9f,2400 baud modem f,-73,0,0,0;64:f6:9d:b3:f4:ef,iiNet Free WiFi,-89,0,0,0;a8:c8:3a:2b:8f:40,TGP_wifi,-77,0,0,0;fa:8f:ca:72:cc:f4,,-82,0,0,0;d8:c7:c8:4c:f7:30,TAFENSW,-82,0,0,0;d0:65:ca:54:3a:fc,WiFi-B2VY,-80,0,0,0;44:1e:98:14:ec:ac,INSEARCH Secure,-84,0,0,0;44:1e:98:15:8b:2c,INSEARCH Secure,-88,0,0,0;e8:94:f6:fa:07:02,Hubris,-83,0,0,0;00:02:6f:12:34:56,,-63,0,0,0;d8:c7:c8:4c:f7:31,TAFE-Events,-82,0,0,0;d8:c7:c8:4c:de:a0,TAFENSW,-75,0,0,0;d8:c7:c8:4c:f7:20,TAFENSW,-76,0,0,0;c0:25:e9:4b:b2:60,TP-LINK_B260,-81,0,0,0;d8:c7:c8:4c:de:a1,TAFE-Events,-77,0,0,0;d8:c7:c8:4c:f7:21,TAFE-Events,-77,0,0,0;24:f2:7f:bc:9a:91,TAFE-Events,-90,0,0,0;

Scan3;d8:c7:c8:4c:de:b0,TAFENSW,-79,0,0,0;d8:c7:c8:4c:de:b1,TAFE-Events,-79,0,0,0;00:02:6f:12:34:50,Telstra Air,-69,0,0,0;b0:4e:26:8c:66:8f,22aMaryAnn 5G,-87,0,0,0;00:11:74:88:03:d0,CAPA Staff,-78,0,0,0;00:11:74:88:03:e0,CAPA Student,-73,0,0,0;28:c7:ce:a2:40:0d,Cisco860_Guest3,-82,0,0,0;28:c7:ce:a2:40:0b,Cisco860_Guest1,-82,0,0,0;28:c7:ce:a2:40:0c,Cisco860_Guest2,-82,0,0,0;28:c7:ce:a2:40:0a,Fork and Grind,-81,0,0,0;d8:c7:c8:4c:fa:f0,TAFENSW,-88,0,0,0;12:13:31:e7:35:85,TelstraE7357D,-87,0,0,0;10:13:31:e7:35:7d,TelstraE7357D,-79,0,0,0;e8:94:f6:fa:07:04,Hubris,-88,0,0,0;c8:b5:ad:31:16:f0,TAFENSW,-85,0,0,0;a8:c8:3a:2b:8f:44,TGP_wifi,-86,0,0,0;12:13:31:e7:35:70,Fon WiFi,-79,0,0,0;12:13:31:e7:35:7f,Telstra Air,-80,0,0,0;c8:b5:ad:31:16:f1,TAFE-Events,-85,0,0,0;18:a6:f7:e8:e7:9f,2400 baud modem f,-73,0,0,0;64:f6:9d:b3:f4:ef,iiNet Free WiFi,-89,0,0,0;a8:c8:3a:2b:8f:40,TGP_wifi,-77,0,0,0;fa:8f:ca:72:cc:f4,,-82,0,0,0;d8:c7:c8:4c:f7:30,TAFENSW,-82,0,0,0;d0:65:ca:54:3a:fc,WiFi-B2VY,-80,0,0,0;44:1e:98:14:ec:ac,INSEARCH Secure,-84,0,0,0;44:1e:98:15:8b:2c,INSEARCH Secure,-88,0,0,0;e8:94:f6:fa:07:02,Hubris,-83,0,0,0;00:02:6f:12:34:56,,-63,0,0,0;d8:c7:c8:4c:f7:31,TAFE-Events,-82,0,0,0;d8:c7:c8:4c:de:a0,TAFENSW,-75,0,0,0;d8:c7:c8:4c:f7:20,TAFENSW,-76,0,0,0;c0:25:e9:4b:b2:60,TP-LINK_B260,-81,0,0,0;d8:c7:c8:4c:de:a1,TAFE-Events,-77,0,0,0;d8:c7:c8:4c:f7:21,TAFE-Events,-77,0,0,0;24:f2:7f:bc:9a:91,TAFE-Events,-90,0,0,0;

Scan4;d8:c7:c8:4c:de:b0,TAFENSW,-79,0,0,0;d8:c7:c8:4c:de:b1,TAFE-Events,-79,0,0,0;00:02:6f:12:34:50,Telstra Air,-69,0,0,0;b0:4e:26:8c:66:8f,22aMaryAnn 5G,-87,0,0,0;00:11:74:88:03:d0,CAPA Staff,-78,0,0,0;00:11:74:88:03:e0,CAPA Student,-73,0,0,0;28:c7:ce:a2:40:0d,Cisco860_Guest3,-82,0,0,0;28:c7:ce:a2:40:0b,Cisco860_Guest1,-82,0,0,0;28:c7:ce:a2:40:0c,Cisco860_Guest2,-82,0,0,0;28:c7:ce:a2:40:0a,Fork and Grind,-81,0,0,0;d8:c7:c8:4c:fa:f0,TAFENSW,-88,0,0,0;12:13:31:e7:35:85,TelstraE7357D,-87,0,0,0;10:13:31:e7:35:7d,TelstraE7357D,-79,0,0,0;e8:94:f6:fa:07:04,Hubris,-88,0,0,0;c8:b5:ad:31:16:f0,TAFENSW,-85,0,0,0;a8:c8:3a:2b:8f:44,TGP_wifi,-86,0,0,0;12:13:31:e7:35:70,Fon WiFi,-79,0,0,0;12:13:31:e7:35:7f,Telstra Air,-80,0,0,0;c8:b5:ad:31:16:f1,TAFE-Events,-85,0,0,0;18:a6:f7:e8:e7:9f,2400 baud modem f,-73,0,0,0;64:f6:9d:b3:f4:ef,iiNet Free WiFi,-89,0,0,0;a8:c8:3a:2b:8f:40,TGP_wifi,-77,0,0,0;fa:8f:ca:72:cc:f4,,-82,0,0,0;d8:c7:c8:4c:f7:30,TAFENSW,-82,0,0,0;d0:65:ca:54:3a:fc,WiFi-B2VY,-80,0,0,0;44:1e:98:14:ec:ac,INSEARCH Secure,-84,0,0,0;44:1e:98:15:8b:2c,INSEARCH Secure,-88,0,0,0;e8:94:f6:fa:07:02,Hubris,-83,0,0,0;00:02:6f:12:34:56,,-63,0,0,0;d8:c7:c8:4c:f7:31,TAFE-Events,-82,0,0,0;d8:c7:c8:4c:de:a0,TAFENSW,-75,0,0,0;d8:c7:c8:4c:f7:20,TAFENSW,-76,0,0,0;c0:25:e9:4b:b2:60,TP-LINK_B260,-81,0,0,0;d8:c7:c8:4c:de:a1,TAFE-Events,-77,0,0,0;d8:c7:c8:4c:f7:21,TAFE-Events,-77,0,0,0;24:f2:7f:bc:9a:91,TAFE-Events,-90,0,0,0;

Scan5;d8:c7:c8:4c:de:b0,TAFENSW,-79,0,0,0;d8:c7:c8:4c:de:b1,TAFE-Events,-79,0,0,0;00:02:6f:12:34:50,Telstra Air,-69,0,0,0;b0:4e:26:8c:66:8f,22aMaryAnn 5G,-87,0,0,0;00:11:74:88:03:d0,CAPA Staff,-78,0,0,0;00:11:74:88:03:e0,CAPA Student,-73,0,0,0;28:c7:ce:a2:40:0d,Cisco860_Guest3,-82,0,0,0;28:c7:ce:a2:40:0b,Cisco860_Guest1,-82,0,0,0;28:c7:ce:a2:40:0c,Cisco860_Guest2,-82,0,0,0;28:c7:ce:a2:40:0a,Fork and Grind,-81,0,0,0;d8:c7:c8:4c:fa:f0,TAFENSW,-88,0,0,0;12:13:31:e7:35:85,TelstraE7357D,-87,0,0,0;10:13:31:e7:35:7d,TelstraE7357D,-79,0,0,0;e8:94:f6:fa:07:04,Hubris,-88,0,0,0;c8:b5:ad:31:16:f0,TAFENSW,-85,0,0,0;a8:c8:3a:2b:8f:44,TGP_wifi,-86,0,0,0;12:13:31:e7:35:70,Fon WiFi,-79,0,0,0;12:13:31:e7:35:7f,Telstra Air,-80,0,0,0;c8:b5:ad:31:16:f1,TAFE-Events,-85,0,0,0;18:a6:f7:e8:e7:9f,2400 baud modem f,-73,0,0,0;64:f6:9d:b3:f4:ef,iiNet Free WiFi,-89,0,0,0;a8:c8:3a:2b:8f:40,TGP_wifi,-77,0,0,0;fa:8f:ca:72:cc:f4,,-82,0,0,0;d8:c7:c8:4c:f7:30,TAFENSW,-82,0,0,0;d0:65:ca:54:3a:fc,WiFi-B2VY,-80,0,0,0;44:1e:98:14:ec:ac,INSEARCH Secure,-84,0,0,0;44:1e:98:15:8b:2c,INSEARCH Secure,-88,0,0,0;e8:94:f6:fa:07:02,Hubris,-83,0,0,0;00:02:6f:12:34:56,,-63,0,0,0;d8:c7:c8:4c:f7:31,TAFE-Events,-82,0,0,0;d8:c7:c8:4c:de:a0,TAFENSW,-75,0,0,0;d8:c7:c8:4c:f7:20,TAFENSW,-76,0,0,0;c0:25:e9:4b:b2:60,TP-LINK_B260,-81,0,0,0;d8:c7:c8:4c:de:a1,TAFE-Events,-77,0,0,0;d8:c7:c8:4c:f7:21,TAFE-Events,-77,0,0,0;24:f2:7f:bc:9a:91,TAFE-Events,-90,0,0,0;

Scan6;d8:c7:c8:4c:de:b0,TAFENSW,-79,0,0,0;d8:c7:c8:4c:de:b1,TAFE-Events,-79,0,0,0;00:02:6f:12:34:50,Telstra Air,-69,0,0,0;b0:4e:26:8c:66:8f,22aMaryAnn 5G,-87,0,0,0;00:11:74:88:03:d0,CAPA Staff,-78,0,0,0;00:11:74:88:03:e0,CAPA Student,-73,0,0,0;28:c7:ce:a2:40:0d,Cisco860_Guest3,-82,0,0,0;28:c7:ce:a2:40:0b,Cisco860_Guest1,-82,0,0,0;28:c7:ce:a2:40:0c,Cisco860_Guest2,-82,0,0,0;28:c7:ce:a2:40:0a,Fork and Grind,-81,0,0,0;d8:c7:c8:4c:fa:f0,TAFENSW,-88,0,0,0;12:13:31:e7:35:85,TelstraE7357D,-87,0,0,0;10:13:31:e7:35:7d,TelstraE7357D,-79,0,0,0;e8:94:f6:fa:07:04,Hubris,-88,0,0,0;c8:b5:ad:31:16:f0,TAFENSW,-85,0,0,0;a8:c8:3a:2b:8f:44,TGP_wifi,-86,0,0,0;12:13:31:e7:35:70,Fon WiFi,-79,0,0,0;12:13:31:e7:35:7f,Telstra Air,-80,0,0,0;c8:b5:ad:31:16:f1,TAFE-Events,-85,0,0,0;18:a6:f7:e8:e7:9f,2400 baud modem f,-73,0,0,0;64:f6:9d:b3:f4:ef,iiNet Free WiFi,-89,0,0,0;a8:c8:3a:2b:8f:40,TGP_wifi,-77,0,0,0;fa:8f:ca:72:cc:f4,,-82,0,0,0;d8:c7:c8:4c:f7:30,TAFENSW,-82,0,0,0;d0:65:ca:54:3a:fc,WiFi-B2VY,-80,0,0,0;44:1e:98:14:ec:ac,INSEARCH Secure,-84,0,0,0;44:1e:98:15:8b:2c,INSEARCH Secure,-88,0,0,0;e8:94:f6:fa:07:02,Hubris,-83,0,0,0;00:02:6f:12:34:56,,-63,0,0,0;d8:c7:c8:4c:f7:31,TAFE-Events,-82,0,0,0;d8:c7:c8:4c:de:a0,TAFENSW,-75,0,0,0;d8:c7:c8:4c:f7:20,TAFENSW,-76,0,0,0;c0:25:e9:4b:b2:60,TP-LINK_B260,-81,0,0,0;d8:c7:c8:4c:de:a1,TAFE-Events,-77,0,0,0;d8:c7:c8:4c:f7:21,TAFE-Events,-77,0,0,0;24:f2:7f:bc:9a:91,TAFE-Events,-90,0,0,0;

Scan7;d8:c7:c8:4c:de:b0,TAFENSW,-79,0,0,0;d8:c7:c8:4c:de:b1,TAFE-Events,-79,0,0,0;00:02:6f:12:34:50,Telstra Air,-69,0,0,0;b0:4e:26:8c:66:8f,22aMaryAnn 5G,-87,0,0,0;00:11:74:88:03:d0,CAPA Staff,-78,0,0,0;00:11:74:88:03:e0,CAPA Student,-73,0,0,0;28:c7:ce:a2:40:0d,Cisco860_Guest3,-82,0,0,0;28:c7:ce:a2:40:0b,Cisco860_Guest1,-82,0,0,0;28:c7:ce:a2:40:0c,Cisco860_Guest2,-82,0,0,0;28:c7:ce:a2:40:0a,Fork and Grind,-81,0,0,0;d8:c7:c8:4c:fa:f0,TAFENSW,-88,0,0,0;12:13:31:e7:35:85,TelstraE7357D,-87,0,0,0;10:13:31:e7:35:7d,TelstraE7357D,-79,0,0,0;e8:94:f6:fa:07:04,Hubris,-88,0,0,0;c8:b5:ad:31:16:f0,TAFENSW,-85,0,0,0;a8:c8:3a:2b:8f:44,TGP_wifi,-86,0,0,0;12:13:31:e7:35:70,Fon WiFi,-79,0,0,0;12:13:31:e7:35:7f,Telstra Air,-80,0,0,0;c8:b5:ad:31:16:f1,TAFE-Events,-85,0,0,0;18:a6:f7:e8:e7:9f,2400 baud modem f,-73,0,0,0;64:f6:9d:b3:f4:ef,iiNet Free WiFi,-89,0,0,0;a8:c8:3a:2b:8f:40,TGP_wifi,-77,0,0,0;fa:8f:ca:72:cc:f4,,-82,0,0,0;d8:c7:c8:4c:f7:30,TAFENSW,-82,0,0,0;d0:65:ca:54:3a:fc,WiFi-B2VY,-80,0,0,0;44:1e:98:14:ec:ac,INSEARCH Secure,-84,0,0,0;44:1e:98:15:8b:2c,INSEARCH Secure,-88,0,0,0;e8:94:f6:fa:07:02,Hubris,-83,0,0,0;00:02:6f:12:34:56,,-63,0,0,0;d8:c7:c8:4c:f7:31,TAFE-Events,-82,0,0,0;d8:c7:c8:4c:de:a0,TAFENSW,-75,0,0,0;d8:c7:c8:4c:f7:20,TAFENSW,-76,0,0,0;c0:25:e9:4b:b2:60,TP-LINK_B260,-81,0,0,0;d8:c7:c8:4c:de:a1,TAFE-Events,-77,0,0,0;d8:c7:c8:4c:f7:21,TAFE-Events,-77,0,0,0;24:f2:7f:bc:9a:91,TAFE-Events,-90,0,0,0;

Scan8;d8:c7:c8:4c:de:b0,TAFENSW,-79,0,0,0;d8:c7:c8:4c:de:b1,TAFE-Events,-79,0,0,0;00:02:6f:12:34:50,Telstra Air,-69,0,0,0;b0:4e:26:8c:66:8f,22aMaryAnn 5G,-87,0,0,0;00:11:74:88:03:d0,CAPA Staff,-78,0,0,0;00:11:74:88:03:e0,CAPA Student,-73,0,0,0;28:c7:ce:a2:40:0d,Cisco860_Guest3,-82,0,0,0;28:c7:ce:a2:40:0b,Cisco860_Guest1,-82,0,0,0;28:c7:ce:a2:40:0c,Cisco860_Guest2,-82,0,0,0;28:c7:ce:a2:40:0a,Fork and Grind,-81,0,0,0;d8:c7:c8:4c:fa:f0,TAFENSW,-88,0,0,0;12:13:31:e7:35:85,TelstraE7357D,-87,0,0,0;10:13:31:e7:35:7d,TelstraE7357D,-79,0,0,0;e8:94:f6:fa:07:04,Hubris,-88,0,0,0;c8:b5:ad:31:16:f0,TAFENSW,-85,0,0,0;a8:c8:3a:2b:8f:44,TGP_wifi,-86,0,0,0;12:13:31:e7:35:70,Fon WiFi,-79,0,0,0;12:13:31:e7:35:7f,Telstra Air,-80,0,0,0;c8:b5:ad:31:16:f1,TAFE-Events,-85,0,0,0;18:a6:f7:e8:e7:9f,2400 baud modem f,-73,0,0,0;64:f6:9d:b3:f4:ef,iiNet Free WiFi,-89,0,0,0;a8:c8:3a:2b:8f:40,TGP_wifi,-77,0,0,0;fa:8f:ca:72:cc:f4,,-82,0,0,0;d8:c7:c8:4c:f7:30,TAFENSW,-82,0,0,0;d0:65:ca:54:3a:fc,WiFi-B2VY,-80,0,0,0;44:1e:98:14:ec:ac,INSEARCH Secure,-84,0,0,0;44:1e:98:15:8b:2c,INSEARCH Secure,-88,0,0,0;e8:94:f6:fa:07:02,Hubris,-83,0,0,0;00:02:6f:12:34:56,,-63,0,0,0;d8:c7:c8:4c:f7:31,TAFE-Events,-82,0,0,0;d8:c7:c8:4c:de:a0,TAFENSW,-75,0,0,0;d8:c7:c8:4c:f7:20,TAFENSW,-76,0,0,0;c0:25:e9:4b:b2:60,TP-LINK_B260,-81,0,0,0;d8:c7:c8:4c:de:a1,TAFE-Events,-77,0,0,0;d8:c7:c8:4c:f7:21,TAFE-Events,-77,0,0,0;24:f2:7f:bc:9a:91,TAFE-Events,-90,0,0,0;

Scan9;d8:c7:c8:4c:de:b0,TAFENSW,-79,0,0,0;d8:c7:c8:4c:de:b1,TAFE-Events,-79,0,0,0;00:02:6f:12:34:50,Telstra Air,-69,0,0,0;b0:4e:26:8c:66:8f,22aMaryAnn 5G,-87,0,0,0;00:11:74:88:03:d0,CAPA Staff,-78,0,0,0;00:11:74:88:03:e0,CAPA Student,-73,0,0,0;28:c7:ce:a2:40:0d,Cisco860_Guest3,-82,0,0,0;28:c7:ce:a2:40:0b,Cisco860_Guest1,-82,0,0,0;28:c7:ce:a2:40:0c,Cisco860_Guest2,-82,0,0,0;28:c7:ce:a2:40:0a,Fork and Grind,-81,0,0,0;d8:c7:c8:4c:fa:f0,TAFENSW,-88,0,0,0;12:13:31:e7:35:85,TelstraE7357D,-87,0,0,0;10:13:31:e7:35:7d,TelstraE7357D,-79,0,0,0;e8:94:f6:fa:07:04,Hubris,-88,0,0,0;c8:b5:ad:31:16:f0,TAFENSW,-85,0,0,0;a8:c8:3a:2b:8f:44,TGP_wifi,-86,0,0,0;12:13:31:e7:35:70,Fon WiFi,-79,0,0,0;12:13:31:e7:35:7f,Telstra Air,-80,0,0,0;c8:b5:ad:31:16:f1,TAFE-Events,-85,0,0,0;18:a6:f7:e8:e7:9f,2400 baud modem f,-73,0,0,0;64:f6:9d:b3:f4:ef,iiNet Free WiFi,-89,0,0,0;a8:c8:3a:2b:8f:40,TGP_wifi,-77,0,0,0;fa:8f:ca:72:cc:f4,,-82,0,0,0;d8:c7:c8:4c:f7:30,TAFENSW,-82,0,0,0;d0:65:ca:54:3a:fc,WiFi-B2VY,-80,0,0,0;44:1e:98:14:ec:ac,INSEARCH Secure,-84,0,0,0;44:1e:98:15:8b:2c,INSEARCH Secure,-88,0,0,0;e8:94:f6:fa:07:02,Hubris,-83,0,0,0;00:02:6f:12:34:56,,-63,0,0,0;d8:c7:c8:4c:f7:31,TAFE-Events,-82,0,0,0;d8:c7:c8:4c:de:a0,TAFENSW,-75,0,0,0;d8:c7:c8:4c:f7:20,TAFENSW,-76,0,0,0;c0:25:e9:4b:b2:60,TP-LINK_B260,-81,0,0,0;d8:c7:c8:4c:de:a1,TAFE-Events,-77,0,0,0;d8:c7:c8:4c:f7:21,TAFE-Events,-77,0,0,0;24:f2:7f:bc:9a:91,TAFE-Events,-90,0,0,0;

Scan10;d8:c7:c8:4c:de:b0,TAFENSW,-79,0,0,0;d8:c7:c8:4c:de:b1,TAFE-Events,-79,0,0,0;00:02:6f:12:34:50,Telstra Air,-69,0,0,0;b0:4e:26:8c:66:8f,22aMaryAnn 5G,-87,0,0,0;00:11:74:88:03:d0,CAPA Staff,-78,0,0,0;00:11:74:88:03:e0,CAPA Student,-73,0,0,0;28:c7:ce:a2:40:0d,Cisco860_Guest3,-82,0,0,0;28:c7:ce:a2:40:0b,Cisco860_Guest1,-82,0,0,0;28:c7:ce:a2:40:0c,Cisco860_Guest2,-82,0,0,0;28:c7:ce:a2:40:0a,Fork and Grind,-81,0,0,0;d8:c7:c8:4c:fa:f0,TAFENSW,-88,0,0,0;12:13:31:e7:35:85,TelstraE7357D,-87,0,0,0;10:13:31:e7:35:7d,TelstraE7357D,-79,0,0,0;e8:94:f6:fa:07:04,Hubris,-88,0,0,0;c8:b5:ad:31:16:f0,TAFENSW,-85,0,0,0;a8:c8:3a:2b:8f:44,TGP_wifi,-86,0,0,0;12:13:31:e7:35:70,Fon WiFi,-79,0,0,0;12:13:31:e7:35:7f,Telstra Air,-80,0,0,0;c8:b5:ad:31:16:f1,TAFE-Events,-85,0,0,0;18:a6:f7:e8:e7:9f,2400 baud modem f,-73,0,0,0;64:f6:9d:b3:f4:ef,iiNet Free WiFi,-89,0,0,0;a8:c8:3a:2b:8f:40,TGP_wifi,-77,0,0,0;fa:8f:ca:72:cc:f4,,-82,0,0,0;d8:c7:c8:4c:f7:30,TAFENSW,-82,0,0,0;d0:65:ca:54:3a:fc,WiFi-B2VY,-80,0,0,0;44:1e:98:14:ec:ac,INSEARCH Secure,-84,0,0,0;44:1e:98:15:8b:2c,INSEARCH Secure,-88,0,0,0;e8:94:f6:fa:07:02,Hubris,-83,0,0,0;00:02:6f:12:34:56,,-63,0,0,0;d8:c7:c8:4c:f7:31,TAFE-Events,-82,0,0,0;d8:c7:c8:4c:de:a0,TAFENSW,-75,0,0,0;d8:c7:c8:4c:f7:20,TAFENSW,-76,0,0,0;c0:25:e9:4b:b2:60,TP-LINK_B260,-81,0,0,0;d8:c7:c8:4c:de:a1,TAFE-Events,-77,0,0,0;d8:c7:c8:4c:f7:21,TAFE-Events,-77,0,0,0;24:f2:7f:bc:9a:91,TAFE-Events,-90,0,0,0;

Scan11;d8:c7:c8:4c:de:b0,TAFENSW,-79,0,0,0;d8:c7:c8:4c:de:b1,TAFE-Events,-79,0,0,0;00:02:6f:12:34:50,Telstra Air,-69,0,0,0;b0:4e:26:8c:66:8f,22aMaryAnn 5G,-87,0,0,0;00:11:74:88:03:d0,CAPA Staff,-78,0,0,0;00:11:74:88:03:e0,CAPA Student,-73,0,0,0;28:c7:ce:a2:40:0d,Cisco860_Guest3,-82,0,0,0;28:c7:ce:a2:40:0b,Cisco860_Guest1,-82,0,0,0;28:c7:ce:a2:40:0c,Cisco860_Guest2,-82,0,0,0;28:c7:ce:a2:40:0a,Fork and Grind,-81,0,0,0;d8:c7:c8:4c:fa:f0,TAFENSW,-88,0,0,0;12:13:31:e7:35:85,TelstraE7357D,-87,0,0,0;10:13:31:e7:35:7d,TelstraE7357D,-79,0,0,0;e8:94:f6:fa:07:04,Hubris,-88,0,0,0;c8:b5:ad:31:16:f0,TAFENSW,-85,0,0,0;a8:c8:3a:2b:8f:44,TGP_wifi,-86,0,0,0;12:13:31:e7:35:70,Fon WiFi,-79,0,0,0;12:13:31:e7:35:7f,Telstra Air,-80,0,0,0;c8:b5:ad:31:16:f1,TAFE-Events,-85,0,0,0;18:a6:f7:e8:e7:9f,2400 baud modem f,-73,0,0,0;64:f6:9d:b3:f4:ef,iiNet Free WiFi,-89,0,0,0;a8:c8:3a:2b:8f:40,TGP_wifi,-77,0,0,0;fa:8f:ca:72:cc:f4,,-82,0,0,0;d8:c7:c8:4c:f7:30,TAFENSW,-82,0,0,0;d0:65:ca:54:3a:fc,WiFi-B2VY,-80,0,0,0;44:1e:98:14:ec:ac,INSEARCH Secure,-84,0,0,0;44:1e:98:15:8b:2c,INSEARCH Secure,-88,0,0,0;e8:94:f6:fa:07:02,Hubris,-83,0,0,0;00:02:6f:12:34:56,,-63,0,0,0;d8:c7:c8:4c:f7:31,TAFE-Events,-82,0,0,0;d8:c7:c8:4c:de:a0,TAFENSW,-75,0,0,0;d8:c7:c8:4c:f7:20,TAFENSW,-76,0,0,0;c0:25:e9:4b:b2:60,TP-LINK_B260,-81,0,0,0;d8:c7:c8:4c:de:a1,TAFE-Events,-77,0,0,0;d8:c7:c8:4c:f7:21,TAFE-Events,-77,0,0,0;24:f2:7f:bc:9a:91,TAFE-Events,-90,0,0,0;

Scan12;d8:c7:c8:4c:de:b0,TAFENSW,-76,0,0,0;d8:c7:c8:4c:de:b1,TAFE-Events,-76,0,0,0;00:02:6f:12:34:50,Telstra Air,-66,0,0,0;00:11:74:88:03:d0,CAPA Staff,-76,0,0,0;00:11:74:88:03:e0,CAPA Student,-73,0,0,0;28:c7:ce:a2:40:0b,Cisco860_Guest1,-82,0,0,0;28:c7:ce:a2:40:0a,Fork and Grind,-77,0,0,0;12:13:31:e7:35:85,TelstraE7357D,-87,0,0,0;10:13:31:e7:35:7d,TelstraE7357D,-81,0,0,0;e8:94:f6:fa:07:04,Hubris,-88,0,0,0;c8:b5:ad:31:16:f0,TAFENSW,-85,0,0,0;a8:c8:3a:2b:8f:44,TGP_wifi,-85,0,0,0;12:13:31:e7:35:70,Fon WiFi,-77,0,0,0;12:13:31:e7:35:7f,Telstra Air,-80,0,0,0;c8:b5:ad:31:16:f1,TAFE-Events,-84,0,0,0;18:a6:f7:e8:e7:9f,2400 baud modem f,-78,0,0,0;a8:c8:3a:2b:8f:40,TGP_wifi,-76,0,0,0;d8:c7:c8:4c:f7:30,TAFENSW,-80,0,0,0;44:1e:98:14:ec:ac,INSEARCH Secure,-87,0,0,0;44:1e:98:15:8b:2c,INSEARCH Secure,-83,0,0,0;00:02:6f:12:34:56,,-62,0,0,0;d8:c7:c8:4c:f7:31,TAFE-Events,-80,0,0,0;d8:c7:c8:4c:de:a0,TAFENSW,-77,0,0,0;d8:c7:c8:4c:f7:20,TAFENSW,-72,0,0,0;d8:c7:c8:4c:de:a1,TAFE-Events,-77,0,0,0;d8:c7:c8:4c:f7:21,TAFE-Events,-71,0,0,0;44:1e:98:15:8b:28,INSEARCH Secure,-68,0,0,0;b0:4e:26:8c:66:8d,22aMaryAnn,-79,0,0,0;e0:b9:e5:ad:77:05,TelstraAD7705,-80,0,0,0;44:c3:46:7f:3b:d8,Doodeeee,-80,0,0,0;00:11:74:88:05:80,CAPA Staff,-85,0,0,0;c8:94:bb:b5:e1:b8,WiFi-E2G6,-81,0,0,0;00:11:74:88:05:90,CAPA Student,-83,0,0,0;44:1e:98:14:e8:1c,INSEARCH Secure,-89,0,0,0;c8:b5:ad:31:7f:70,TAFENSW,-91,0,0,0;c8:b5:ad:31:7e:f0,TAFENSW,-91,0,0,0;d8:c7:c8:4c:f6:d0,TAFENSW,-91,0,0,0;24:f2:7f:bc:9a:90,TAFENSW,-92,0,0,0;d8:c7:c8:4c:f4:10,TAFENSW,-92,0,0,0;e2:b9:e5:ad:77:08,Fon WiFi,-80,0,0,0;e2:b9:e5:ad:77:07,Telstra Air,-80,0,0,0;d8:c7:c8:4c:f6:d1,TAFE-Events,-90,0,0,0;c8:b5:ad:31:7e:f1,TAFE-Events,-91,0,0,0;c8:b5:ad:31:7f:71,TAFE-Events,-91,0,0,0;

Scan13;d8:c7:c8:4c:de:b0,TAFENSW,-76,0,0,0;d8:c7:c8:4c:de:b1,TAFE-Events,-76,0,0,0;00:02:6f:12:34:50,Telstra Air,-66,0,0,0;00:11:74:88:03:d0,CAPA Staff,-76,0,0,0;00:11:74:88:03:e0,CAPA Student,-73,0,0,0;28:c7:ce:a2:40:0b,Cisco860_Guest1,-82,0,0,0;28:c7:ce:a2:40:0a,Fork and Grind,-77,0,0,0;12:13:31:e7:35:85,TelstraE7357D,-87,0,0,0;10:13:31:e7:35:7d,TelstraE7357D,-81,0,0,0;e8:94:f6:fa:07:04,Hubris,-88,0,0,0;c8:b5:ad:31:16:f0,TAFENSW,-85,0,0,0;a8:c8:3a:2b:8f:44,TGP_wifi,-85,0,0,0;12:13:31:e7:35:70,Fon WiFi,-77,0,0,0;12:13:31:e7:35:7f,Telstra Air,-80,0,0,0;c8:b5:ad:31:16:f1,TAFE-Events,-84,0,0,0;18:a6:f7:e8:e7:9f,2400 baud modem f,-78,0,0,0;a8:c8:3a:2b:8f:40,TGP_wifi,-76,0,0,0;d8:c7:c8:4c:f7:30,TAFENSW,-80,0,0,0;44:1e:98:14:ec:ac,INSEARCH Secure,-87,0,0,0;44:1e:98:15:8b:2c,INSEARCH Secure,-83,0,0,0;00:02:6f:12:34:56,,-62,0,0,0;d8:c7:c8:4c:f7:31,TAFE-Events,-80,0,0,0;d8:c7:c8:4c:de:a0,TAFENSW,-77,0,0,0;d8:c7:c8:4c:f7:20,TAFENSW,-72,0,0,0;d8:c7:c8:4c:de:a1,TAFE-Events,-77,0,0,0;d8:c7:c8:4c:f7:21,TAFE-Events,-71,0,0,0;44:1e:98:15:8b:28,INSEARCH Secure,-68,0,0,0;b0:4e:26:8c:66:8d,22aMaryAnn,-79,0,0,0;e0:b9:e5:ad:77:05,TelstraAD7705,-80,0,0,0;44:c3:46:7f:3b:d8,Doodeeee,-80,0,0,0;00:11:74:88:05:80,CAPA Staff,-85,0,0,0;c8:94:bb:b5:e1:b8,WiFi-E2G6,-81,0,0,0;00:11:74:88:05:90,CAPA Student,-83,0,0,0;44:1e:98:14:e8:1c,INSEARCH Secure,-89,0,0,0;c8:b5:ad:31:7f:70,TAFENSW,-91,0,0,0;c8:b5:ad:31:7e:f0,TAFENSW,-91,0,0,0;d8:c7:c8:4c:f6:d0,TAFENSW,-91,0,0,0;24:f2:7f:bc:9a:90,TAFENSW,-92,0,0,0;d8:c7:c8:4c:f4:10,TAFENSW,-92,0,0,0;e2:b9:e5:ad:77:08,Fon WiFi,-80,0,0,0;e2:b9:e5:ad:77:07,Telstra Air,-80,0,0,0;d8:c7:c8:4c:f6:d1,TAFE-Events,-90,0,0,0;c8:b5:ad:31:7e:f1,TAFE-Events,-91,0,0,0;c8:b5:ad:31:7f:71,TAFE-Events,-91,0,0,0;

