Format Version,1.2,Take Name,Take 2020-09-11 06.00.20 PM,Capture Frame Rate,120.000000,Export Frame Rate,120.000000,Capture Start Time,2020-09-11 06.00.20.812 PM,Total Frames,257,Rotation Type,Quaternion,Length Units,Meters,Coordinate Space,Global

,,Rigid Body Marker,Rigid Body Marker,Rigid Body Marker,Rigid Body Marker,Rigid Body Marker,Rigid Body Marker,Rigid Body Marker,Rigid Body Marker,Rigid Body Marker
,,Rigid Body 1_1,Rigid Body 1_1,Rigid Body 1_1,Rigid Body 1_2,Rigid Body 1_2,Rigid Body 1_2,Rigid Body 1_3,Rigid Body 1_3,Rigid Body 1_3
,,"D24F5DDDF40411EAE5BE26CA0568BB8D","D24F5DDDF40411EAE5BE26CA0568BB8D","D24F5DDDF40411EAE5BE26CA0568BB8D","D24F5DDDF40411EAE5BE26CA0568BB8D","D24F5DDDF40411EAE5BE26CA0568BB8D","D24F5DDDF40411EAE5BE26CA0568BB8D","D24F5DDDF40411EAE5BE26CA0568BB8D","D24F5DDDF40411EAE5BE26CA0568BB8D","D24F5DDDF40411EAE5BE26CA0568BB8D"
,,Position,Position,Position,Position,Position,Position,Position,Position,Position
Frame,Time,X,Y,Z,X,Y,Z,X,Y,Z
0,0.000000,0.244869,0.140013,1.024034,-0.329754,0.140319,0.986058,-0.019175,1.609842,0.870749
1,0.008333,0.244877,0.140030,1.024038,-0.329746,0.140331,0.986062,-0.019180,1.609858,0.870762
2,0.016667,0.244863,0.140011,1.024013,-0.329762,0.140329,0.986074,-0.019159,1.609848,0.870770
3,0.025000,0.244857,0.140021,1.024044,-0.329767,0.140337,0.986074,-0.019164,1.609856,0.870767
4,0.033333,0.244844,0.139985,1.024011,-0.329781,0.140305,0.986066,-0.019173,1.609823,0.870762
5,0.041667,0.244830,0.140005,1.024008,-0.329795,0.140338,0.986057,-0.019152,1.609849,0.870760
6,0.050000,0.244854,0.139998,1.024009,-0.329771,0.140319,0.986063,-0.019163,1.609838,0.870780
7,0.058333,0.244849,0.139998,1.023990,-0.329777,0.140319,0.986056,-0.019170,1.609838,0.870769
8,0.066667,0.244860,0.140016,1.024031,-0.329765,0.140332,0.986075,-0.019163,1.609852,0.870781
9,0.075000,0.244833,0.139985,1.024018,-0.329792,0.140323,0.986067,-0.019137,1.609831,0.870770
10,0.083333,0.244869,0.140011,1.024034,-0.329755,0.140318,0.986070,-0.019175,1.609842,0.870759
11,0.091667,0.244827,0.139991,1.024011,-0.329799,0.140317,0.986077,-0.019177,1.609830,0.870755
12,0.100000,0.244843,0.140000,1.024015,-0.329782,0.140315,0.986064,-0.019184,1.609835,0.870761
13,0.108333,0.244876,0.139977,1.023996,-0.329751,0.140286,0.986077,-0.019177,1.609811,0.870775
14,0.116667,0.244844,0.139995,1.024016,-0.329782,0.140321,0.986086,-0.019164,1.609835,0.870768
15,0.125000,0.244838,0.139984,1.024000,-0.329787,0.140301,0.986054,-0.019187,1.609820,0.870756
16,0.133333,0.244835,0.140001,1.024025,-0.329790,0.140312,0.986074,-0.019204,1.609833,0.870757
17,0.141667,0.244879,0.140016,1.024039,-0.329744,0.140319,0.986067,-0.019173,1.609844,0.870763
18,0.150000,0.244857,0.139993,1.024024,-0.329768,0.140300,0.986080,-0.019191,1.609823,0.870753
19,0.158333,0.244850,0.139989,1.024012,-0.329775,0.140310,0.986054,-0.019164,1.609828,0.870766
20,0.166667,0.244868,0.140011,1.024016,-0.329756,0.140315,0.986059,-0.019187,1.609841,0.870765
21,0.175000,0.244852,0.140001,1.024023,-0.329772,0.140311,0.986049,-0.019185,1.609834,0.870763
22,0.183333,0.244867,0.140003,1.024019,-0.329756,0.140314,0.986054,-0.019169,1.609838,0.870775
23,0.191667,0.244865,0.140008,1.024017,-0.329759,0.140327,0.986062,-0.019151,1.609846,0.870773
24,0.200000,0.244856,0.140003,1.024018,-0.329768,0.140320,0.986046,-0.019165,1.609841,0.870778
25,0.208333,0.244860,0.140004,1.024039,-0.329763,0.140305,0.986054,-0.019196,1.609832,0.870758
26,0.216667,0.244874,0.139993,1.024017,-0.329750,0.140306,0.986066,-0.019160,1.609827,0.870759
27,0.225000,0.244877,0.140019,1.024027,-0.329747,0.140329,0.986070,-0.019162,1.609851,0.870761
28,0.233333,0.244884,0.140024,1.024038,-0.329739,0.140337,0.986052,-0.019140,1.609858,0.870764
29,0.241667,0.244882,0.140017,1.024036,-0.329741,0.140317,0.986065,-0.019178,1.609844,0.870762
30,0.250000,0.244877,0.140009,1.024022,-0.329747,0.140310,0.986064,-0.019188,1.609839,0.870779
31,0.258333,0.244889,0.140031,1.024054,-0.329733,0.140324,0.986071,-0.019187,1.609854,0.870767
32,0.266667,0.244881,0.140007,1.024017,-0.329744,0.140314,0.986064,-0.019168,1.609841,0.870784
33,0.275000,0.244895,0.140021,1.024041,-0.329729,0.140316,0.986087,-0.019184,1.609846,0.870781
34,0.283333,0.244878,0.139984,1.024010,-0.329749,0.140298,0.986088,-0.019163,1.609820,0.870785
35,0.291667,0.244881,0.140024,1.024036,-0.329743,0.140337,0.986079,-0.019150,1.609857,0.870774
36,0.300000,0.244915,0.140034,1.024044,-0.329709,0.140323,0.986071,-0.019174,1.609857,0.870780
37,0.308333,0.244874,0.140021,1.024043,-0.329748,0.140327,0.986056,-0.019169,1.609852,0.870776
38,0.316667,0.244882,0.140031,1.024077,-0.329740,0.140331,0.986076,-0.019171,1.609857,0.870773
39,0.325000,0.244878,0.140004,1.024015,-0.329748,0.140321,0.986081,-0.019152,1.609842,0.870791
40,0.333333,0.244877,0.140019,1.024029,-0.329746,0.140328,0.986061,-0.019163,1.609852,0.870774
41,0.341667,0.244884,0.140033,1.024036,-0.329738,0.140333,0.986055,-0.019175,1.609862,0.870772
42,0.350000,0.244871,0.140007,1.024020,-0.329755,0.140329,0.986090,-0.019143,1.609845,0.870778
43,0.358333,0.244867,0.140000,1.024017,-0.329758,0.140313,0.986064,-0.019167,1.609836,0.870780
44,0.366667,0.244867,0.140006,1.024006,-0.329758,0.140325,0.986057,-0.019154,1.609845,0.870779
45,0.375000,0.244869,0.140019,1.024015,-0.329757,0.140340,0.986081,-0.019149,1.609857,0.870776
46,0.383333,0.244886,0.140017,1.024022,-0.329739,0.140329,0.986071,-0.019152,1.609852,0.870782
47,0.391667,0.244864,0.140009,1.024012,-0.329761,0.140327,0.986065,-0.019162,1.609848,0.870781
48,0.400000,0.244856,0.140001,1.024012,-0.329768,0.140315,0.986059,-0.019178,1.609838,0.870784
49,0.408333,0.244854,0.139979,1.024007,-0.329772,0.140305,0.986075,-0.019152,1.609822,0.870790
50,0.416667,0.244867,0.140005,1.024026,-0.329758,0.140320,0.986072,-0.019164,1.609841,0.870782
51,0.425000,0.244880,0.140025,1.024047,-0.329743,0.140326,0.986077,-0.019178,1.609855,0.870793
52,0.433333,0.244866,0.140015,1.024046,-0.329756,0.140325,0.986059,-0.019166,1.609847,0.870769
53,0.441667,0.244854,0.140002,1.024024,-0.329771,0.140326,0.986075,-0.019152,1.609841,0.870777
54,0.450000,0.244862,0.140004,1.024012,-0.329763,0.140326,0.986066,-0.019150,1.609843,0.870767
55,0.458333,0.244861,0.140004,1.024026,-0.329763,0.140316,0.986075,-0.019174,1.609837,0.870767
56,0.466667,0.244855,0.140026,1.024054,-0.329769,0.140336,0.986080,-0.019179,1.609857,0.870764
57,0.475000,0.244859,0.140020,1.024030,-0.329765,0.140333,0.986070,-0.019171,1.609853,0.870757
58,0.483333,0.244850,0.139991,1.024019,-0.329774,0.140304,0.986066,-0.019185,1.609825,0.870768
59,0.491667,0.244880,0.140022,1.024044,-0.329743,0.140322,0.986072,-0.019177,1.609847,0.870745
60,0.500000,0.244877,0.140033,1.024042,-0.329746,0.140328,0.986056,-0.019191,1.609856,0.870741
61,0.508333,0.244870,0.140020,1.024015,-0.329757,0.140329,0.986089,-0.019181,1.609853,0.870776
62,0.516667,0.244884,0.140018,1.024018,-0.329742,0.140328,0.986077,-0.019158,1.609849,0.870758
63,0.525000,0.244847,0.140009,1.024018,-0.329778,0.140324,0.986071,-0.019183,1.609843,0.870754
64,0.533333,0.244856,0.140007,1.024012,-0.329768,0.140317,0.986056,-0.019183,1.609839,0.870743
65,0.541667,0.244856,0.139995,1.024013,-0.329769,0.140303,0.986070,-0.019193,1.609827,0.870766
66,0.550000,0.244851,0.140003,1.024006,-0.329775,0.140319,0.986078,-0.019180,1.609838,0.870754
67,0.558333,0.244855,0.140012,1.024040,-0.329769,0.140321,0.986076,-0.019183,1.609842,0.870758
68,0.566667,0.244876,0.140026,1.024029,-0.329749,0.140321,0.986081,-0.019201,1.609850,0.870755
69,0.575000,0.244871,0.140017,1.024024,-0.329755,0.140320,0.986088,-0.019193,1.609846,0.870775
70,0.583333,0.244861,0.140008,1.024030,-0.329763,0.140321,0.986076,-0.019174,1.609842,0.870777
71,0.591667,0.244850,0.140013,1.024030,-0.329775,0.140325,0.986093,-0.019189,1.609845,0.870769
72,0.600000,0.244864,0.140012,1.024023,-0.329761,0.140321,0.986086,-0.019181,1.609843,0.870763
73,0.608333,0.244848,0.140012,1.024024,-0.329777,0.140332,0.986071,-0.019168,1.609849,0.870772
74,0.616667,0.244855,0.140013,1.024015,-0.329770,0.140330,0.986073,-0.019171,1.609848,0.870759
75,0.625000,0.244837,0.139996,1.024018,-0.329788,0.140320,0.986069,-0.019169,1.609836,0.870772
76,0.633333,0.244868,0.140008,1.024048,-0.329756,0.140318,0.986078,-0.019168,1.609840,0.870775
77,0.641667,0.244835,0.139998,1.024017,-0.329791,0.140329,0.986089,-0.019159,1.609841,0.870781
78,0.650000,0.244848,0.140005,1.024042,-0.329777,0.140327,0.986091,-0.019160,1.609842,0.870767
79,0.658333,0.244857,0.140008,1.024025,-0.329768,0.140325,0.986080,-0.019167,1.609843,0.870767
80,0.666667,0.244853,0.140004,1.024044,-0.329770,0.140318,0.986074,-0.019170,1.609837,0.870762
81,0.675000,0.244875,0.140016,1.024061,-0.329748,0.140319,0.986082,-0.019177,1.609844,0.870780
82,0.683333,0.244880,0.140020,1.024040,-0.329745,0.140333,0.986081,-0.019152,1.609853,0.870777
83,0.691667,0.244881,0.140028,1.024040,-0.329743,0.140340,0.986077,-0.019151,1.609862,0.870778
84,0.700000,0.244865,0.140008,1.024017,-0.329760,0.140324,0.986073,-0.019162,1.609843,0.870762
85,0.708333,0.244855,0.139989,1.024024,-0.329770,0.140313,0.986069,-0.019149,1.609828,0.870758
86,0.716667,0.244857,0.140002,1.024033,-0.329767,0.140316,0.986073,-0.019172,1.609837,0.870783
87,0.725000,0.244856,0.140007,1.024009,-0.329769,0.140334,0.986064,-0.019146,1.609850,0.870781
88,0.733333,0.244861,0.139998,1.024027,-0.329764,0.140321,0.986085,-0.019149,1.609837,0.870781
89,0.741667,0.244858,0.140001,1.024026,-0.329767,0.140319,0.986070,-0.019162,1.609838,0.870774
90,0.750000,0.244871,0.139994,1.024003,-0.329757,0.140315,0.986097,-0.019154,1.609833,0.870782
91,0.758333,0.244880,0.140012,1.024025,-0.329745,0.140327,0.986071,-0.019148,1.609848,0.870777
92,0.766667,0.244843,0.140011,1.024043,-0.329781,0.140343,0.986080,-0.019139,1.609853,0.870776
93,0.775000,0.244855,0.140005,1.024042,-0.329769,0.140325,0.986083,-0.019157,1.609841,0.870774
94,0.783333,0.244846,0.139991,1.024010,-0.329780,0.140323,0.986072,-0.019142,1.609835,0.870774
95,0.791667,0.244865,0.140020,1.024011,-0.329762,0.140339,0.986084,-0.019160,1.609857,0.870768
96,0.800000,0.244851,0.139992,1.024007,-0.329776,0.140318,0.986087,-0.019157,1.609834,0.870786
97,0.808333,0.244841,0.139983,1.024011,-0.329785,0.140315,0.986065,-0.019145,1.609826,0.870762
98,0.816667,0.244853,0.140015,1.024030,-0.329770,0.140342,0.986060,-0.019138,1.609855,0.870765
99,0.825000,0.244853,0.139973,1.024002,-0.329773,0.140304,0.986070,-0.019138,1.609816,0.870768
100,0.833333,0.244870,0.139999,1.024026,-0.329754,0.140322,0.986071,-0.019135,1.609838,0.870776
101,0.841667,0.244863,0.139989,1.024032,-0.329759,0.140310,0.986053,-0.019144,1.609828,0.870773
102,0.850000,0.244858,0.140006,1.024024,-0.329765,0.140333,0.986053,-0.019133,1.609847,0.870765
103,0.858333,0.244860,0.140013,1.024042,-0.329762,0.140332,0.986052,-0.019148,1.609848,0.870753
104,0.866667,0.244847,0.139985,1.024011,-0.329778,0.140313,0.986064,-0.019150,1.609825,0.870755
105,0.875000,0.244842,0.139983,1.023993,-0.329784,0.140313,0.986066,-0.019155,1.609827,0.870770
106,0.883333,0.244859,0.140015,1.024025,-0.329765,0.140332,0.986070,-0.019164,1.609852,0.870780
107,0.891667,0.244866,0.140005,1.024031,-0.329757,0.140318,0.986062,-0.019163,1.609839,0.870767
108,0.900000,0.244851,0.139992,1.024002,-0.329775,0.140328,0.986071,-0.019132,1.609839,0.870781
109,0.908333,0.244842,0.139988,1.024001,-0.329784,0.140319,0.986067,-0.019151,1.609833,0.870774
110,0.916667,0.244860,0.140037,1.024023,-0.329763,0.140355,0.986050,-0.019155,1.609873,0.870753
111,0.925000,0.244845,0.140011,1.024032,-0.329780,0.140339,0.986084,-0.019149,1.609851,0.870773
112,0.933333,0.244812,0.139979,1.024001,-0.329813,0.140322,0.986063,-0.019149,1.609827,0.870756
113,0.941667,0.244834,0.140001,1.024007,-0.329791,0.140332,0.986052,-0.019154,1.609844,0.870755
114,0.950000,0.244819,0.139997,1.024017,-0.329807,0.140339,0.986079,-0.019144,1.609843,0.870754
115,0.958333,0.244828,0.139995,1.024015,-0.329798,0.140330,0.986079,-0.019152,1.609838,0.870759
116,0.966667,0.244829,0.139984,1.024014,-0.329796,0.140317,0.986072,-0.019156,1.609827,0.870761
117,0.975000,0.244828,0.139996,1.024022,-0.329796,0.140335,0.986059,-0.019136,1.609843,0.870764
118,0.983333,0.244820,0.140006,1.024033,-0.329805,0.140347,0.986098,-0.019145,1.609853,0.870777
119,0.991667,0.244848,0.140016,1.024048,-0.329774,0.140342,0.986068,-0.019145,1.609855,0.870768
120,1.000000,0.244831,0.139990,1.024004,-0.329795,0.140325,0.986082,-0.019154,1.609835,0.870770
121,1.008333,0.244847,0.140023,1.024024,-0.329778,0.140352,0.986082,-0.019149,1.609864,0.870764
122,1.016667,0.244842,0.140021,1.024018,-0.329783,0.140348,0.986075,-0.019158,1.609862,0.870767
123,1.025000,0.244829,0.140009,1.024022,-0.329797,0.140338,0.986081,-0.019164,1.609849,0.870758
124,1.033333,0.244850,0.140005,1.024014,-0.329775,0.140338,0.986063,-0.019134,1.609848,0.870766
125,1.041667,0.244847,0.140006,1.024018,-0.329778,0.140330,0.986073,-0.019159,1.609845,0.870767
126,1.050000,0.244855,0.140018,1.024038,-0.329769,0.140333,0.986067,-0.019168,1.609852,0.870765
127,1.058333,0.244845,0.139998,1.024027,-0.329779,0.140324,0.986060,-0.019154,1.609839,0.870778
128,1.066667,0.244848,0.140006,1.024031,-0.329777,0.140333,0.986083,-0.019150,1.609846,0.870777
129,1.075000,0.244847,0.140021,1.024045,-0.329777,0.140346,0.986072,-0.019151,1.609860,0.870776
130,1.083333,0.244847,0.139998,1.024016,-0.329779,0.140325,0.986077,-0.019155,1.609838,0.870764
131,1.091667,0.244853,0.139999,1.024022,-0.329771,0.140324,0.986054,-0.019147,1.609840,0.870768
132,1.100000,0.244819,0.139985,1.024017,-0.329805,0.140315,0.986053,-0.019168,1.609828,0.870765
133,1.108333,0.244848,0.140002,1.024028,-0.329775,0.140312,0.986057,-0.019188,1.609835,0.870762
134,1.116667,0.244835,0.139993,1.024011,-0.329790,0.140327,0.986062,-0.019147,1.609838,0.870777
135,1.125000,0.244835,0.139989,1.024026,-0.329788,0.140320,0.986045,-0.019144,1.609832,0.870760
136,1.133333,0.244860,0.140003,1.024018,-0.329764,0.140326,0.986061,-0.019147,1.609843,0.870781
137,1.141667,0.244833,0.139998,1.024048,-0.329790,0.140333,0.986064,-0.019135,1.609842,0.870774
138,1.150000,0.244844,0.139998,1.024020,-0.329781,0.140327,0.986066,-0.019150,1.609842,0.870785
139,1.158333,0.244848,0.139991,1.024028,-0.329775,0.140311,0.986052,-0.019161,1.609828,0.870760
140,1.166667,0.244835,0.139991,1.024012,-0.329788,0.140321,0.986041,-0.019150,1.609835,0.870770
141,1.175000,0.244835,0.139979,1.024014,-0.329789,0.140315,0.986055,-0.019137,1.609824,0.870758
142,1.183333,0.244849,0.139996,1.024024,-0.329775,0.140325,0.986063,-0.019143,1.609838,0.870768
143,1.191667,0.244849,0.140004,1.024029,-0.329774,0.140320,0.986056,-0.019168,1.609838,0.870745
144,1.200000,0.244835,0.139993,1.024029,-0.329788,0.140324,0.986051,-0.019143,1.609835,0.870756
145,1.208333,0.244845,0.139994,1.024007,-0.329780,0.140315,0.986057,-0.019171,1.609834,0.870774
146,1.216667,0.244856,0.140003,1.024010,-0.329770,0.140327,0.986079,-0.019153,1.609842,0.870768
147,1.225000,0.244853,0.140015,1.024037,-0.329772,0.140334,0.986087,-0.019166,1.609851,0.870772
148,1.233333,0.244869,0.140016,1.024036,-0.329754,0.140328,0.986064,-0.019159,1.609849,0.870758
149,1.241667,0.244829,0.139995,1.024032,-0.329795,0.140324,0.986078,-0.019163,1.609835,0.870764
150,1.250000,0.244843,0.139994,1.024023,-0.329781,0.140310,0.986069,-0.019181,1.609829,0.870754
151,1.258333,0.244863,0.140018,1.024042,-0.329761,0.140333,0.986089,-0.019162,1.609849,0.870752
152,1.266667,0.244869,0.140006,1.024041,-0.329755,0.140324,0.986076,-0.019147,1.609840,0.870760
153,1.275000,0.244860,0.139991,1.023992,-0.329767,0.140315,0.986075,-0.019157,1.609831,0.870763
154,1.283333,0.244862,0.140004,1.024053,-0.329761,0.140319,0.986082,-0.019161,1.609838,0.870774
155,1.291667,0.244863,0.140004,1.024016,-0.329763,0.140321,0.986091,-0.019164,1.609839,0.870766
156,1.300000,0.244876,0.140015,1.024076,-0.329746,0.140324,0.986079,-0.019154,1.609845,0.870773
157,1.308333,0.244887,0.140013,1.024037,-0.329737,0.140321,0.986079,-0.019155,1.609844,0.870775
158,1.316667,0.244875,0.140026,1.024036,-0.329749,0.140339,0.986068,-0.019155,1.609858,0.870757
159,1.325000,0.244861,0.139999,1.024013,-0.329765,0.140315,0.986083,-0.019171,1.609834,0.870761
160,1.333333,0.244867,0.140006,1.024027,-0.329757,0.140333,0.986066,-0.019129,1.609847,0.870769
161,1.341667,0.244862,0.140002,1.024039,-0.329761,0.140321,0.986062,-0.019149,1.609840,0.870778
162,1.350000,0.244862,0.140008,1.024029,-0.329763,0.140333,0.986083,-0.019142,1.609848,0.870783
163,1.358333,0.244869,0.140005,1.024022,-0.329755,0.140330,0.986063,-0.019132,1.609845,0.870772
164,1.366667,0.244872,0.140000,1.024020,-0.329753,0.140323,0.986071,-0.019136,1.609840,0.870777
165,1.375000,0.244852,0.140004,1.024018,-0.329774,0.140331,0.986076,-0.019150,1.609846,0.870781
166,1.383333,0.244863,0.139994,1.024020,-0.329762,0.140316,0.986072,-0.019148,1.609834,0.870779
167,1.391667,0.244859,0.139990,1.023993,-0.329766,0.140325,0.986055,-0.019125,1.609837,0.870774
168,1.400000,0.244861,0.140006,1.024016,-0.329764,0.140329,0.986064,-0.019149,1.609847,0.870786
169,1.408333,0.244875,0.140009,1.024030,-0.329747,0.140315,0.986039,-0.019167,1.609841,0.870777
170,1.416667,0.244850,0.140002,1.024010,-0.329775,0.140336,0.986053,-0.019131,1.609848,0.870775
171,1.425000,0.244854,0.139980,1.024017,-0.329770,0.140312,0.986058,-0.019131,1.609825,0.870780
172,1.433333,0.244873,0.139999,1.024021,-0.329751,0.140320,0.986059,-0.019138,1.609838,0.870772
173,1.441667,0.244849,0.139995,1.024006,-0.329776,0.140323,0.986055,-0.019149,1.609838,0.870774
174,1.450000,0.244845,0.140003,1.024026,-0.329780,0.140336,0.986072,-0.019137,1.609847,0.870782
175,1.458333,0.244874,0.140006,1.024017,-0.329751,0.140329,0.986063,-0.019136,1.609847,0.870790
176,1.466667,0.244882,0.140006,1.024027,-0.329742,0.140317,0.986056,-0.019155,1.609840,0.870779
177,1.475000,0.244871,0.140008,1.024003,-0.329756,0.140318,0.986082,-0.019179,1.609842,0.870775
178,1.483333,0.244866,0.140005,1.024034,-0.329757,0.140319,0.986055,-0.019157,1.609840,0.870771
179,1.491667,0.244859,0.140012,1.024016,-0.329766,0.140339,0.986060,-0.019137,1.609853,0.870764
180,1.500000,0.244861,0.139998,1.023995,-0.329764,0.140328,0.986053,-0.019132,1.609841,0.870751
181,1.508333,0.244873,0.140013,1.024040,-0.329751,0.140324,0.986079,-0.019161,1.609847,0.870787
182,1.516667,0.244862,0.139989,1.024016,-0.329763,0.140312,0.986077,-0.019150,1.609828,0.870769
183,1.525000,0.244862,0.139994,1.024020,-0.329763,0.140302,0.986075,-0.019186,1.609826,0.870775
184,1.533333,0.244892,0.140030,1.024052,-0.329731,0.140333,0.986062,-0.019156,1.609859,0.870773
185,1.541667,0.244862,0.140007,1.024011,-0.329764,0.140329,0.986080,-0.019155,1.609846,0.870775
186,1.550000,0.244860,0.139991,1.024011,-0.329766,0.140315,0.986075,-0.019149,1.609831,0.870776
187,1.558333,0.244876,0.140020,1.024039,-0.329748,0.140330,0.986075,-0.019161,1.609852,0.870766
188,1.566667,0.244878,0.140008,1.024012,-0.329747,0.140320,0.986060,-0.019157,1.609842,0.870763
189,1.575000,0.244872,0.140005,1.023988,-0.329755,0.140331,0.986061,-0.019137,1.609846,0.870755
190,1.583333,0.244860,0.140002,1.024001,-0.329766,0.140324,0.986071,-0.019157,1.609842,0.870781
191,1.591667,0.244873,0.140025,1.024026,-0.329752,0.140337,0.986082,-0.019165,1.609860,0.870787
192,1.600000,0.244879,0.140030,1.024046,-0.329745,0.140344,0.986081,-0.019148,1.609864,0.870779
193,1.608333,0.244877,0.140008,1.024038,-0.329746,0.140314,0.986057,-0.019167,1.609837,0.870741
194,1.616667,0.244877,0.139996,1.024020,-0.329748,0.140307,0.986077,-0.019164,1.609828,0.870760
195,1.625000,0.244882,0.140010,1.024023,-0.329745,0.140324,0.986104,-0.019156,1.609843,0.870765
196,1.633333,0.244861,0.140009,1.024005,-0.329767,0.140337,0.986101,-0.019145,1.609849,0.870763
197,1.641667,0.244871,0.140015,1.024026,-0.329754,0.140336,0.986090,-0.019145,1.609851,0.870757
198,1.650000,0.244864,0.140023,1.024035,-0.329760,0.140336,0.986072,-0.019164,1.609856,0.870762
199,1.658333,0.244880,0.140021,1.024043,-0.329744,0.140344,0.986088,-0.019125,1.609858,0.870770
200,1.666667,0.244872,0.140008,1.024019,-0.329753,0.140321,0.986076,-0.019164,1.609842,0.870760
201,1.675000,0.244881,0.140021,1.024039,-0.329744,0.140333,0.986093,-0.019155,1.609853,0.870767
202,1.683333,0.244879,0.140023,1.024036,-0.329746,0.140341,0.986078,-0.019139,1.609860,0.870786
203,1.691667,0.244877,0.139992,1.023976,-0.329753,0.140305,0.986104,-0.019179,1.609828,0.870770
204,1.700000,0.244883,0.140025,1.024032,-0.329742,0.140338,0.986082,-0.019154,1.609861,0.870796
205,1.708333,0.244867,0.140009,1.024029,-0.329758,0.140332,0.986080,-0.019141,1.609847,0.870776
206,1.716667,0.244879,0.140021,1.024015,-0.329748,0.140344,0.986089,-0.019135,1.609860,0.870777
207,1.725000,0.244895,0.140017,1.024016,-0.329730,0.140327,0.986069,-0.019148,1.609851,0.870772
208,1.733333,0.244864,0.140014,1.024039,-0.329761,0.140343,0.986087,-0.019124,1.609853,0.870755
209,1.741667,0.244884,0.140018,1.024026,-0.329741,0.140328,0.986075,-0.019158,1.609850,0.870768
210,1.750000,0.244875,0.140011,1.024044,-0.329750,0.140328,0.986095,-0.019147,1.609845,0.870774
211,1.758333,0.244877,0.140000,1.024021,-0.329749,0.140322,0.986087,-0.019138,1.609838,0.870776
212,1.766667,0.244861,0.140002,1.024020,-0.329764,0.140322,0.986079,-0.019158,1.609839,0.870764
213,1.775000,0.244881,0.140012,1.024015,-0.329745,0.140330,0.986084,-0.019145,1.609849,0.870777
214,1.783333,0.244849,0.140009,1.024021,-0.329775,0.140339,0.986069,-0.019140,1.609851,0.870770
215,1.791667,0.244876,0.140006,1.024011,-0.329749,0.140320,0.986073,-0.019158,1.609840,0.870763
216,1.800000,0.244865,0.140014,1.024041,-0.329759,0.140333,0.986072,-0.019148,1.609849,0.870768
217,1.808333,0.244840,0.140000,1.024039,-0.329782,0.140339,0.986041,-0.019114,1.609845,0.870746
218,1.816667,0.244850,0.140010,1.024038,-0.329774,0.140337,0.986066,-0.019141,1.609850,0.870764
219,1.825000,0.244865,0.140013,1.024019,-0.329762,0.140330,0.986094,-0.019164,1.609848,0.870762
220,1.833333,0.244859,0.140009,1.024045,-0.329763,0.140323,0.986055,-0.019161,1.609844,0.870775
221,1.841667,0.244855,0.140010,1.024027,-0.329769,0.140337,0.986062,-0.019139,1.609851,0.870766
222,1.850000,0.244869,0.140023,1.024043,-0.329756,0.140346,0.986087,-0.019138,1.609861,0.870775
223,1.858333,0.244850,0.140005,1.024025,-0.329775,0.140328,0.986068,-0.019154,1.609843,0.870755
224,1.866667,0.244859,0.140014,1.024024,-0.329767,0.140334,0.986087,-0.019159,1.609850,0.870765
225,1.875000,0.244844,0.140000,1.024027,-0.329780,0.140328,0.986057,-0.019145,1.609840,0.870755
226,1.883333,0.244841,0.139999,1.024024,-0.329783,0.140325,0.986063,-0.019154,1.609837,0.870749
227,1.891667,0.244840,0.139997,1.024044,-0.329781,0.140332,0.986039,-0.019123,1.609840,0.870748
228,1.900000,0.244861,0.140000,1.024021,-0.329763,0.140326,0.986067,-0.019138,1.609838,0.870743
229,1.908333,0.244862,0.140021,1.024040,-0.329762,0.140338,0.986072,-0.019157,1.609855,0.870753
230,1.916667,0.244839,0.139964,1.024000,-0.329787,0.140291,0.986081,-0.019167,1.609804,0.870764
231,1.925000,0.244865,0.140014,1.024038,-0.329759,0.140331,0.986065,-0.019153,1.609848,0.870755
232,1.933333,0.244862,0.140005,1.024021,-0.329763,0.140318,0.986072,-0.019172,1.609839,0.870766
233,1.941667,0.244858,0.140002,1.024027,-0.329767,0.140323,0.986078,-0.019154,1.609837,0.870749
234,1.950000,0.244852,0.140016,1.024057,-0.329770,0.140325,0.986066,-0.019177,1.609846,0.870759
235,1.958333,0.244860,0.140002,1.024027,-0.329765,0.140317,0.986078,-0.019168,1.609836,0.870763
236,1.966667,0.244835,0.140001,1.024024,-0.329789,0.140327,0.986056,-0.019161,1.609841,0.870759
237,1.975000,0.244862,0.140007,1.024020,-0.329761,0.140317,0.986047,-0.019173,1.609839,0.870749
238,1.983333,0.244837,0.139989,1.024025,-0.329784,0.140312,0.986026,-0.019158,1.609828,0.870750
239,1.991667,0.244835,0.140002,1.024021,-0.329789,0.140328,0.986052,-0.019163,1.609843,0.870775
240,2.000000,0.244856,0.140010,1.024036,-0.329766,0.140321,0.986054,-0.019175,1.609843,0.870760
241,2.008333,0.244847,0.140003,1.024005,-0.329778,0.140325,0.986053,-0.019163,1.609842,0.870760
242,2.016667,0.244859,0.139991,1.024015,-0.329764,0.140305,0.986042,-0.019165,1.609826,0.870754
243,2.025000,0.244882,0.140016,1.024028,-0.329742,0.140314,0.986060,-0.019186,1.609842,0.870755
244,2.033333,0.244847,0.139995,1.024027,-0.329777,0.140303,0.986057,-0.019192,1.609825,0.870745
245,2.041667,0.244869,0.139972,1.024005,-0.329756,0.140269,0.986059,-0.019206,1.609798,0.870744
246,2.050000,0.244875,0.140027,1.024055,-0.329747,0.140329,0.986068,-0.019175,1.609853,0.870742
247,2.058333,0.244864,0.140002,1.024001,-0.329763,0.140310,0.986071,-0.019187,1.609833,0.870751
248,2.066667,0.244863,0.140001,1.024017,-0.329761,0.140304,0.986050,-0.019193,1.609831,0.870761
249,2.075000,0.244856,0.139994,1.024010,-0.329769,0.140312,0.986061,-0.019166,1.609831,0.870763
250,2.083333,0.244877,0.140022,1.024018,-0.329747,0.140327,0.986065,-0.019176,1.609853,0.870767
251,2.091667,0.244890,0.140014,1.024043,-0.329733,0.140321,0.986068,-0.019153,1.609846,0.870785
252,2.100000,0.244876,0.140005,1.024034,-0.329747,0.140322,0.986062,-0.019141,1.609840,0.870762
253,2.108333,0.244859,0.140003,1.024018,-0.329766,0.140327,0.986062,-0.019146,1.609843,0.870766
254,2.116667,0.244885,0.139996,1.024008,-0.329741,0.140307,0.986066,-0.019157,1.609830,0.870764
255,2.125000,0.244882,0.140005,1.024055,-0.329741,0.140306,0.986079,-0.019175,1.609831,0.870763
256,2.133333,0.244865,0.140010,1.024032,-0.329759,0.140337,0.986074,-0.019130,1.609850,0.870770
