Scan1;00:02:6f:12:34:50,Telstra Air,-56,0,0,0;44:1e:98:55:8b:2c,eduroam,-67,0,0,0;44:1e:98:15:8b:2c,INSEARCH Secure,-66,0,0,0;24:f2:7f:bc:99:90,TAFENSW,-91,0,0,0;24:f2:7f:bc:99:91,TAFE-Events,-92,0,0,0;44:1e:98:14:d9:4c,INSEARCH Secure,-84,0,0,0;44:1e:98:54:d9:4c,eduroam,-85,0,0,0;28:24:ff:8f:37:7e,ClickShare-A1.44,-86,0,0,0;44:1e:98:55:8b:28,eduroam,-61,0,0,0;44:1e:98:15:8b:28,INSEARCH Secure,-61,0,0,0;10:13:31:e6:96:ad,TelstraE696AD,-68,0,0,0;44:1e:98:54:e8:1c,eduroam,-91,0,0,0;12:13:31:e5:b2:91,TelstraE5B289,-91,0,0,0;44:1e:98:54:d2:1c,eduroam,-90,0,0,0;44:1e:98:14:d2:1c,INSEARCH Secure,-90,0,0,0;44:1e:98:14:e8:1c,INSEARCH Secure,-91,0,0,0;c8:b5:ad:31:27:f0,TAFENSW,-78,0,0,0;e8:1d:a8:2d:ec:5c,INSEARCH Secure,-84,0,0,0;e8:1d:a8:6d:ec:5c,eduroam,-84,0,0,0;c8:b5:ad:31:26:90,TAFENSW,-95,0,0,0;c8:b5:ad:31:27:f1,TAFE-Events,-78,0,0,0;d8:c7:c8:4c:eb:50,TAFENSW,-87,0,0,0;28:24:ff:94:bd:e1,ClickShare-A1.10,-84,0,0,0;24:f2:7f:bc:9b:30,TAFENSW,-82,0,0,0;24:f2:7f:bc:7a:90,TAFENSW,-91,0,0,0;d8:c7:c8:4c:eb:51,TAFE-Events,-88,0,0,0;24:f2:7f:bc:9b:31,TAFE-Events,-82,0,0,0;24:f2:7f:bc:7a:91,TAFE-Events,-91,0,0,0;e8:1d:a8:2e:e1:38,INSEARCH Secure,-67,0,0,0;24:f2:7f:bc:7a:80,TAFENSW,-78,0,0,0;28:24:ff:94:bb:5f,ClickShare-A2.24,-85,0,0,0;e8:1d:a8:2d:ef:0c,INSEARCH Secure,-88,0,0,0;e8:1d:a8:6d:ef:0c,eduroam,-88,0,0,0;12:13:31:e6:96:b5,TelstraE696AD,-89,0,0,0;e8:1d:a8:2e:e1:3c,INSEARCH Secure,-90,0,0,0;e8:1d:a8:6e:e1:3c,eduroam,-90,0,0,0;44:1e:98:14:ec:ac,INSEARCH Secure,-92,0,0,0;c8:b5:ad:31:7f:f0,TAFENSW,-93,0,0,0;9c:1c:12:86:a4:b0,UTS-WPA,-98,0,0,0;00:02:6f:12:34:56,,-64,0,0,0;24:f2:7f:bc:7a:81,TAFE-Events,-76,0,0,0;c8:b5:ad:31:26:91,TAFE-Events,-92,0,0,0;c8:b5:ad:31:27:d1,TAFE-Events,-93,0,0,0;c8:b5:ad:31:7f:f1,TAFE-Events,-93,0,0,0;c8:b5:ad:31:6e:91,TAFE-Events,-97,0,0,0;

Scan2;00:02:6f:12:34:50,Telstra Air,-56,0,0,0;44:1e:98:55:8b:2c,eduroam,-67,0,0,0;44:1e:98:15:8b:2c,INSEARCH Secure,-66,0,0,0;24:f2:7f:bc:99:90,TAFENSW,-91,0,0,0;24:f2:7f:bc:99:91,TAFE-Events,-92,0,0,0;44:1e:98:14:d9:4c,INSEARCH Secure,-84,0,0,0;44:1e:98:54:d9:4c,eduroam,-85,0,0,0;28:24:ff:8f:37:7e,ClickShare-A1.44,-86,0,0,0;44:1e:98:55:8b:28,eduroam,-61,0,0,0;44:1e:98:15:8b:28,INSEARCH Secure,-61,0,0,0;10:13:31:e6:96:ad,TelstraE696AD,-68,0,0,0;44:1e:98:54:e8:1c,eduroam,-91,0,0,0;12:13:31:e5:b2:91,TelstraE5B289,-91,0,0,0;44:1e:98:54:d2:1c,eduroam,-90,0,0,0;44:1e:98:14:d2:1c,INSEARCH Secure,-90,0,0,0;44:1e:98:14:e8:1c,INSEARCH Secure,-91,0,0,0;c8:b5:ad:31:27:f0,TAFENSW,-78,0,0,0;e8:1d:a8:2d:ec:5c,INSEARCH Secure,-84,0,0,0;e8:1d:a8:6d:ec:5c,eduroam,-84,0,0,0;c8:b5:ad:31:26:90,TAFENSW,-95,0,0,0;c8:b5:ad:31:27:f1,TAFE-Events,-78,0,0,0;d8:c7:c8:4c:eb:50,TAFENSW,-87,0,0,0;28:24:ff:94:bd:e1,ClickShare-A1.10,-84,0,0,0;24:f2:7f:bc:9b:30,TAFENSW,-82,0,0,0;24:f2:7f:bc:7a:90,TAFENSW,-91,0,0,0;d8:c7:c8:4c:eb:51,TAFE-Events,-88,0,0,0;24:f2:7f:bc:9b:31,TAFE-Events,-82,0,0,0;24:f2:7f:bc:7a:91,TAFE-Events,-91,0,0,0;e8:1d:a8:2e:e1:38,INSEARCH Secure,-67,0,0,0;24:f2:7f:bc:7a:80,TAFENSW,-78,0,0,0;28:24:ff:94:bb:5f,ClickShare-A2.24,-85,0,0,0;e8:1d:a8:2d:ef:0c,INSEARCH Secure,-88,0,0,0;e8:1d:a8:6d:ef:0c,eduroam,-88,0,0,0;12:13:31:e6:96:b5,TelstraE696AD,-89,0,0,0;e8:1d:a8:2e:e1:3c,INSEARCH Secure,-90,0,0,0;e8:1d:a8:6e:e1:3c,eduroam,-90,0,0,0;44:1e:98:14:ec:ac,INSEARCH Secure,-92,0,0,0;c8:b5:ad:31:7f:f0,TAFENSW,-93,0,0,0;9c:1c:12:86:a4:b0,UTS-WPA,-98,0,0,0;00:02:6f:12:34:56,,-64,0,0,0;24:f2:7f:bc:7a:81,TAFE-Events,-76,0,0,0;c8:b5:ad:31:26:91,TAFE-Events,-92,0,0,0;c8:b5:ad:31:27:d1,TAFE-Events,-93,0,0,0;c8:b5:ad:31:7f:f1,TAFE-Events,-93,0,0,0;c8:b5:ad:31:6e:91,TAFE-Events,-97,0,0,0;

Scan3;00:02:6f:12:34:50,Telstra Air,-56,0,0,0;44:1e:98:55:8b:2c,eduroam,-67,0,0,0;44:1e:98:15:8b:2c,INSEARCH Secure,-66,0,0,0;24:f2:7f:bc:99:90,TAFENSW,-91,0,0,0;24:f2:7f:bc:99:91,TAFE-Events,-92,0,0,0;44:1e:98:14:d9:4c,INSEARCH Secure,-84,0,0,0;44:1e:98:54:d9:4c,eduroam,-85,0,0,0;28:24:ff:8f:37:7e,ClickShare-A1.44,-86,0,0,0;44:1e:98:55:8b:28,eduroam,-61,0,0,0;44:1e:98:15:8b:28,INSEARCH Secure,-61,0,0,0;10:13:31:e6:96:ad,TelstraE696AD,-68,0,0,0;44:1e:98:54:e8:1c,eduroam,-91,0,0,0;12:13:31:e5:b2:91,TelstraE5B289,-91,0,0,0;44:1e:98:54:d2:1c,eduroam,-90,0,0,0;44:1e:98:14:d2:1c,INSEARCH Secure,-90,0,0,0;44:1e:98:14:e8:1c,INSEARCH Secure,-91,0,0,0;c8:b5:ad:31:27:f0,TAFENSW,-78,0,0,0;e8:1d:a8:2d:ec:5c,INSEARCH Secure,-84,0,0,0;e8:1d:a8:6d:ec:5c,eduroam,-84,0,0,0;c8:b5:ad:31:26:90,TAFENSW,-95,0,0,0;c8:b5:ad:31:27:f1,TAFE-Events,-78,0,0,0;d8:c7:c8:4c:eb:50,TAFENSW,-87,0,0,0;28:24:ff:94:bd:e1,ClickShare-A1.10,-84,0,0,0;24:f2:7f:bc:9b:30,TAFENSW,-82,0,0,0;24:f2:7f:bc:7a:90,TAFENSW,-91,0,0,0;d8:c7:c8:4c:eb:51,TAFE-Events,-88,0,0,0;24:f2:7f:bc:9b:31,TAFE-Events,-82,0,0,0;24:f2:7f:bc:7a:91,TAFE-Events,-91,0,0,0;e8:1d:a8:2e:e1:38,INSEARCH Secure,-67,0,0,0;24:f2:7f:bc:7a:80,TAFENSW,-78,0,0,0;28:24:ff:94:bb:5f,ClickShare-A2.24,-85,0,0,0;e8:1d:a8:2d:ef:0c,INSEARCH Secure,-88,0,0,0;e8:1d:a8:6d:ef:0c,eduroam,-88,0,0,0;12:13:31:e6:96:b5,TelstraE696AD,-89,0,0,0;e8:1d:a8:2e:e1:3c,INSEARCH Secure,-90,0,0,0;e8:1d:a8:6e:e1:3c,eduroam,-90,0,0,0;44:1e:98:14:ec:ac,INSEARCH Secure,-92,0,0,0;c8:b5:ad:31:7f:f0,TAFENSW,-93,0,0,0;9c:1c:12:86:a4:b0,UTS-WPA,-98,0,0,0;00:02:6f:12:34:56,,-64,0,0,0;24:f2:7f:bc:7a:81,TAFE-Events,-76,0,0,0;c8:b5:ad:31:26:91,TAFE-Events,-92,0,0,0;c8:b5:ad:31:27:d1,TAFE-Events,-93,0,0,0;c8:b5:ad:31:7f:f1,TAFE-Events,-93,0,0,0;c8:b5:ad:31:6e:91,TAFE-Events,-97,0,0,0;

Scan4;00:02:6f:12:34:50,Telstra Air,-60,0,0,0;44:1e:98:55:8b:2c,eduroam,-71,0,0,0;44:1e:98:15:8b:2c,INSEARCH Secure,-70,0,0,0;44:1e:98:14:d9:4c,INSEARCH Secure,-83,0,0,0;44:1e:98:54:d9:4c,eduroam,-83,0,0,0;28:24:ff:8f:37:7e,ClickShare-A1.44,-90,0,0,0;44:1e:98:55:8b:28,eduroam,-62,0,0,0;44:1e:98:15:8b:28,INSEARCH Secure,-62,0,0,0;44:1e:98:54:e8:1c,eduroam,-86,0,0,0;12:13:31:e5:b2:91,TelstraE5B289,-88,0,0,0;44:1e:98:54:d2:1c,eduroam,-86,0,0,0;44:1e:98:14:d2:1c,INSEARCH Secure,-86,0,0,0;44:1e:98:14:e8:1c,INSEARCH Secure,-86,0,0,0;c8:b5:ad:31:27:f0,TAFENSW,-82,0,0,0;e8:1d:a8:2d:ec:5c,INSEARCH Secure,-80,0,0,0;e8:1d:a8:6d:ec:5c,eduroam,-80,0,0,0;c8:b5:ad:31:26:90,TAFENSW,-87,0,0,0;c8:b5:ad:31:27:f1,TAFE-Events,-81,0,0,0;d8:c7:c8:4c:eb:50,TAFENSW,-78,0,0,0;28:24:ff:94:bd:e1,ClickShare-A1.10,-86,0,0,0;24:f2:7f:bc:9b:30,TAFENSW,-80,0,0,0;24:f2:7f:bc:7a:90,TAFENSW,-83,0,0,0;d8:c7:c8:4c:eb:51,TAFE-Events,-78,0,0,0;24:f2:7f:bc:9b:31,TAFE-Events,-79,0,0,0;24:f2:7f:bc:7a:91,TAFE-Events,-83,0,0,0;e8:1d:a8:2e:e1:38,INSEARCH Secure,-72,0,0,0;24:f2:7f:bc:7a:80,TAFENSW,-71,0,0,0;28:24:ff:94:bb:5f,ClickShare-A2.24,-87,0,0,0;e8:1d:a8:2d:ef:0c,INSEARCH Secure,-88,0,0,0;e8:1d:a8:6d:ef:0c,eduroam,-89,0,0,0;12:13:31:e6:96:b5,TelstraE696AD,-88,0,0,0;c8:b5:ad:31:7f:f0,TAFENSW,-92,0,0,0;24:f2:7f:bc:7a:81,TAFE-Events,-72,0,0,0;c8:b5:ad:31:26:91,TAFE-Events,-87,0,0,0;c8:b5:ad:31:7f:f1,TAFE-Events,-91,0,0,0;c8:b5:ad:31:6e:91,TAFE-Events,-95,0,0,0;24:f2:7f:bc:9b:20,TAFENSW,-68,0,0,0;d8:c7:c8:4c:eb:40,TAFENSW,-69,0,0,0;44:1e:98:14:d9:48,INSEARCH Secure,-71,0,0,0;c8:b5:ad:31:26:80,TAFENSW,-74,0,0,0;e8:1d:a8:6e:e1:38,eduroam,-74,0,0,0;44:1e:98:54:d9:48,eduroam,-75,0,0,0;44:1e:98:54:e8:18,eduroam,-76,0,0,0;44:1e:98:14:e8:18,INSEARCH Secure,-76,0,0,0;44:1e:98:54:ec:ac,eduroam,-91,0,0,0;e8:1d:a8:2e:27:9c,INSEARCH Secure,-92,0,0,0;12:13:31:e6:c5:e7,TelstraE6C5DF,-92,0,0,0;e8:1d:a8:6e:27:9c,eduroam,-93,0,0,0;c8:b5:ad:31:6e:90,TAFENSW,-96,0,0,0;24:f2:7f:bc:9b:21,TAFE-Events,-69,0,0,0;c8:b5:ad:31:26:81,TAFE-Events,-74,0,0,0;

Scan5;00:02:6f:12:34:50,Telstra Air,-60,0,0,0;44:1e:98:55:8b:2c,eduroam,-71,0,0,0;44:1e:98:15:8b:2c,INSEARCH Secure,-70,0,0,0;44:1e:98:14:d9:4c,INSEARCH Secure,-83,0,0,0;44:1e:98:54:d9:4c,eduroam,-83,0,0,0;28:24:ff:8f:37:7e,ClickShare-A1.44,-90,0,0,0;44:1e:98:55:8b:28,eduroam,-62,0,0,0;44:1e:98:15:8b:28,INSEARCH Secure,-62,0,0,0;44:1e:98:54:e8:1c,eduroam,-86,0,0,0;12:13:31:e5:b2:91,TelstraE5B289,-88,0,0,0;44:1e:98:54:d2:1c,eduroam,-86,0,0,0;44:1e:98:14:d2:1c,INSEARCH Secure,-86,0,0,0;44:1e:98:14:e8:1c,INSEARCH Secure,-86,0,0,0;c8:b5:ad:31:27:f0,TAFENSW,-82,0,0,0;e8:1d:a8:2d:ec:5c,INSEARCH Secure,-80,0,0,0;e8:1d:a8:6d:ec:5c,eduroam,-80,0,0,0;c8:b5:ad:31:26:90,TAFENSW,-87,0,0,0;c8:b5:ad:31:27:f1,TAFE-Events,-81,0,0,0;d8:c7:c8:4c:eb:50,TAFENSW,-78,0,0,0;28:24:ff:94:bd:e1,ClickShare-A1.10,-86,0,0,0;24:f2:7f:bc:9b:30,TAFENSW,-80,0,0,0;24:f2:7f:bc:7a:90,TAFENSW,-83,0,0,0;d8:c7:c8:4c:eb:51,TAFE-Events,-78,0,0,0;24:f2:7f:bc:9b:31,TAFE-Events,-79,0,0,0;24:f2:7f:bc:7a:91,TAFE-Events,-83,0,0,0;e8:1d:a8:2e:e1:38,INSEARCH Secure,-72,0,0,0;24:f2:7f:bc:7a:80,TAFENSW,-71,0,0,0;28:24:ff:94:bb:5f,ClickShare-A2.24,-87,0,0,0;e8:1d:a8:2d:ef:0c,INSEARCH Secure,-88,0,0,0;e8:1d:a8:6d:ef:0c,eduroam,-89,0,0,0;12:13:31:e6:96:b5,TelstraE696AD,-88,0,0,0;c8:b5:ad:31:7f:f0,TAFENSW,-92,0,0,0;24:f2:7f:bc:7a:81,TAFE-Events,-72,0,0,0;c8:b5:ad:31:26:91,TAFE-Events,-87,0,0,0;c8:b5:ad:31:7f:f1,TAFE-Events,-91,0,0,0;c8:b5:ad:31:6e:91,TAFE-Events,-95,0,0,0;24:f2:7f:bc:9b:20,TAFENSW,-68,0,0,0;d8:c7:c8:4c:eb:40,TAFENSW,-69,0,0,0;44:1e:98:14:d9:48,INSEARCH Secure,-71,0,0,0;c8:b5:ad:31:26:80,TAFENSW,-74,0,0,0;e8:1d:a8:6e:e1:38,eduroam,-74,0,0,0;44:1e:98:54:d9:48,eduroam,-75,0,0,0;44:1e:98:54:e8:18,eduroam,-76,0,0,0;44:1e:98:14:e8:18,INSEARCH Secure,-76,0,0,0;44:1e:98:54:ec:ac,eduroam,-91,0,0,0;e8:1d:a8:2e:27:9c,INSEARCH Secure,-92,0,0,0;12:13:31:e6:c5:e7,TelstraE6C5DF,-92,0,0,0;e8:1d:a8:6e:27:9c,eduroam,-93,0,0,0;c8:b5:ad:31:6e:90,TAFENSW,-96,0,0,0;24:f2:7f:bc:9b:21,TAFE-Events,-69,0,0,0;c8:b5:ad:31:26:81,TAFE-Events,-74,0,0,0;

Scan6;00:02:6f:12:34:50,Telstra Air,-60,0,0,0;44:1e:98:55:8b:2c,eduroam,-71,0,0,0;44:1e:98:15:8b:2c,INSEARCH Secure,-70,0,0,0;44:1e:98:14:d9:4c,INSEARCH Secure,-83,0,0,0;44:1e:98:54:d9:4c,eduroam,-83,0,0,0;28:24:ff:8f:37:7e,ClickShare-A1.44,-90,0,0,0;44:1e:98:55:8b:28,eduroam,-62,0,0,0;44:1e:98:15:8b:28,INSEARCH Secure,-62,0,0,0;44:1e:98:54:e8:1c,eduroam,-86,0,0,0;12:13:31:e5:b2:91,TelstraE5B289,-88,0,0,0;44:1e:98:54:d2:1c,eduroam,-86,0,0,0;44:1e:98:14:d2:1c,INSEARCH Secure,-86,0,0,0;44:1e:98:14:e8:1c,INSEARCH Secure,-86,0,0,0;c8:b5:ad:31:27:f0,TAFENSW,-82,0,0,0;e8:1d:a8:2d:ec:5c,INSEARCH Secure,-80,0,0,0;e8:1d:a8:6d:ec:5c,eduroam,-80,0,0,0;c8:b5:ad:31:26:90,TAFENSW,-87,0,0,0;c8:b5:ad:31:27:f1,TAFE-Events,-81,0,0,0;d8:c7:c8:4c:eb:50,TAFENSW,-78,0,0,0;28:24:ff:94:bd:e1,ClickShare-A1.10,-86,0,0,0;24:f2:7f:bc:9b:30,TAFENSW,-80,0,0,0;24:f2:7f:bc:7a:90,TAFENSW,-83,0,0,0;d8:c7:c8:4c:eb:51,TAFE-Events,-78,0,0,0;24:f2:7f:bc:9b:31,TAFE-Events,-79,0,0,0;24:f2:7f:bc:7a:91,TAFE-Events,-83,0,0,0;e8:1d:a8:2e:e1:38,INSEARCH Secure,-72,0,0,0;24:f2:7f:bc:7a:80,TAFENSW,-71,0,0,0;28:24:ff:94:bb:5f,ClickShare-A2.24,-87,0,0,0;e8:1d:a8:2d:ef:0c,INSEARCH Secure,-88,0,0,0;e8:1d:a8:6d:ef:0c,eduroam,-89,0,0,0;12:13:31:e6:96:b5,TelstraE696AD,-88,0,0,0;c8:b5:ad:31:7f:f0,TAFENSW,-92,0,0,0;24:f2:7f:bc:7a:81,TAFE-Events,-72,0,0,0;c8:b5:ad:31:26:91,TAFE-Events,-87,0,0,0;c8:b5:ad:31:7f:f1,TAFE-Events,-91,0,0,0;c8:b5:ad:31:6e:91,TAFE-Events,-95,0,0,0;24:f2:7f:bc:9b:20,TAFENSW,-68,0,0,0;d8:c7:c8:4c:eb:40,TAFENSW,-69,0,0,0;44:1e:98:14:d9:48,INSEARCH Secure,-71,0,0,0;c8:b5:ad:31:26:80,TAFENSW,-74,0,0,0;e8:1d:a8:6e:e1:38,eduroam,-74,0,0,0;44:1e:98:54:d9:48,eduroam,-75,0,0,0;44:1e:98:54:e8:18,eduroam,-76,0,0,0;44:1e:98:14:e8:18,INSEARCH Secure,-76,0,0,0;44:1e:98:54:ec:ac,eduroam,-91,0,0,0;e8:1d:a8:2e:27:9c,INSEARCH Secure,-92,0,0,0;12:13:31:e6:c5:e7,TelstraE6C5DF,-92,0,0,0;e8:1d:a8:6e:27:9c,eduroam,-93,0,0,0;c8:b5:ad:31:6e:90,TAFENSW,-96,0,0,0;24:f2:7f:bc:9b:21,TAFE-Events,-69,0,0,0;c8:b5:ad:31:26:81,TAFE-Events,-74,0,0,0;

Scan7;00:02:6f:12:34:50,Telstra Air,-60,0,0,0;44:1e:98:55:8b:2c,eduroam,-71,0,0,0;44:1e:98:15:8b:2c,INSEARCH Secure,-70,0,0,0;44:1e:98:14:d9:4c,INSEARCH Secure,-83,0,0,0;44:1e:98:54:d9:4c,eduroam,-83,0,0,0;28:24:ff:8f:37:7e,ClickShare-A1.44,-90,0,0,0;44:1e:98:55:8b:28,eduroam,-62,0,0,0;44:1e:98:15:8b:28,INSEARCH Secure,-62,0,0,0;44:1e:98:54:e8:1c,eduroam,-86,0,0,0;12:13:31:e5:b2:91,TelstraE5B289,-88,0,0,0;44:1e:98:54:d2:1c,eduroam,-86,0,0,0;44:1e:98:14:d2:1c,INSEARCH Secure,-86,0,0,0;44:1e:98:14:e8:1c,INSEARCH Secure,-86,0,0,0;c8:b5:ad:31:27:f0,TAFENSW,-82,0,0,0;e8:1d:a8:2d:ec:5c,INSEARCH Secure,-80,0,0,0;e8:1d:a8:6d:ec:5c,eduroam,-80,0,0,0;c8:b5:ad:31:26:90,TAFENSW,-87,0,0,0;c8:b5:ad:31:27:f1,TAFE-Events,-81,0,0,0;d8:c7:c8:4c:eb:50,TAFENSW,-78,0,0,0;28:24:ff:94:bd:e1,ClickShare-A1.10,-86,0,0,0;24:f2:7f:bc:9b:30,TAFENSW,-80,0,0,0;24:f2:7f:bc:7a:90,TAFENSW,-83,0,0,0;d8:c7:c8:4c:eb:51,TAFE-Events,-78,0,0,0;24:f2:7f:bc:9b:31,TAFE-Events,-79,0,0,0;24:f2:7f:bc:7a:91,TAFE-Events,-83,0,0,0;e8:1d:a8:2e:e1:38,INSEARCH Secure,-72,0,0,0;24:f2:7f:bc:7a:80,TAFENSW,-71,0,0,0;28:24:ff:94:bb:5f,ClickShare-A2.24,-87,0,0,0;e8:1d:a8:2d:ef:0c,INSEARCH Secure,-88,0,0,0;e8:1d:a8:6d:ef:0c,eduroam,-89,0,0,0;12:13:31:e6:96:b5,TelstraE696AD,-88,0,0,0;c8:b5:ad:31:7f:f0,TAFENSW,-92,0,0,0;24:f2:7f:bc:7a:81,TAFE-Events,-72,0,0,0;c8:b5:ad:31:26:91,TAFE-Events,-87,0,0,0;c8:b5:ad:31:7f:f1,TAFE-Events,-91,0,0,0;c8:b5:ad:31:6e:91,TAFE-Events,-95,0,0,0;24:f2:7f:bc:9b:20,TAFENSW,-68,0,0,0;d8:c7:c8:4c:eb:40,TAFENSW,-69,0,0,0;44:1e:98:14:d9:48,INSEARCH Secure,-71,0,0,0;c8:b5:ad:31:26:80,TAFENSW,-74,0,0,0;e8:1d:a8:6e:e1:38,eduroam,-74,0,0,0;44:1e:98:54:d9:48,eduroam,-75,0,0,0;44:1e:98:54:e8:18,eduroam,-76,0,0,0;44:1e:98:14:e8:18,INSEARCH Secure,-76,0,0,0;44:1e:98:54:ec:ac,eduroam,-91,0,0,0;e8:1d:a8:2e:27:9c,INSEARCH Secure,-92,0,0,0;12:13:31:e6:c5:e7,TelstraE6C5DF,-92,0,0,0;e8:1d:a8:6e:27:9c,eduroam,-93,0,0,0;c8:b5:ad:31:6e:90,TAFENSW,-96,0,0,0;24:f2:7f:bc:9b:21,TAFE-Events,-69,0,0,0;c8:b5:ad:31:26:81,TAFE-Events,-74,0,0,0;

