Scan1;a2:cc:2b:62:35:a3,AC-UTY-a0cc2b6235a3,-72,0,0,0;d8:c7:c8:4f:c0:90,TAFENSW,-79,0,0,0;d8:c7:c8:4f:c0:91,TAFE-Events,-79,0,0,0;94:b4:0f:09:6b:b1,UTS-WPA,-87,0,0,0;94:b4:0f:09:6b:b3,ISF-Guest,-87,0,0,0;9c:1c:12:86:5c:90,UTS-WPA,-86,0,0,0;9c:1c:12:86:5c:92,UTS-Duress,-86,0,0,0;d8:c7:c8:4c:fa:b0,TAFENSW,-92,0,0,0;84:d4:7e:f9:d1:91,UTS-WPA,-88,0,0,0;9c:1c:12:8f:b8:50,UTS-WPA,-91,0,0,0;9c:1c:12:8f:b8:52,UTS-Duress,-92,0,0,0;d8:c7:c8:4c:fa:b1,TAFE-Events,-91,0,0,0;9c:1c:12:86:77:b1,eduroam,-88,0,0,0;9c:1c:12:86:77:b0,UTS-WPA,-89,0,0,0;9c:1c:12:86:77:b2,UTS-Duress,-88,0,0,0;9c:1c:12:8f:b7:d0,UTS-WPA,-92,0,0,0;6c:f3:7f:a1:42:70,TAFENSW,-79,0,0,0;9c:1c:12:8f:b8:51,eduroam,-92,0,0,0;9c:1c:12:8f:b6:d0,UTS-WPA,-83,0,0,0;94:b4:0f:09:7e:31,UTS-WPA,-94,0,0,0;9c:1c:12:8f:b6:d1,eduroam,-83,0,0,0;84:d4:7e:f9:d1:81,UTS-WPA,-72,0,0,0;d8:c7:c8:4c:fa:71,TAFE-Events,-91,0,0,0;d8:c7:c8:4f:c0:80,TAFENSW,-72,0,0,0;d8:c7:c8:4c:f4:f0,TAFENSW,-88,0,0,0;6c:f3:7f:a1:4a:f0,TAFENSW,-89,0,0,0;d8:c7:c8:4c:f4:f1,TAFE-Events,-89,0,0,0;d8:c7:c8:4c:f9:71,TAFE-Events,-85,0,0,0;6c:f3:7f:a1:4a:f1,TAFE-Events,-89,0,0,0;6c:f3:7f:a1:42:60,TAFENSW,-70,0,0,0;d8:c7:c8:4c:fa:50,TAFENSW,-81,0,0,0;9c:1c:12:8f:ba:30,UTS-WPA,-86,0,0,0;9c:1c:12:8f:ba:32,UTS-Duress,-87,0,0,0;9c:1c:12:86:5c:91,eduroam,-86,0,0,0;d8:c7:c8:4f:ca:f0,TAFENSW,-87,0,0,0;d8:c7:c8:4f:cc:50,TAFENSW,-89,0,0,0;d8:c7:c8:4c:fa:70,TAFENSW,-91,0,0,0;d8:c7:c8:4f:cb:90,TAFENSW,-91,0,0,0;6c:f3:7f:a1:42:71,TAFE-Events,-79,0,0,0;d8:c7:c8:4c:fa:51,TAFE-Events,-80,0,0,0;d8:c7:c8:4f:ca:f1,TAFE-Events,-87,0,0,0;d8:c7:c8:4f:cc:51,TAFE-Events,-91,0,0,0;d8:c7:c8:4f:cb:91,TAFE-Events,-91,0,0,0;e4:f4:c6:00:c6:ee,skynet,-77,0,0,0;d8:c7:c8:4c:f9:70,TAFENSW,-85,0,0,0;9c:1c:12:8f:b6:d2,UTS-Duress,-85,0,0,0;94:b4:0f:09:7e:30,eduroam,-93,0,0,0;9c:1c:12:8f:c7:52,UTS-Techsvc,-93,0,0,0;94:b4:0f:09:5d:d3,ISF-Guest,-94,0,0,0;94:b4:0f:09:5d:d0,eduroam,-94,0,0,0;9c:1c:12:8f:c7:51,eduroam,-94,0,0,0;9c:1c:12:8f:c7:50,UTS-WPA,-94,0,0,0;9c:1c:12:86:59:72,UTS-Techsvc,-94,0,0,0;9c:1c:12:86:59:71,eduroam,-94,0,0,0;9c:1c:12:86:59:70,UTS-WPA,-94,0,0,0;94:b4:0f:09:5d:d1,UTS-WPA,-95,0,0,0;94:b4:0f:09:6e:11,UTS-WPA,-96,0,0,0;94:b4:0f:09:6e:13,ISF-Guest,-96,0,0,0;6c:f3:7f:a1:3c:10,TAFENSW,-96,0,0,0;94:b4:0f:09:76:b3,ISF-Guest,-97,0,0,0;94:b4:0f:09:6e:10,eduroam,-97,0,0,0;d8:c7:c8:4c:f4:90,TAFENSW,-98,0,0,0;6c:f3:7f:a1:3c:11,TAFE-Events,-95,0,0,0;d8:c7:c8:4c:f4:91,TAFE-Events,-99,0,0,0;

Scan2;a2:cc:2b:62:35:a3,AC-UTY-a0cc2b6235a3,-72,0,0,0;d8:c7:c8:4f:c0:90,TAFENSW,-79,0,0,0;d8:c7:c8:4f:c0:91,TAFE-Events,-79,0,0,0;94:b4:0f:09:6b:b1,UTS-WPA,-87,0,0,0;94:b4:0f:09:6b:b3,ISF-Guest,-87,0,0,0;9c:1c:12:86:5c:90,UTS-WPA,-86,0,0,0;9c:1c:12:86:5c:92,UTS-Duress,-86,0,0,0;d8:c7:c8:4c:fa:b0,TAFENSW,-92,0,0,0;84:d4:7e:f9:d1:91,UTS-WPA,-88,0,0,0;9c:1c:12:8f:b8:50,UTS-WPA,-91,0,0,0;9c:1c:12:8f:b8:52,UTS-Duress,-92,0,0,0;d8:c7:c8:4c:fa:b1,TAFE-Events,-91,0,0,0;9c:1c:12:86:77:b1,eduroam,-88,0,0,0;9c:1c:12:86:77:b0,UTS-WPA,-89,0,0,0;9c:1c:12:86:77:b2,UTS-Duress,-88,0,0,0;9c:1c:12:8f:b7:d0,UTS-WPA,-92,0,0,0;6c:f3:7f:a1:42:70,TAFENSW,-79,0,0,0;9c:1c:12:8f:b8:51,eduroam,-92,0,0,0;9c:1c:12:8f:b6:d0,UTS-WPA,-83,0,0,0;94:b4:0f:09:7e:31,UTS-WPA,-94,0,0,0;9c:1c:12:8f:b6:d1,eduroam,-83,0,0,0;84:d4:7e:f9:d1:81,UTS-WPA,-72,0,0,0;d8:c7:c8:4c:fa:71,TAFE-Events,-91,0,0,0;d8:c7:c8:4f:c0:80,TAFENSW,-72,0,0,0;d8:c7:c8:4c:f4:f0,TAFENSW,-88,0,0,0;6c:f3:7f:a1:4a:f0,TAFENSW,-89,0,0,0;d8:c7:c8:4c:f4:f1,TAFE-Events,-89,0,0,0;d8:c7:c8:4c:f9:71,TAFE-Events,-85,0,0,0;6c:f3:7f:a1:4a:f1,TAFE-Events,-89,0,0,0;6c:f3:7f:a1:42:60,TAFENSW,-70,0,0,0;d8:c7:c8:4c:fa:50,TAFENSW,-81,0,0,0;9c:1c:12:8f:ba:30,UTS-WPA,-86,0,0,0;9c:1c:12:8f:ba:32,UTS-Duress,-87,0,0,0;9c:1c:12:86:5c:91,eduroam,-86,0,0,0;d8:c7:c8:4f:ca:f0,TAFENSW,-87,0,0,0;d8:c7:c8:4f:cc:50,TAFENSW,-89,0,0,0;d8:c7:c8:4c:fa:70,TAFENSW,-91,0,0,0;d8:c7:c8:4f:cb:90,TAFENSW,-91,0,0,0;6c:f3:7f:a1:42:71,TAFE-Events,-79,0,0,0;d8:c7:c8:4c:fa:51,TAFE-Events,-80,0,0,0;d8:c7:c8:4f:ca:f1,TAFE-Events,-87,0,0,0;d8:c7:c8:4f:cc:51,TAFE-Events,-91,0,0,0;d8:c7:c8:4f:cb:91,TAFE-Events,-91,0,0,0;e4:f4:c6:00:c6:ee,skynet,-77,0,0,0;d8:c7:c8:4c:f9:70,TAFENSW,-85,0,0,0;9c:1c:12:8f:b6:d2,UTS-Duress,-85,0,0,0;94:b4:0f:09:7e:30,eduroam,-93,0,0,0;9c:1c:12:8f:c7:52,UTS-Techsvc,-93,0,0,0;94:b4:0f:09:5d:d3,ISF-Guest,-94,0,0,0;94:b4:0f:09:5d:d0,eduroam,-94,0,0,0;9c:1c:12:8f:c7:51,eduroam,-94,0,0,0;9c:1c:12:8f:c7:50,UTS-WPA,-94,0,0,0;9c:1c:12:86:59:72,UTS-Techsvc,-94,0,0,0;9c:1c:12:86:59:71,eduroam,-94,0,0,0;9c:1c:12:86:59:70,UTS-WPA,-94,0,0,0;94:b4:0f:09:5d:d1,UTS-WPA,-95,0,0,0;94:b4:0f:09:6e:11,UTS-WPA,-96,0,0,0;94:b4:0f:09:6e:13,ISF-Guest,-96,0,0,0;6c:f3:7f:a1:3c:10,TAFENSW,-96,0,0,0;94:b4:0f:09:76:b3,ISF-Guest,-97,0,0,0;94:b4:0f:09:6e:10,eduroam,-97,0,0,0;d8:c7:c8:4c:f4:90,TAFENSW,-98,0,0,0;6c:f3:7f:a1:3c:11,TAFE-Events,-95,0,0,0;d8:c7:c8:4c:f4:91,TAFE-Events,-99,0,0,0;

Scan3;a2:cc:2b:62:35:a3,AC-UTY-a0cc2b6235a3,-72,0,0,0;d8:c7:c8:4f:c0:90,TAFENSW,-79,0,0,0;d8:c7:c8:4f:c0:91,TAFE-Events,-79,0,0,0;94:b4:0f:09:6b:b1,UTS-WPA,-87,0,0,0;94:b4:0f:09:6b:b3,ISF-Guest,-87,0,0,0;9c:1c:12:86:5c:90,UTS-WPA,-86,0,0,0;9c:1c:12:86:5c:92,UTS-Duress,-86,0,0,0;d8:c7:c8:4c:fa:b0,TAFENSW,-92,0,0,0;84:d4:7e:f9:d1:91,UTS-WPA,-88,0,0,0;9c:1c:12:8f:b8:50,UTS-WPA,-91,0,0,0;9c:1c:12:8f:b8:52,UTS-Duress,-92,0,0,0;d8:c7:c8:4c:fa:b1,TAFE-Events,-91,0,0,0;9c:1c:12:86:77:b1,eduroam,-88,0,0,0;9c:1c:12:86:77:b0,UTS-WPA,-89,0,0,0;9c:1c:12:86:77:b2,UTS-Duress,-88,0,0,0;9c:1c:12:8f:b7:d0,UTS-WPA,-92,0,0,0;6c:f3:7f:a1:42:70,TAFENSW,-79,0,0,0;9c:1c:12:8f:b8:51,eduroam,-92,0,0,0;9c:1c:12:8f:b6:d0,UTS-WPA,-83,0,0,0;94:b4:0f:09:7e:31,UTS-WPA,-94,0,0,0;9c:1c:12:8f:b6:d1,eduroam,-83,0,0,0;84:d4:7e:f9:d1:81,UTS-WPA,-72,0,0,0;d8:c7:c8:4c:fa:71,TAFE-Events,-91,0,0,0;d8:c7:c8:4f:c0:80,TAFENSW,-72,0,0,0;d8:c7:c8:4c:f4:f0,TAFENSW,-88,0,0,0;6c:f3:7f:a1:4a:f0,TAFENSW,-89,0,0,0;d8:c7:c8:4c:f4:f1,TAFE-Events,-89,0,0,0;d8:c7:c8:4c:f9:71,TAFE-Events,-85,0,0,0;6c:f3:7f:a1:4a:f1,TAFE-Events,-89,0,0,0;6c:f3:7f:a1:42:60,TAFENSW,-70,0,0,0;d8:c7:c8:4c:fa:50,TAFENSW,-81,0,0,0;9c:1c:12:8f:ba:30,UTS-WPA,-86,0,0,0;9c:1c:12:8f:ba:32,UTS-Duress,-87,0,0,0;9c:1c:12:86:5c:91,eduroam,-86,0,0,0;d8:c7:c8:4f:ca:f0,TAFENSW,-87,0,0,0;d8:c7:c8:4f:cc:50,TAFENSW,-89,0,0,0;d8:c7:c8:4c:fa:70,TAFENSW,-91,0,0,0;d8:c7:c8:4f:cb:90,TAFENSW,-91,0,0,0;6c:f3:7f:a1:42:71,TAFE-Events,-79,0,0,0;d8:c7:c8:4c:fa:51,TAFE-Events,-80,0,0,0;d8:c7:c8:4f:ca:f1,TAFE-Events,-87,0,0,0;d8:c7:c8:4f:cc:51,TAFE-Events,-91,0,0,0;d8:c7:c8:4f:cb:91,TAFE-Events,-91,0,0,0;e4:f4:c6:00:c6:ee,skynet,-77,0,0,0;d8:c7:c8:4c:f9:70,TAFENSW,-85,0,0,0;9c:1c:12:8f:b6:d2,UTS-Duress,-85,0,0,0;94:b4:0f:09:7e:30,eduroam,-93,0,0,0;9c:1c:12:8f:c7:52,UTS-Techsvc,-93,0,0,0;94:b4:0f:09:5d:d3,ISF-Guest,-94,0,0,0;94:b4:0f:09:5d:d0,eduroam,-94,0,0,0;9c:1c:12:8f:c7:51,eduroam,-94,0,0,0;9c:1c:12:8f:c7:50,UTS-WPA,-94,0,0,0;9c:1c:12:86:59:72,UTS-Techsvc,-94,0,0,0;9c:1c:12:86:59:71,eduroam,-94,0,0,0;9c:1c:12:86:59:70,UTS-WPA,-94,0,0,0;94:b4:0f:09:5d:d1,UTS-WPA,-95,0,0,0;94:b4:0f:09:6e:11,UTS-WPA,-96,0,0,0;94:b4:0f:09:6e:13,ISF-Guest,-96,0,0,0;6c:f3:7f:a1:3c:10,TAFENSW,-96,0,0,0;94:b4:0f:09:76:b3,ISF-Guest,-97,0,0,0;94:b4:0f:09:6e:10,eduroam,-97,0,0,0;d8:c7:c8:4c:f4:90,TAFENSW,-98,0,0,0;6c:f3:7f:a1:3c:11,TAFE-Events,-95,0,0,0;d8:c7:c8:4c:f4:91,TAFE-Events,-99,0,0,0;

Scan4;a2:cc:2b:62:35:a3,AC-UTY-a0cc2b6235a3,-72,0,0,0;d8:c7:c8:4f:c0:90,TAFENSW,-79,0,0,0;d8:c7:c8:4f:c0:91,TAFE-Events,-79,0,0,0;94:b4:0f:09:6b:b1,UTS-WPA,-87,0,0,0;94:b4:0f:09:6b:b3,ISF-Guest,-87,0,0,0;9c:1c:12:86:5c:90,UTS-WPA,-86,0,0,0;9c:1c:12:86:5c:92,UTS-Duress,-86,0,0,0;d8:c7:c8:4c:fa:b0,TAFENSW,-92,0,0,0;84:d4:7e:f9:d1:91,UTS-WPA,-88,0,0,0;9c:1c:12:8f:b8:50,UTS-WPA,-91,0,0,0;9c:1c:12:8f:b8:52,UTS-Duress,-92,0,0,0;d8:c7:c8:4c:fa:b1,TAFE-Events,-91,0,0,0;9c:1c:12:86:77:b1,eduroam,-88,0,0,0;9c:1c:12:86:77:b0,UTS-WPA,-89,0,0,0;9c:1c:12:86:77:b2,UTS-Duress,-88,0,0,0;9c:1c:12:8f:b7:d0,UTS-WPA,-92,0,0,0;6c:f3:7f:a1:42:70,TAFENSW,-79,0,0,0;9c:1c:12:8f:b8:51,eduroam,-92,0,0,0;9c:1c:12:8f:b6:d0,UTS-WPA,-83,0,0,0;94:b4:0f:09:7e:31,UTS-WPA,-94,0,0,0;9c:1c:12:8f:b6:d1,eduroam,-83,0,0,0;84:d4:7e:f9:d1:81,UTS-WPA,-72,0,0,0;d8:c7:c8:4c:fa:71,TAFE-Events,-91,0,0,0;d8:c7:c8:4f:c0:80,TAFENSW,-72,0,0,0;d8:c7:c8:4c:f4:f0,TAFENSW,-88,0,0,0;6c:f3:7f:a1:4a:f0,TAFENSW,-89,0,0,0;d8:c7:c8:4c:f4:f1,TAFE-Events,-89,0,0,0;d8:c7:c8:4c:f9:71,TAFE-Events,-85,0,0,0;6c:f3:7f:a1:4a:f1,TAFE-Events,-89,0,0,0;6c:f3:7f:a1:42:60,TAFENSW,-70,0,0,0;d8:c7:c8:4c:fa:50,TAFENSW,-81,0,0,0;9c:1c:12:8f:ba:30,UTS-WPA,-86,0,0,0;9c:1c:12:8f:ba:32,UTS-Duress,-87,0,0,0;9c:1c:12:86:5c:91,eduroam,-86,0,0,0;d8:c7:c8:4f:ca:f0,TAFENSW,-87,0,0,0;d8:c7:c8:4f:cc:50,TAFENSW,-89,0,0,0;d8:c7:c8:4c:fa:70,TAFENSW,-91,0,0,0;d8:c7:c8:4f:cb:90,TAFENSW,-91,0,0,0;6c:f3:7f:a1:42:71,TAFE-Events,-79,0,0,0;d8:c7:c8:4c:fa:51,TAFE-Events,-80,0,0,0;d8:c7:c8:4f:ca:f1,TAFE-Events,-87,0,0,0;d8:c7:c8:4f:cc:51,TAFE-Events,-91,0,0,0;d8:c7:c8:4f:cb:91,TAFE-Events,-91,0,0,0;e4:f4:c6:00:c6:ee,skynet,-77,0,0,0;d8:c7:c8:4c:f9:70,TAFENSW,-85,0,0,0;9c:1c:12:8f:b6:d2,UTS-Duress,-85,0,0,0;94:b4:0f:09:7e:30,eduroam,-93,0,0,0;9c:1c:12:8f:c7:52,UTS-Techsvc,-93,0,0,0;94:b4:0f:09:5d:d3,ISF-Guest,-94,0,0,0;94:b4:0f:09:5d:d0,eduroam,-94,0,0,0;9c:1c:12:8f:c7:51,eduroam,-94,0,0,0;9c:1c:12:8f:c7:50,UTS-WPA,-94,0,0,0;9c:1c:12:86:59:72,UTS-Techsvc,-94,0,0,0;9c:1c:12:86:59:71,eduroam,-94,0,0,0;9c:1c:12:86:59:70,UTS-WPA,-94,0,0,0;94:b4:0f:09:5d:d1,UTS-WPA,-95,0,0,0;94:b4:0f:09:6e:11,UTS-WPA,-96,0,0,0;94:b4:0f:09:6e:13,ISF-Guest,-96,0,0,0;6c:f3:7f:a1:3c:10,TAFENSW,-96,0,0,0;94:b4:0f:09:76:b3,ISF-Guest,-97,0,0,0;94:b4:0f:09:6e:10,eduroam,-97,0,0,0;d8:c7:c8:4c:f4:90,TAFENSW,-98,0,0,0;6c:f3:7f:a1:3c:11,TAFE-Events,-95,0,0,0;d8:c7:c8:4c:f4:91,TAFE-Events,-99,0,0,0;

Scan5;a2:cc:2b:62:35:a3,AC-UTY-a0cc2b6235a3,-72,0,0,0;d8:c7:c8:4f:c0:90,TAFENSW,-79,0,0,0;d8:c7:c8:4f:c0:91,TAFE-Events,-79,0,0,0;94:b4:0f:09:6b:b1,UTS-WPA,-87,0,0,0;94:b4:0f:09:6b:b3,ISF-Guest,-87,0,0,0;9c:1c:12:86:5c:90,UTS-WPA,-86,0,0,0;9c:1c:12:86:5c:92,UTS-Duress,-86,0,0,0;d8:c7:c8:4c:fa:b0,TAFENSW,-92,0,0,0;84:d4:7e:f9:d1:91,UTS-WPA,-88,0,0,0;9c:1c:12:8f:b8:50,UTS-WPA,-91,0,0,0;9c:1c:12:8f:b8:52,UTS-Duress,-92,0,0,0;d8:c7:c8:4c:fa:b1,TAFE-Events,-91,0,0,0;9c:1c:12:86:77:b1,eduroam,-88,0,0,0;9c:1c:12:86:77:b0,UTS-WPA,-89,0,0,0;9c:1c:12:86:77:b2,UTS-Duress,-88,0,0,0;9c:1c:12:8f:b7:d0,UTS-WPA,-92,0,0,0;6c:f3:7f:a1:42:70,TAFENSW,-79,0,0,0;9c:1c:12:8f:b8:51,eduroam,-92,0,0,0;9c:1c:12:8f:b6:d0,UTS-WPA,-83,0,0,0;94:b4:0f:09:7e:31,UTS-WPA,-94,0,0,0;9c:1c:12:8f:b6:d1,eduroam,-83,0,0,0;84:d4:7e:f9:d1:81,UTS-WPA,-72,0,0,0;d8:c7:c8:4c:fa:71,TAFE-Events,-91,0,0,0;d8:c7:c8:4f:c0:80,TAFENSW,-72,0,0,0;d8:c7:c8:4c:f4:f0,TAFENSW,-88,0,0,0;6c:f3:7f:a1:4a:f0,TAFENSW,-89,0,0,0;d8:c7:c8:4c:f4:f1,TAFE-Events,-89,0,0,0;d8:c7:c8:4c:f9:71,TAFE-Events,-85,0,0,0;6c:f3:7f:a1:4a:f1,TAFE-Events,-89,0,0,0;6c:f3:7f:a1:42:60,TAFENSW,-70,0,0,0;d8:c7:c8:4c:fa:50,TAFENSW,-81,0,0,0;9c:1c:12:8f:ba:30,UTS-WPA,-86,0,0,0;9c:1c:12:8f:ba:32,UTS-Duress,-87,0,0,0;9c:1c:12:86:5c:91,eduroam,-86,0,0,0;d8:c7:c8:4f:ca:f0,TAFENSW,-87,0,0,0;d8:c7:c8:4f:cc:50,TAFENSW,-89,0,0,0;d8:c7:c8:4c:fa:70,TAFENSW,-91,0,0,0;d8:c7:c8:4f:cb:90,TAFENSW,-91,0,0,0;6c:f3:7f:a1:42:71,TAFE-Events,-79,0,0,0;d8:c7:c8:4c:fa:51,TAFE-Events,-80,0,0,0;d8:c7:c8:4f:ca:f1,TAFE-Events,-87,0,0,0;d8:c7:c8:4f:cc:51,TAFE-Events,-91,0,0,0;d8:c7:c8:4f:cb:91,TAFE-Events,-91,0,0,0;e4:f4:c6:00:c6:ee,skynet,-77,0,0,0;d8:c7:c8:4c:f9:70,TAFENSW,-85,0,0,0;9c:1c:12:8f:b6:d2,UTS-Duress,-85,0,0,0;94:b4:0f:09:7e:30,eduroam,-93,0,0,0;9c:1c:12:8f:c7:52,UTS-Techsvc,-93,0,0,0;94:b4:0f:09:5d:d3,ISF-Guest,-94,0,0,0;94:b4:0f:09:5d:d0,eduroam,-94,0,0,0;9c:1c:12:8f:c7:51,eduroam,-94,0,0,0;9c:1c:12:8f:c7:50,UTS-WPA,-94,0,0,0;9c:1c:12:86:59:72,UTS-Techsvc,-94,0,0,0;9c:1c:12:86:59:71,eduroam,-94,0,0,0;9c:1c:12:86:59:70,UTS-WPA,-94,0,0,0;94:b4:0f:09:5d:d1,UTS-WPA,-95,0,0,0;94:b4:0f:09:6e:11,UTS-WPA,-96,0,0,0;94:b4:0f:09:6e:13,ISF-Guest,-96,0,0,0;6c:f3:7f:a1:3c:10,TAFENSW,-96,0,0,0;94:b4:0f:09:76:b3,ISF-Guest,-97,0,0,0;94:b4:0f:09:6e:10,eduroam,-97,0,0,0;d8:c7:c8:4c:f4:90,TAFENSW,-98,0,0,0;6c:f3:7f:a1:3c:11,TAFE-Events,-95,0,0,0;d8:c7:c8:4c:f4:91,TAFE-Events,-99,0,0,0;

Scan6;a2:cc:2b:62:35:a3,AC-UTY-a0cc2b6235a3,-72,0,0,0;d8:c7:c8:4f:c0:90,TAFENSW,-79,0,0,0;d8:c7:c8:4f:c0:91,TAFE-Events,-79,0,0,0;94:b4:0f:09:6b:b1,UTS-WPA,-87,0,0,0;94:b4:0f:09:6b:b3,ISF-Guest,-87,0,0,0;9c:1c:12:86:5c:90,UTS-WPA,-86,0,0,0;9c:1c:12:86:5c:92,UTS-Duress,-86,0,0,0;d8:c7:c8:4c:fa:b0,TAFENSW,-92,0,0,0;84:d4:7e:f9:d1:91,UTS-WPA,-88,0,0,0;9c:1c:12:8f:b8:50,UTS-WPA,-91,0,0,0;9c:1c:12:8f:b8:52,UTS-Duress,-92,0,0,0;d8:c7:c8:4c:fa:b1,TAFE-Events,-91,0,0,0;9c:1c:12:86:77:b1,eduroam,-88,0,0,0;9c:1c:12:86:77:b0,UTS-WPA,-89,0,0,0;9c:1c:12:86:77:b2,UTS-Duress,-88,0,0,0;9c:1c:12:8f:b7:d0,UTS-WPA,-92,0,0,0;6c:f3:7f:a1:42:70,TAFENSW,-79,0,0,0;9c:1c:12:8f:b8:51,eduroam,-92,0,0,0;9c:1c:12:8f:b6:d0,UTS-WPA,-83,0,0,0;94:b4:0f:09:7e:31,UTS-WPA,-94,0,0,0;9c:1c:12:8f:b6:d1,eduroam,-83,0,0,0;84:d4:7e:f9:d1:81,UTS-WPA,-72,0,0,0;d8:c7:c8:4c:fa:71,TAFE-Events,-91,0,0,0;d8:c7:c8:4f:c0:80,TAFENSW,-72,0,0,0;d8:c7:c8:4c:f4:f0,TAFENSW,-88,0,0,0;6c:f3:7f:a1:4a:f0,TAFENSW,-89,0,0,0;d8:c7:c8:4c:f4:f1,TAFE-Events,-89,0,0,0;d8:c7:c8:4c:f9:71,TAFE-Events,-85,0,0,0;6c:f3:7f:a1:4a:f1,TAFE-Events,-89,0,0,0;6c:f3:7f:a1:42:60,TAFENSW,-70,0,0,0;d8:c7:c8:4c:fa:50,TAFENSW,-81,0,0,0;9c:1c:12:8f:ba:30,UTS-WPA,-86,0,0,0;9c:1c:12:8f:ba:32,UTS-Duress,-87,0,0,0;9c:1c:12:86:5c:91,eduroam,-86,0,0,0;d8:c7:c8:4f:ca:f0,TAFENSW,-87,0,0,0;d8:c7:c8:4f:cc:50,TAFENSW,-89,0,0,0;d8:c7:c8:4c:fa:70,TAFENSW,-91,0,0,0;d8:c7:c8:4f:cb:90,TAFENSW,-91,0,0,0;6c:f3:7f:a1:42:71,TAFE-Events,-79,0,0,0;d8:c7:c8:4c:fa:51,TAFE-Events,-80,0,0,0;d8:c7:c8:4f:ca:f1,TAFE-Events,-87,0,0,0;d8:c7:c8:4f:cc:51,TAFE-Events,-91,0,0,0;d8:c7:c8:4f:cb:91,TAFE-Events,-91,0,0,0;e4:f4:c6:00:c6:ee,skynet,-77,0,0,0;d8:c7:c8:4c:f9:70,TAFENSW,-85,0,0,0;9c:1c:12:8f:b6:d2,UTS-Duress,-85,0,0,0;94:b4:0f:09:7e:30,eduroam,-93,0,0,0;9c:1c:12:8f:c7:52,UTS-Techsvc,-93,0,0,0;94:b4:0f:09:5d:d3,ISF-Guest,-94,0,0,0;94:b4:0f:09:5d:d0,eduroam,-94,0,0,0;9c:1c:12:8f:c7:51,eduroam,-94,0,0,0;9c:1c:12:8f:c7:50,UTS-WPA,-94,0,0,0;9c:1c:12:86:59:72,UTS-Techsvc,-94,0,0,0;9c:1c:12:86:59:71,eduroam,-94,0,0,0;9c:1c:12:86:59:70,UTS-WPA,-94,0,0,0;94:b4:0f:09:5d:d1,UTS-WPA,-95,0,0,0;94:b4:0f:09:6e:11,UTS-WPA,-96,0,0,0;94:b4:0f:09:6e:13,ISF-Guest,-96,0,0,0;6c:f3:7f:a1:3c:10,TAFENSW,-96,0,0,0;94:b4:0f:09:76:b3,ISF-Guest,-97,0,0,0;94:b4:0f:09:6e:10,eduroam,-97,0,0,0;d8:c7:c8:4c:f4:90,TAFENSW,-98,0,0,0;6c:f3:7f:a1:3c:11,TAFE-Events,-95,0,0,0;d8:c7:c8:4c:f4:91,TAFE-Events,-99,0,0,0;

Scan7;a2:cc:2b:62:35:a3,AC-UTY-a0cc2b6235a3,-72,0,0,0;d8:c7:c8:4f:c0:90,TAFENSW,-79,0,0,0;d8:c7:c8:4f:c0:91,TAFE-Events,-79,0,0,0;94:b4:0f:09:6b:b1,UTS-WPA,-87,0,0,0;94:b4:0f:09:6b:b3,ISF-Guest,-87,0,0,0;9c:1c:12:86:5c:90,UTS-WPA,-86,0,0,0;9c:1c:12:86:5c:92,UTS-Duress,-86,0,0,0;d8:c7:c8:4c:fa:b0,TAFENSW,-92,0,0,0;84:d4:7e:f9:d1:91,UTS-WPA,-88,0,0,0;9c:1c:12:8f:b8:50,UTS-WPA,-91,0,0,0;9c:1c:12:8f:b8:52,UTS-Duress,-92,0,0,0;d8:c7:c8:4c:fa:b1,TAFE-Events,-91,0,0,0;9c:1c:12:86:77:b1,eduroam,-88,0,0,0;9c:1c:12:86:77:b0,UTS-WPA,-89,0,0,0;9c:1c:12:86:77:b2,UTS-Duress,-88,0,0,0;9c:1c:12:8f:b7:d0,UTS-WPA,-92,0,0,0;6c:f3:7f:a1:42:70,TAFENSW,-79,0,0,0;9c:1c:12:8f:b8:51,eduroam,-92,0,0,0;9c:1c:12:8f:b6:d0,UTS-WPA,-83,0,0,0;94:b4:0f:09:7e:31,UTS-WPA,-94,0,0,0;9c:1c:12:8f:b6:d1,eduroam,-83,0,0,0;84:d4:7e:f9:d1:81,UTS-WPA,-72,0,0,0;d8:c7:c8:4c:fa:71,TAFE-Events,-91,0,0,0;d8:c7:c8:4f:c0:80,TAFENSW,-72,0,0,0;d8:c7:c8:4c:f4:f0,TAFENSW,-88,0,0,0;6c:f3:7f:a1:4a:f0,TAFENSW,-89,0,0,0;d8:c7:c8:4c:f4:f1,TAFE-Events,-89,0,0,0;d8:c7:c8:4c:f9:71,TAFE-Events,-85,0,0,0;6c:f3:7f:a1:4a:f1,TAFE-Events,-89,0,0,0;6c:f3:7f:a1:42:60,TAFENSW,-70,0,0,0;d8:c7:c8:4c:fa:50,TAFENSW,-81,0,0,0;9c:1c:12:8f:ba:30,UTS-WPA,-86,0,0,0;9c:1c:12:8f:ba:32,UTS-Duress,-87,0,0,0;9c:1c:12:86:5c:91,eduroam,-86,0,0,0;d8:c7:c8:4f:ca:f0,TAFENSW,-87,0,0,0;d8:c7:c8:4f:cc:50,TAFENSW,-89,0,0,0;d8:c7:c8:4c:fa:70,TAFENSW,-91,0,0,0;d8:c7:c8:4f:cb:90,TAFENSW,-91,0,0,0;6c:f3:7f:a1:42:71,TAFE-Events,-79,0,0,0;d8:c7:c8:4c:fa:51,TAFE-Events,-80,0,0,0;d8:c7:c8:4f:ca:f1,TAFE-Events,-87,0,0,0;d8:c7:c8:4f:cc:51,TAFE-Events,-91,0,0,0;d8:c7:c8:4f:cb:91,TAFE-Events,-91,0,0,0;e4:f4:c6:00:c6:ee,skynet,-77,0,0,0;d8:c7:c8:4c:f9:70,TAFENSW,-85,0,0,0;9c:1c:12:8f:b6:d2,UTS-Duress,-85,0,0,0;94:b4:0f:09:7e:30,eduroam,-93,0,0,0;9c:1c:12:8f:c7:52,UTS-Techsvc,-93,0,0,0;94:b4:0f:09:5d:d3,ISF-Guest,-94,0,0,0;94:b4:0f:09:5d:d0,eduroam,-94,0,0,0;9c:1c:12:8f:c7:51,eduroam,-94,0,0,0;9c:1c:12:8f:c7:50,UTS-WPA,-94,0,0,0;9c:1c:12:86:59:72,UTS-Techsvc,-94,0,0,0;9c:1c:12:86:59:71,eduroam,-94,0,0,0;9c:1c:12:86:59:70,UTS-WPA,-94,0,0,0;94:b4:0f:09:5d:d1,UTS-WPA,-95,0,0,0;94:b4:0f:09:6e:11,UTS-WPA,-96,0,0,0;94:b4:0f:09:6e:13,ISF-Guest,-96,0,0,0;6c:f3:7f:a1:3c:10,TAFENSW,-96,0,0,0;94:b4:0f:09:76:b3,ISF-Guest,-97,0,0,0;94:b4:0f:09:6e:10,eduroam,-97,0,0,0;d8:c7:c8:4c:f4:90,TAFENSW,-98,0,0,0;6c:f3:7f:a1:3c:11,TAFE-Events,-95,0,0,0;d8:c7:c8:4c:f4:91,TAFE-Events,-99,0,0,0;

