Scan1;00:02:6f:12:34:50,Telstra Air,-75,0,0,0;44:1e:98:55:8b:2c,eduroam,-77,0,0,0;44:1e:98:15:8b:2c,INSEARCH Secure,-75,0,0,0;44:1e:98:14:d9:4c,INSEARCH Secure,-80,0,0,0;44:1e:98:54:d9:4c,eduroam,-81,0,0,0;44:1e:98:54:e8:1c,eduroam,-75,0,0,0;12:13:31:e5:b2:91,TelstraE5B289,-81,0,0,0;44:1e:98:54:d2:1c,eduroam,-79,0,0,0;44:1e:98:14:d2:1c,INSEARCH Secure,-79,0,0,0;44:1e:98:14:e8:1c,INSEARCH Secure,-74,0,0,0;e8:1d:a8:2d:ec:5c,INSEARCH Secure,-69,0,0,0;e8:1d:a8:6d:ec:5c,eduroam,-69,0,0,0;d8:c7:c8:4c:eb:50,TAFENSW,-79,0,0,0;24:f2:7f:bc:7a:90,TAFENSW,-81,0,0,0;d8:c7:c8:4c:eb:51,TAFE-Events,-79,0,0,0;24:f2:7f:bc:7a:91,TAFE-Events,-82,0,0,0;24:f2:7f:bc:7a:80,TAFENSW,-72,0,0,0;28:24:ff:94:bb:5f,ClickShare-A2.24,-92,0,0,0;12:13:31:e6:96:b5,TelstraE696AD,-93,0,0,0;e8:1d:a8:2e:27:9c,INSEARCH Secure,-86,0,0,0;e8:1d:a8:6e:27:9c,eduroam,-87,0,0,0;10:13:31:e6:96:ad,TelstraE696AD,-74,0,0,0;d8:c7:c8:4c:eb:b1,TAFE-Events,-85,0,0,0;e8:1d:a8:2d:ec:58,INSEARCH Secure,-62,0,0,0;e8:1d:a8:6d:ec:58,eduroam,-63,0,0,0;44:1e:98:54:d2:18,eduroam,-68,0,0,0;6c:f3:7f:a5:12:30,TAFENSW,-79,0,0,0;e8:1d:a8:2d:ef:0c,INSEARCH Secure,-76,0,0,0;e8:1d:a8:6d:ef:0c,eduroam,-77,0,0,0;44:1e:98:54:d8:dc,eduroam,-79,0,0,0;44:1e:98:55:91:ac,eduroam,-85,0,0,0;44:1e:98:15:91:ac,INSEARCH Secure,-85,0,0,0;30:b5:c2:b5:8d:0a,spooky viru5,-87,0,0,0;d8:c7:c8:4c:84:11,TAFENSW,-92,0,0,0;6c:f3:7f:a5:12:31,TAFE-Events,-79,0,0,0;44:1e:98:55:8b:28,eduroam,-61,0,0,0;44:1e:98:15:8b:28,INSEARCH Secure,-61,0,0,0;44:1e:98:54:e8:18,eduroam,-64,0,0,0;44:1e:98:14:e8:18,INSEARCH Secure,-65,0,0,0;e8:1d:a8:6d:ef:08,eduroam,-66,0,0,0;e8:1d:a8:2d:ef:08,INSEARCH Secure,-66,0,0,0;44:1e:98:54:d9:48,eduroam,-69,0,0,0;e8:1d:a8:6e:27:98,eduroam,-69,0,0,0;6c:f3:7f:a5:12:20,TAFENSW,-71,0,0,0;0a:18:d6:a9:d7:16,Velocityedu,-72,0,0,0;44:1e:98:14:d8:dc,INSEARCH Secure,-79,0,0,0;d8:c7:c8:4c:eb:b0,TAFENSW,-85,0,0,0;e8:1d:a8:2e:e1:3c,INSEARCH Secure,-91,0,0,0;12:13:31:e6:c5:e7,TelstraE6C5DF,-92,0,0,0;e8:1d:a8:6e:e1:3c,eduroam,-92,0,0,0;9c:1c:12:86:a4:b2,UTS-Business,-93,0,0,0;9c:1c:12:86:a4:b1,eduroam,-94,0,0,0;e8:1d:a8:6c:1d:1c,eduroam,-94,0,0,0;9c:1c:12:86:a4:b0,UTS-WPA,-94,0,0,0;9c:1c:12:86:a4:b3,Geography Teachers Association,-95,0,0,0;00:02:6f:12:34:56,,-65,0,0,0;6c:f3:7f:a5:12:21,TAFE-Events,-71,0,0,0;

Scan2;00:02:6f:12:34:50,Telstra Air,-75,0,0,0;44:1e:98:55:8b:2c,eduroam,-77,0,0,0;44:1e:98:15:8b:2c,INSEARCH Secure,-75,0,0,0;44:1e:98:14:d9:4c,INSEARCH Secure,-80,0,0,0;44:1e:98:54:d9:4c,eduroam,-81,0,0,0;44:1e:98:54:e8:1c,eduroam,-75,0,0,0;12:13:31:e5:b2:91,TelstraE5B289,-81,0,0,0;44:1e:98:54:d2:1c,eduroam,-79,0,0,0;44:1e:98:14:d2:1c,INSEARCH Secure,-79,0,0,0;44:1e:98:14:e8:1c,INSEARCH Secure,-74,0,0,0;e8:1d:a8:2d:ec:5c,INSEARCH Secure,-69,0,0,0;e8:1d:a8:6d:ec:5c,eduroam,-69,0,0,0;d8:c7:c8:4c:eb:50,TAFENSW,-79,0,0,0;24:f2:7f:bc:7a:90,TAFENSW,-81,0,0,0;d8:c7:c8:4c:eb:51,TAFE-Events,-79,0,0,0;24:f2:7f:bc:7a:91,TAFE-Events,-82,0,0,0;24:f2:7f:bc:7a:80,TAFENSW,-72,0,0,0;28:24:ff:94:bb:5f,ClickShare-A2.24,-92,0,0,0;12:13:31:e6:96:b5,TelstraE696AD,-93,0,0,0;e8:1d:a8:2e:27:9c,INSEARCH Secure,-86,0,0,0;e8:1d:a8:6e:27:9c,eduroam,-87,0,0,0;10:13:31:e6:96:ad,TelstraE696AD,-74,0,0,0;d8:c7:c8:4c:eb:b1,TAFE-Events,-85,0,0,0;e8:1d:a8:2d:ec:58,INSEARCH Secure,-62,0,0,0;e8:1d:a8:6d:ec:58,eduroam,-63,0,0,0;44:1e:98:54:d2:18,eduroam,-68,0,0,0;6c:f3:7f:a5:12:30,TAFENSW,-79,0,0,0;e8:1d:a8:2d:ef:0c,INSEARCH Secure,-76,0,0,0;e8:1d:a8:6d:ef:0c,eduroam,-77,0,0,0;44:1e:98:54:d8:dc,eduroam,-79,0,0,0;44:1e:98:55:91:ac,eduroam,-85,0,0,0;44:1e:98:15:91:ac,INSEARCH Secure,-85,0,0,0;30:b5:c2:b5:8d:0a,spooky viru5,-87,0,0,0;d8:c7:c8:4c:84:11,TAFENSW,-92,0,0,0;6c:f3:7f:a5:12:31,TAFE-Events,-79,0,0,0;44:1e:98:55:8b:28,eduroam,-61,0,0,0;44:1e:98:15:8b:28,INSEARCH Secure,-61,0,0,0;44:1e:98:54:e8:18,eduroam,-64,0,0,0;44:1e:98:14:e8:18,INSEARCH Secure,-65,0,0,0;e8:1d:a8:6d:ef:08,eduroam,-66,0,0,0;e8:1d:a8:2d:ef:08,INSEARCH Secure,-66,0,0,0;44:1e:98:54:d9:48,eduroam,-69,0,0,0;e8:1d:a8:6e:27:98,eduroam,-69,0,0,0;6c:f3:7f:a5:12:20,TAFENSW,-71,0,0,0;0a:18:d6:a9:d7:16,Velocityedu,-72,0,0,0;44:1e:98:14:d8:dc,INSEARCH Secure,-79,0,0,0;d8:c7:c8:4c:eb:b0,TAFENSW,-85,0,0,0;e8:1d:a8:2e:e1:3c,INSEARCH Secure,-91,0,0,0;12:13:31:e6:c5:e7,TelstraE6C5DF,-92,0,0,0;e8:1d:a8:6e:e1:3c,eduroam,-92,0,0,0;9c:1c:12:86:a4:b2,UTS-Business,-93,0,0,0;9c:1c:12:86:a4:b1,eduroam,-94,0,0,0;e8:1d:a8:6c:1d:1c,eduroam,-94,0,0,0;9c:1c:12:86:a4:b0,UTS-WPA,-94,0,0,0;9c:1c:12:86:a4:b3,Geography Teachers Association,-95,0,0,0;00:02:6f:12:34:56,,-65,0,0,0;6c:f3:7f:a5:12:21,TAFE-Events,-71,0,0,0;

Scan3;00:02:6f:12:34:50,Telstra Air,-75,0,0,0;44:1e:98:55:8b:2c,eduroam,-77,0,0,0;44:1e:98:15:8b:2c,INSEARCH Secure,-75,0,0,0;44:1e:98:14:d9:4c,INSEARCH Secure,-80,0,0,0;44:1e:98:54:d9:4c,eduroam,-81,0,0,0;44:1e:98:54:e8:1c,eduroam,-75,0,0,0;12:13:31:e5:b2:91,TelstraE5B289,-81,0,0,0;44:1e:98:54:d2:1c,eduroam,-79,0,0,0;44:1e:98:14:d2:1c,INSEARCH Secure,-79,0,0,0;44:1e:98:14:e8:1c,INSEARCH Secure,-74,0,0,0;e8:1d:a8:2d:ec:5c,INSEARCH Secure,-69,0,0,0;e8:1d:a8:6d:ec:5c,eduroam,-69,0,0,0;d8:c7:c8:4c:eb:50,TAFENSW,-79,0,0,0;24:f2:7f:bc:7a:90,TAFENSW,-81,0,0,0;d8:c7:c8:4c:eb:51,TAFE-Events,-79,0,0,0;24:f2:7f:bc:7a:91,TAFE-Events,-82,0,0,0;24:f2:7f:bc:7a:80,TAFENSW,-72,0,0,0;28:24:ff:94:bb:5f,ClickShare-A2.24,-92,0,0,0;12:13:31:e6:96:b5,TelstraE696AD,-93,0,0,0;e8:1d:a8:2e:27:9c,INSEARCH Secure,-86,0,0,0;e8:1d:a8:6e:27:9c,eduroam,-87,0,0,0;10:13:31:e6:96:ad,TelstraE696AD,-74,0,0,0;d8:c7:c8:4c:eb:b1,TAFE-Events,-85,0,0,0;e8:1d:a8:2d:ec:58,INSEARCH Secure,-62,0,0,0;e8:1d:a8:6d:ec:58,eduroam,-63,0,0,0;44:1e:98:54:d2:18,eduroam,-68,0,0,0;6c:f3:7f:a5:12:30,TAFENSW,-79,0,0,0;e8:1d:a8:2d:ef:0c,INSEARCH Secure,-76,0,0,0;e8:1d:a8:6d:ef:0c,eduroam,-77,0,0,0;44:1e:98:54:d8:dc,eduroam,-79,0,0,0;44:1e:98:55:91:ac,eduroam,-85,0,0,0;44:1e:98:15:91:ac,INSEARCH Secure,-85,0,0,0;30:b5:c2:b5:8d:0a,spooky viru5,-87,0,0,0;d8:c7:c8:4c:84:11,TAFENSW,-92,0,0,0;6c:f3:7f:a5:12:31,TAFE-Events,-79,0,0,0;44:1e:98:55:8b:28,eduroam,-61,0,0,0;44:1e:98:15:8b:28,INSEARCH Secure,-61,0,0,0;44:1e:98:54:e8:18,eduroam,-64,0,0,0;44:1e:98:14:e8:18,INSEARCH Secure,-65,0,0,0;e8:1d:a8:6d:ef:08,eduroam,-66,0,0,0;e8:1d:a8:2d:ef:08,INSEARCH Secure,-66,0,0,0;44:1e:98:54:d9:48,eduroam,-69,0,0,0;e8:1d:a8:6e:27:98,eduroam,-69,0,0,0;6c:f3:7f:a5:12:20,TAFENSW,-71,0,0,0;0a:18:d6:a9:d7:16,Velocityedu,-72,0,0,0;44:1e:98:14:d8:dc,INSEARCH Secure,-79,0,0,0;d8:c7:c8:4c:eb:b0,TAFENSW,-85,0,0,0;e8:1d:a8:2e:e1:3c,INSEARCH Secure,-91,0,0,0;12:13:31:e6:c5:e7,TelstraE6C5DF,-92,0,0,0;e8:1d:a8:6e:e1:3c,eduroam,-92,0,0,0;9c:1c:12:86:a4:b2,UTS-Business,-93,0,0,0;9c:1c:12:86:a4:b1,eduroam,-94,0,0,0;e8:1d:a8:6c:1d:1c,eduroam,-94,0,0,0;9c:1c:12:86:a4:b0,UTS-WPA,-94,0,0,0;9c:1c:12:86:a4:b3,Geography Teachers Association,-95,0,0,0;00:02:6f:12:34:56,,-65,0,0,0;6c:f3:7f:a5:12:21,TAFE-Events,-71,0,0,0;

Scan4;00:02:6f:12:34:50,Telstra Air,-75,0,0,0;44:1e:98:55:8b:2c,eduroam,-77,0,0,0;44:1e:98:15:8b:2c,INSEARCH Secure,-75,0,0,0;44:1e:98:14:d9:4c,INSEARCH Secure,-80,0,0,0;44:1e:98:54:d9:4c,eduroam,-81,0,0,0;44:1e:98:54:e8:1c,eduroam,-75,0,0,0;12:13:31:e5:b2:91,TelstraE5B289,-81,0,0,0;44:1e:98:54:d2:1c,eduroam,-79,0,0,0;44:1e:98:14:d2:1c,INSEARCH Secure,-79,0,0,0;44:1e:98:14:e8:1c,INSEARCH Secure,-74,0,0,0;e8:1d:a8:2d:ec:5c,INSEARCH Secure,-69,0,0,0;e8:1d:a8:6d:ec:5c,eduroam,-69,0,0,0;d8:c7:c8:4c:eb:50,TAFENSW,-79,0,0,0;24:f2:7f:bc:7a:90,TAFENSW,-81,0,0,0;d8:c7:c8:4c:eb:51,TAFE-Events,-79,0,0,0;24:f2:7f:bc:7a:91,TAFE-Events,-82,0,0,0;24:f2:7f:bc:7a:80,TAFENSW,-72,0,0,0;28:24:ff:94:bb:5f,ClickShare-A2.24,-92,0,0,0;12:13:31:e6:96:b5,TelstraE696AD,-93,0,0,0;e8:1d:a8:2e:27:9c,INSEARCH Secure,-86,0,0,0;e8:1d:a8:6e:27:9c,eduroam,-87,0,0,0;10:13:31:e6:96:ad,TelstraE696AD,-74,0,0,0;d8:c7:c8:4c:eb:b1,TAFE-Events,-85,0,0,0;e8:1d:a8:2d:ec:58,INSEARCH Secure,-62,0,0,0;e8:1d:a8:6d:ec:58,eduroam,-63,0,0,0;44:1e:98:54:d2:18,eduroam,-68,0,0,0;6c:f3:7f:a5:12:30,TAFENSW,-79,0,0,0;e8:1d:a8:2d:ef:0c,INSEARCH Secure,-76,0,0,0;e8:1d:a8:6d:ef:0c,eduroam,-77,0,0,0;44:1e:98:54:d8:dc,eduroam,-79,0,0,0;44:1e:98:55:91:ac,eduroam,-85,0,0,0;44:1e:98:15:91:ac,INSEARCH Secure,-85,0,0,0;30:b5:c2:b5:8d:0a,spooky viru5,-87,0,0,0;d8:c7:c8:4c:84:11,TAFENSW,-92,0,0,0;6c:f3:7f:a5:12:31,TAFE-Events,-79,0,0,0;44:1e:98:55:8b:28,eduroam,-61,0,0,0;44:1e:98:15:8b:28,INSEARCH Secure,-61,0,0,0;44:1e:98:54:e8:18,eduroam,-64,0,0,0;44:1e:98:14:e8:18,INSEARCH Secure,-65,0,0,0;e8:1d:a8:6d:ef:08,eduroam,-66,0,0,0;e8:1d:a8:2d:ef:08,INSEARCH Secure,-66,0,0,0;44:1e:98:54:d9:48,eduroam,-69,0,0,0;e8:1d:a8:6e:27:98,eduroam,-69,0,0,0;6c:f3:7f:a5:12:20,TAFENSW,-71,0,0,0;0a:18:d6:a9:d7:16,Velocityedu,-72,0,0,0;44:1e:98:14:d8:dc,INSEARCH Secure,-79,0,0,0;d8:c7:c8:4c:eb:b0,TAFENSW,-85,0,0,0;e8:1d:a8:2e:e1:3c,INSEARCH Secure,-91,0,0,0;12:13:31:e6:c5:e7,TelstraE6C5DF,-92,0,0,0;e8:1d:a8:6e:e1:3c,eduroam,-92,0,0,0;9c:1c:12:86:a4:b2,UTS-Business,-93,0,0,0;9c:1c:12:86:a4:b1,eduroam,-94,0,0,0;e8:1d:a8:6c:1d:1c,eduroam,-94,0,0,0;9c:1c:12:86:a4:b0,UTS-WPA,-94,0,0,0;9c:1c:12:86:a4:b3,Geography Teachers Association,-95,0,0,0;00:02:6f:12:34:56,,-65,0,0,0;6c:f3:7f:a5:12:21,TAFE-Events,-71,0,0,0;

Scan5;00:02:6f:12:34:50,Telstra Air,-75,0,0,0;44:1e:98:55:8b:2c,eduroam,-77,0,0,0;44:1e:98:15:8b:2c,INSEARCH Secure,-75,0,0,0;44:1e:98:14:d9:4c,INSEARCH Secure,-80,0,0,0;44:1e:98:54:d9:4c,eduroam,-81,0,0,0;44:1e:98:54:e8:1c,eduroam,-75,0,0,0;12:13:31:e5:b2:91,TelstraE5B289,-81,0,0,0;44:1e:98:54:d2:1c,eduroam,-79,0,0,0;44:1e:98:14:d2:1c,INSEARCH Secure,-79,0,0,0;44:1e:98:14:e8:1c,INSEARCH Secure,-74,0,0,0;e8:1d:a8:2d:ec:5c,INSEARCH Secure,-69,0,0,0;e8:1d:a8:6d:ec:5c,eduroam,-69,0,0,0;d8:c7:c8:4c:eb:50,TAFENSW,-79,0,0,0;24:f2:7f:bc:7a:90,TAFENSW,-81,0,0,0;d8:c7:c8:4c:eb:51,TAFE-Events,-79,0,0,0;24:f2:7f:bc:7a:91,TAFE-Events,-82,0,0,0;24:f2:7f:bc:7a:80,TAFENSW,-72,0,0,0;28:24:ff:94:bb:5f,ClickShare-A2.24,-92,0,0,0;12:13:31:e6:96:b5,TelstraE696AD,-93,0,0,0;e8:1d:a8:2e:27:9c,INSEARCH Secure,-86,0,0,0;e8:1d:a8:6e:27:9c,eduroam,-87,0,0,0;10:13:31:e6:96:ad,TelstraE696AD,-74,0,0,0;d8:c7:c8:4c:eb:b1,TAFE-Events,-85,0,0,0;e8:1d:a8:2d:ec:58,INSEARCH Secure,-62,0,0,0;e8:1d:a8:6d:ec:58,eduroam,-63,0,0,0;44:1e:98:54:d2:18,eduroam,-68,0,0,0;6c:f3:7f:a5:12:30,TAFENSW,-79,0,0,0;e8:1d:a8:2d:ef:0c,INSEARCH Secure,-76,0,0,0;e8:1d:a8:6d:ef:0c,eduroam,-77,0,0,0;44:1e:98:54:d8:dc,eduroam,-79,0,0,0;44:1e:98:55:91:ac,eduroam,-85,0,0,0;44:1e:98:15:91:ac,INSEARCH Secure,-85,0,0,0;30:b5:c2:b5:8d:0a,spooky viru5,-87,0,0,0;d8:c7:c8:4c:84:11,TAFENSW,-92,0,0,0;6c:f3:7f:a5:12:31,TAFE-Events,-79,0,0,0;44:1e:98:55:8b:28,eduroam,-61,0,0,0;44:1e:98:15:8b:28,INSEARCH Secure,-61,0,0,0;44:1e:98:54:e8:18,eduroam,-64,0,0,0;44:1e:98:14:e8:18,INSEARCH Secure,-65,0,0,0;e8:1d:a8:6d:ef:08,eduroam,-66,0,0,0;e8:1d:a8:2d:ef:08,INSEARCH Secure,-66,0,0,0;44:1e:98:54:d9:48,eduroam,-69,0,0,0;e8:1d:a8:6e:27:98,eduroam,-69,0,0,0;6c:f3:7f:a5:12:20,TAFENSW,-71,0,0,0;0a:18:d6:a9:d7:16,Velocityedu,-72,0,0,0;44:1e:98:14:d8:dc,INSEARCH Secure,-79,0,0,0;d8:c7:c8:4c:eb:b0,TAFENSW,-85,0,0,0;e8:1d:a8:2e:e1:3c,INSEARCH Secure,-91,0,0,0;12:13:31:e6:c5:e7,TelstraE6C5DF,-92,0,0,0;e8:1d:a8:6e:e1:3c,eduroam,-92,0,0,0;9c:1c:12:86:a4:b2,UTS-Business,-93,0,0,0;9c:1c:12:86:a4:b1,eduroam,-94,0,0,0;e8:1d:a8:6c:1d:1c,eduroam,-94,0,0,0;9c:1c:12:86:a4:b0,UTS-WPA,-94,0,0,0;9c:1c:12:86:a4:b3,Geography Teachers Association,-95,0,0,0;00:02:6f:12:34:56,,-65,0,0,0;6c:f3:7f:a5:12:21,TAFE-Events,-71,0,0,0;

Scan6;00:02:6f:12:34:50,Telstra Air,-79,0,0,0;44:1e:98:55:8b:2c,eduroam,-75,0,0,0;44:1e:98:14:d9:4c,INSEARCH Secure,-75,0,0,0;44:1e:98:54:d9:4c,eduroam,-76,0,0,0;44:1e:98:54:e8:1c,eduroam,-80,0,0,0;12:13:31:e5:b2:91,TelstraE5B289,-78,0,0,0;44:1e:98:54:d2:1c,eduroam,-75,0,0,0;44:1e:98:14:d2:1c,INSEARCH Secure,-75,0,0,0;44:1e:98:14:e8:1c,INSEARCH Secure,-79,0,0,0;e8:1d:a8:2d:ec:5c,INSEARCH Secure,-68,0,0,0;e8:1d:a8:6d:ec:5c,eduroam,-68,0,0,0;d8:c7:c8:4c:eb:50,TAFENSW,-79,0,0,0;d8:c7:c8:4c:eb:51,TAFE-Events,-79,0,0,0;28:24:ff:94:bb:5f,ClickShare-A2.24,-94,0,0,0;e8:1d:a8:2e:27:9c,INSEARCH Secure,-82,0,0,0;e8:1d:a8:6e:27:9c,eduroam,-82,0,0,0;10:13:31:e6:96:ad,TelstraE696AD,-74,0,0,0;d8:c7:c8:4c:eb:b1,TAFE-Events,-89,0,0,0;e8:1d:a8:2d:ec:58,INSEARCH Secure,-62,0,0,0;e8:1d:a8:6d:ec:58,eduroam,-60,0,0,0;44:1e:98:54:d2:18,eduroam,-66,0,0,0;e8:1d:a8:2d:ef:0c,INSEARCH Secure,-72,0,0,0;e8:1d:a8:6d:ef:0c,eduroam,-72,0,0,0;44:1e:98:54:d8:dc,eduroam,-77,0,0,0;44:1e:98:55:91:ac,eduroam,-85,0,0,0;44:1e:98:15:91:ac,INSEARCH Secure,-85,0,0,0;30:b5:c2:b5:8d:0a,spooky viru5,-87,0,0,0;d8:c7:c8:4c:84:11,TAFENSW,-96,0,0,0;44:1e:98:55:8b:28,eduroam,-64,0,0,0;44:1e:98:15:8b:28,INSEARCH Secure,-65,0,0,0;44:1e:98:14:d8:dc,INSEARCH Secure,-77,0,0,0;d8:c7:c8:4c:eb:b0,TAFENSW,-89,0,0,0;e8:1d:a8:2e:e1:3c,INSEARCH Secure,-86,0,0,0;e8:1d:a8:6e:e1:3c,eduroam,-86,0,0,0;e8:1d:a8:6c:1d:1c,eduroam,-93,0,0,0;9c:1c:12:86:a4:b3,Geography Teachers Association,-95,0,0,0;44:1e:98:14:d2:18,INSEARCH Secure,-64,0,0,0;44:1e:98:14:d9:48,INSEARCH Secure,-64,0,0,0;e8:1d:a8:2e:e1:38,INSEARCH Secure,-68,0,0,0;44:1e:98:15:91:a8,INSEARCH Secure,-68,0,0,0;00:50:7f:7a:17:c0,AMX Wireless,-69,0,0,0;30:b5:c2:b5:8d:08,spooky virus,-72,0,0,0;6c:f3:7f:a1:4d:b0,TAFENSW,-83,0,0,0;f0:5c:19:8d:01:52,TAFENSW,-86,0,0,0;94:b4:0f:90:8d:f1,UTS-WPA,-91,0,0,0;44:1e:98:14:ec:ac,INSEARCH Secure,-92,0,0,0;70:3a:0e:43:35:d1,UTS-WPA,-92,0,0,0;70:3a:0e:43:35:d2,UTS Building 15,-92,0,0,0;e8:1d:a8:2c:1d:1c,INSEARCH Secure,-93,0,0,0;24:f2:7f:bc:9b:30,TAFENSW,-94,0,0,0;44:1e:98:54:ec:ac,eduroam,-94,0,0,0;70:3a:0e:43:65:b0,eduroam,-96,0,0,0;84:d4:7e:ee:4a:72,UTS Building 15,-97,0,0,0;70:3a:0e:43:65:b1,UTS-WPA,-99,0,0,0;70:3a:0e:43:65:b2,UTS Building 15,-99,0,0,0;6c:f3:7f:a1:4d:b1,TAFE-Events,-83,0,0,0;f0:5c:19:8d:01:50,TAFE-Events,-86,0,0,0;24:f2:7f:bc:9b:31,TAFE-Events,-94,0,0,0;

