Scan1;d8:c7:c8:4f:cb:90,TAFENSW,-90,0,0,0;d8:c7:c8:4f:cb:91,TAFE-Events,-91,0,0,0;d8:c7:c8:4c:fa:f0,TAFENSW,-87,0,0,0;d8:c7:c8:4c:fa:f1,TAFE-Events,-86,0,0,0;f0:5c:19:84:8a:90,TAFENSW,-91,0,0,0;f0:5c:19:84:83:d1,TAFENSW,-95,0,0,0;f0:5c:19:84:8a:91,TAFE-Events,-90,0,0,0;28:c7:ce:a2:40:0a,Fork and Grind,-68,0,0,0;28:c7:ce:a2:40:0d,Cisco860_Guest3,-69,0,0,0;28:c7:ce:a2:40:0c,Cisco860_Guest2,-68,0,0,0;28:c7:ce:a2:40:0b,Cisco860_Guest1,-67,0,0,0;d8:c7:c8:4c:f9:11,TAFE-Events,-88,0,0,0;00:02:6f:12:34:50,Telstra Air,-86,0,0,0;d8:c7:c8:4c:de:a0,TAFENSW,-72,0,0,0;d8:c7:c8:4c:f9:10,TAFENSW,-88,0,0,0;14:cc:20:e1:11:fe,,-88,0,0,0;d8:c7:c8:4c:9c:f0,TAFENSW,-88,0,0,0;64:f6:9d:b3:f4:ee,iiNet Customer,-88,0,0,0;64:f6:9d:b3:f4:ef,iiNet Free WiFi,-85,0,0,0;d8:c7:c8:4c:9c:f1,TAFE-Events,-88,0,0,0;44:c3:46:7f:3b:d8,Doodeeee,-73,0,0,0;d8:c7:c8:4c:ea:50,TAFENSW,-79,0,0,0;24:7f:20:49:6b:1a,OPTUS_496B19,-76,0,0,0;d8:c7:c8:4c:de:b0,TAFENSW,-83,0,0,0;24:7f:20:49:6b:1b,OPTUS_496B19_5GHz,-87,0,0,0;d8:c7:c8:4c:f4:10,TAFENSW,-91,0,0,0;d8:c7:c8:4c:97:b0,TAFENSW,-95,0,0,0;d8:c7:c8:4c:f8:90,TAFENSW,-97,0,0,0;64:f6:9d:b3:f4:e0,iiNet Free WiFi,-69,0,0,0;d8:c7:c8:4c:ea:51,TAFE-Events,-79,0,0,0;d8:c7:c8:4c:de:b1,TAFE-Events,-83,0,0,0;d8:c7:c8:4c:96:f1,TAFE-Events,-90,0,0,0;d8:c7:c8:4c:f4:11,TAFE-Events,-92,0,0,0;

Scan2;d8:c7:c8:4f:cb:90,TAFENSW,-90,0,0,0;d8:c7:c8:4f:cb:91,TAFE-Events,-91,0,0,0;d8:c7:c8:4c:fa:f0,TAFENSW,-87,0,0,0;d8:c7:c8:4c:fa:f1,TAFE-Events,-86,0,0,0;f0:5c:19:84:8a:90,TAFENSW,-91,0,0,0;f0:5c:19:84:83:d1,TAFENSW,-95,0,0,0;f0:5c:19:84:8a:91,TAFE-Events,-90,0,0,0;28:c7:ce:a2:40:0a,Fork and Grind,-68,0,0,0;28:c7:ce:a2:40:0d,Cisco860_Guest3,-69,0,0,0;28:c7:ce:a2:40:0c,Cisco860_Guest2,-68,0,0,0;28:c7:ce:a2:40:0b,Cisco860_Guest1,-67,0,0,0;d8:c7:c8:4c:f9:11,TAFE-Events,-88,0,0,0;00:02:6f:12:34:50,Telstra Air,-86,0,0,0;d8:c7:c8:4c:de:a0,TAFENSW,-72,0,0,0;d8:c7:c8:4c:f9:10,TAFENSW,-88,0,0,0;14:cc:20:e1:11:fe,,-88,0,0,0;d8:c7:c8:4c:9c:f0,TAFENSW,-88,0,0,0;64:f6:9d:b3:f4:ee,iiNet Customer,-88,0,0,0;64:f6:9d:b3:f4:ef,iiNet Free WiFi,-85,0,0,0;d8:c7:c8:4c:9c:f1,TAFE-Events,-88,0,0,0;44:c3:46:7f:3b:d8,Doodeeee,-73,0,0,0;d8:c7:c8:4c:ea:50,TAFENSW,-79,0,0,0;24:7f:20:49:6b:1a,OPTUS_496B19,-76,0,0,0;d8:c7:c8:4c:de:b0,TAFENSW,-83,0,0,0;24:7f:20:49:6b:1b,OPTUS_496B19_5GHz,-87,0,0,0;d8:c7:c8:4c:f4:10,TAFENSW,-91,0,0,0;d8:c7:c8:4c:97:b0,TAFENSW,-95,0,0,0;d8:c7:c8:4c:f8:90,TAFENSW,-97,0,0,0;64:f6:9d:b3:f4:e0,iiNet Free WiFi,-69,0,0,0;d8:c7:c8:4c:ea:51,TAFE-Events,-79,0,0,0;d8:c7:c8:4c:de:b1,TAFE-Events,-83,0,0,0;d8:c7:c8:4c:96:f1,TAFE-Events,-90,0,0,0;d8:c7:c8:4c:f4:11,TAFE-Events,-92,0,0,0;

Scan3;d8:c7:c8:4f:cb:90,TAFENSW,-90,0,0,0;d8:c7:c8:4f:cb:91,TAFE-Events,-91,0,0,0;d8:c7:c8:4c:fa:f0,TAFENSW,-87,0,0,0;d8:c7:c8:4c:fa:f1,TAFE-Events,-86,0,0,0;f0:5c:19:84:8a:90,TAFENSW,-91,0,0,0;f0:5c:19:84:83:d1,TAFENSW,-95,0,0,0;f0:5c:19:84:8a:91,TAFE-Events,-90,0,0,0;28:c7:ce:a2:40:0a,Fork and Grind,-68,0,0,0;28:c7:ce:a2:40:0d,Cisco860_Guest3,-69,0,0,0;28:c7:ce:a2:40:0c,Cisco860_Guest2,-68,0,0,0;28:c7:ce:a2:40:0b,Cisco860_Guest1,-67,0,0,0;d8:c7:c8:4c:f9:11,TAFE-Events,-88,0,0,0;00:02:6f:12:34:50,Telstra Air,-86,0,0,0;d8:c7:c8:4c:de:a0,TAFENSW,-72,0,0,0;d8:c7:c8:4c:f9:10,TAFENSW,-88,0,0,0;14:cc:20:e1:11:fe,,-88,0,0,0;d8:c7:c8:4c:9c:f0,TAFENSW,-88,0,0,0;64:f6:9d:b3:f4:ee,iiNet Customer,-88,0,0,0;64:f6:9d:b3:f4:ef,iiNet Free WiFi,-85,0,0,0;d8:c7:c8:4c:9c:f1,TAFE-Events,-88,0,0,0;44:c3:46:7f:3b:d8,Doodeeee,-73,0,0,0;d8:c7:c8:4c:ea:50,TAFENSW,-79,0,0,0;24:7f:20:49:6b:1a,OPTUS_496B19,-76,0,0,0;d8:c7:c8:4c:de:b0,TAFENSW,-83,0,0,0;24:7f:20:49:6b:1b,OPTUS_496B19_5GHz,-87,0,0,0;d8:c7:c8:4c:f4:10,TAFENSW,-91,0,0,0;d8:c7:c8:4c:97:b0,TAFENSW,-95,0,0,0;d8:c7:c8:4c:f8:90,TAFENSW,-97,0,0,0;64:f6:9d:b3:f4:e0,iiNet Free WiFi,-69,0,0,0;d8:c7:c8:4c:ea:51,TAFE-Events,-79,0,0,0;d8:c7:c8:4c:de:b1,TAFE-Events,-83,0,0,0;d8:c7:c8:4c:96:f1,TAFE-Events,-90,0,0,0;d8:c7:c8:4c:f4:11,TAFE-Events,-92,0,0,0;

Scan4;d8:c7:c8:4f:cb:90,TAFENSW,-90,0,0,0;d8:c7:c8:4f:cb:91,TAFE-Events,-91,0,0,0;d8:c7:c8:4c:fa:f0,TAFENSW,-87,0,0,0;d8:c7:c8:4c:fa:f1,TAFE-Events,-86,0,0,0;f0:5c:19:84:8a:90,TAFENSW,-91,0,0,0;f0:5c:19:84:83:d1,TAFENSW,-95,0,0,0;f0:5c:19:84:8a:91,TAFE-Events,-90,0,0,0;28:c7:ce:a2:40:0a,Fork and Grind,-68,0,0,0;28:c7:ce:a2:40:0d,Cisco860_Guest3,-69,0,0,0;28:c7:ce:a2:40:0c,Cisco860_Guest2,-68,0,0,0;28:c7:ce:a2:40:0b,Cisco860_Guest1,-67,0,0,0;d8:c7:c8:4c:f9:11,TAFE-Events,-88,0,0,0;00:02:6f:12:34:50,Telstra Air,-86,0,0,0;d8:c7:c8:4c:de:a0,TAFENSW,-72,0,0,0;d8:c7:c8:4c:f9:10,TAFENSW,-88,0,0,0;14:cc:20:e1:11:fe,,-88,0,0,0;d8:c7:c8:4c:9c:f0,TAFENSW,-88,0,0,0;64:f6:9d:b3:f4:ee,iiNet Customer,-88,0,0,0;64:f6:9d:b3:f4:ef,iiNet Free WiFi,-85,0,0,0;d8:c7:c8:4c:9c:f1,TAFE-Events,-88,0,0,0;44:c3:46:7f:3b:d8,Doodeeee,-73,0,0,0;d8:c7:c8:4c:ea:50,TAFENSW,-79,0,0,0;24:7f:20:49:6b:1a,OPTUS_496B19,-76,0,0,0;d8:c7:c8:4c:de:b0,TAFENSW,-83,0,0,0;24:7f:20:49:6b:1b,OPTUS_496B19_5GHz,-87,0,0,0;d8:c7:c8:4c:f4:10,TAFENSW,-91,0,0,0;d8:c7:c8:4c:97:b0,TAFENSW,-95,0,0,0;d8:c7:c8:4c:f8:90,TAFENSW,-97,0,0,0;64:f6:9d:b3:f4:e0,iiNet Free WiFi,-69,0,0,0;d8:c7:c8:4c:ea:51,TAFE-Events,-79,0,0,0;d8:c7:c8:4c:de:b1,TAFE-Events,-83,0,0,0;d8:c7:c8:4c:96:f1,TAFE-Events,-90,0,0,0;d8:c7:c8:4c:f4:11,TAFE-Events,-92,0,0,0;

Scan5;d8:c7:c8:4f:cb:90,TAFENSW,-90,0,0,0;d8:c7:c8:4f:cb:91,TAFE-Events,-91,0,0,0;d8:c7:c8:4c:fa:f0,TAFENSW,-87,0,0,0;d8:c7:c8:4c:fa:f1,TAFE-Events,-86,0,0,0;f0:5c:19:84:8a:90,TAFENSW,-91,0,0,0;f0:5c:19:84:83:d1,TAFENSW,-95,0,0,0;f0:5c:19:84:8a:91,TAFE-Events,-90,0,0,0;28:c7:ce:a2:40:0a,Fork and Grind,-68,0,0,0;28:c7:ce:a2:40:0d,Cisco860_Guest3,-69,0,0,0;28:c7:ce:a2:40:0c,Cisco860_Guest2,-68,0,0,0;28:c7:ce:a2:40:0b,Cisco860_Guest1,-67,0,0,0;d8:c7:c8:4c:f9:11,TAFE-Events,-88,0,0,0;00:02:6f:12:34:50,Telstra Air,-86,0,0,0;d8:c7:c8:4c:de:a0,TAFENSW,-72,0,0,0;d8:c7:c8:4c:f9:10,TAFENSW,-88,0,0,0;14:cc:20:e1:11:fe,,-88,0,0,0;d8:c7:c8:4c:9c:f0,TAFENSW,-88,0,0,0;64:f6:9d:b3:f4:ee,iiNet Customer,-88,0,0,0;64:f6:9d:b3:f4:ef,iiNet Free WiFi,-85,0,0,0;d8:c7:c8:4c:9c:f1,TAFE-Events,-88,0,0,0;44:c3:46:7f:3b:d8,Doodeeee,-73,0,0,0;d8:c7:c8:4c:ea:50,TAFENSW,-79,0,0,0;24:7f:20:49:6b:1a,OPTUS_496B19,-76,0,0,0;d8:c7:c8:4c:de:b0,TAFENSW,-83,0,0,0;24:7f:20:49:6b:1b,OPTUS_496B19_5GHz,-87,0,0,0;d8:c7:c8:4c:f4:10,TAFENSW,-91,0,0,0;d8:c7:c8:4c:97:b0,TAFENSW,-95,0,0,0;d8:c7:c8:4c:f8:90,TAFENSW,-97,0,0,0;64:f6:9d:b3:f4:e0,iiNet Free WiFi,-69,0,0,0;d8:c7:c8:4c:ea:51,TAFE-Events,-79,0,0,0;d8:c7:c8:4c:de:b1,TAFE-Events,-83,0,0,0;d8:c7:c8:4c:96:f1,TAFE-Events,-90,0,0,0;d8:c7:c8:4c:f4:11,TAFE-Events,-92,0,0,0;

Scan6;d8:c7:c8:4f:cb:90,TAFENSW,-90,0,0,0;d8:c7:c8:4f:cb:91,TAFE-Events,-91,0,0,0;d8:c7:c8:4c:fa:f0,TAFENSW,-87,0,0,0;d8:c7:c8:4c:fa:f1,TAFE-Events,-86,0,0,0;f0:5c:19:84:8a:90,TAFENSW,-91,0,0,0;f0:5c:19:84:83:d1,TAFENSW,-95,0,0,0;f0:5c:19:84:8a:91,TAFE-Events,-90,0,0,0;28:c7:ce:a2:40:0a,Fork and Grind,-68,0,0,0;28:c7:ce:a2:40:0d,Cisco860_Guest3,-69,0,0,0;28:c7:ce:a2:40:0c,Cisco860_Guest2,-68,0,0,0;28:c7:ce:a2:40:0b,Cisco860_Guest1,-67,0,0,0;d8:c7:c8:4c:f9:11,TAFE-Events,-88,0,0,0;00:02:6f:12:34:50,Telstra Air,-86,0,0,0;d8:c7:c8:4c:de:a0,TAFENSW,-72,0,0,0;d8:c7:c8:4c:f9:10,TAFENSW,-88,0,0,0;14:cc:20:e1:11:fe,,-88,0,0,0;d8:c7:c8:4c:9c:f0,TAFENSW,-88,0,0,0;64:f6:9d:b3:f4:ee,iiNet Customer,-88,0,0,0;64:f6:9d:b3:f4:ef,iiNet Free WiFi,-85,0,0,0;d8:c7:c8:4c:9c:f1,TAFE-Events,-88,0,0,0;44:c3:46:7f:3b:d8,Doodeeee,-73,0,0,0;d8:c7:c8:4c:ea:50,TAFENSW,-79,0,0,0;24:7f:20:49:6b:1a,OPTUS_496B19,-76,0,0,0;d8:c7:c8:4c:de:b0,TAFENSW,-83,0,0,0;24:7f:20:49:6b:1b,OPTUS_496B19_5GHz,-87,0,0,0;d8:c7:c8:4c:f4:10,TAFENSW,-91,0,0,0;d8:c7:c8:4c:97:b0,TAFENSW,-95,0,0,0;d8:c7:c8:4c:f8:90,TAFENSW,-97,0,0,0;64:f6:9d:b3:f4:e0,iiNet Free WiFi,-69,0,0,0;d8:c7:c8:4c:ea:51,TAFE-Events,-79,0,0,0;d8:c7:c8:4c:de:b1,TAFE-Events,-83,0,0,0;d8:c7:c8:4c:96:f1,TAFE-Events,-90,0,0,0;d8:c7:c8:4c:f4:11,TAFE-Events,-92,0,0,0;

Scan7;d8:c7:c8:4f:cb:90,TAFENSW,-90,0,0,0;d8:c7:c8:4f:cb:91,TAFE-Events,-91,0,0,0;d8:c7:c8:4c:fa:f0,TAFENSW,-87,0,0,0;d8:c7:c8:4c:fa:f1,TAFE-Events,-86,0,0,0;f0:5c:19:84:8a:90,TAFENSW,-91,0,0,0;f0:5c:19:84:83:d1,TAFENSW,-95,0,0,0;f0:5c:19:84:8a:91,TAFE-Events,-90,0,0,0;28:c7:ce:a2:40:0a,Fork and Grind,-68,0,0,0;28:c7:ce:a2:40:0d,Cisco860_Guest3,-69,0,0,0;28:c7:ce:a2:40:0c,Cisco860_Guest2,-68,0,0,0;28:c7:ce:a2:40:0b,Cisco860_Guest1,-67,0,0,0;d8:c7:c8:4c:f9:11,TAFE-Events,-88,0,0,0;00:02:6f:12:34:50,Telstra Air,-86,0,0,0;d8:c7:c8:4c:de:a0,TAFENSW,-72,0,0,0;d8:c7:c8:4c:f9:10,TAFENSW,-88,0,0,0;14:cc:20:e1:11:fe,,-88,0,0,0;d8:c7:c8:4c:9c:f0,TAFENSW,-88,0,0,0;64:f6:9d:b3:f4:ee,iiNet Customer,-88,0,0,0;64:f6:9d:b3:f4:ef,iiNet Free WiFi,-85,0,0,0;d8:c7:c8:4c:9c:f1,TAFE-Events,-88,0,0,0;44:c3:46:7f:3b:d8,Doodeeee,-73,0,0,0;d8:c7:c8:4c:ea:50,TAFENSW,-79,0,0,0;24:7f:20:49:6b:1a,OPTUS_496B19,-76,0,0,0;d8:c7:c8:4c:de:b0,TAFENSW,-83,0,0,0;24:7f:20:49:6b:1b,OPTUS_496B19_5GHz,-87,0,0,0;d8:c7:c8:4c:f4:10,TAFENSW,-91,0,0,0;d8:c7:c8:4c:97:b0,TAFENSW,-95,0,0,0;d8:c7:c8:4c:f8:90,TAFENSW,-97,0,0,0;64:f6:9d:b3:f4:e0,iiNet Free WiFi,-69,0,0,0;d8:c7:c8:4c:ea:51,TAFE-Events,-79,0,0,0;d8:c7:c8:4c:de:b1,TAFE-Events,-83,0,0,0;d8:c7:c8:4c:96:f1,TAFE-Events,-90,0,0,0;d8:c7:c8:4c:f4:11,TAFE-Events,-92,0,0,0;

