Scan1;28:c7:ce:a2:40:0b,Cisco860_Guest1,-66,0,0,0;28:c7:ce:a2:40:0c,Cisco860_Guest2,-67,0,0,0;28:c7:ce:a2:40:0a,Fork and Grind,-67,0,0,0;a8:c8:3a:2b:8f:40,TGP_wifi,-79,0,0,0;64:f6:9d:b3:f4:e0,iiNet Free WiFi,-74,0,0,0;24:7f:20:49:6b:1b,OPTUS_496B19_5GHz,-86,0,0,0;00:02:6f:12:34:50,Telstra Air,-69,0,0,0;d8:c7:c8:4c:de:a0,TAFENSW,-75,0,0,0;64:f6:9d:b3:f4:e1,iiNet Customer,-73,0,0,0;a0:04:60:a5:e5:ac,iiMAV_1,-86,0,0,0;d8:c7:c8:4c:de:a1,TAFE-Events,-73,0,0,0;d8:c7:c8:4c:de:b0,TAFENSW,-79,0,0,0;d8:c7:c8:4c:de:b1,TAFE-Events,-79,0,0,0;c4:71:54:46:90:f1,WiFi-90F1,-84,0,0,0;50:04:b8:5e:44:60,SK2888,-80,0,0,0;44:c3:46:7f:66:70,WiFi-G4ZT-5G,-89,0,0,0;d8:c7:c8:4c:f4:d0,TAFENSW,-83,0,0,0;d8:c7:c8:4c:f4:d1,TAFE-Events,-83,0,0,0;a0:04:60:a5:e5:a8,iiMAV_2,-71,0,0,0;d0:65:ca:54:fb:90,WiFi-7DUR,-79,0,0,0;5c:a8:6a:07:ac:30,WiFi-VVU2,-79,0,0,0;8c:0d:76:34:42:6c,WiFi-M7UD-5G,-88,0,0,0;4e:ef:c0:b4:cb:74,,-89,0,0,0;5c:a8:6a:13:4b:18,iPRIMUS-4B10,-86,0,0,0;18:a6:f7:2d:60:a6,TP-LINK_AP_60A6,-86,0,0,0;7c:8b:ca:ce:83:ac,WiFi-83AA-5G,-91,0,0,0;d8:c7:c8:4c:fa:f0,TAFENSW,-92,0,0,0;40:e3:d6:e8:05:12,eval-UTS,-96,0,0,0;40:e3:d6:e8:05:10,eduroam,-97,0,0,0;40:e3:d6:e8:05:11,UTS-WPA,-97,0,0,0;28:c7:ce:a2:40:0d,Cisco860_Guest3,-71,0,0,0;64:f6:9d:b3:f4:ef,iiNet Free WiFi,-83,0,0,0;7e:26:64:01:8e:4f,Fon WiFi,-82,0,0,0;

Scan2;28:c7:ce:a2:40:0b,Cisco860_Guest1,-66,0,0,0;28:c7:ce:a2:40:0c,Cisco860_Guest2,-67,0,0,0;28:c7:ce:a2:40:0a,Fork and Grind,-67,0,0,0;a8:c8:3a:2b:8f:40,TGP_wifi,-79,0,0,0;64:f6:9d:b3:f4:e0,iiNet Free WiFi,-74,0,0,0;24:7f:20:49:6b:1b,OPTUS_496B19_5GHz,-86,0,0,0;00:02:6f:12:34:50,Telstra Air,-69,0,0,0;d8:c7:c8:4c:de:a0,TAFENSW,-75,0,0,0;64:f6:9d:b3:f4:e1,iiNet Customer,-73,0,0,0;a0:04:60:a5:e5:ac,iiMAV_1,-86,0,0,0;d8:c7:c8:4c:de:a1,TAFE-Events,-73,0,0,0;d8:c7:c8:4c:de:b0,TAFENSW,-79,0,0,0;d8:c7:c8:4c:de:b1,TAFE-Events,-79,0,0,0;c4:71:54:46:90:f1,WiFi-90F1,-84,0,0,0;50:04:b8:5e:44:60,SK2888,-80,0,0,0;44:c3:46:7f:66:70,WiFi-G4ZT-5G,-89,0,0,0;d8:c7:c8:4c:f4:d0,TAFENSW,-83,0,0,0;d8:c7:c8:4c:f4:d1,TAFE-Events,-83,0,0,0;a0:04:60:a5:e5:a8,iiMAV_2,-71,0,0,0;d0:65:ca:54:fb:90,WiFi-7DUR,-79,0,0,0;5c:a8:6a:07:ac:30,WiFi-VVU2,-79,0,0,0;8c:0d:76:34:42:6c,WiFi-M7UD-5G,-88,0,0,0;4e:ef:c0:b4:cb:74,,-89,0,0,0;5c:a8:6a:13:4b:18,iPRIMUS-4B10,-86,0,0,0;18:a6:f7:2d:60:a6,TP-LINK_AP_60A6,-86,0,0,0;7c:8b:ca:ce:83:ac,WiFi-83AA-5G,-91,0,0,0;d8:c7:c8:4c:fa:f0,TAFENSW,-92,0,0,0;40:e3:d6:e8:05:12,eval-UTS,-96,0,0,0;40:e3:d6:e8:05:10,eduroam,-97,0,0,0;40:e3:d6:e8:05:11,UTS-WPA,-97,0,0,0;28:c7:ce:a2:40:0d,Cisco860_Guest3,-71,0,0,0;64:f6:9d:b3:f4:ef,iiNet Free WiFi,-83,0,0,0;7e:26:64:01:8e:4f,Fon WiFi,-82,0,0,0;

Scan3;64:f6:9d:b3:f4:e0,iiNet Free WiFi,-71,0,0,0;00:02:6f:12:34:50,Telstra Air,-69,0,0,0;d8:c7:c8:4c:de:a0,TAFENSW,-67,0,0,0;a0:04:60:a5:e5:ac,iiMAV_1,-86,0,0,0;d8:c7:c8:4c:de:a1,TAFE-Events,-66,0,0,0;d8:c7:c8:4c:de:b0,TAFENSW,-73,0,0,0;d8:c7:c8:4c:de:b1,TAFE-Events,-74,0,0,0;44:c3:46:7f:66:70,WiFi-G4ZT-5G,-88,0,0,0;d8:c7:c8:4c:f4:d0,TAFENSW,-85,0,0,0;d8:c7:c8:4c:f4:d1,TAFE-Events,-85,0,0,0;d0:65:ca:54:fb:90,WiFi-7DUR,-82,0,0,0;8c:0d:76:34:42:6c,WiFi-M7UD-5G,-88,0,0,0;18:a6:f7:2d:60:a6,TP-LINK_AP_60A6,-83,0,0,0;7c:8b:ca:ce:83:ac,WiFi-83AA-5G,-91,0,0,0;64:f6:9d:b3:f4:ef,iiNet Free WiFi,-84,0,0,0;7e:26:64:01:8e:4f,Fon WiFi,-76,0,0,0;d8:c7:c8:4c:ea:50,TAFENSW,-79,0,0,0;24:7f:20:49:6b:1a,OPTUS_496B19,-76,0,0,0;44:1e:98:15:8b:28,INSEARCH Secure,-80,0,0,0;64:f6:9d:b3:f4:ee,iiNet Customer,-85,0,0,0;44:1e:98:55:8b:28,eduroam,-81,0,0,0;88:e3:ab:55:aa:32,TPG-7BCP,-84,0,0,0;d8:c7:c8:4c:f4:10,TAFENSW,-91,0,0,0;34:6b:46:bc:65:94,OPTUS_BC6592_5GHz,-93,0,0,0;d8:c7:c8:4c:ea:51,TAFE-Events,-80,0,0,0;d8:c7:c8:4c:f4:11,TAFE-Events,-92,0,0,0;

Scan4;64:f6:9d:b3:f4:e0,iiNet Free WiFi,-71,0,0,0;00:02:6f:12:34:50,Telstra Air,-69,0,0,0;d8:c7:c8:4c:de:a0,TAFENSW,-67,0,0,0;a0:04:60:a5:e5:ac,iiMAV_1,-86,0,0,0;d8:c7:c8:4c:de:a1,TAFE-Events,-66,0,0,0;d8:c7:c8:4c:de:b0,TAFENSW,-73,0,0,0;d8:c7:c8:4c:de:b1,TAFE-Events,-74,0,0,0;44:c3:46:7f:66:70,WiFi-G4ZT-5G,-88,0,0,0;d8:c7:c8:4c:f4:d0,TAFENSW,-85,0,0,0;d8:c7:c8:4c:f4:d1,TAFE-Events,-85,0,0,0;d0:65:ca:54:fb:90,WiFi-7DUR,-82,0,0,0;8c:0d:76:34:42:6c,WiFi-M7UD-5G,-88,0,0,0;18:a6:f7:2d:60:a6,TP-LINK_AP_60A6,-83,0,0,0;7c:8b:ca:ce:83:ac,WiFi-83AA-5G,-91,0,0,0;64:f6:9d:b3:f4:ef,iiNet Free WiFi,-84,0,0,0;7e:26:64:01:8e:4f,Fon WiFi,-76,0,0,0;d8:c7:c8:4c:ea:50,TAFENSW,-79,0,0,0;24:7f:20:49:6b:1a,OPTUS_496B19,-76,0,0,0;44:1e:98:15:8b:28,INSEARCH Secure,-80,0,0,0;64:f6:9d:b3:f4:ee,iiNet Customer,-85,0,0,0;44:1e:98:55:8b:28,eduroam,-81,0,0,0;88:e3:ab:55:aa:32,TPG-7BCP,-84,0,0,0;d8:c7:c8:4c:f4:10,TAFENSW,-91,0,0,0;34:6b:46:bc:65:94,OPTUS_BC6592_5GHz,-93,0,0,0;d8:c7:c8:4c:ea:51,TAFE-Events,-80,0,0,0;d8:c7:c8:4c:f4:11,TAFE-Events,-92,0,0,0;

Scan5;64:f6:9d:b3:f4:e0,iiNet Free WiFi,-71,0,0,0;00:02:6f:12:34:50,Telstra Air,-69,0,0,0;d8:c7:c8:4c:de:a0,TAFENSW,-67,0,0,0;a0:04:60:a5:e5:ac,iiMAV_1,-86,0,0,0;d8:c7:c8:4c:de:a1,TAFE-Events,-66,0,0,0;d8:c7:c8:4c:de:b0,TAFENSW,-73,0,0,0;d8:c7:c8:4c:de:b1,TAFE-Events,-74,0,0,0;44:c3:46:7f:66:70,WiFi-G4ZT-5G,-88,0,0,0;d8:c7:c8:4c:f4:d0,TAFENSW,-85,0,0,0;d8:c7:c8:4c:f4:d1,TAFE-Events,-85,0,0,0;d0:65:ca:54:fb:90,WiFi-7DUR,-82,0,0,0;8c:0d:76:34:42:6c,WiFi-M7UD-5G,-88,0,0,0;18:a6:f7:2d:60:a6,TP-LINK_AP_60A6,-83,0,0,0;7c:8b:ca:ce:83:ac,WiFi-83AA-5G,-91,0,0,0;64:f6:9d:b3:f4:ef,iiNet Free WiFi,-84,0,0,0;7e:26:64:01:8e:4f,Fon WiFi,-76,0,0,0;d8:c7:c8:4c:ea:50,TAFENSW,-79,0,0,0;24:7f:20:49:6b:1a,OPTUS_496B19,-76,0,0,0;44:1e:98:15:8b:28,INSEARCH Secure,-80,0,0,0;64:f6:9d:b3:f4:ee,iiNet Customer,-85,0,0,0;44:1e:98:55:8b:28,eduroam,-81,0,0,0;88:e3:ab:55:aa:32,TPG-7BCP,-84,0,0,0;d8:c7:c8:4c:f4:10,TAFENSW,-91,0,0,0;34:6b:46:bc:65:94,OPTUS_BC6592_5GHz,-93,0,0,0;d8:c7:c8:4c:ea:51,TAFE-Events,-80,0,0,0;d8:c7:c8:4c:f4:11,TAFE-Events,-92,0,0,0;

Scan6;64:f6:9d:b3:f4:e0,iiNet Free WiFi,-71,0,0,0;00:02:6f:12:34:50,Telstra Air,-69,0,0,0;d8:c7:c8:4c:de:a0,TAFENSW,-67,0,0,0;a0:04:60:a5:e5:ac,iiMAV_1,-86,0,0,0;d8:c7:c8:4c:de:a1,TAFE-Events,-66,0,0,0;d8:c7:c8:4c:de:b0,TAFENSW,-73,0,0,0;d8:c7:c8:4c:de:b1,TAFE-Events,-74,0,0,0;44:c3:46:7f:66:70,WiFi-G4ZT-5G,-88,0,0,0;d8:c7:c8:4c:f4:d0,TAFENSW,-85,0,0,0;d8:c7:c8:4c:f4:d1,TAFE-Events,-85,0,0,0;d0:65:ca:54:fb:90,WiFi-7DUR,-82,0,0,0;8c:0d:76:34:42:6c,WiFi-M7UD-5G,-88,0,0,0;18:a6:f7:2d:60:a6,TP-LINK_AP_60A6,-83,0,0,0;7c:8b:ca:ce:83:ac,WiFi-83AA-5G,-91,0,0,0;64:f6:9d:b3:f4:ef,iiNet Free WiFi,-84,0,0,0;7e:26:64:01:8e:4f,Fon WiFi,-76,0,0,0;d8:c7:c8:4c:ea:50,TAFENSW,-79,0,0,0;24:7f:20:49:6b:1a,OPTUS_496B19,-76,0,0,0;44:1e:98:15:8b:28,INSEARCH Secure,-80,0,0,0;64:f6:9d:b3:f4:ee,iiNet Customer,-85,0,0,0;44:1e:98:55:8b:28,eduroam,-81,0,0,0;88:e3:ab:55:aa:32,TPG-7BCP,-84,0,0,0;d8:c7:c8:4c:f4:10,TAFENSW,-91,0,0,0;34:6b:46:bc:65:94,OPTUS_BC6592_5GHz,-93,0,0,0;d8:c7:c8:4c:ea:51,TAFE-Events,-80,0,0,0;d8:c7:c8:4c:f4:11,TAFE-Events,-92,0,0,0;

Scan7;64:f6:9d:b3:f4:e0,iiNet Free WiFi,-71,0,0,0;00:02:6f:12:34:50,Telstra Air,-69,0,0,0;d8:c7:c8:4c:de:a0,TAFENSW,-67,0,0,0;a0:04:60:a5:e5:ac,iiMAV_1,-86,0,0,0;d8:c7:c8:4c:de:a1,TAFE-Events,-66,0,0,0;d8:c7:c8:4c:de:b0,TAFENSW,-73,0,0,0;d8:c7:c8:4c:de:b1,TAFE-Events,-74,0,0,0;44:c3:46:7f:66:70,WiFi-G4ZT-5G,-88,0,0,0;d8:c7:c8:4c:f4:d0,TAFENSW,-85,0,0,0;d8:c7:c8:4c:f4:d1,TAFE-Events,-85,0,0,0;d0:65:ca:54:fb:90,WiFi-7DUR,-82,0,0,0;8c:0d:76:34:42:6c,WiFi-M7UD-5G,-88,0,0,0;18:a6:f7:2d:60:a6,TP-LINK_AP_60A6,-83,0,0,0;7c:8b:ca:ce:83:ac,WiFi-83AA-5G,-91,0,0,0;64:f6:9d:b3:f4:ef,iiNet Free WiFi,-84,0,0,0;7e:26:64:01:8e:4f,Fon WiFi,-76,0,0,0;d8:c7:c8:4c:ea:50,TAFENSW,-79,0,0,0;24:7f:20:49:6b:1a,OPTUS_496B19,-76,0,0,0;44:1e:98:15:8b:28,INSEARCH Secure,-80,0,0,0;64:f6:9d:b3:f4:ee,iiNet Customer,-85,0,0,0;44:1e:98:55:8b:28,eduroam,-81,0,0,0;88:e3:ab:55:aa:32,TPG-7BCP,-84,0,0,0;d8:c7:c8:4c:f4:10,TAFENSW,-91,0,0,0;34:6b:46:bc:65:94,OPTUS_BC6592_5GHz,-93,0,0,0;d8:c7:c8:4c:ea:51,TAFE-Events,-80,0,0,0;d8:c7:c8:4c:f4:11,TAFE-Events,-92,0,0,0;

Scan8;64:f6:9d:b3:f4:e0,iiNet Free WiFi,-71,0,0,0;00:02:6f:12:34:50,Telstra Air,-69,0,0,0;d8:c7:c8:4c:de:a0,TAFENSW,-67,0,0,0;a0:04:60:a5:e5:ac,iiMAV_1,-86,0,0,0;d8:c7:c8:4c:de:a1,TAFE-Events,-66,0,0,0;d8:c7:c8:4c:de:b0,TAFENSW,-73,0,0,0;d8:c7:c8:4c:de:b1,TAFE-Events,-74,0,0,0;44:c3:46:7f:66:70,WiFi-G4ZT-5G,-88,0,0,0;d8:c7:c8:4c:f4:d0,TAFENSW,-85,0,0,0;d8:c7:c8:4c:f4:d1,TAFE-Events,-85,0,0,0;d0:65:ca:54:fb:90,WiFi-7DUR,-82,0,0,0;8c:0d:76:34:42:6c,WiFi-M7UD-5G,-88,0,0,0;18:a6:f7:2d:60:a6,TP-LINK_AP_60A6,-83,0,0,0;7c:8b:ca:ce:83:ac,WiFi-83AA-5G,-91,0,0,0;64:f6:9d:b3:f4:ef,iiNet Free WiFi,-84,0,0,0;7e:26:64:01:8e:4f,Fon WiFi,-76,0,0,0;d8:c7:c8:4c:ea:50,TAFENSW,-79,0,0,0;24:7f:20:49:6b:1a,OPTUS_496B19,-76,0,0,0;44:1e:98:15:8b:28,INSEARCH Secure,-80,0,0,0;64:f6:9d:b3:f4:ee,iiNet Customer,-85,0,0,0;44:1e:98:55:8b:28,eduroam,-81,0,0,0;88:e3:ab:55:aa:32,TPG-7BCP,-84,0,0,0;d8:c7:c8:4c:f4:10,TAFENSW,-91,0,0,0;34:6b:46:bc:65:94,OPTUS_BC6592_5GHz,-93,0,0,0;d8:c7:c8:4c:ea:51,TAFE-Events,-80,0,0,0;d8:c7:c8:4c:f4:11,TAFE-Events,-92,0,0,0;

