Scan1;6c:f3:7f:a1:4a:f0,TAFENSW,-89,0,0,0;d8:c7:c8:4c:fa:d0,TAFENSW,-91,0,0,0;d8:c7:c8:4f:cb:90,TAFENSW,-81,0,0,0;d8:c7:c8:4f:cb:91,TAFE-Events,-82,0,0,0;6c:f3:7f:a1:46:d0,TAFENSW,-94,0,0,0;6c:f3:7f:a1:46:c0,TAFENSW,-76,0,0,0;6c:f3:7f:a1:46:c1,TAFE-Events,-75,0,0,0;d8:c7:c8:4c:fa:d1,TAFE-Events,-92,0,0,0;d8:c7:c8:4f:80:90,TAFENSW,-92,0,0,0;d8:c7:c8:4f:80:91,TAFE-Events,-92,0,0,0;d8:c7:c8:4c:f5:30,TAFENSW,-85,0,0,0;28:c7:ce:a2:40:0b,Cisco860_Guest1,-76,0,0,0;28:c7:ce:a2:40:0c,Cisco860_Guest2,-68,0,0,0;c0:25:e9:4b:b2:60,TP-LINK_B260,-79,0,0,0;70:3a:0e:43:40:f3,ISF-Guest,-91,0,0,0;f0:5c:19:84:8a:90,TAFENSW,-85,0,0,0;f0:5c:19:84:83:d0,TAFE-Events,-83,0,0,0;f0:5c:19:84:8a:91,TAFE-Events,-85,0,0,0;d8:c7:c8:4c:fa:e0,TAFENSW,-75,0,0,0;d8:c7:c8:4c:fa:f0,TAFENSW,-78,0,0,0;d8:c7:c8:4c:f5:20,TAFENSW,-73,0,0,0;d8:c7:c8:4c:f4:00,TAFENSW,-70,0,0,0;28:c7:ce:a2:40:0a,Fork and Grind,-76,0,0,0;d8:c7:c8:4c:f7:a0,TAFENSW,-78,0,0,0;d8:c7:c8:4c:96:f0,TAFENSW,-91,0,0,0;d8:c7:c8:4c:fa:f1,TAFE-Events,-78,0,0,0;d8:c7:c8:4c:f5:21,TAFE-Events,-74,0,0,0;d8:c7:c8:4c:f4:01,TAFE-Events,-74,0,0,0;d8:c7:c8:4c:f5:31,TAFE-Events,-84,0,0,0;28:c7:ce:a2:40:0d,Cisco860_Guest3,-78,0,0,0;f0:5c:19:84:80:b0,TAFE-Events,-92,0,0,0;d8:c7:c8:4c:f4:10,TAFENSW,-73,0,0,0;18:a6:f7:e8:e7:9f,2400 baud modem f,-77,0,0,0;f0:5c:19:84:83:d1,TAFENSW,-82,0,0,0;f0:5c:19:84:7c:70,TAFENSW,-88,0,0,0;a8:c8:3a:2b:8f:40,TGP_wifi,-84,0,0,0;d8:c7:c8:4c:ee:20,TAFENSW,-84,0,0,0;d8:c7:c8:4c:f7:b0,TAFENSW,-91,0,0,0;d8:c7:c8:4f:cc:40,TAFENSW,-87,0,0,0;70:3a:0e:43:40:f0,eduroam,-92,0,0,0;d8:c7:c8:4c:9c:f0,TAFENSW,-94,0,0,0;d8:c7:c8:4c:f8:90,TAFENSW,-97,0,0,0;d8:c7:c8:4c:f4:11,TAFE-Events,-73,0,0,0;d8:c7:c8:4c:f7:a1,TAFE-Events,-74,0,0,0;d8:c7:c8:4c:fa:e1,TAFE-Events,-75,0,0,0;d8:c7:c8:4f:cb:81,TAFE-Events,-81,0,0,0;d8:c7:c8:4c:96:f1,TAFE-Events,-90,0,0,0;d8:c7:c8:4c:f7:b1,TAFE-Events,-91,0,0,0;d8:c7:c8:4c:9c:f1,TAFE-Events,-93,0,0,0;

Scan2;6c:f3:7f:a1:4a:f0,TAFENSW,-89,0,0,0;d8:c7:c8:4c:fa:d0,TAFENSW,-91,0,0,0;d8:c7:c8:4f:cb:90,TAFENSW,-81,0,0,0;d8:c7:c8:4f:cb:91,TAFE-Events,-82,0,0,0;6c:f3:7f:a1:46:d0,TAFENSW,-94,0,0,0;6c:f3:7f:a1:46:c0,TAFENSW,-76,0,0,0;6c:f3:7f:a1:46:c1,TAFE-Events,-75,0,0,0;d8:c7:c8:4c:fa:d1,TAFE-Events,-92,0,0,0;d8:c7:c8:4f:80:90,TAFENSW,-92,0,0,0;d8:c7:c8:4f:80:91,TAFE-Events,-92,0,0,0;d8:c7:c8:4c:f5:30,TAFENSW,-85,0,0,0;28:c7:ce:a2:40:0b,Cisco860_Guest1,-76,0,0,0;28:c7:ce:a2:40:0c,Cisco860_Guest2,-68,0,0,0;c0:25:e9:4b:b2:60,TP-LINK_B260,-79,0,0,0;70:3a:0e:43:40:f3,ISF-Guest,-91,0,0,0;f0:5c:19:84:8a:90,TAFENSW,-85,0,0,0;f0:5c:19:84:83:d0,TAFE-Events,-83,0,0,0;f0:5c:19:84:8a:91,TAFE-Events,-85,0,0,0;d8:c7:c8:4c:fa:e0,TAFENSW,-75,0,0,0;d8:c7:c8:4c:fa:f0,TAFENSW,-78,0,0,0;d8:c7:c8:4c:f5:20,TAFENSW,-73,0,0,0;d8:c7:c8:4c:f4:00,TAFENSW,-70,0,0,0;28:c7:ce:a2:40:0a,Fork and Grind,-76,0,0,0;d8:c7:c8:4c:f7:a0,TAFENSW,-78,0,0,0;d8:c7:c8:4c:96:f0,TAFENSW,-91,0,0,0;d8:c7:c8:4c:fa:f1,TAFE-Events,-78,0,0,0;d8:c7:c8:4c:f5:21,TAFE-Events,-74,0,0,0;d8:c7:c8:4c:f4:01,TAFE-Events,-74,0,0,0;d8:c7:c8:4c:f5:31,TAFE-Events,-84,0,0,0;28:c7:ce:a2:40:0d,Cisco860_Guest3,-78,0,0,0;f0:5c:19:84:80:b0,TAFE-Events,-92,0,0,0;d8:c7:c8:4c:f4:10,TAFENSW,-73,0,0,0;18:a6:f7:e8:e7:9f,2400 baud modem f,-77,0,0,0;f0:5c:19:84:83:d1,TAFENSW,-82,0,0,0;f0:5c:19:84:7c:70,TAFENSW,-88,0,0,0;a8:c8:3a:2b:8f:40,TGP_wifi,-84,0,0,0;d8:c7:c8:4c:ee:20,TAFENSW,-84,0,0,0;d8:c7:c8:4c:f7:b0,TAFENSW,-91,0,0,0;d8:c7:c8:4f:cc:40,TAFENSW,-87,0,0,0;70:3a:0e:43:40:f0,eduroam,-92,0,0,0;d8:c7:c8:4c:9c:f0,TAFENSW,-94,0,0,0;d8:c7:c8:4c:f8:90,TAFENSW,-97,0,0,0;d8:c7:c8:4c:f4:11,TAFE-Events,-73,0,0,0;d8:c7:c8:4c:f7:a1,TAFE-Events,-74,0,0,0;d8:c7:c8:4c:fa:e1,TAFE-Events,-75,0,0,0;d8:c7:c8:4f:cb:81,TAFE-Events,-81,0,0,0;d8:c7:c8:4c:96:f1,TAFE-Events,-90,0,0,0;d8:c7:c8:4c:f7:b1,TAFE-Events,-91,0,0,0;d8:c7:c8:4c:9c:f1,TAFE-Events,-93,0,0,0;

Scan3;6c:f3:7f:a1:4a:f0,TAFENSW,-89,0,0,0;d8:c7:c8:4c:fa:d0,TAFENSW,-91,0,0,0;d8:c7:c8:4f:cb:90,TAFENSW,-81,0,0,0;d8:c7:c8:4f:cb:91,TAFE-Events,-82,0,0,0;6c:f3:7f:a1:46:d0,TAFENSW,-94,0,0,0;6c:f3:7f:a1:46:c0,TAFENSW,-76,0,0,0;6c:f3:7f:a1:46:c1,TAFE-Events,-75,0,0,0;d8:c7:c8:4c:fa:d1,TAFE-Events,-92,0,0,0;d8:c7:c8:4f:80:90,TAFENSW,-92,0,0,0;d8:c7:c8:4f:80:91,TAFE-Events,-92,0,0,0;d8:c7:c8:4c:f5:30,TAFENSW,-85,0,0,0;28:c7:ce:a2:40:0b,Cisco860_Guest1,-76,0,0,0;28:c7:ce:a2:40:0c,Cisco860_Guest2,-68,0,0,0;c0:25:e9:4b:b2:60,TP-LINK_B260,-79,0,0,0;70:3a:0e:43:40:f3,ISF-Guest,-91,0,0,0;f0:5c:19:84:8a:90,TAFENSW,-85,0,0,0;f0:5c:19:84:83:d0,TAFE-Events,-83,0,0,0;f0:5c:19:84:8a:91,TAFE-Events,-85,0,0,0;d8:c7:c8:4c:fa:e0,TAFENSW,-75,0,0,0;d8:c7:c8:4c:fa:f0,TAFENSW,-78,0,0,0;d8:c7:c8:4c:f5:20,TAFENSW,-73,0,0,0;d8:c7:c8:4c:f4:00,TAFENSW,-70,0,0,0;28:c7:ce:a2:40:0a,Fork and Grind,-76,0,0,0;d8:c7:c8:4c:f7:a0,TAFENSW,-78,0,0,0;d8:c7:c8:4c:96:f0,TAFENSW,-91,0,0,0;d8:c7:c8:4c:fa:f1,TAFE-Events,-78,0,0,0;d8:c7:c8:4c:f5:21,TAFE-Events,-74,0,0,0;d8:c7:c8:4c:f4:01,TAFE-Events,-74,0,0,0;d8:c7:c8:4c:f5:31,TAFE-Events,-84,0,0,0;28:c7:ce:a2:40:0d,Cisco860_Guest3,-78,0,0,0;f0:5c:19:84:80:b0,TAFE-Events,-92,0,0,0;d8:c7:c8:4c:f4:10,TAFENSW,-73,0,0,0;18:a6:f7:e8:e7:9f,2400 baud modem f,-77,0,0,0;f0:5c:19:84:83:d1,TAFENSW,-82,0,0,0;f0:5c:19:84:7c:70,TAFENSW,-88,0,0,0;a8:c8:3a:2b:8f:40,TGP_wifi,-84,0,0,0;d8:c7:c8:4c:ee:20,TAFENSW,-84,0,0,0;d8:c7:c8:4c:f7:b0,TAFENSW,-91,0,0,0;d8:c7:c8:4f:cc:40,TAFENSW,-87,0,0,0;70:3a:0e:43:40:f0,eduroam,-92,0,0,0;d8:c7:c8:4c:9c:f0,TAFENSW,-94,0,0,0;d8:c7:c8:4c:f8:90,TAFENSW,-97,0,0,0;d8:c7:c8:4c:f4:11,TAFE-Events,-73,0,0,0;d8:c7:c8:4c:f7:a1,TAFE-Events,-74,0,0,0;d8:c7:c8:4c:fa:e1,TAFE-Events,-75,0,0,0;d8:c7:c8:4f:cb:81,TAFE-Events,-81,0,0,0;d8:c7:c8:4c:96:f1,TAFE-Events,-90,0,0,0;d8:c7:c8:4c:f7:b1,TAFE-Events,-91,0,0,0;d8:c7:c8:4c:9c:f1,TAFE-Events,-93,0,0,0;

Scan4;6c:f3:7f:a1:4a:f0,TAFENSW,-89,0,0,0;d8:c7:c8:4c:fa:d0,TAFENSW,-91,0,0,0;d8:c7:c8:4f:cb:90,TAFENSW,-81,0,0,0;d8:c7:c8:4f:cb:91,TAFE-Events,-82,0,0,0;6c:f3:7f:a1:46:d0,TAFENSW,-94,0,0,0;6c:f3:7f:a1:46:c0,TAFENSW,-76,0,0,0;6c:f3:7f:a1:46:c1,TAFE-Events,-75,0,0,0;d8:c7:c8:4c:fa:d1,TAFE-Events,-92,0,0,0;d8:c7:c8:4f:80:90,TAFENSW,-92,0,0,0;d8:c7:c8:4f:80:91,TAFE-Events,-92,0,0,0;d8:c7:c8:4c:f5:30,TAFENSW,-85,0,0,0;28:c7:ce:a2:40:0b,Cisco860_Guest1,-76,0,0,0;28:c7:ce:a2:40:0c,Cisco860_Guest2,-68,0,0,0;c0:25:e9:4b:b2:60,TP-LINK_B260,-79,0,0,0;70:3a:0e:43:40:f3,ISF-Guest,-91,0,0,0;f0:5c:19:84:8a:90,TAFENSW,-85,0,0,0;f0:5c:19:84:83:d0,TAFE-Events,-83,0,0,0;f0:5c:19:84:8a:91,TAFE-Events,-85,0,0,0;d8:c7:c8:4c:fa:e0,TAFENSW,-75,0,0,0;d8:c7:c8:4c:fa:f0,TAFENSW,-78,0,0,0;d8:c7:c8:4c:f5:20,TAFENSW,-73,0,0,0;d8:c7:c8:4c:f4:00,TAFENSW,-70,0,0,0;28:c7:ce:a2:40:0a,Fork and Grind,-76,0,0,0;d8:c7:c8:4c:f7:a0,TAFENSW,-78,0,0,0;d8:c7:c8:4c:96:f0,TAFENSW,-91,0,0,0;d8:c7:c8:4c:fa:f1,TAFE-Events,-78,0,0,0;d8:c7:c8:4c:f5:21,TAFE-Events,-74,0,0,0;d8:c7:c8:4c:f4:01,TAFE-Events,-74,0,0,0;d8:c7:c8:4c:f5:31,TAFE-Events,-84,0,0,0;28:c7:ce:a2:40:0d,Cisco860_Guest3,-78,0,0,0;f0:5c:19:84:80:b0,TAFE-Events,-92,0,0,0;d8:c7:c8:4c:f4:10,TAFENSW,-73,0,0,0;18:a6:f7:e8:e7:9f,2400 baud modem f,-77,0,0,0;f0:5c:19:84:83:d1,TAFENSW,-82,0,0,0;f0:5c:19:84:7c:70,TAFENSW,-88,0,0,0;a8:c8:3a:2b:8f:40,TGP_wifi,-84,0,0,0;d8:c7:c8:4c:ee:20,TAFENSW,-84,0,0,0;d8:c7:c8:4c:f7:b0,TAFENSW,-91,0,0,0;d8:c7:c8:4f:cc:40,TAFENSW,-87,0,0,0;70:3a:0e:43:40:f0,eduroam,-92,0,0,0;d8:c7:c8:4c:9c:f0,TAFENSW,-94,0,0,0;d8:c7:c8:4c:f8:90,TAFENSW,-97,0,0,0;d8:c7:c8:4c:f4:11,TAFE-Events,-73,0,0,0;d8:c7:c8:4c:f7:a1,TAFE-Events,-74,0,0,0;d8:c7:c8:4c:fa:e1,TAFE-Events,-75,0,0,0;d8:c7:c8:4f:cb:81,TAFE-Events,-81,0,0,0;d8:c7:c8:4c:96:f1,TAFE-Events,-90,0,0,0;d8:c7:c8:4c:f7:b1,TAFE-Events,-91,0,0,0;d8:c7:c8:4c:9c:f1,TAFE-Events,-93,0,0,0;

Scan5;6c:f3:7f:a1:4a:f0,TAFENSW,-89,0,0,0;d8:c7:c8:4c:fa:d0,TAFENSW,-91,0,0,0;d8:c7:c8:4f:cb:90,TAFENSW,-81,0,0,0;d8:c7:c8:4f:cb:91,TAFE-Events,-82,0,0,0;6c:f3:7f:a1:46:d0,TAFENSW,-94,0,0,0;6c:f3:7f:a1:46:c0,TAFENSW,-76,0,0,0;6c:f3:7f:a1:46:c1,TAFE-Events,-75,0,0,0;d8:c7:c8:4c:fa:d1,TAFE-Events,-92,0,0,0;d8:c7:c8:4f:80:90,TAFENSW,-92,0,0,0;d8:c7:c8:4f:80:91,TAFE-Events,-92,0,0,0;d8:c7:c8:4c:f5:30,TAFENSW,-85,0,0,0;28:c7:ce:a2:40:0b,Cisco860_Guest1,-76,0,0,0;28:c7:ce:a2:40:0c,Cisco860_Guest2,-68,0,0,0;c0:25:e9:4b:b2:60,TP-LINK_B260,-79,0,0,0;70:3a:0e:43:40:f3,ISF-Guest,-91,0,0,0;f0:5c:19:84:8a:90,TAFENSW,-85,0,0,0;f0:5c:19:84:83:d0,TAFE-Events,-83,0,0,0;f0:5c:19:84:8a:91,TAFE-Events,-85,0,0,0;d8:c7:c8:4c:fa:e0,TAFENSW,-75,0,0,0;d8:c7:c8:4c:fa:f0,TAFENSW,-78,0,0,0;d8:c7:c8:4c:f5:20,TAFENSW,-73,0,0,0;d8:c7:c8:4c:f4:00,TAFENSW,-70,0,0,0;28:c7:ce:a2:40:0a,Fork and Grind,-76,0,0,0;d8:c7:c8:4c:f7:a0,TAFENSW,-78,0,0,0;d8:c7:c8:4c:96:f0,TAFENSW,-91,0,0,0;d8:c7:c8:4c:fa:f1,TAFE-Events,-78,0,0,0;d8:c7:c8:4c:f5:21,TAFE-Events,-74,0,0,0;d8:c7:c8:4c:f4:01,TAFE-Events,-74,0,0,0;d8:c7:c8:4c:f5:31,TAFE-Events,-84,0,0,0;28:c7:ce:a2:40:0d,Cisco860_Guest3,-78,0,0,0;f0:5c:19:84:80:b0,TAFE-Events,-92,0,0,0;d8:c7:c8:4c:f4:10,TAFENSW,-73,0,0,0;18:a6:f7:e8:e7:9f,2400 baud modem f,-77,0,0,0;f0:5c:19:84:83:d1,TAFENSW,-82,0,0,0;f0:5c:19:84:7c:70,TAFENSW,-88,0,0,0;a8:c8:3a:2b:8f:40,TGP_wifi,-84,0,0,0;d8:c7:c8:4c:ee:20,TAFENSW,-84,0,0,0;d8:c7:c8:4c:f7:b0,TAFENSW,-91,0,0,0;d8:c7:c8:4f:cc:40,TAFENSW,-87,0,0,0;70:3a:0e:43:40:f0,eduroam,-92,0,0,0;d8:c7:c8:4c:9c:f0,TAFENSW,-94,0,0,0;d8:c7:c8:4c:f8:90,TAFENSW,-97,0,0,0;d8:c7:c8:4c:f4:11,TAFE-Events,-73,0,0,0;d8:c7:c8:4c:f7:a1,TAFE-Events,-74,0,0,0;d8:c7:c8:4c:fa:e1,TAFE-Events,-75,0,0,0;d8:c7:c8:4f:cb:81,TAFE-Events,-81,0,0,0;d8:c7:c8:4c:96:f1,TAFE-Events,-90,0,0,0;d8:c7:c8:4c:f7:b1,TAFE-Events,-91,0,0,0;d8:c7:c8:4c:9c:f1,TAFE-Events,-93,0,0,0;

Scan6;6c:f3:7f:a1:4a:f0,TAFENSW,-89,0,0,0;d8:c7:c8:4c:fa:d0,TAFENSW,-91,0,0,0;d8:c7:c8:4f:cb:90,TAFENSW,-81,0,0,0;d8:c7:c8:4f:cb:91,TAFE-Events,-82,0,0,0;6c:f3:7f:a1:46:d0,TAFENSW,-94,0,0,0;6c:f3:7f:a1:46:c0,TAFENSW,-76,0,0,0;6c:f3:7f:a1:46:c1,TAFE-Events,-75,0,0,0;d8:c7:c8:4c:fa:d1,TAFE-Events,-92,0,0,0;d8:c7:c8:4f:80:90,TAFENSW,-92,0,0,0;d8:c7:c8:4f:80:91,TAFE-Events,-92,0,0,0;d8:c7:c8:4c:f5:30,TAFENSW,-85,0,0,0;28:c7:ce:a2:40:0b,Cisco860_Guest1,-76,0,0,0;28:c7:ce:a2:40:0c,Cisco860_Guest2,-68,0,0,0;c0:25:e9:4b:b2:60,TP-LINK_B260,-79,0,0,0;70:3a:0e:43:40:f3,ISF-Guest,-91,0,0,0;f0:5c:19:84:8a:90,TAFENSW,-85,0,0,0;f0:5c:19:84:83:d0,TAFE-Events,-83,0,0,0;f0:5c:19:84:8a:91,TAFE-Events,-85,0,0,0;d8:c7:c8:4c:fa:e0,TAFENSW,-75,0,0,0;d8:c7:c8:4c:fa:f0,TAFENSW,-78,0,0,0;d8:c7:c8:4c:f5:20,TAFENSW,-73,0,0,0;d8:c7:c8:4c:f4:00,TAFENSW,-70,0,0,0;28:c7:ce:a2:40:0a,Fork and Grind,-76,0,0,0;d8:c7:c8:4c:f7:a0,TAFENSW,-78,0,0,0;d8:c7:c8:4c:96:f0,TAFENSW,-91,0,0,0;d8:c7:c8:4c:fa:f1,TAFE-Events,-78,0,0,0;d8:c7:c8:4c:f5:21,TAFE-Events,-74,0,0,0;d8:c7:c8:4c:f4:01,TAFE-Events,-74,0,0,0;d8:c7:c8:4c:f5:31,TAFE-Events,-84,0,0,0;28:c7:ce:a2:40:0d,Cisco860_Guest3,-78,0,0,0;f0:5c:19:84:80:b0,TAFE-Events,-92,0,0,0;d8:c7:c8:4c:f4:10,TAFENSW,-73,0,0,0;18:a6:f7:e8:e7:9f,2400 baud modem f,-77,0,0,0;f0:5c:19:84:83:d1,TAFENSW,-82,0,0,0;f0:5c:19:84:7c:70,TAFENSW,-88,0,0,0;a8:c8:3a:2b:8f:40,TGP_wifi,-84,0,0,0;d8:c7:c8:4c:ee:20,TAFENSW,-84,0,0,0;d8:c7:c8:4c:f7:b0,TAFENSW,-91,0,0,0;d8:c7:c8:4f:cc:40,TAFENSW,-87,0,0,0;70:3a:0e:43:40:f0,eduroam,-92,0,0,0;d8:c7:c8:4c:9c:f0,TAFENSW,-94,0,0,0;d8:c7:c8:4c:f8:90,TAFENSW,-97,0,0,0;d8:c7:c8:4c:f4:11,TAFE-Events,-73,0,0,0;d8:c7:c8:4c:f7:a1,TAFE-Events,-74,0,0,0;d8:c7:c8:4c:fa:e1,TAFE-Events,-75,0,0,0;d8:c7:c8:4f:cb:81,TAFE-Events,-81,0,0,0;d8:c7:c8:4c:96:f1,TAFE-Events,-90,0,0,0;d8:c7:c8:4c:f7:b1,TAFE-Events,-91,0,0,0;d8:c7:c8:4c:9c:f1,TAFE-Events,-93,0,0,0;

Scan7;6c:f3:7f:a1:4a:f0,TAFENSW,-89,0,0,0;d8:c7:c8:4c:fa:d0,TAFENSW,-91,0,0,0;d8:c7:c8:4f:cb:90,TAFENSW,-81,0,0,0;d8:c7:c8:4f:cb:91,TAFE-Events,-82,0,0,0;6c:f3:7f:a1:46:d0,TAFENSW,-94,0,0,0;6c:f3:7f:a1:46:c0,TAFENSW,-76,0,0,0;6c:f3:7f:a1:46:c1,TAFE-Events,-75,0,0,0;d8:c7:c8:4c:fa:d1,TAFE-Events,-92,0,0,0;d8:c7:c8:4f:80:90,TAFENSW,-92,0,0,0;d8:c7:c8:4f:80:91,TAFE-Events,-92,0,0,0;d8:c7:c8:4c:f5:30,TAFENSW,-85,0,0,0;28:c7:ce:a2:40:0b,Cisco860_Guest1,-76,0,0,0;28:c7:ce:a2:40:0c,Cisco860_Guest2,-68,0,0,0;c0:25:e9:4b:b2:60,TP-LINK_B260,-79,0,0,0;70:3a:0e:43:40:f3,ISF-Guest,-91,0,0,0;f0:5c:19:84:8a:90,TAFENSW,-85,0,0,0;f0:5c:19:84:83:d0,TAFE-Events,-83,0,0,0;f0:5c:19:84:8a:91,TAFE-Events,-85,0,0,0;d8:c7:c8:4c:fa:e0,TAFENSW,-75,0,0,0;d8:c7:c8:4c:fa:f0,TAFENSW,-78,0,0,0;d8:c7:c8:4c:f5:20,TAFENSW,-73,0,0,0;d8:c7:c8:4c:f4:00,TAFENSW,-70,0,0,0;28:c7:ce:a2:40:0a,Fork and Grind,-76,0,0,0;d8:c7:c8:4c:f7:a0,TAFENSW,-78,0,0,0;d8:c7:c8:4c:96:f0,TAFENSW,-91,0,0,0;d8:c7:c8:4c:fa:f1,TAFE-Events,-78,0,0,0;d8:c7:c8:4c:f5:21,TAFE-Events,-74,0,0,0;d8:c7:c8:4c:f4:01,TAFE-Events,-74,0,0,0;d8:c7:c8:4c:f5:31,TAFE-Events,-84,0,0,0;28:c7:ce:a2:40:0d,Cisco860_Guest3,-78,0,0,0;f0:5c:19:84:80:b0,TAFE-Events,-92,0,0,0;d8:c7:c8:4c:f4:10,TAFENSW,-73,0,0,0;18:a6:f7:e8:e7:9f,2400 baud modem f,-77,0,0,0;f0:5c:19:84:83:d1,TAFENSW,-82,0,0,0;f0:5c:19:84:7c:70,TAFENSW,-88,0,0,0;a8:c8:3a:2b:8f:40,TGP_wifi,-84,0,0,0;d8:c7:c8:4c:ee:20,TAFENSW,-84,0,0,0;d8:c7:c8:4c:f7:b0,TAFENSW,-91,0,0,0;d8:c7:c8:4f:cc:40,TAFENSW,-87,0,0,0;70:3a:0e:43:40:f0,eduroam,-92,0,0,0;d8:c7:c8:4c:9c:f0,TAFENSW,-94,0,0,0;d8:c7:c8:4c:f8:90,TAFENSW,-97,0,0,0;d8:c7:c8:4c:f4:11,TAFE-Events,-73,0,0,0;d8:c7:c8:4c:f7:a1,TAFE-Events,-74,0,0,0;d8:c7:c8:4c:fa:e1,TAFE-Events,-75,0,0,0;d8:c7:c8:4f:cb:81,TAFE-Events,-81,0,0,0;d8:c7:c8:4c:96:f1,TAFE-Events,-90,0,0,0;d8:c7:c8:4c:f7:b1,TAFE-Events,-91,0,0,0;d8:c7:c8:4c:9c:f1,TAFE-Events,-93,0,0,0;

Scan8;6c:f3:7f:a1:4a:f0,TAFENSW,-89,0,0,0;d8:c7:c8:4c:fa:d0,TAFENSW,-91,0,0,0;d8:c7:c8:4f:cb:90,TAFENSW,-81,0,0,0;d8:c7:c8:4f:cb:91,TAFE-Events,-82,0,0,0;6c:f3:7f:a1:46:d0,TAFENSW,-94,0,0,0;6c:f3:7f:a1:46:c0,TAFENSW,-76,0,0,0;6c:f3:7f:a1:46:c1,TAFE-Events,-75,0,0,0;d8:c7:c8:4c:fa:d1,TAFE-Events,-92,0,0,0;d8:c7:c8:4f:80:90,TAFENSW,-92,0,0,0;d8:c7:c8:4f:80:91,TAFE-Events,-92,0,0,0;d8:c7:c8:4c:f5:30,TAFENSW,-85,0,0,0;28:c7:ce:a2:40:0b,Cisco860_Guest1,-76,0,0,0;28:c7:ce:a2:40:0c,Cisco860_Guest2,-68,0,0,0;c0:25:e9:4b:b2:60,TP-LINK_B260,-79,0,0,0;70:3a:0e:43:40:f3,ISF-Guest,-91,0,0,0;f0:5c:19:84:8a:90,TAFENSW,-85,0,0,0;f0:5c:19:84:83:d0,TAFE-Events,-83,0,0,0;f0:5c:19:84:8a:91,TAFE-Events,-85,0,0,0;d8:c7:c8:4c:fa:e0,TAFENSW,-75,0,0,0;d8:c7:c8:4c:fa:f0,TAFENSW,-78,0,0,0;d8:c7:c8:4c:f5:20,TAFENSW,-73,0,0,0;d8:c7:c8:4c:f4:00,TAFENSW,-70,0,0,0;28:c7:ce:a2:40:0a,Fork and Grind,-76,0,0,0;d8:c7:c8:4c:f7:a0,TAFENSW,-78,0,0,0;d8:c7:c8:4c:96:f0,TAFENSW,-91,0,0,0;d8:c7:c8:4c:fa:f1,TAFE-Events,-78,0,0,0;d8:c7:c8:4c:f5:21,TAFE-Events,-74,0,0,0;d8:c7:c8:4c:f4:01,TAFE-Events,-74,0,0,0;d8:c7:c8:4c:f5:31,TAFE-Events,-84,0,0,0;28:c7:ce:a2:40:0d,Cisco860_Guest3,-78,0,0,0;f0:5c:19:84:80:b0,TAFE-Events,-92,0,0,0;d8:c7:c8:4c:f4:10,TAFENSW,-73,0,0,0;18:a6:f7:e8:e7:9f,2400 baud modem f,-77,0,0,0;f0:5c:19:84:83:d1,TAFENSW,-82,0,0,0;f0:5c:19:84:7c:70,TAFENSW,-88,0,0,0;a8:c8:3a:2b:8f:40,TGP_wifi,-84,0,0,0;d8:c7:c8:4c:ee:20,TAFENSW,-84,0,0,0;d8:c7:c8:4c:f7:b0,TAFENSW,-91,0,0,0;d8:c7:c8:4f:cc:40,TAFENSW,-87,0,0,0;70:3a:0e:43:40:f0,eduroam,-92,0,0,0;d8:c7:c8:4c:9c:f0,TAFENSW,-94,0,0,0;d8:c7:c8:4c:f8:90,TAFENSW,-97,0,0,0;d8:c7:c8:4c:f4:11,TAFE-Events,-73,0,0,0;d8:c7:c8:4c:f7:a1,TAFE-Events,-74,0,0,0;d8:c7:c8:4c:fa:e1,TAFE-Events,-75,0,0,0;d8:c7:c8:4f:cb:81,TAFE-Events,-81,0,0,0;d8:c7:c8:4c:96:f1,TAFE-Events,-90,0,0,0;d8:c7:c8:4c:f7:b1,TAFE-Events,-91,0,0,0;d8:c7:c8:4c:9c:f1,TAFE-Events,-93,0,0,0;

Scan9;6c:f3:7f:a1:4a:f0,TAFENSW,-88,0,0,0;d8:c7:c8:4f:cb:90,TAFENSW,-83,0,0,0;d8:c7:c8:4f:cb:91,TAFE-Events,-83,0,0,0;6c:f3:7f:a1:46:d0,TAFENSW,-94,0,0,0;6c:f3:7f:a1:46:c0,TAFENSW,-80,0,0,0;6c:f3:7f:a1:46:c1,TAFE-Events,-79,0,0,0;d8:c7:c8:4c:f5:30,TAFENSW,-87,0,0,0;28:c7:ce:a2:40:0b,Cisco860_Guest1,-76,0,0,0;28:c7:ce:a2:40:0c,Cisco860_Guest2,-73,0,0,0;c0:25:e9:4b:b2:60,TP-LINK_B260,-75,0,0,0;f0:5c:19:84:8a:90,TAFENSW,-89,0,0,0;f0:5c:19:84:83:d0,TAFE-Events,-77,0,0,0;f0:5c:19:84:8a:91,TAFE-Events,-86,0,0,0;d8:c7:c8:4c:fa:f0,TAFENSW,-76,0,0,0;d8:c7:c8:4c:f5:20,TAFENSW,-71,0,0,0;d8:c7:c8:4c:f4:00,TAFENSW,-74,0,0,0;28:c7:ce:a2:40:0a,Fork and Grind,-76,0,0,0;d8:c7:c8:4c:f7:a0,TAFENSW,-81,0,0,0;d8:c7:c8:4c:fa:f1,TAFE-Events,-76,0,0,0;d8:c7:c8:4c:f5:21,TAFE-Events,-70,0,0,0;d8:c7:c8:4c:f4:01,TAFE-Events,-76,0,0,0;d8:c7:c8:4c:f5:31,TAFE-Events,-88,0,0,0;28:c7:ce:a2:40:0d,Cisco860_Guest3,-75,0,0,0;d8:c7:c8:4c:f4:10,TAFENSW,-73,0,0,0;f0:5c:19:84:83:d1,TAFENSW,-77,0,0,0;a8:c8:3a:2b:8f:40,TGP_wifi,-80,0,0,0;d8:c7:c8:4c:f7:b0,TAFENSW,-90,0,0,0;d8:c7:c8:4c:f8:90,TAFENSW,-97,0,0,0;d8:c7:c8:4c:fa:e1,TAFE-Events,-81,0,0,0;d8:c7:c8:4c:f7:b1,TAFE-Events,-90,0,0,0;d8:c7:c8:4c:de:b0,TAFENSW,-85,0,0,0;d8:c7:c8:4f:cb:80,TAFENSW,-83,0,0,0;d8:c7:c8:4c:fb:40,TAFENSW,-85,0,0,0;70:3a:0e:43:40:f1,UTS-WPA,-90,0,0,0;d8:c7:c8:4c:fb:50,TAFENSW,-91,0,0,0;d8:c7:c8:4c:ea:50,TAFENSW,-92,0,0,0;94:b4:0f:09:7e:91,UTS-WPA,-98,0,0,0;94:b4:0f:09:7e:90,eduroam,-98,0,0,0;94:b4:0f:09:7e:93,ISF-Guest,-99,0,0,0;d8:c7:c8:4c:f4:c1,TAFE-Events,-71,0,0,0;d8:c7:c8:4c:de:a1,TAFE-Events,-79,0,0,0;64:f6:9d:b3:f4:e0,iiNet Free WiFi,-80,0,0,0;d8:c7:c8:4c:de:b1,TAFE-Events,-85,0,0,0;6c:f3:7f:a1:4a:f1,TAFE-Events,-89,0,0,0;d8:c7:c8:4f:cc:51,TAFE-Events,-90,0,0,0;d8:c7:c8:4c:ea:51,TAFE-Events,-93,0,0,0;d8:c7:c8:4c:fb:51,TAFE-Events,-93,0,0,0;6c:f3:7f:a1:46:d1,TAFE-Events,-95,0,0,0;

