Scan1;9c:1c:12:86:5c:90,UTS-WPA,-90,0,0,0;d8:c7:c8:4f:cb:90,TAFENSW,-68,0,0,0;d8:c7:c8:4c:f0:70,TAFENSW,-85,0,0,0;d8:c7:c8:4f:b6:b1,TAFE-Events,-82,0,0,0;d8:c7:c8:4c:f0:71,TAFE-Events,-86,0,0,0;6c:f3:7f:a1:4a:f0,TAFENSW,-78,0,0,0;d8:c7:c8:4f:b6:b0,TAFENSW,-82,0,0,0;d8:c7:c8:4c:fb:91,TAFE-Events,-78,0,0,0;d8:c7:c8:4c:fa:70,TAFENSW,-81,0,0,0;d8:c7:c8:4c:fa:71,TAFE-Events,-81,0,0,0;d8:c7:c8:4f:cc:50,TAFENSW,-80,0,0,0;d8:c7:c8:4c:fb:90,TAFENSW,-79,0,0,0;d8:c7:c8:4c:fa:90,TAFENSW,-90,0,0,0;d8:c7:c8:4f:cc:51,TAFE-Events,-80,0,0,0;6c:f3:7f:a1:4a:e0,TAFENSW,-77,0,0,0;9c:1c:12:86:5c:91,eduroam,-90,0,0,0;d8:c7:c8:4f:cc:40,TAFENSW,-76,0,0,0;d8:c7:c8:4c:ee:30,TAFENSW,-78,0,0,0;d8:c7:c8:4c:ee:31,TAFE-Events,-78,0,0,0;d8:c7:c8:4c:fa:c0,TAFENSW,-74,0,0,0;54:b8:0a:5c:28:10,Yiannis,-73,0,0,0;d8:c7:c8:4c:fa:d0,TAFENSW,-79,0,0,0;d8:c7:c8:4c:fa:d1,TAFE-Events,-79,0,0,0;d8:c7:c8:4c:fb:50,TAFENSW,-80,0,0,0;d8:c7:c8:4f:cb:91,TAFE-Events,-68,0,0,0;6c:f3:7f:a1:4a:f1,TAFE-Events,-77,0,0,0;d8:c7:c8:4c:fa:61,TAFE-Events,-75,0,0,0;d8:c7:c8:4c:fb:51,TAFE-Events,-80,0,0,0;d8:c7:c8:4c:ee:20,TAFENSW,-71,0,0,0;d8:c7:c8:4f:cb:80,TAFENSW,-69,0,0,0;d8:c7:c8:4c:f9:70,TAFENSW,-88,0,0,0;70:3a:0e:43:40:f0,eduroam,-91,0,0,0;6c:f3:7f:a1:46:d0,TAFENSW,-92,0,0,0;d8:c7:c8:4f:cb:81,TAFE-Events,-69,0,0,0;6c:f3:7f:a1:3c:10,TAFENSW,-71,0,0,0;d8:c7:c8:4c:fa:60,TAFENSW,-71,0,0,0;6c:f3:7f:a1:46:50,TAFENSW,-85,0,0,0;d8:c7:c8:4c:f4:90,TAFENSW,-90,0,0,0;c4:71:54:46:8f:a0,WiFi-8F9E-5G,-90,0,0,0;9c:1c:12:8f:b9:30,UTS-WPA,-91,0,0,0;9c:1c:12:8f:b9:31,eduroam,-92,0,0,0;9c:1c:12:8f:b9:32,UTS-Duress,-93,0,0,0;6c:f3:7f:a1:3c:11,TAFE-Events,-71,0,0,0;6c:f3:7f:a1:4a:e1,TAFE-Events,-77,0,0,0;6c:f3:7f:a1:46:51,TAFE-Events,-85,0,0,0;d8:c7:c8:4c:f9:71,TAFE-Events,-88,0,0,0;d8:c7:c8:4c:fa:91,TAFE-Events,-89,0,0,0;d8:c7:c8:4c:f4:91,TAFE-Events,-91,0,0,0;6c:f3:7f:a1:46:d1,TAFE-Events,-92,0,0,0;

Scan2;9c:1c:12:86:5c:90,UTS-WPA,-90,0,0,0;d8:c7:c8:4f:cb:90,TAFENSW,-68,0,0,0;d8:c7:c8:4c:f0:70,TAFENSW,-85,0,0,0;d8:c7:c8:4f:b6:b1,TAFE-Events,-82,0,0,0;d8:c7:c8:4c:f0:71,TAFE-Events,-86,0,0,0;6c:f3:7f:a1:4a:f0,TAFENSW,-78,0,0,0;d8:c7:c8:4f:b6:b0,TAFENSW,-82,0,0,0;d8:c7:c8:4c:fb:91,TAFE-Events,-78,0,0,0;d8:c7:c8:4c:fa:70,TAFENSW,-81,0,0,0;d8:c7:c8:4c:fa:71,TAFE-Events,-81,0,0,0;d8:c7:c8:4f:cc:50,TAFENSW,-80,0,0,0;d8:c7:c8:4c:fb:90,TAFENSW,-79,0,0,0;d8:c7:c8:4c:fa:90,TAFENSW,-90,0,0,0;d8:c7:c8:4f:cc:51,TAFE-Events,-80,0,0,0;6c:f3:7f:a1:4a:e0,TAFENSW,-77,0,0,0;9c:1c:12:86:5c:91,eduroam,-90,0,0,0;d8:c7:c8:4f:cc:40,TAFENSW,-76,0,0,0;d8:c7:c8:4c:ee:30,TAFENSW,-78,0,0,0;d8:c7:c8:4c:ee:31,TAFE-Events,-78,0,0,0;d8:c7:c8:4c:fa:c0,TAFENSW,-74,0,0,0;54:b8:0a:5c:28:10,Yiannis,-73,0,0,0;d8:c7:c8:4c:fa:d0,TAFENSW,-79,0,0,0;d8:c7:c8:4c:fa:d1,TAFE-Events,-79,0,0,0;d8:c7:c8:4c:fb:50,TAFENSW,-80,0,0,0;d8:c7:c8:4f:cb:91,TAFE-Events,-68,0,0,0;6c:f3:7f:a1:4a:f1,TAFE-Events,-77,0,0,0;d8:c7:c8:4c:fa:61,TAFE-Events,-75,0,0,0;d8:c7:c8:4c:fb:51,TAFE-Events,-80,0,0,0;d8:c7:c8:4c:ee:20,TAFENSW,-71,0,0,0;d8:c7:c8:4f:cb:80,TAFENSW,-69,0,0,0;d8:c7:c8:4c:f9:70,TAFENSW,-88,0,0,0;70:3a:0e:43:40:f0,eduroam,-91,0,0,0;6c:f3:7f:a1:46:d0,TAFENSW,-92,0,0,0;d8:c7:c8:4f:cb:81,TAFE-Events,-69,0,0,0;6c:f3:7f:a1:3c:10,TAFENSW,-71,0,0,0;d8:c7:c8:4c:fa:60,TAFENSW,-71,0,0,0;6c:f3:7f:a1:46:50,TAFENSW,-85,0,0,0;d8:c7:c8:4c:f4:90,TAFENSW,-90,0,0,0;c4:71:54:46:8f:a0,WiFi-8F9E-5G,-90,0,0,0;9c:1c:12:8f:b9:30,UTS-WPA,-91,0,0,0;9c:1c:12:8f:b9:31,eduroam,-92,0,0,0;9c:1c:12:8f:b9:32,UTS-Duress,-93,0,0,0;6c:f3:7f:a1:3c:11,TAFE-Events,-71,0,0,0;6c:f3:7f:a1:4a:e1,TAFE-Events,-77,0,0,0;6c:f3:7f:a1:46:51,TAFE-Events,-85,0,0,0;d8:c7:c8:4c:f9:71,TAFE-Events,-88,0,0,0;d8:c7:c8:4c:fa:91,TAFE-Events,-89,0,0,0;d8:c7:c8:4c:f4:91,TAFE-Events,-91,0,0,0;6c:f3:7f:a1:46:d1,TAFE-Events,-92,0,0,0;

Scan3;9c:1c:12:86:5c:90,UTS-WPA,-90,0,0,0;d8:c7:c8:4f:cb:90,TAFENSW,-68,0,0,0;d8:c7:c8:4c:f0:70,TAFENSW,-85,0,0,0;d8:c7:c8:4f:b6:b1,TAFE-Events,-82,0,0,0;d8:c7:c8:4c:f0:71,TAFE-Events,-86,0,0,0;6c:f3:7f:a1:4a:f0,TAFENSW,-78,0,0,0;d8:c7:c8:4f:b6:b0,TAFENSW,-82,0,0,0;d8:c7:c8:4c:fb:91,TAFE-Events,-78,0,0,0;d8:c7:c8:4c:fa:70,TAFENSW,-81,0,0,0;d8:c7:c8:4c:fa:71,TAFE-Events,-81,0,0,0;d8:c7:c8:4f:cc:50,TAFENSW,-80,0,0,0;d8:c7:c8:4c:fb:90,TAFENSW,-79,0,0,0;d8:c7:c8:4c:fa:90,TAFENSW,-90,0,0,0;d8:c7:c8:4f:cc:51,TAFE-Events,-80,0,0,0;6c:f3:7f:a1:4a:e0,TAFENSW,-77,0,0,0;9c:1c:12:86:5c:91,eduroam,-90,0,0,0;d8:c7:c8:4f:cc:40,TAFENSW,-76,0,0,0;d8:c7:c8:4c:ee:30,TAFENSW,-78,0,0,0;d8:c7:c8:4c:ee:31,TAFE-Events,-78,0,0,0;d8:c7:c8:4c:fa:c0,TAFENSW,-74,0,0,0;54:b8:0a:5c:28:10,Yiannis,-73,0,0,0;d8:c7:c8:4c:fa:d0,TAFENSW,-79,0,0,0;d8:c7:c8:4c:fa:d1,TAFE-Events,-79,0,0,0;d8:c7:c8:4c:fb:50,TAFENSW,-80,0,0,0;d8:c7:c8:4f:cb:91,TAFE-Events,-68,0,0,0;6c:f3:7f:a1:4a:f1,TAFE-Events,-77,0,0,0;d8:c7:c8:4c:fa:61,TAFE-Events,-75,0,0,0;d8:c7:c8:4c:fb:51,TAFE-Events,-80,0,0,0;d8:c7:c8:4c:ee:20,TAFENSW,-71,0,0,0;d8:c7:c8:4f:cb:80,TAFENSW,-69,0,0,0;d8:c7:c8:4c:f9:70,TAFENSW,-88,0,0,0;70:3a:0e:43:40:f0,eduroam,-91,0,0,0;6c:f3:7f:a1:46:d0,TAFENSW,-92,0,0,0;d8:c7:c8:4f:cb:81,TAFE-Events,-69,0,0,0;6c:f3:7f:a1:3c:10,TAFENSW,-71,0,0,0;d8:c7:c8:4c:fa:60,TAFENSW,-71,0,0,0;6c:f3:7f:a1:46:50,TAFENSW,-85,0,0,0;d8:c7:c8:4c:f4:90,TAFENSW,-90,0,0,0;c4:71:54:46:8f:a0,WiFi-8F9E-5G,-90,0,0,0;9c:1c:12:8f:b9:30,UTS-WPA,-91,0,0,0;9c:1c:12:8f:b9:31,eduroam,-92,0,0,0;9c:1c:12:8f:b9:32,UTS-Duress,-93,0,0,0;6c:f3:7f:a1:3c:11,TAFE-Events,-71,0,0,0;6c:f3:7f:a1:4a:e1,TAFE-Events,-77,0,0,0;6c:f3:7f:a1:46:51,TAFE-Events,-85,0,0,0;d8:c7:c8:4c:f9:71,TAFE-Events,-88,0,0,0;d8:c7:c8:4c:fa:91,TAFE-Events,-89,0,0,0;d8:c7:c8:4c:f4:91,TAFE-Events,-91,0,0,0;6c:f3:7f:a1:46:d1,TAFE-Events,-92,0,0,0;

Scan4;d8:c7:c8:4f:cb:90,TAFENSW,-69,0,0,0;d8:c7:c8:4c:f0:70,TAFENSW,-88,0,0,0;d8:c7:c8:4f:b6:b1,TAFE-Events,-82,0,0,0;d8:c7:c8:4c:f0:71,TAFE-Events,-88,0,0,0;d8:c7:c8:4f:b6:b0,TAFENSW,-82,0,0,0;d8:c7:c8:4c:fb:91,TAFE-Events,-78,0,0,0;d8:c7:c8:4c:fa:71,TAFE-Events,-80,0,0,0;d8:c7:c8:4f:cc:50,TAFENSW,-81,0,0,0;d8:c7:c8:4c:fb:90,TAFENSW,-77,0,0,0;d8:c7:c8:4c:fa:90,TAFENSW,-90,0,0,0;d8:c7:c8:4f:cc:51,TAFE-Events,-80,0,0,0;d8:c7:c8:4f:cc:40,TAFENSW,-74,0,0,0;d8:c7:c8:4c:ee:30,TAFENSW,-78,0,0,0;d8:c7:c8:4c:ee:31,TAFE-Events,-78,0,0,0;d8:c7:c8:4c:fa:c0,TAFENSW,-71,0,0,0;54:b8:0a:5c:28:10,Yiannis,-72,0,0,0;d8:c7:c8:4c:fa:d0,TAFENSW,-79,0,0,0;d8:c7:c8:4c:fa:d1,TAFE-Events,-79,0,0,0;d8:c7:c8:4f:cb:91,TAFE-Events,-69,0,0,0;d8:c7:c8:4f:cb:80,TAFENSW,-70,0,0,0;6c:f3:7f:a1:46:d0,TAFENSW,-91,0,0,0;d8:c7:c8:4f:cb:81,TAFE-Events,-70,0,0,0;d8:c7:c8:4c:fa:60,TAFENSW,-73,0,0,0;c4:71:54:46:8f:a0,WiFi-8F9E-5G,-90,0,0,0;9c:1c:12:8f:b9:30,UTS-WPA,-91,0,0,0;9c:1c:12:8f:b9:31,eduroam,-90,0,0,0;9c:1c:12:8f:b9:32,UTS-Duress,-91,0,0,0;d8:c7:c8:4c:fa:91,TAFE-Events,-90,0,0,0;6c:f3:7f:a1:46:d1,TAFE-Events,-91,0,0,0;d8:c7:c8:4c:fb:80,TAFENSW,-74,0,0,0;d8:c7:c8:4c:fa:f0,TAFENSW,-83,0,0,0;70:3a:0e:43:3e:70,eduroam,-88,0,0,0;70:3a:0e:43:3e:71,UTS-WPA,-90,0,0,0;70:3a:0e:43:3e:73,ISF-Guest,-91,0,0,0;18:64:72:30:1b:12,UTS-WPA,-91,0,0,0;12:13:31:dd:b5:6f,TelstraDDB567,-92,0,0,0;18:64:72:30:1b:11,UTS-FunctionCenter,-93,0,0,0;d8:c7:c8:4c:fa:c1,TAFE-Events,-73,0,0,0;d8:c7:c8:4c:ee:21,TAFE-Events,-74,0,0,0;d8:c7:c8:4c:fa:f1,TAFE-Events,-84,0,0,0;d8:c7:c8:4f:95:31,TAFE-Events,-91,0,0,0;

Scan5;d8:c7:c8:4f:cb:90,TAFENSW,-69,0,0,0;d8:c7:c8:4c:f0:70,TAFENSW,-88,0,0,0;d8:c7:c8:4f:b6:b1,TAFE-Events,-82,0,0,0;d8:c7:c8:4c:f0:71,TAFE-Events,-88,0,0,0;d8:c7:c8:4f:b6:b0,TAFENSW,-82,0,0,0;d8:c7:c8:4c:fb:91,TAFE-Events,-78,0,0,0;d8:c7:c8:4c:fa:71,TAFE-Events,-80,0,0,0;d8:c7:c8:4f:cc:50,TAFENSW,-81,0,0,0;d8:c7:c8:4c:fb:90,TAFENSW,-77,0,0,0;d8:c7:c8:4c:fa:90,TAFENSW,-90,0,0,0;d8:c7:c8:4f:cc:51,TAFE-Events,-80,0,0,0;d8:c7:c8:4f:cc:40,TAFENSW,-74,0,0,0;d8:c7:c8:4c:ee:30,TAFENSW,-78,0,0,0;d8:c7:c8:4c:ee:31,TAFE-Events,-78,0,0,0;d8:c7:c8:4c:fa:c0,TAFENSW,-71,0,0,0;54:b8:0a:5c:28:10,Yiannis,-72,0,0,0;d8:c7:c8:4c:fa:d0,TAFENSW,-79,0,0,0;d8:c7:c8:4c:fa:d1,TAFE-Events,-79,0,0,0;d8:c7:c8:4f:cb:91,TAFE-Events,-69,0,0,0;d8:c7:c8:4f:cb:80,TAFENSW,-70,0,0,0;6c:f3:7f:a1:46:d0,TAFENSW,-91,0,0,0;d8:c7:c8:4f:cb:81,TAFE-Events,-70,0,0,0;d8:c7:c8:4c:fa:60,TAFENSW,-73,0,0,0;c4:71:54:46:8f:a0,WiFi-8F9E-5G,-90,0,0,0;9c:1c:12:8f:b9:30,UTS-WPA,-91,0,0,0;9c:1c:12:8f:b9:31,eduroam,-90,0,0,0;9c:1c:12:8f:b9:32,UTS-Duress,-91,0,0,0;d8:c7:c8:4c:fa:91,TAFE-Events,-90,0,0,0;6c:f3:7f:a1:46:d1,TAFE-Events,-91,0,0,0;d8:c7:c8:4c:fb:80,TAFENSW,-74,0,0,0;d8:c7:c8:4c:fa:f0,TAFENSW,-83,0,0,0;70:3a:0e:43:3e:70,eduroam,-88,0,0,0;70:3a:0e:43:3e:71,UTS-WPA,-90,0,0,0;70:3a:0e:43:3e:73,ISF-Guest,-91,0,0,0;18:64:72:30:1b:12,UTS-WPA,-91,0,0,0;12:13:31:dd:b5:6f,TelstraDDB567,-92,0,0,0;18:64:72:30:1b:11,UTS-FunctionCenter,-93,0,0,0;d8:c7:c8:4c:fa:c1,TAFE-Events,-73,0,0,0;d8:c7:c8:4c:ee:21,TAFE-Events,-74,0,0,0;d8:c7:c8:4c:fa:f1,TAFE-Events,-84,0,0,0;d8:c7:c8:4f:95:31,TAFE-Events,-91,0,0,0;

Scan6;d8:c7:c8:4f:cb:90,TAFENSW,-69,0,0,0;d8:c7:c8:4c:f0:70,TAFENSW,-88,0,0,0;d8:c7:c8:4f:b6:b1,TAFE-Events,-82,0,0,0;d8:c7:c8:4c:f0:71,TAFE-Events,-88,0,0,0;d8:c7:c8:4f:b6:b0,TAFENSW,-82,0,0,0;d8:c7:c8:4c:fb:91,TAFE-Events,-78,0,0,0;d8:c7:c8:4c:fa:71,TAFE-Events,-80,0,0,0;d8:c7:c8:4f:cc:50,TAFENSW,-81,0,0,0;d8:c7:c8:4c:fb:90,TAFENSW,-77,0,0,0;d8:c7:c8:4c:fa:90,TAFENSW,-90,0,0,0;d8:c7:c8:4f:cc:51,TAFE-Events,-80,0,0,0;d8:c7:c8:4f:cc:40,TAFENSW,-74,0,0,0;d8:c7:c8:4c:ee:30,TAFENSW,-78,0,0,0;d8:c7:c8:4c:ee:31,TAFE-Events,-78,0,0,0;d8:c7:c8:4c:fa:c0,TAFENSW,-71,0,0,0;54:b8:0a:5c:28:10,Yiannis,-72,0,0,0;d8:c7:c8:4c:fa:d0,TAFENSW,-79,0,0,0;d8:c7:c8:4c:fa:d1,TAFE-Events,-79,0,0,0;d8:c7:c8:4f:cb:91,TAFE-Events,-69,0,0,0;d8:c7:c8:4f:cb:80,TAFENSW,-70,0,0,0;6c:f3:7f:a1:46:d0,TAFENSW,-91,0,0,0;d8:c7:c8:4f:cb:81,TAFE-Events,-70,0,0,0;d8:c7:c8:4c:fa:60,TAFENSW,-73,0,0,0;c4:71:54:46:8f:a0,WiFi-8F9E-5G,-90,0,0,0;9c:1c:12:8f:b9:30,UTS-WPA,-91,0,0,0;9c:1c:12:8f:b9:31,eduroam,-90,0,0,0;9c:1c:12:8f:b9:32,UTS-Duress,-91,0,0,0;d8:c7:c8:4c:fa:91,TAFE-Events,-90,0,0,0;6c:f3:7f:a1:46:d1,TAFE-Events,-91,0,0,0;d8:c7:c8:4c:fb:80,TAFENSW,-74,0,0,0;d8:c7:c8:4c:fa:f0,TAFENSW,-83,0,0,0;70:3a:0e:43:3e:70,eduroam,-88,0,0,0;70:3a:0e:43:3e:71,UTS-WPA,-90,0,0,0;70:3a:0e:43:3e:73,ISF-Guest,-91,0,0,0;18:64:72:30:1b:12,UTS-WPA,-91,0,0,0;12:13:31:dd:b5:6f,TelstraDDB567,-92,0,0,0;18:64:72:30:1b:11,UTS-FunctionCenter,-93,0,0,0;d8:c7:c8:4c:fa:c1,TAFE-Events,-73,0,0,0;d8:c7:c8:4c:ee:21,TAFE-Events,-74,0,0,0;d8:c7:c8:4c:fa:f1,TAFE-Events,-84,0,0,0;d8:c7:c8:4f:95:31,TAFE-Events,-91,0,0,0;

Scan7;d8:c7:c8:4f:cb:90,TAFENSW,-69,0,0,0;d8:c7:c8:4c:f0:70,TAFENSW,-88,0,0,0;d8:c7:c8:4f:b6:b1,TAFE-Events,-82,0,0,0;d8:c7:c8:4c:f0:71,TAFE-Events,-88,0,0,0;d8:c7:c8:4f:b6:b0,TAFENSW,-82,0,0,0;d8:c7:c8:4c:fb:91,TAFE-Events,-78,0,0,0;d8:c7:c8:4c:fa:71,TAFE-Events,-80,0,0,0;d8:c7:c8:4f:cc:50,TAFENSW,-81,0,0,0;d8:c7:c8:4c:fb:90,TAFENSW,-77,0,0,0;d8:c7:c8:4c:fa:90,TAFENSW,-90,0,0,0;d8:c7:c8:4f:cc:51,TAFE-Events,-80,0,0,0;d8:c7:c8:4f:cc:40,TAFENSW,-74,0,0,0;d8:c7:c8:4c:ee:30,TAFENSW,-78,0,0,0;d8:c7:c8:4c:ee:31,TAFE-Events,-78,0,0,0;d8:c7:c8:4c:fa:c0,TAFENSW,-71,0,0,0;54:b8:0a:5c:28:10,Yiannis,-72,0,0,0;d8:c7:c8:4c:fa:d0,TAFENSW,-79,0,0,0;d8:c7:c8:4c:fa:d1,TAFE-Events,-79,0,0,0;d8:c7:c8:4f:cb:91,TAFE-Events,-69,0,0,0;d8:c7:c8:4f:cb:80,TAFENSW,-70,0,0,0;6c:f3:7f:a1:46:d0,TAFENSW,-91,0,0,0;d8:c7:c8:4f:cb:81,TAFE-Events,-70,0,0,0;d8:c7:c8:4c:fa:60,TAFENSW,-73,0,0,0;c4:71:54:46:8f:a0,WiFi-8F9E-5G,-90,0,0,0;9c:1c:12:8f:b9:30,UTS-WPA,-91,0,0,0;9c:1c:12:8f:b9:31,eduroam,-90,0,0,0;9c:1c:12:8f:b9:32,UTS-Duress,-91,0,0,0;d8:c7:c8:4c:fa:91,TAFE-Events,-90,0,0,0;6c:f3:7f:a1:46:d1,TAFE-Events,-91,0,0,0;d8:c7:c8:4c:fb:80,TAFENSW,-74,0,0,0;d8:c7:c8:4c:fa:f0,TAFENSW,-83,0,0,0;70:3a:0e:43:3e:70,eduroam,-88,0,0,0;70:3a:0e:43:3e:71,UTS-WPA,-90,0,0,0;70:3a:0e:43:3e:73,ISF-Guest,-91,0,0,0;18:64:72:30:1b:12,UTS-WPA,-91,0,0,0;12:13:31:dd:b5:6f,TelstraDDB567,-92,0,0,0;18:64:72:30:1b:11,UTS-FunctionCenter,-93,0,0,0;d8:c7:c8:4c:fa:c1,TAFE-Events,-73,0,0,0;d8:c7:c8:4c:ee:21,TAFE-Events,-74,0,0,0;d8:c7:c8:4c:fa:f1,TAFE-Events,-84,0,0,0;d8:c7:c8:4f:95:31,TAFE-Events,-91,0,0,0;

Scan8;d8:c7:c8:4f:cb:90,TAFENSW,-69,0,0,0;d8:c7:c8:4c:f0:70,TAFENSW,-88,0,0,0;d8:c7:c8:4f:b6:b1,TAFE-Events,-82,0,0,0;d8:c7:c8:4c:f0:71,TAFE-Events,-88,0,0,0;d8:c7:c8:4f:b6:b0,TAFENSW,-82,0,0,0;d8:c7:c8:4c:fb:91,TAFE-Events,-78,0,0,0;d8:c7:c8:4c:fa:71,TAFE-Events,-80,0,0,0;d8:c7:c8:4f:cc:50,TAFENSW,-81,0,0,0;d8:c7:c8:4c:fb:90,TAFENSW,-77,0,0,0;d8:c7:c8:4c:fa:90,TAFENSW,-90,0,0,0;d8:c7:c8:4f:cc:51,TAFE-Events,-80,0,0,0;d8:c7:c8:4f:cc:40,TAFENSW,-74,0,0,0;d8:c7:c8:4c:ee:30,TAFENSW,-78,0,0,0;d8:c7:c8:4c:ee:31,TAFE-Events,-78,0,0,0;d8:c7:c8:4c:fa:c0,TAFENSW,-71,0,0,0;54:b8:0a:5c:28:10,Yiannis,-72,0,0,0;d8:c7:c8:4c:fa:d0,TAFENSW,-79,0,0,0;d8:c7:c8:4c:fa:d1,TAFE-Events,-79,0,0,0;d8:c7:c8:4f:cb:91,TAFE-Events,-69,0,0,0;d8:c7:c8:4f:cb:80,TAFENSW,-70,0,0,0;6c:f3:7f:a1:46:d0,TAFENSW,-91,0,0,0;d8:c7:c8:4f:cb:81,TAFE-Events,-70,0,0,0;d8:c7:c8:4c:fa:60,TAFENSW,-73,0,0,0;c4:71:54:46:8f:a0,WiFi-8F9E-5G,-90,0,0,0;9c:1c:12:8f:b9:30,UTS-WPA,-91,0,0,0;9c:1c:12:8f:b9:31,eduroam,-90,0,0,0;9c:1c:12:8f:b9:32,UTS-Duress,-91,0,0,0;d8:c7:c8:4c:fa:91,TAFE-Events,-90,0,0,0;6c:f3:7f:a1:46:d1,TAFE-Events,-91,0,0,0;d8:c7:c8:4c:fb:80,TAFENSW,-74,0,0,0;d8:c7:c8:4c:fa:f0,TAFENSW,-83,0,0,0;70:3a:0e:43:3e:70,eduroam,-88,0,0,0;70:3a:0e:43:3e:71,UTS-WPA,-90,0,0,0;70:3a:0e:43:3e:73,ISF-Guest,-91,0,0,0;18:64:72:30:1b:12,UTS-WPA,-91,0,0,0;12:13:31:dd:b5:6f,TelstraDDB567,-92,0,0,0;18:64:72:30:1b:11,UTS-FunctionCenter,-93,0,0,0;d8:c7:c8:4c:fa:c1,TAFE-Events,-73,0,0,0;d8:c7:c8:4c:ee:21,TAFE-Events,-74,0,0,0;d8:c7:c8:4c:fa:f1,TAFE-Events,-84,0,0,0;d8:c7:c8:4f:95:31,TAFE-Events,-91,0,0,0;

Scan9;d8:c7:c8:4f:cb:90,TAFENSW,-69,0,0,0;d8:c7:c8:4c:f0:70,TAFENSW,-88,0,0,0;d8:c7:c8:4f:b6:b1,TAFE-Events,-82,0,0,0;d8:c7:c8:4c:f0:71,TAFE-Events,-88,0,0,0;d8:c7:c8:4f:b6:b0,TAFENSW,-82,0,0,0;d8:c7:c8:4c:fb:91,TAFE-Events,-78,0,0,0;d8:c7:c8:4c:fa:71,TAFE-Events,-80,0,0,0;d8:c7:c8:4f:cc:50,TAFENSW,-81,0,0,0;d8:c7:c8:4c:fb:90,TAFENSW,-77,0,0,0;d8:c7:c8:4c:fa:90,TAFENSW,-90,0,0,0;d8:c7:c8:4f:cc:51,TAFE-Events,-80,0,0,0;d8:c7:c8:4f:cc:40,TAFENSW,-74,0,0,0;d8:c7:c8:4c:ee:30,TAFENSW,-78,0,0,0;d8:c7:c8:4c:ee:31,TAFE-Events,-78,0,0,0;d8:c7:c8:4c:fa:c0,TAFENSW,-71,0,0,0;54:b8:0a:5c:28:10,Yiannis,-72,0,0,0;d8:c7:c8:4c:fa:d0,TAFENSW,-79,0,0,0;d8:c7:c8:4c:fa:d1,TAFE-Events,-79,0,0,0;d8:c7:c8:4f:cb:91,TAFE-Events,-69,0,0,0;d8:c7:c8:4f:cb:80,TAFENSW,-70,0,0,0;6c:f3:7f:a1:46:d0,TAFENSW,-91,0,0,0;d8:c7:c8:4f:cb:81,TAFE-Events,-70,0,0,0;d8:c7:c8:4c:fa:60,TAFENSW,-73,0,0,0;c4:71:54:46:8f:a0,WiFi-8F9E-5G,-90,0,0,0;9c:1c:12:8f:b9:30,UTS-WPA,-91,0,0,0;9c:1c:12:8f:b9:31,eduroam,-90,0,0,0;9c:1c:12:8f:b9:32,UTS-Duress,-91,0,0,0;d8:c7:c8:4c:fa:91,TAFE-Events,-90,0,0,0;6c:f3:7f:a1:46:d1,TAFE-Events,-91,0,0,0;d8:c7:c8:4c:fb:80,TAFENSW,-74,0,0,0;d8:c7:c8:4c:fa:f0,TAFENSW,-83,0,0,0;70:3a:0e:43:3e:70,eduroam,-88,0,0,0;70:3a:0e:43:3e:71,UTS-WPA,-90,0,0,0;70:3a:0e:43:3e:73,ISF-Guest,-91,0,0,0;18:64:72:30:1b:12,UTS-WPA,-91,0,0,0;12:13:31:dd:b5:6f,TelstraDDB567,-92,0,0,0;18:64:72:30:1b:11,UTS-FunctionCenter,-93,0,0,0;d8:c7:c8:4c:fa:c1,TAFE-Events,-73,0,0,0;d8:c7:c8:4c:ee:21,TAFE-Events,-74,0,0,0;d8:c7:c8:4c:fa:f1,TAFE-Events,-84,0,0,0;d8:c7:c8:4f:95:31,TAFE-Events,-91,0,0,0;

Scan10;d8:c7:c8:4f:cb:90,TAFENSW,-69,0,0,0;d8:c7:c8:4c:f0:70,TAFENSW,-88,0,0,0;d8:c7:c8:4f:b6:b1,TAFE-Events,-82,0,0,0;d8:c7:c8:4c:f0:71,TAFE-Events,-88,0,0,0;d8:c7:c8:4f:b6:b0,TAFENSW,-82,0,0,0;d8:c7:c8:4c:fb:91,TAFE-Events,-78,0,0,0;d8:c7:c8:4c:fa:71,TAFE-Events,-80,0,0,0;d8:c7:c8:4f:cc:50,TAFENSW,-81,0,0,0;d8:c7:c8:4c:fb:90,TAFENSW,-77,0,0,0;d8:c7:c8:4c:fa:90,TAFENSW,-90,0,0,0;d8:c7:c8:4f:cc:51,TAFE-Events,-80,0,0,0;d8:c7:c8:4f:cc:40,TAFENSW,-74,0,0,0;d8:c7:c8:4c:ee:30,TAFENSW,-78,0,0,0;d8:c7:c8:4c:ee:31,TAFE-Events,-78,0,0,0;d8:c7:c8:4c:fa:c0,TAFENSW,-71,0,0,0;54:b8:0a:5c:28:10,Yiannis,-72,0,0,0;d8:c7:c8:4c:fa:d0,TAFENSW,-79,0,0,0;d8:c7:c8:4c:fa:d1,TAFE-Events,-79,0,0,0;d8:c7:c8:4f:cb:91,TAFE-Events,-69,0,0,0;d8:c7:c8:4f:cb:80,TAFENSW,-70,0,0,0;6c:f3:7f:a1:46:d0,TAFENSW,-91,0,0,0;d8:c7:c8:4f:cb:81,TAFE-Events,-70,0,0,0;d8:c7:c8:4c:fa:60,TAFENSW,-73,0,0,0;c4:71:54:46:8f:a0,WiFi-8F9E-5G,-90,0,0,0;9c:1c:12:8f:b9:30,UTS-WPA,-91,0,0,0;9c:1c:12:8f:b9:31,eduroam,-90,0,0,0;9c:1c:12:8f:b9:32,UTS-Duress,-91,0,0,0;d8:c7:c8:4c:fa:91,TAFE-Events,-90,0,0,0;6c:f3:7f:a1:46:d1,TAFE-Events,-91,0,0,0;d8:c7:c8:4c:fb:80,TAFENSW,-74,0,0,0;d8:c7:c8:4c:fa:f0,TAFENSW,-83,0,0,0;70:3a:0e:43:3e:70,eduroam,-88,0,0,0;70:3a:0e:43:3e:71,UTS-WPA,-90,0,0,0;70:3a:0e:43:3e:73,ISF-Guest,-91,0,0,0;18:64:72:30:1b:12,UTS-WPA,-91,0,0,0;12:13:31:dd:b5:6f,TelstraDDB567,-92,0,0,0;18:64:72:30:1b:11,UTS-FunctionCenter,-93,0,0,0;d8:c7:c8:4c:fa:c1,TAFE-Events,-73,0,0,0;d8:c7:c8:4c:ee:21,TAFE-Events,-74,0,0,0;d8:c7:c8:4c:fa:f1,TAFE-Events,-84,0,0,0;d8:c7:c8:4f:95:31,TAFE-Events,-91,0,0,0;

Scan11;d8:c7:c8:4f:cb:90,TAFENSW,-69,0,0,0;d8:c7:c8:4c:f0:70,TAFENSW,-88,0,0,0;d8:c7:c8:4f:b6:b1,TAFE-Events,-82,0,0,0;d8:c7:c8:4c:f0:71,TAFE-Events,-88,0,0,0;d8:c7:c8:4f:b6:b0,TAFENSW,-82,0,0,0;d8:c7:c8:4c:fb:91,TAFE-Events,-78,0,0,0;d8:c7:c8:4c:fa:71,TAFE-Events,-80,0,0,0;d8:c7:c8:4f:cc:50,TAFENSW,-81,0,0,0;d8:c7:c8:4c:fb:90,TAFENSW,-77,0,0,0;d8:c7:c8:4c:fa:90,TAFENSW,-90,0,0,0;d8:c7:c8:4f:cc:51,TAFE-Events,-80,0,0,0;d8:c7:c8:4f:cc:40,TAFENSW,-74,0,0,0;d8:c7:c8:4c:ee:30,TAFENSW,-78,0,0,0;d8:c7:c8:4c:ee:31,TAFE-Events,-78,0,0,0;d8:c7:c8:4c:fa:c0,TAFENSW,-71,0,0,0;54:b8:0a:5c:28:10,Yiannis,-72,0,0,0;d8:c7:c8:4c:fa:d0,TAFENSW,-79,0,0,0;d8:c7:c8:4c:fa:d1,TAFE-Events,-79,0,0,0;d8:c7:c8:4f:cb:91,TAFE-Events,-69,0,0,0;d8:c7:c8:4f:cb:80,TAFENSW,-70,0,0,0;6c:f3:7f:a1:46:d0,TAFENSW,-91,0,0,0;d8:c7:c8:4f:cb:81,TAFE-Events,-70,0,0,0;d8:c7:c8:4c:fa:60,TAFENSW,-73,0,0,0;c4:71:54:46:8f:a0,WiFi-8F9E-5G,-90,0,0,0;9c:1c:12:8f:b9:30,UTS-WPA,-91,0,0,0;9c:1c:12:8f:b9:31,eduroam,-90,0,0,0;9c:1c:12:8f:b9:32,UTS-Duress,-91,0,0,0;d8:c7:c8:4c:fa:91,TAFE-Events,-90,0,0,0;6c:f3:7f:a1:46:d1,TAFE-Events,-91,0,0,0;d8:c7:c8:4c:fb:80,TAFENSW,-74,0,0,0;d8:c7:c8:4c:fa:f0,TAFENSW,-83,0,0,0;70:3a:0e:43:3e:70,eduroam,-88,0,0,0;70:3a:0e:43:3e:71,UTS-WPA,-90,0,0,0;70:3a:0e:43:3e:73,ISF-Guest,-91,0,0,0;18:64:72:30:1b:12,UTS-WPA,-91,0,0,0;12:13:31:dd:b5:6f,TelstraDDB567,-92,0,0,0;18:64:72:30:1b:11,UTS-FunctionCenter,-93,0,0,0;d8:c7:c8:4c:fa:c1,TAFE-Events,-73,0,0,0;d8:c7:c8:4c:ee:21,TAFE-Events,-74,0,0,0;d8:c7:c8:4c:fa:f1,TAFE-Events,-84,0,0,0;d8:c7:c8:4f:95:31,TAFE-Events,-91,0,0,0;

