Scan1;d8:c7:c8:4f:cb:90,TAFENSW,-69,0,0,0;d8:c7:c8:4f:cc:50,TAFENSW,-80,0,0,0;d8:c7:c8:4f:cc:51,TAFE-Events,-81,0,0,0;d8:c7:c8:4f:cb:80,TAFENSW,-71,0,0,0;d8:c7:c8:4f:cb:81,TAFE-Events,-72,0,0,0;d8:c7:c8:4c:fa:f0,TAFENSW,-82,0,0,0;70:3a:0e:43:3e:71,UTS-WPA,-89,0,0,0;d8:c7:c8:4c:fa:f1,TAFE-Events,-82,0,0,0;6c:f3:7f:a1:3c:10,TAFENSW,-85,0,0,0;d8:c7:c8:4f:95:30,TAFENSW,-92,0,0,0;d8:c7:c8:4c:de:70,TAFENSW,-86,0,0,0;6c:f3:7f:a1:3c:11,TAFE-Events,-84,0,0,0;d8:c7:c8:4c:de:71,TAFE-Events,-86,0,0,0;70:3a:0e:43:40:f3,ISF-Guest,-88,0,0,0;d8:c7:c8:4c:97:b1,TAFE-Events,-88,0,0,0;54:b8:0a:5c:28:10,Yiannis,-74,0,0,0;d8:c7:c8:4c:fb:90,TAFENSW,-85,0,0,0;d8:c7:c8:4f:b6:b0,TAFENSW,-80,0,0,0;70:3a:0e:43:3e:73,ISF-Guest,-90,0,0,0;70:3a:0e:43:40:f1,UTS-WPA,-87,0,0,0;d8:c7:c8:4f:b6:b1,TAFE-Events,-79,0,0,0;d8:c7:c8:4c:fb:91,TAFE-Events,-85,0,0,0;d8:c7:c8:4c:97:b0,TAFENSW,-87,0,0,0;70:3a:0e:43:40:f0,eduroam,-88,0,0,0;d8:c7:c8:4f:80:91,TAFE-Events,-89,0,0,0;d8:c7:c8:4c:fa:d0,TAFENSW,-74,0,0,0;6c:f3:7f:a1:46:d0,TAFENSW,-79,0,0,0;28:c7:ce:a2:40:0a,Fork and Grind,-80,0,0,0;d8:c7:c8:4f:80:90,TAFENSW,-89,0,0,0;d8:c7:c8:4c:f5:30,TAFENSW,-89,0,0,0;12:13:31:dd:b5:6f,TelstraDDB567,-89,0,0,0;d8:c7:c8:4c:fa:d1,TAFE-Events,-75,0,0,0;6c:f3:7f:a1:46:d1,TAFE-Events,-79,0,0,0;28:c7:ce:a2:40:0b,Cisco860_Guest1,-78,0,0,0;d8:c7:c8:4c:f5:31,TAFE-Events,-89,0,0,0;d8:c7:c8:4c:fa:c0,TAFENSW,-70,0,0,0;9c:1c:12:8f:b9:32,UTS-Duress,-88,0,0,0;9c:1c:12:8f:b9:30,UTS-WPA,-89,0,0,0;d8:c7:c8:4c:96:50,TAFENSW,-90,0,0,0;9c:1c:12:8f:b9:31,eduroam,-90,0,0,0;18:64:72:30:20:90,eduroam,-91,0,0,0;18:64:72:30:20:91,UTS-FunctionCenter,-91,0,0,0;70:3a:0e:43:3d:f1,UTS-WPA,-92,0,0,0;70:3a:0e:43:3d:f3,ISF-Guest,-93,0,0,0;70:3a:0e:43:3d:f0,eduroam,-93,0,0,0;d8:c7:c8:4c:fa:c1,TAFE-Events,-69,0,0,0;6c:f3:7f:a1:46:c1,TAFE-Events,-75,0,0,0;28:c7:ce:a2:40:0c,Cisco860_Guest2,-76,0,0,0;28:c7:ce:a2:40:0d,Cisco860_Guest3,-76,0,0,0;10:fe:ed:65:65:34,TP-LINK_656534,-78,0,0,0;d8:c7:c8:4c:96:51,TAFE-Events,-90,0,0,0;6c:f3:7f:a1:46:51,TAFE-Events,-90,0,0,0;d8:c7:c8:4f:95:31,TAFE-Events,-93,0,0,0;

Scan2;d8:c7:c8:4f:cb:90,TAFENSW,-69,0,0,0;d8:c7:c8:4f:cc:50,TAFENSW,-80,0,0,0;d8:c7:c8:4f:cc:51,TAFE-Events,-81,0,0,0;d8:c7:c8:4f:cb:80,TAFENSW,-71,0,0,0;d8:c7:c8:4f:cb:81,TAFE-Events,-72,0,0,0;d8:c7:c8:4c:fa:f0,TAFENSW,-82,0,0,0;70:3a:0e:43:3e:71,UTS-WPA,-89,0,0,0;d8:c7:c8:4c:fa:f1,TAFE-Events,-82,0,0,0;6c:f3:7f:a1:3c:10,TAFENSW,-85,0,0,0;d8:c7:c8:4f:95:30,TAFENSW,-92,0,0,0;d8:c7:c8:4c:de:70,TAFENSW,-86,0,0,0;6c:f3:7f:a1:3c:11,TAFE-Events,-84,0,0,0;d8:c7:c8:4c:de:71,TAFE-Events,-86,0,0,0;70:3a:0e:43:40:f3,ISF-Guest,-88,0,0,0;d8:c7:c8:4c:97:b1,TAFE-Events,-88,0,0,0;54:b8:0a:5c:28:10,Yiannis,-74,0,0,0;d8:c7:c8:4c:fb:90,TAFENSW,-85,0,0,0;d8:c7:c8:4f:b6:b0,TAFENSW,-80,0,0,0;70:3a:0e:43:3e:73,ISF-Guest,-90,0,0,0;70:3a:0e:43:40:f1,UTS-WPA,-87,0,0,0;d8:c7:c8:4f:b6:b1,TAFE-Events,-79,0,0,0;d8:c7:c8:4c:fb:91,TAFE-Events,-85,0,0,0;d8:c7:c8:4c:97:b0,TAFENSW,-87,0,0,0;70:3a:0e:43:40:f0,eduroam,-88,0,0,0;d8:c7:c8:4f:80:91,TAFE-Events,-89,0,0,0;d8:c7:c8:4c:fa:d0,TAFENSW,-74,0,0,0;6c:f3:7f:a1:46:d0,TAFENSW,-79,0,0,0;28:c7:ce:a2:40:0a,Fork and Grind,-80,0,0,0;d8:c7:c8:4f:80:90,TAFENSW,-89,0,0,0;d8:c7:c8:4c:f5:30,TAFENSW,-89,0,0,0;12:13:31:dd:b5:6f,TelstraDDB567,-89,0,0,0;d8:c7:c8:4c:fa:d1,TAFE-Events,-75,0,0,0;6c:f3:7f:a1:46:d1,TAFE-Events,-79,0,0,0;28:c7:ce:a2:40:0b,Cisco860_Guest1,-78,0,0,0;d8:c7:c8:4c:f5:31,TAFE-Events,-89,0,0,0;d8:c7:c8:4c:fa:c0,TAFENSW,-70,0,0,0;9c:1c:12:8f:b9:32,UTS-Duress,-88,0,0,0;9c:1c:12:8f:b9:30,UTS-WPA,-89,0,0,0;d8:c7:c8:4c:96:50,TAFENSW,-90,0,0,0;9c:1c:12:8f:b9:31,eduroam,-90,0,0,0;18:64:72:30:20:90,eduroam,-91,0,0,0;18:64:72:30:20:91,UTS-FunctionCenter,-91,0,0,0;70:3a:0e:43:3d:f1,UTS-WPA,-92,0,0,0;70:3a:0e:43:3d:f3,ISF-Guest,-93,0,0,0;70:3a:0e:43:3d:f0,eduroam,-93,0,0,0;d8:c7:c8:4c:fa:c1,TAFE-Events,-69,0,0,0;6c:f3:7f:a1:46:c1,TAFE-Events,-75,0,0,0;28:c7:ce:a2:40:0c,Cisco860_Guest2,-76,0,0,0;28:c7:ce:a2:40:0d,Cisco860_Guest3,-76,0,0,0;10:fe:ed:65:65:34,TP-LINK_656534,-78,0,0,0;d8:c7:c8:4c:96:51,TAFE-Events,-90,0,0,0;6c:f3:7f:a1:46:51,TAFE-Events,-90,0,0,0;d8:c7:c8:4f:95:31,TAFE-Events,-93,0,0,0;

Scan3;d8:c7:c8:4f:cb:90,TAFENSW,-69,0,0,0;d8:c7:c8:4f:cc:50,TAFENSW,-80,0,0,0;d8:c7:c8:4f:cc:51,TAFE-Events,-81,0,0,0;d8:c7:c8:4f:cb:80,TAFENSW,-71,0,0,0;d8:c7:c8:4f:cb:81,TAFE-Events,-72,0,0,0;d8:c7:c8:4c:fa:f0,TAFENSW,-82,0,0,0;70:3a:0e:43:3e:71,UTS-WPA,-89,0,0,0;d8:c7:c8:4c:fa:f1,TAFE-Events,-82,0,0,0;6c:f3:7f:a1:3c:10,TAFENSW,-85,0,0,0;d8:c7:c8:4f:95:30,TAFENSW,-92,0,0,0;d8:c7:c8:4c:de:70,TAFENSW,-86,0,0,0;6c:f3:7f:a1:3c:11,TAFE-Events,-84,0,0,0;d8:c7:c8:4c:de:71,TAFE-Events,-86,0,0,0;70:3a:0e:43:40:f3,ISF-Guest,-88,0,0,0;d8:c7:c8:4c:97:b1,TAFE-Events,-88,0,0,0;54:b8:0a:5c:28:10,Yiannis,-74,0,0,0;d8:c7:c8:4c:fb:90,TAFENSW,-85,0,0,0;d8:c7:c8:4f:b6:b0,TAFENSW,-80,0,0,0;70:3a:0e:43:3e:73,ISF-Guest,-90,0,0,0;70:3a:0e:43:40:f1,UTS-WPA,-87,0,0,0;d8:c7:c8:4f:b6:b1,TAFE-Events,-79,0,0,0;d8:c7:c8:4c:fb:91,TAFE-Events,-85,0,0,0;d8:c7:c8:4c:97:b0,TAFENSW,-87,0,0,0;70:3a:0e:43:40:f0,eduroam,-88,0,0,0;d8:c7:c8:4f:80:91,TAFE-Events,-89,0,0,0;d8:c7:c8:4c:fa:d0,TAFENSW,-74,0,0,0;6c:f3:7f:a1:46:d0,TAFENSW,-79,0,0,0;28:c7:ce:a2:40:0a,Fork and Grind,-80,0,0,0;d8:c7:c8:4f:80:90,TAFENSW,-89,0,0,0;d8:c7:c8:4c:f5:30,TAFENSW,-89,0,0,0;12:13:31:dd:b5:6f,TelstraDDB567,-89,0,0,0;d8:c7:c8:4c:fa:d1,TAFE-Events,-75,0,0,0;6c:f3:7f:a1:46:d1,TAFE-Events,-79,0,0,0;28:c7:ce:a2:40:0b,Cisco860_Guest1,-78,0,0,0;d8:c7:c8:4c:f5:31,TAFE-Events,-89,0,0,0;d8:c7:c8:4c:fa:c0,TAFENSW,-70,0,0,0;9c:1c:12:8f:b9:32,UTS-Duress,-88,0,0,0;9c:1c:12:8f:b9:30,UTS-WPA,-89,0,0,0;d8:c7:c8:4c:96:50,TAFENSW,-90,0,0,0;9c:1c:12:8f:b9:31,eduroam,-90,0,0,0;18:64:72:30:20:90,eduroam,-91,0,0,0;18:64:72:30:20:91,UTS-FunctionCenter,-91,0,0,0;70:3a:0e:43:3d:f1,UTS-WPA,-92,0,0,0;70:3a:0e:43:3d:f3,ISF-Guest,-93,0,0,0;70:3a:0e:43:3d:f0,eduroam,-93,0,0,0;d8:c7:c8:4c:fa:c1,TAFE-Events,-69,0,0,0;6c:f3:7f:a1:46:c1,TAFE-Events,-75,0,0,0;28:c7:ce:a2:40:0c,Cisco860_Guest2,-76,0,0,0;28:c7:ce:a2:40:0d,Cisco860_Guest3,-76,0,0,0;10:fe:ed:65:65:34,TP-LINK_656534,-78,0,0,0;d8:c7:c8:4c:96:51,TAFE-Events,-90,0,0,0;6c:f3:7f:a1:46:51,TAFE-Events,-90,0,0,0;d8:c7:c8:4f:95:31,TAFE-Events,-93,0,0,0;

Scan4;d8:c7:c8:4f:cb:90,TAFENSW,-69,0,0,0;d8:c7:c8:4f:cc:50,TAFENSW,-80,0,0,0;d8:c7:c8:4f:cc:51,TAFE-Events,-81,0,0,0;d8:c7:c8:4f:cb:80,TAFENSW,-71,0,0,0;d8:c7:c8:4f:cb:81,TAFE-Events,-72,0,0,0;d8:c7:c8:4c:fa:f0,TAFENSW,-82,0,0,0;70:3a:0e:43:3e:71,UTS-WPA,-89,0,0,0;d8:c7:c8:4c:fa:f1,TAFE-Events,-82,0,0,0;6c:f3:7f:a1:3c:10,TAFENSW,-85,0,0,0;d8:c7:c8:4f:95:30,TAFENSW,-92,0,0,0;d8:c7:c8:4c:de:70,TAFENSW,-86,0,0,0;6c:f3:7f:a1:3c:11,TAFE-Events,-84,0,0,0;d8:c7:c8:4c:de:71,TAFE-Events,-86,0,0,0;70:3a:0e:43:40:f3,ISF-Guest,-88,0,0,0;d8:c7:c8:4c:97:b1,TAFE-Events,-88,0,0,0;54:b8:0a:5c:28:10,Yiannis,-74,0,0,0;d8:c7:c8:4c:fb:90,TAFENSW,-85,0,0,0;d8:c7:c8:4f:b6:b0,TAFENSW,-80,0,0,0;70:3a:0e:43:3e:73,ISF-Guest,-90,0,0,0;70:3a:0e:43:40:f1,UTS-WPA,-87,0,0,0;d8:c7:c8:4f:b6:b1,TAFE-Events,-79,0,0,0;d8:c7:c8:4c:fb:91,TAFE-Events,-85,0,0,0;d8:c7:c8:4c:97:b0,TAFENSW,-87,0,0,0;70:3a:0e:43:40:f0,eduroam,-88,0,0,0;d8:c7:c8:4f:80:91,TAFE-Events,-89,0,0,0;d8:c7:c8:4c:fa:d0,TAFENSW,-74,0,0,0;6c:f3:7f:a1:46:d0,TAFENSW,-79,0,0,0;28:c7:ce:a2:40:0a,Fork and Grind,-80,0,0,0;d8:c7:c8:4f:80:90,TAFENSW,-89,0,0,0;d8:c7:c8:4c:f5:30,TAFENSW,-89,0,0,0;12:13:31:dd:b5:6f,TelstraDDB567,-89,0,0,0;d8:c7:c8:4c:fa:d1,TAFE-Events,-75,0,0,0;6c:f3:7f:a1:46:d1,TAFE-Events,-79,0,0,0;28:c7:ce:a2:40:0b,Cisco860_Guest1,-78,0,0,0;d8:c7:c8:4c:f5:31,TAFE-Events,-89,0,0,0;d8:c7:c8:4c:fa:c0,TAFENSW,-70,0,0,0;9c:1c:12:8f:b9:32,UTS-Duress,-88,0,0,0;9c:1c:12:8f:b9:30,UTS-WPA,-89,0,0,0;d8:c7:c8:4c:96:50,TAFENSW,-90,0,0,0;9c:1c:12:8f:b9:31,eduroam,-90,0,0,0;18:64:72:30:20:90,eduroam,-91,0,0,0;18:64:72:30:20:91,UTS-FunctionCenter,-91,0,0,0;70:3a:0e:43:3d:f1,UTS-WPA,-92,0,0,0;70:3a:0e:43:3d:f3,ISF-Guest,-93,0,0,0;70:3a:0e:43:3d:f0,eduroam,-93,0,0,0;d8:c7:c8:4c:fa:c1,TAFE-Events,-69,0,0,0;6c:f3:7f:a1:46:c1,TAFE-Events,-75,0,0,0;28:c7:ce:a2:40:0c,Cisco860_Guest2,-76,0,0,0;28:c7:ce:a2:40:0d,Cisco860_Guest3,-76,0,0,0;10:fe:ed:65:65:34,TP-LINK_656534,-78,0,0,0;d8:c7:c8:4c:96:51,TAFE-Events,-90,0,0,0;6c:f3:7f:a1:46:51,TAFE-Events,-90,0,0,0;d8:c7:c8:4f:95:31,TAFE-Events,-93,0,0,0;

Scan5;d8:c7:c8:4f:cb:90,TAFENSW,-69,0,0,0;d8:c7:c8:4f:cc:50,TAFENSW,-80,0,0,0;d8:c7:c8:4f:cc:51,TAFE-Events,-81,0,0,0;d8:c7:c8:4f:cb:80,TAFENSW,-71,0,0,0;d8:c7:c8:4f:cb:81,TAFE-Events,-72,0,0,0;d8:c7:c8:4c:fa:f0,TAFENSW,-82,0,0,0;70:3a:0e:43:3e:71,UTS-WPA,-89,0,0,0;d8:c7:c8:4c:fa:f1,TAFE-Events,-82,0,0,0;6c:f3:7f:a1:3c:10,TAFENSW,-85,0,0,0;d8:c7:c8:4f:95:30,TAFENSW,-92,0,0,0;d8:c7:c8:4c:de:70,TAFENSW,-86,0,0,0;6c:f3:7f:a1:3c:11,TAFE-Events,-84,0,0,0;d8:c7:c8:4c:de:71,TAFE-Events,-86,0,0,0;70:3a:0e:43:40:f3,ISF-Guest,-88,0,0,0;d8:c7:c8:4c:97:b1,TAFE-Events,-88,0,0,0;54:b8:0a:5c:28:10,Yiannis,-74,0,0,0;d8:c7:c8:4c:fb:90,TAFENSW,-85,0,0,0;d8:c7:c8:4f:b6:b0,TAFENSW,-80,0,0,0;70:3a:0e:43:3e:73,ISF-Guest,-90,0,0,0;70:3a:0e:43:40:f1,UTS-WPA,-87,0,0,0;d8:c7:c8:4f:b6:b1,TAFE-Events,-79,0,0,0;d8:c7:c8:4c:fb:91,TAFE-Events,-85,0,0,0;d8:c7:c8:4c:97:b0,TAFENSW,-87,0,0,0;70:3a:0e:43:40:f0,eduroam,-88,0,0,0;d8:c7:c8:4f:80:91,TAFE-Events,-89,0,0,0;d8:c7:c8:4c:fa:d0,TAFENSW,-74,0,0,0;6c:f3:7f:a1:46:d0,TAFENSW,-79,0,0,0;28:c7:ce:a2:40:0a,Fork and Grind,-80,0,0,0;d8:c7:c8:4f:80:90,TAFENSW,-89,0,0,0;d8:c7:c8:4c:f5:30,TAFENSW,-89,0,0,0;12:13:31:dd:b5:6f,TelstraDDB567,-89,0,0,0;d8:c7:c8:4c:fa:d1,TAFE-Events,-75,0,0,0;6c:f3:7f:a1:46:d1,TAFE-Events,-79,0,0,0;28:c7:ce:a2:40:0b,Cisco860_Guest1,-78,0,0,0;d8:c7:c8:4c:f5:31,TAFE-Events,-89,0,0,0;d8:c7:c8:4c:fa:c0,TAFENSW,-70,0,0,0;9c:1c:12:8f:b9:32,UTS-Duress,-88,0,0,0;9c:1c:12:8f:b9:30,UTS-WPA,-89,0,0,0;d8:c7:c8:4c:96:50,TAFENSW,-90,0,0,0;9c:1c:12:8f:b9:31,eduroam,-90,0,0,0;18:64:72:30:20:90,eduroam,-91,0,0,0;18:64:72:30:20:91,UTS-FunctionCenter,-91,0,0,0;70:3a:0e:43:3d:f1,UTS-WPA,-92,0,0,0;70:3a:0e:43:3d:f3,ISF-Guest,-93,0,0,0;70:3a:0e:43:3d:f0,eduroam,-93,0,0,0;d8:c7:c8:4c:fa:c1,TAFE-Events,-69,0,0,0;6c:f3:7f:a1:46:c1,TAFE-Events,-75,0,0,0;28:c7:ce:a2:40:0c,Cisco860_Guest2,-76,0,0,0;28:c7:ce:a2:40:0d,Cisco860_Guest3,-76,0,0,0;10:fe:ed:65:65:34,TP-LINK_656534,-78,0,0,0;d8:c7:c8:4c:96:51,TAFE-Events,-90,0,0,0;6c:f3:7f:a1:46:51,TAFE-Events,-90,0,0,0;d8:c7:c8:4f:95:31,TAFE-Events,-93,0,0,0;

Scan6;d8:c7:c8:4f:cb:90,TAFENSW,-69,0,0,0;d8:c7:c8:4f:cc:50,TAFENSW,-80,0,0,0;d8:c7:c8:4f:cc:51,TAFE-Events,-81,0,0,0;d8:c7:c8:4f:cb:80,TAFENSW,-71,0,0,0;d8:c7:c8:4f:cb:81,TAFE-Events,-72,0,0,0;d8:c7:c8:4c:fa:f0,TAFENSW,-82,0,0,0;70:3a:0e:43:3e:71,UTS-WPA,-89,0,0,0;d8:c7:c8:4c:fa:f1,TAFE-Events,-82,0,0,0;6c:f3:7f:a1:3c:10,TAFENSW,-85,0,0,0;d8:c7:c8:4f:95:30,TAFENSW,-92,0,0,0;d8:c7:c8:4c:de:70,TAFENSW,-86,0,0,0;6c:f3:7f:a1:3c:11,TAFE-Events,-84,0,0,0;d8:c7:c8:4c:de:71,TAFE-Events,-86,0,0,0;70:3a:0e:43:40:f3,ISF-Guest,-88,0,0,0;d8:c7:c8:4c:97:b1,TAFE-Events,-88,0,0,0;54:b8:0a:5c:28:10,Yiannis,-74,0,0,0;d8:c7:c8:4c:fb:90,TAFENSW,-85,0,0,0;d8:c7:c8:4f:b6:b0,TAFENSW,-80,0,0,0;70:3a:0e:43:3e:73,ISF-Guest,-90,0,0,0;70:3a:0e:43:40:f1,UTS-WPA,-87,0,0,0;d8:c7:c8:4f:b6:b1,TAFE-Events,-79,0,0,0;d8:c7:c8:4c:fb:91,TAFE-Events,-85,0,0,0;d8:c7:c8:4c:97:b0,TAFENSW,-87,0,0,0;70:3a:0e:43:40:f0,eduroam,-88,0,0,0;d8:c7:c8:4f:80:91,TAFE-Events,-89,0,0,0;d8:c7:c8:4c:fa:d0,TAFENSW,-74,0,0,0;6c:f3:7f:a1:46:d0,TAFENSW,-79,0,0,0;28:c7:ce:a2:40:0a,Fork and Grind,-80,0,0,0;d8:c7:c8:4f:80:90,TAFENSW,-89,0,0,0;d8:c7:c8:4c:f5:30,TAFENSW,-89,0,0,0;12:13:31:dd:b5:6f,TelstraDDB567,-89,0,0,0;d8:c7:c8:4c:fa:d1,TAFE-Events,-75,0,0,0;6c:f3:7f:a1:46:d1,TAFE-Events,-79,0,0,0;28:c7:ce:a2:40:0b,Cisco860_Guest1,-78,0,0,0;d8:c7:c8:4c:f5:31,TAFE-Events,-89,0,0,0;d8:c7:c8:4c:fa:c0,TAFENSW,-70,0,0,0;9c:1c:12:8f:b9:32,UTS-Duress,-88,0,0,0;9c:1c:12:8f:b9:30,UTS-WPA,-89,0,0,0;d8:c7:c8:4c:96:50,TAFENSW,-90,0,0,0;9c:1c:12:8f:b9:31,eduroam,-90,0,0,0;18:64:72:30:20:90,eduroam,-91,0,0,0;18:64:72:30:20:91,UTS-FunctionCenter,-91,0,0,0;70:3a:0e:43:3d:f1,UTS-WPA,-92,0,0,0;70:3a:0e:43:3d:f3,ISF-Guest,-93,0,0,0;70:3a:0e:43:3d:f0,eduroam,-93,0,0,0;d8:c7:c8:4c:fa:c1,TAFE-Events,-69,0,0,0;6c:f3:7f:a1:46:c1,TAFE-Events,-75,0,0,0;28:c7:ce:a2:40:0c,Cisco860_Guest2,-76,0,0,0;28:c7:ce:a2:40:0d,Cisco860_Guest3,-76,0,0,0;10:fe:ed:65:65:34,TP-LINK_656534,-78,0,0,0;d8:c7:c8:4c:96:51,TAFE-Events,-90,0,0,0;6c:f3:7f:a1:46:51,TAFE-Events,-90,0,0,0;d8:c7:c8:4f:95:31,TAFE-Events,-93,0,0,0;

Scan7;d8:c7:c8:4f:cb:90,TAFENSW,-73,0,0,0;d8:c7:c8:4f:cc:50,TAFENSW,-84,0,0,0;d8:c7:c8:4f:cc:51,TAFE-Events,-83,0,0,0;d8:c7:c8:4f:cb:80,TAFENSW,-74,0,0,0;d8:c7:c8:4f:cb:81,TAFE-Events,-74,0,0,0;d8:c7:c8:4c:fa:f0,TAFENSW,-78,0,0,0;70:3a:0e:43:3e:71,UTS-WPA,-87,0,0,0;d8:c7:c8:4c:fa:f1,TAFE-Events,-78,0,0,0;6c:f3:7f:a1:3c:10,TAFENSW,-83,0,0,0;d8:c7:c8:4f:95:30,TAFENSW,-92,0,0,0;d8:c7:c8:4c:de:70,TAFENSW,-85,0,0,0;6c:f3:7f:a1:3c:11,TAFE-Events,-83,0,0,0;d8:c7:c8:4c:de:71,TAFE-Events,-85,0,0,0;70:3a:0e:43:40:f3,ISF-Guest,-88,0,0,0;d8:c7:c8:4c:97:b1,TAFE-Events,-88,0,0,0;54:b8:0a:5c:28:10,Yiannis,-74,0,0,0;d8:c7:c8:4c:fb:90,TAFENSW,-88,0,0,0;d8:c7:c8:4f:b6:b0,TAFENSW,-82,0,0,0;70:3a:0e:43:3e:73,ISF-Guest,-90,0,0,0;70:3a:0e:43:40:f1,UTS-WPA,-87,0,0,0;d8:c7:c8:4f:b6:b1,TAFE-Events,-82,0,0,0;d8:c7:c8:4c:fb:91,TAFE-Events,-88,0,0,0;d8:c7:c8:4c:97:b0,TAFENSW,-87,0,0,0;70:3a:0e:43:40:f0,eduroam,-89,0,0,0;d8:c7:c8:4f:80:91,TAFE-Events,-89,0,0,0;d8:c7:c8:4c:fa:d0,TAFENSW,-80,0,0,0;6c:f3:7f:a1:46:d0,TAFENSW,-75,0,0,0;28:c7:ce:a2:40:0a,Fork and Grind,-77,0,0,0;d8:c7:c8:4f:80:90,TAFENSW,-89,0,0,0;d8:c7:c8:4c:f5:30,TAFENSW,-89,0,0,0;12:13:31:dd:b5:6f,TelstraDDB567,-89,0,0,0;d8:c7:c8:4c:fa:d1,TAFE-Events,-80,0,0,0;6c:f3:7f:a1:46:d1,TAFE-Events,-75,0,0,0;28:c7:ce:a2:40:0b,Cisco860_Guest1,-77,0,0,0;d8:c7:c8:4c:f5:31,TAFE-Events,-89,0,0,0;d8:c7:c8:4c:fa:c0,TAFENSW,-70,0,0,0;9c:1c:12:8f:b9:32,UTS-Duress,-88,0,0,0;9c:1c:12:8f:b9:30,UTS-WPA,-92,0,0,0;d8:c7:c8:4c:96:50,TAFENSW,-91,0,0,0;9c:1c:12:8f:b9:31,eduroam,-90,0,0,0;18:64:72:30:20:90,eduroam,-91,0,0,0;18:64:72:30:20:91,UTS-FunctionCenter,-91,0,0,0;70:3a:0e:43:3d:f1,UTS-WPA,-91,0,0,0;70:3a:0e:43:3d:f3,ISF-Guest,-93,0,0,0;70:3a:0e:43:3d:f0,eduroam,-92,0,0,0;d8:c7:c8:4c:fa:c1,TAFE-Events,-76,0,0,0;6c:f3:7f:a1:46:c1,TAFE-Events,-73,0,0,0;28:c7:ce:a2:40:0c,Cisco860_Guest2,-76,0,0,0;28:c7:ce:a2:40:0d,Cisco860_Guest3,-76,0,0,0;10:fe:ed:65:65:34,TP-LINK_656534,-78,0,0,0;d8:c7:c8:4c:96:51,TAFE-Events,-90,0,0,0;6c:f3:7f:a1:46:51,TAFE-Events,-90,0,0,0;d8:c7:c8:4f:95:31,TAFE-Events,-93,0,0,0;d8:c7:c8:4c:fb:40,TAFENSW,-74,0,0,0;6c:f3:7f:a1:46:c0,TAFENSW,-74,0,0,0;d8:c7:c8:4c:fa:e0,TAFENSW,-75,0,0,0;d8:c7:c8:4c:de:60,TAFENSW,-76,0,0,0;d8:c7:c8:4c:fb:50,TAFENSW,-83,0,0,0;00:11:74:88:09:40,CAPA Staff,-86,0,0,0;d8:c7:c8:4c:96:f0,TAFENSW,-92,0,0,0;d8:c7:c8:4f:cb:91,TAFE-Events,-74,0,0,0;d8:c7:c8:4c:fa:e1,TAFE-Events,-74,0,0,0;d8:c7:c8:4c:fb:41,TAFE-Events,-74,0,0,0;d8:c7:c8:4c:96:f1,TAFE-Events,-92,0,0,0;d8:c7:c8:4c:fa:71,TAFE-Events,-92,0,0,0;

Scan8;d8:c7:c8:4f:cb:90,TAFENSW,-73,0,0,0;d8:c7:c8:4f:cc:50,TAFENSW,-84,0,0,0;d8:c7:c8:4f:cc:51,TAFE-Events,-83,0,0,0;d8:c7:c8:4f:cb:80,TAFENSW,-74,0,0,0;d8:c7:c8:4f:cb:81,TAFE-Events,-74,0,0,0;d8:c7:c8:4c:fa:f0,TAFENSW,-78,0,0,0;70:3a:0e:43:3e:71,UTS-WPA,-87,0,0,0;d8:c7:c8:4c:fa:f1,TAFE-Events,-78,0,0,0;6c:f3:7f:a1:3c:10,TAFENSW,-83,0,0,0;d8:c7:c8:4c:de:70,TAFENSW,-85,0,0,0;6c:f3:7f:a1:3c:11,TAFE-Events,-83,0,0,0;d8:c7:c8:4c:de:71,TAFE-Events,-85,0,0,0;70:3a:0e:43:40:f3,ISF-Guest,-88,0,0,0;d8:c7:c8:4c:97:b1,TAFE-Events,-88,0,0,0;d8:c7:c8:4c:fb:90,TAFENSW,-88,0,0,0;d8:c7:c8:4f:b6:b0,TAFENSW,-82,0,0,0;70:3a:0e:43:40:f1,UTS-WPA,-87,0,0,0;d8:c7:c8:4f:b6:b1,TAFE-Events,-82,0,0,0;d8:c7:c8:4c:fb:91,TAFE-Events,-88,0,0,0;d8:c7:c8:4c:97:b0,TAFENSW,-87,0,0,0;70:3a:0e:43:40:f0,eduroam,-89,0,0,0;d8:c7:c8:4c:fa:d0,TAFENSW,-80,0,0,0;6c:f3:7f:a1:46:d0,TAFENSW,-75,0,0,0;28:c7:ce:a2:40:0a,Fork and Grind,-77,0,0,0;d8:c7:c8:4c:fa:d1,TAFE-Events,-80,0,0,0;6c:f3:7f:a1:46:d1,TAFE-Events,-75,0,0,0;28:c7:ce:a2:40:0b,Cisco860_Guest1,-77,0,0,0;9c:1c:12:8f:b9:30,UTS-WPA,-92,0,0,0;d8:c7:c8:4c:96:50,TAFENSW,-91,0,0,0;9c:1c:12:8f:b9:31,eduroam,-90,0,0,0;70:3a:0e:43:3d:f1,UTS-WPA,-91,0,0,0;70:3a:0e:43:3d:f0,eduroam,-92,0,0,0;d8:c7:c8:4c:fa:c1,TAFE-Events,-76,0,0,0;6c:f3:7f:a1:46:c1,TAFE-Events,-73,0,0,0;28:c7:ce:a2:40:0c,Cisco860_Guest2,-76,0,0,0;28:c7:ce:a2:40:0d,Cisco860_Guest3,-76,0,0,0;d8:c7:c8:4c:96:51,TAFE-Events,-90,0,0,0;d8:c7:c8:4c:fb:40,TAFENSW,-74,0,0,0;6c:f3:7f:a1:46:c0,TAFENSW,-74,0,0,0;d8:c7:c8:4c:fa:e0,TAFENSW,-75,0,0,0;d8:c7:c8:4c:de:60,TAFENSW,-76,0,0,0;d8:c7:c8:4c:fb:50,TAFENSW,-83,0,0,0;00:11:74:88:09:40,CAPA Staff,-86,0,0,0;d8:c7:c8:4c:96:f0,TAFENSW,-92,0,0,0;d8:c7:c8:4f:cb:91,TAFE-Events,-74,0,0,0;d8:c7:c8:4c:fa:e1,TAFE-Events,-74,0,0,0;d8:c7:c8:4c:fb:41,TAFE-Events,-74,0,0,0;d8:c7:c8:4c:96:f1,TAFE-Events,-92,0,0,0;d8:c7:c8:4c:fa:71,TAFE-Events,-92,0,0,0;

Scan9;d8:c7:c8:4f:cb:90,TAFENSW,-73,0,0,0;d8:c7:c8:4f:cc:50,TAFENSW,-84,0,0,0;d8:c7:c8:4f:cc:51,TAFE-Events,-83,0,0,0;d8:c7:c8:4f:cb:80,TAFENSW,-74,0,0,0;d8:c7:c8:4f:cb:81,TAFE-Events,-74,0,0,0;d8:c7:c8:4c:fa:f0,TAFENSW,-78,0,0,0;70:3a:0e:43:3e:71,UTS-WPA,-87,0,0,0;d8:c7:c8:4c:fa:f1,TAFE-Events,-78,0,0,0;6c:f3:7f:a1:3c:10,TAFENSW,-83,0,0,0;d8:c7:c8:4c:de:70,TAFENSW,-85,0,0,0;6c:f3:7f:a1:3c:11,TAFE-Events,-83,0,0,0;d8:c7:c8:4c:de:71,TAFE-Events,-85,0,0,0;70:3a:0e:43:40:f3,ISF-Guest,-88,0,0,0;d8:c7:c8:4c:97:b1,TAFE-Events,-88,0,0,0;d8:c7:c8:4c:fb:90,TAFENSW,-88,0,0,0;d8:c7:c8:4f:b6:b0,TAFENSW,-82,0,0,0;70:3a:0e:43:40:f1,UTS-WPA,-87,0,0,0;d8:c7:c8:4f:b6:b1,TAFE-Events,-82,0,0,0;d8:c7:c8:4c:fb:91,TAFE-Events,-88,0,0,0;d8:c7:c8:4c:97:b0,TAFENSW,-87,0,0,0;70:3a:0e:43:40:f0,eduroam,-89,0,0,0;d8:c7:c8:4c:fa:d0,TAFENSW,-80,0,0,0;6c:f3:7f:a1:46:d0,TAFENSW,-75,0,0,0;28:c7:ce:a2:40:0a,Fork and Grind,-77,0,0,0;d8:c7:c8:4c:fa:d1,TAFE-Events,-80,0,0,0;6c:f3:7f:a1:46:d1,TAFE-Events,-75,0,0,0;28:c7:ce:a2:40:0b,Cisco860_Guest1,-77,0,0,0;9c:1c:12:8f:b9:30,UTS-WPA,-92,0,0,0;d8:c7:c8:4c:96:50,TAFENSW,-91,0,0,0;9c:1c:12:8f:b9:31,eduroam,-90,0,0,0;70:3a:0e:43:3d:f1,UTS-WPA,-91,0,0,0;70:3a:0e:43:3d:f0,eduroam,-92,0,0,0;d8:c7:c8:4c:fa:c1,TAFE-Events,-76,0,0,0;6c:f3:7f:a1:46:c1,TAFE-Events,-73,0,0,0;28:c7:ce:a2:40:0c,Cisco860_Guest2,-76,0,0,0;28:c7:ce:a2:40:0d,Cisco860_Guest3,-76,0,0,0;d8:c7:c8:4c:96:51,TAFE-Events,-90,0,0,0;d8:c7:c8:4c:fb:40,TAFENSW,-74,0,0,0;6c:f3:7f:a1:46:c0,TAFENSW,-74,0,0,0;d8:c7:c8:4c:fa:e0,TAFENSW,-75,0,0,0;d8:c7:c8:4c:de:60,TAFENSW,-76,0,0,0;d8:c7:c8:4c:fb:50,TAFENSW,-83,0,0,0;00:11:74:88:09:40,CAPA Staff,-86,0,0,0;d8:c7:c8:4c:96:f0,TAFENSW,-92,0,0,0;d8:c7:c8:4f:cb:91,TAFE-Events,-74,0,0,0;d8:c7:c8:4c:fa:e1,TAFE-Events,-74,0,0,0;d8:c7:c8:4c:fb:41,TAFE-Events,-74,0,0,0;d8:c7:c8:4c:96:f1,TAFE-Events,-92,0,0,0;d8:c7:c8:4c:fa:71,TAFE-Events,-92,0,0,0;

Scan10;d8:c7:c8:4f:cb:90,TAFENSW,-73,0,0,0;d8:c7:c8:4f:cc:50,TAFENSW,-84,0,0,0;d8:c7:c8:4f:cc:51,TAFE-Events,-83,0,0,0;d8:c7:c8:4f:cb:80,TAFENSW,-74,0,0,0;d8:c7:c8:4f:cb:81,TAFE-Events,-74,0,0,0;d8:c7:c8:4c:fa:f0,TAFENSW,-78,0,0,0;70:3a:0e:43:3e:71,UTS-WPA,-87,0,0,0;d8:c7:c8:4c:fa:f1,TAFE-Events,-78,0,0,0;6c:f3:7f:a1:3c:10,TAFENSW,-83,0,0,0;d8:c7:c8:4c:de:70,TAFENSW,-85,0,0,0;6c:f3:7f:a1:3c:11,TAFE-Events,-83,0,0,0;d8:c7:c8:4c:de:71,TAFE-Events,-85,0,0,0;70:3a:0e:43:40:f3,ISF-Guest,-88,0,0,0;d8:c7:c8:4c:97:b1,TAFE-Events,-88,0,0,0;d8:c7:c8:4c:fb:90,TAFENSW,-88,0,0,0;d8:c7:c8:4f:b6:b0,TAFENSW,-82,0,0,0;70:3a:0e:43:40:f1,UTS-WPA,-87,0,0,0;d8:c7:c8:4f:b6:b1,TAFE-Events,-82,0,0,0;d8:c7:c8:4c:fb:91,TAFE-Events,-88,0,0,0;d8:c7:c8:4c:97:b0,TAFENSW,-87,0,0,0;70:3a:0e:43:40:f0,eduroam,-89,0,0,0;d8:c7:c8:4c:fa:d0,TAFENSW,-80,0,0,0;6c:f3:7f:a1:46:d0,TAFENSW,-75,0,0,0;28:c7:ce:a2:40:0a,Fork and Grind,-77,0,0,0;d8:c7:c8:4c:fa:d1,TAFE-Events,-80,0,0,0;6c:f3:7f:a1:46:d1,TAFE-Events,-75,0,0,0;28:c7:ce:a2:40:0b,Cisco860_Guest1,-77,0,0,0;9c:1c:12:8f:b9:30,UTS-WPA,-92,0,0,0;d8:c7:c8:4c:96:50,TAFENSW,-91,0,0,0;9c:1c:12:8f:b9:31,eduroam,-90,0,0,0;70:3a:0e:43:3d:f1,UTS-WPA,-91,0,0,0;70:3a:0e:43:3d:f0,eduroam,-92,0,0,0;d8:c7:c8:4c:fa:c1,TAFE-Events,-76,0,0,0;6c:f3:7f:a1:46:c1,TAFE-Events,-73,0,0,0;28:c7:ce:a2:40:0c,Cisco860_Guest2,-76,0,0,0;28:c7:ce:a2:40:0d,Cisco860_Guest3,-76,0,0,0;d8:c7:c8:4c:96:51,TAFE-Events,-90,0,0,0;d8:c7:c8:4c:fb:40,TAFENSW,-74,0,0,0;6c:f3:7f:a1:46:c0,TAFENSW,-74,0,0,0;d8:c7:c8:4c:fa:e0,TAFENSW,-75,0,0,0;d8:c7:c8:4c:de:60,TAFENSW,-76,0,0,0;d8:c7:c8:4c:fb:50,TAFENSW,-83,0,0,0;00:11:74:88:09:40,CAPA Staff,-86,0,0,0;d8:c7:c8:4c:96:f0,TAFENSW,-92,0,0,0;d8:c7:c8:4f:cb:91,TAFE-Events,-74,0,0,0;d8:c7:c8:4c:fa:e1,TAFE-Events,-74,0,0,0;d8:c7:c8:4c:fb:41,TAFE-Events,-74,0,0,0;d8:c7:c8:4c:96:f1,TAFE-Events,-92,0,0,0;d8:c7:c8:4c:fa:71,TAFE-Events,-92,0,0,0;

Scan11;d8:c7:c8:4f:cb:90,TAFENSW,-73,0,0,0;d8:c7:c8:4f:cc:50,TAFENSW,-84,0,0,0;d8:c7:c8:4f:cc:51,TAFE-Events,-83,0,0,0;d8:c7:c8:4f:cb:80,TAFENSW,-74,0,0,0;d8:c7:c8:4f:cb:81,TAFE-Events,-74,0,0,0;d8:c7:c8:4c:fa:f0,TAFENSW,-78,0,0,0;70:3a:0e:43:3e:71,UTS-WPA,-87,0,0,0;d8:c7:c8:4c:fa:f1,TAFE-Events,-78,0,0,0;6c:f3:7f:a1:3c:10,TAFENSW,-83,0,0,0;d8:c7:c8:4c:de:70,TAFENSW,-85,0,0,0;6c:f3:7f:a1:3c:11,TAFE-Events,-83,0,0,0;d8:c7:c8:4c:de:71,TAFE-Events,-85,0,0,0;70:3a:0e:43:40:f3,ISF-Guest,-88,0,0,0;d8:c7:c8:4c:97:b1,TAFE-Events,-88,0,0,0;d8:c7:c8:4c:fb:90,TAFENSW,-88,0,0,0;d8:c7:c8:4f:b6:b0,TAFENSW,-82,0,0,0;70:3a:0e:43:40:f1,UTS-WPA,-87,0,0,0;d8:c7:c8:4f:b6:b1,TAFE-Events,-82,0,0,0;d8:c7:c8:4c:fb:91,TAFE-Events,-88,0,0,0;d8:c7:c8:4c:97:b0,TAFENSW,-87,0,0,0;70:3a:0e:43:40:f0,eduroam,-89,0,0,0;d8:c7:c8:4c:fa:d0,TAFENSW,-80,0,0,0;6c:f3:7f:a1:46:d0,TAFENSW,-75,0,0,0;28:c7:ce:a2:40:0a,Fork and Grind,-77,0,0,0;d8:c7:c8:4c:fa:d1,TAFE-Events,-80,0,0,0;6c:f3:7f:a1:46:d1,TAFE-Events,-75,0,0,0;28:c7:ce:a2:40:0b,Cisco860_Guest1,-77,0,0,0;9c:1c:12:8f:b9:30,UTS-WPA,-92,0,0,0;d8:c7:c8:4c:96:50,TAFENSW,-91,0,0,0;9c:1c:12:8f:b9:31,eduroam,-90,0,0,0;70:3a:0e:43:3d:f1,UTS-WPA,-91,0,0,0;70:3a:0e:43:3d:f0,eduroam,-92,0,0,0;d8:c7:c8:4c:fa:c1,TAFE-Events,-76,0,0,0;6c:f3:7f:a1:46:c1,TAFE-Events,-73,0,0,0;28:c7:ce:a2:40:0c,Cisco860_Guest2,-76,0,0,0;28:c7:ce:a2:40:0d,Cisco860_Guest3,-76,0,0,0;d8:c7:c8:4c:96:51,TAFE-Events,-90,0,0,0;d8:c7:c8:4c:fb:40,TAFENSW,-74,0,0,0;6c:f3:7f:a1:46:c0,TAFENSW,-74,0,0,0;d8:c7:c8:4c:fa:e0,TAFENSW,-75,0,0,0;d8:c7:c8:4c:de:60,TAFENSW,-76,0,0,0;d8:c7:c8:4c:fb:50,TAFENSW,-83,0,0,0;00:11:74:88:09:40,CAPA Staff,-86,0,0,0;d8:c7:c8:4c:96:f0,TAFENSW,-92,0,0,0;d8:c7:c8:4f:cb:91,TAFE-Events,-74,0,0,0;d8:c7:c8:4c:fa:e1,TAFE-Events,-74,0,0,0;d8:c7:c8:4c:fb:41,TAFE-Events,-74,0,0,0;d8:c7:c8:4c:96:f1,TAFE-Events,-92,0,0,0;d8:c7:c8:4c:fa:71,TAFE-Events,-92,0,0,0;

Scan12;d8:c7:c8:4f:cb:90,TAFENSW,-73,0,0,0;d8:c7:c8:4f:cc:50,TAFENSW,-84,0,0,0;d8:c7:c8:4f:cc:51,TAFE-Events,-83,0,0,0;d8:c7:c8:4f:cb:80,TAFENSW,-74,0,0,0;d8:c7:c8:4f:cb:81,TAFE-Events,-74,0,0,0;d8:c7:c8:4c:fa:f0,TAFENSW,-78,0,0,0;70:3a:0e:43:3e:71,UTS-WPA,-87,0,0,0;d8:c7:c8:4c:fa:f1,TAFE-Events,-78,0,0,0;6c:f3:7f:a1:3c:10,TAFENSW,-83,0,0,0;d8:c7:c8:4c:de:70,TAFENSW,-85,0,0,0;6c:f3:7f:a1:3c:11,TAFE-Events,-83,0,0,0;d8:c7:c8:4c:de:71,TAFE-Events,-85,0,0,0;70:3a:0e:43:40:f3,ISF-Guest,-88,0,0,0;d8:c7:c8:4c:97:b1,TAFE-Events,-88,0,0,0;d8:c7:c8:4c:fb:90,TAFENSW,-88,0,0,0;d8:c7:c8:4f:b6:b0,TAFENSW,-82,0,0,0;70:3a:0e:43:40:f1,UTS-WPA,-87,0,0,0;d8:c7:c8:4f:b6:b1,TAFE-Events,-82,0,0,0;d8:c7:c8:4c:fb:91,TAFE-Events,-88,0,0,0;d8:c7:c8:4c:97:b0,TAFENSW,-87,0,0,0;70:3a:0e:43:40:f0,eduroam,-89,0,0,0;d8:c7:c8:4c:fa:d0,TAFENSW,-80,0,0,0;6c:f3:7f:a1:46:d0,TAFENSW,-75,0,0,0;28:c7:ce:a2:40:0a,Fork and Grind,-77,0,0,0;d8:c7:c8:4c:fa:d1,TAFE-Events,-80,0,0,0;6c:f3:7f:a1:46:d1,TAFE-Events,-75,0,0,0;28:c7:ce:a2:40:0b,Cisco860_Guest1,-77,0,0,0;9c:1c:12:8f:b9:30,UTS-WPA,-92,0,0,0;d8:c7:c8:4c:96:50,TAFENSW,-91,0,0,0;9c:1c:12:8f:b9:31,eduroam,-90,0,0,0;70:3a:0e:43:3d:f1,UTS-WPA,-91,0,0,0;70:3a:0e:43:3d:f0,eduroam,-92,0,0,0;d8:c7:c8:4c:fa:c1,TAFE-Events,-76,0,0,0;6c:f3:7f:a1:46:c1,TAFE-Events,-73,0,0,0;28:c7:ce:a2:40:0c,Cisco860_Guest2,-76,0,0,0;28:c7:ce:a2:40:0d,Cisco860_Guest3,-76,0,0,0;d8:c7:c8:4c:96:51,TAFE-Events,-90,0,0,0;d8:c7:c8:4c:fb:40,TAFENSW,-74,0,0,0;6c:f3:7f:a1:46:c0,TAFENSW,-74,0,0,0;d8:c7:c8:4c:fa:e0,TAFENSW,-75,0,0,0;d8:c7:c8:4c:de:60,TAFENSW,-76,0,0,0;d8:c7:c8:4c:fb:50,TAFENSW,-83,0,0,0;00:11:74:88:09:40,CAPA Staff,-86,0,0,0;d8:c7:c8:4c:96:f0,TAFENSW,-92,0,0,0;d8:c7:c8:4f:cb:91,TAFE-Events,-74,0,0,0;d8:c7:c8:4c:fa:e1,TAFE-Events,-74,0,0,0;d8:c7:c8:4c:fb:41,TAFE-Events,-74,0,0,0;d8:c7:c8:4c:96:f1,TAFE-Events,-92,0,0,0;d8:c7:c8:4c:fa:71,TAFE-Events,-92,0,0,0;

