Scan1;00:02:6f:12:34:50,Telstra Air,-65,0,0,0;44:1e:98:15:8b:2c,INSEARCH Secure,-69,0,0,0;44:1e:98:55:8b:2c,eduroam,-69,0,0,0;00:02:6f:12:34:56,,-68,0,0,0;10:13:31:e6:96:ad,TelstraE696AD,-75,0,0,0;12:13:31:e6:96:b5,TelstraE696AD,-87,0,0,0;28:24:ff:8f:37:7e,ClickShare-A1.44,-90,0,0,0;12:13:31:e5:b2:91,TelstraE5B289,-75,0,0,0;24:f2:7f:bc:7a:90,TAFENSW,-59,0,0,0;d8:c7:c8:4c:eb:50,TAFENSW,-70,0,0,0;ee:2d:b7:b6:05:64,peter’s iPhone,-69,0,0,0;c8:b5:ad:31:26:90,TAFENSW,-78,0,0,0;24:f2:7f:bc:7a:91,TAFE-Events,-59,0,0,0;d8:c7:c8:4c:eb:40,TAFENSW,-67,0,0,0;44:1e:98:54:e8:1c,eduroam,-75,0,0,0;44:1e:98:14:e8:1c,INSEARCH Secure,-75,0,0,0;28:24:ff:94:bb:5f,ClickShare-A2.24,-88,0,0,0;d8:c7:c8:4c:eb:41,TAFE-Events,-67,0,0,0;c8:b5:ad:31:26:81,TAFE-Events,-73,0,0,0;e8:1d:a8:2d:ec:58,INSEARCH Secure,-67,0,0,0;c8:b5:ad:31:26:80,TAFENSW,-73,0,0,0;e8:1d:a8:6d:ec:5c,eduroam,-74,0,0,0;e8:1d:a8:2d:ec:5c,INSEARCH Secure,-74,0,0,0;44:1e:98:54:d2:1c,eduroam,-77,0,0,0;44:1e:98:14:d2:1c,INSEARCH Secure,-77,0,0,0;12:13:31:e6:c5:e7,TelstraE6C5DF,-88,0,0,0;c0:25:e9:3a:dd:c9,NETGEAR60,-73,0,0,0;e8:1d:a8:2e:27:9c,INSEARCH Secure,-85,0,0,0;e8:1d:a8:6e:27:9c,eduroam,-85,0,0,0;c8:b5:ad:31:1a:b0,TAFENSW,-90,0,0,0;d8:c7:c8:4c:eb:51,TAFE-Events,-70,0,0,0;12:13:31:e5:b2:8c,Fon WiFi,-75,0,0,0;e8:1d:a8:6d:ec:58,eduroam,-65,0,0,0;e8:1d:a8:6e:e1:3c,eduroam,-77,0,0,0;e8:1d:a8:2e:e1:38,INSEARCH Secure,-74,0,0,0;10:13:31:e5:b2:89,TelstraE5B289,-74,0,0,0;24:f2:7f:bc:78:70,TAFENSW,-79,0,0,0;e8:1d:a8:6e:e1:38,eduroam,-75,0,0,0;00:50:7f:7a:17:c0,AMX Wireless,-76,0,0,0;44:1e:98:54:ec:ac,eduroam,-87,0,0,0;44:1e:98:14:ec:ac,INSEARCH Secure,-87,0,0,0;28:24:ff:9b:18:f5,ClickShare-A1.7,-88,0,0,0;d8:c7:c8:4c:eb:b0,TAFENSW,-88,0,0,0;c8:b5:ad:31:6e:90,TAFENSW,-90,0,0,0;9c:1c:12:86:a4:b1,eduroam,-90,0,0,0;9c:1c:12:86:a4:b0,UTS-WPA,-90,0,0,0;9c:1c:12:86:a4:b2,UTS-Business,-91,0,0,0;24:f2:7f:bc:78:71,TAFE-Events,-79,0,0,0;d8:c7:c8:4c:eb:b1,TAFE-Events,-89,0,0,0;c8:b5:ad:31:1a:b1,TAFE-Events,-91,0,0,0;c8:b5:ad:31:6e:91,TAFE-Events,-91,0,0,0;

Scan2;00:02:6f:12:34:50,Telstra Air,-65,0,0,0;44:1e:98:15:8b:2c,INSEARCH Secure,-69,0,0,0;44:1e:98:55:8b:2c,eduroam,-69,0,0,0;00:02:6f:12:34:56,,-68,0,0,0;10:13:31:e6:96:ad,TelstraE696AD,-75,0,0,0;12:13:31:e6:96:b5,TelstraE696AD,-87,0,0,0;28:24:ff:8f:37:7e,ClickShare-A1.44,-90,0,0,0;12:13:31:e5:b2:91,TelstraE5B289,-75,0,0,0;24:f2:7f:bc:7a:90,TAFENSW,-59,0,0,0;d8:c7:c8:4c:eb:50,TAFENSW,-70,0,0,0;ee:2d:b7:b6:05:64,peter’s iPhone,-69,0,0,0;c8:b5:ad:31:26:90,TAFENSW,-78,0,0,0;24:f2:7f:bc:7a:91,TAFE-Events,-59,0,0,0;d8:c7:c8:4c:eb:40,TAFENSW,-67,0,0,0;44:1e:98:54:e8:1c,eduroam,-75,0,0,0;44:1e:98:14:e8:1c,INSEARCH Secure,-75,0,0,0;28:24:ff:94:bb:5f,ClickShare-A2.24,-88,0,0,0;d8:c7:c8:4c:eb:41,TAFE-Events,-67,0,0,0;c8:b5:ad:31:26:81,TAFE-Events,-73,0,0,0;e8:1d:a8:2d:ec:58,INSEARCH Secure,-67,0,0,0;c8:b5:ad:31:26:80,TAFENSW,-73,0,0,0;e8:1d:a8:6d:ec:5c,eduroam,-74,0,0,0;e8:1d:a8:2d:ec:5c,INSEARCH Secure,-74,0,0,0;44:1e:98:54:d2:1c,eduroam,-77,0,0,0;44:1e:98:14:d2:1c,INSEARCH Secure,-77,0,0,0;12:13:31:e6:c5:e7,TelstraE6C5DF,-88,0,0,0;c0:25:e9:3a:dd:c9,NETGEAR60,-73,0,0,0;e8:1d:a8:2e:27:9c,INSEARCH Secure,-85,0,0,0;e8:1d:a8:6e:27:9c,eduroam,-85,0,0,0;c8:b5:ad:31:1a:b0,TAFENSW,-90,0,0,0;d8:c7:c8:4c:eb:51,TAFE-Events,-70,0,0,0;12:13:31:e5:b2:8c,Fon WiFi,-75,0,0,0;e8:1d:a8:6d:ec:58,eduroam,-65,0,0,0;e8:1d:a8:6e:e1:3c,eduroam,-77,0,0,0;e8:1d:a8:2e:e1:38,INSEARCH Secure,-74,0,0,0;10:13:31:e5:b2:89,TelstraE5B289,-74,0,0,0;24:f2:7f:bc:78:70,TAFENSW,-79,0,0,0;e8:1d:a8:6e:e1:38,eduroam,-75,0,0,0;00:50:7f:7a:17:c0,AMX Wireless,-76,0,0,0;44:1e:98:54:ec:ac,eduroam,-87,0,0,0;44:1e:98:14:ec:ac,INSEARCH Secure,-87,0,0,0;28:24:ff:9b:18:f5,ClickShare-A1.7,-88,0,0,0;d8:c7:c8:4c:eb:b0,TAFENSW,-88,0,0,0;c8:b5:ad:31:6e:90,TAFENSW,-90,0,0,0;9c:1c:12:86:a4:b1,eduroam,-90,0,0,0;9c:1c:12:86:a4:b0,UTS-WPA,-90,0,0,0;9c:1c:12:86:a4:b2,UTS-Business,-91,0,0,0;24:f2:7f:bc:78:71,TAFE-Events,-79,0,0,0;d8:c7:c8:4c:eb:b1,TAFE-Events,-89,0,0,0;c8:b5:ad:31:1a:b1,TAFE-Events,-91,0,0,0;c8:b5:ad:31:6e:91,TAFE-Events,-91,0,0,0;

Scan3;00:02:6f:12:34:50,Telstra Air,-65,0,0,0;44:1e:98:15:8b:2c,INSEARCH Secure,-69,0,0,0;44:1e:98:55:8b:2c,eduroam,-69,0,0,0;00:02:6f:12:34:56,,-68,0,0,0;10:13:31:e6:96:ad,TelstraE696AD,-75,0,0,0;12:13:31:e6:96:b5,TelstraE696AD,-87,0,0,0;28:24:ff:8f:37:7e,ClickShare-A1.44,-90,0,0,0;12:13:31:e5:b2:91,TelstraE5B289,-75,0,0,0;24:f2:7f:bc:7a:90,TAFENSW,-59,0,0,0;d8:c7:c8:4c:eb:50,TAFENSW,-70,0,0,0;ee:2d:b7:b6:05:64,peter’s iPhone,-69,0,0,0;c8:b5:ad:31:26:90,TAFENSW,-78,0,0,0;24:f2:7f:bc:7a:91,TAFE-Events,-59,0,0,0;d8:c7:c8:4c:eb:40,TAFENSW,-67,0,0,0;44:1e:98:54:e8:1c,eduroam,-75,0,0,0;44:1e:98:14:e8:1c,INSEARCH Secure,-75,0,0,0;28:24:ff:94:bb:5f,ClickShare-A2.24,-88,0,0,0;d8:c7:c8:4c:eb:41,TAFE-Events,-67,0,0,0;c8:b5:ad:31:26:81,TAFE-Events,-73,0,0,0;e8:1d:a8:2d:ec:58,INSEARCH Secure,-67,0,0,0;c8:b5:ad:31:26:80,TAFENSW,-73,0,0,0;e8:1d:a8:6d:ec:5c,eduroam,-74,0,0,0;e8:1d:a8:2d:ec:5c,INSEARCH Secure,-74,0,0,0;44:1e:98:54:d2:1c,eduroam,-77,0,0,0;44:1e:98:14:d2:1c,INSEARCH Secure,-77,0,0,0;12:13:31:e6:c5:e7,TelstraE6C5DF,-88,0,0,0;c0:25:e9:3a:dd:c9,NETGEAR60,-73,0,0,0;e8:1d:a8:2e:27:9c,INSEARCH Secure,-85,0,0,0;e8:1d:a8:6e:27:9c,eduroam,-85,0,0,0;c8:b5:ad:31:1a:b0,TAFENSW,-90,0,0,0;d8:c7:c8:4c:eb:51,TAFE-Events,-70,0,0,0;12:13:31:e5:b2:8c,Fon WiFi,-75,0,0,0;e8:1d:a8:6d:ec:58,eduroam,-65,0,0,0;e8:1d:a8:6e:e1:3c,eduroam,-77,0,0,0;e8:1d:a8:2e:e1:38,INSEARCH Secure,-74,0,0,0;10:13:31:e5:b2:89,TelstraE5B289,-74,0,0,0;24:f2:7f:bc:78:70,TAFENSW,-79,0,0,0;e8:1d:a8:6e:e1:38,eduroam,-75,0,0,0;00:50:7f:7a:17:c0,AMX Wireless,-76,0,0,0;44:1e:98:54:ec:ac,eduroam,-87,0,0,0;44:1e:98:14:ec:ac,INSEARCH Secure,-87,0,0,0;28:24:ff:9b:18:f5,ClickShare-A1.7,-88,0,0,0;d8:c7:c8:4c:eb:b0,TAFENSW,-88,0,0,0;c8:b5:ad:31:6e:90,TAFENSW,-90,0,0,0;9c:1c:12:86:a4:b1,eduroam,-90,0,0,0;9c:1c:12:86:a4:b0,UTS-WPA,-90,0,0,0;9c:1c:12:86:a4:b2,UTS-Business,-91,0,0,0;24:f2:7f:bc:78:71,TAFE-Events,-79,0,0,0;d8:c7:c8:4c:eb:b1,TAFE-Events,-89,0,0,0;c8:b5:ad:31:1a:b1,TAFE-Events,-91,0,0,0;c8:b5:ad:31:6e:91,TAFE-Events,-91,0,0,0;

Scan4;44:1e:98:15:8b:2c,INSEARCH Secure,-73,0,0,0;44:1e:98:55:8b:2c,eduroam,-74,0,0,0;00:02:6f:12:34:56,,-68,0,0,0;10:13:31:e6:96:ad,TelstraE696AD,-79,0,0,0;12:13:31:e6:96:b5,TelstraE696AD,-81,0,0,0;12:13:31:e5:b2:91,TelstraE5B289,-71,0,0,0;24:f2:7f:bc:7a:90,TAFENSW,-69,0,0,0;d8:c7:c8:4c:eb:50,TAFENSW,-74,0,0,0;c8:b5:ad:31:26:90,TAFENSW,-79,0,0,0;24:f2:7f:bc:7a:91,TAFE-Events,-69,0,0,0;d8:c7:c8:4c:eb:40,TAFENSW,-65,0,0,0;44:1e:98:54:e8:1c,eduroam,-71,0,0,0;44:1e:98:14:e8:1c,INSEARCH Secure,-71,0,0,0;28:24:ff:94:bb:5f,ClickShare-A2.24,-82,0,0,0;d8:c7:c8:4c:eb:41,TAFE-Events,-67,0,0,0;c8:b5:ad:31:26:81,TAFE-Events,-72,0,0,0;e8:1d:a8:2d:ec:58,INSEARCH Secure,-67,0,0,0;c8:b5:ad:31:26:80,TAFENSW,-69,0,0,0;e8:1d:a8:6d:ec:5c,eduroam,-66,0,0,0;e8:1d:a8:2d:ec:5c,INSEARCH Secure,-66,0,0,0;44:1e:98:54:d2:1c,eduroam,-73,0,0,0;44:1e:98:14:d2:1c,INSEARCH Secure,-73,0,0,0;12:13:31:e6:c5:e7,TelstraE6C5DF,-85,0,0,0;c0:25:e9:3a:dd:c9,NETGEAR60,-72,0,0,0;e8:1d:a8:2e:27:9c,INSEARCH Secure,-81,0,0,0;e8:1d:a8:6e:27:9c,eduroam,-81,0,0,0;c8:b5:ad:31:1a:b0,TAFENSW,-88,0,0,0;d8:c7:c8:4c:eb:51,TAFE-Events,-74,0,0,0;12:13:31:e5:b2:8c,Fon WiFi,-73,0,0,0;10:13:31:e5:b2:89,TelstraE5B289,-73,0,0,0;d8:c7:c8:4c:eb:b0,TAFENSW,-86,0,0,0;d8:c7:c8:4c:eb:b1,TAFE-Events,-87,0,0,0;c8:b5:ad:31:1a:b1,TAFE-Events,-89,0,0,0;44:1e:98:55:8b:28,eduroam,-62,0,0,0;44:1e:98:15:8b:28,INSEARCH Secure,-63,0,0,0;6c:f3:7f:a5:12:30,TAFENSW,-78,0,0,0;2c:30:33:10:59:21,,-78,0,0,0;6c:f3:7f:a1:4d:b0,TAFENSW,-84,0,0,0;24:f2:7f:bc:9b:30,TAFENSW,-86,0,0,0;2c:30:33:10:59:22,Telstra24E1-5G,-89,0,0,0;28:24:ff:94:bd:e1,ClickShare-A1.10,-90,0,0,0;94:b4:0f:90:8d:f1,UTS-WPA,-92,0,0,0;94:b4:0f:90:8d:f3,UTS Building 15,-93,0,0,0;00:02:6f:12:34:56,Telstra Air,-60,0,0,0;24:f2:7f:bc:7a:81,TAFE-Events,-69,0,0,0;6c:f3:7f:a5:12:31,TAFE-Events,-77,0,0,0;12:13:31:e5:b2:8b,Telstra Air,-74,0,0,0;c8:b5:ad:31:26:91,TAFE-Events,-81,0,0,0;6c:f3:7f:a1:4d:b1,TAFE-Events,-83,0,0,0;24:f2:7f:bc:9b:31,TAFE-Events,-87,0,0,0;fa:8f:ca:6b:70:4d,,-91,0,0,0;

Scan5;44:1e:98:15:8b:2c,INSEARCH Secure,-73,0,0,0;44:1e:98:55:8b:2c,eduroam,-74,0,0,0;00:02:6f:12:34:56,,-68,0,0,0;10:13:31:e6:96:ad,TelstraE696AD,-79,0,0,0;12:13:31:e6:96:b5,TelstraE696AD,-81,0,0,0;12:13:31:e5:b2:91,TelstraE5B289,-71,0,0,0;24:f2:7f:bc:7a:90,TAFENSW,-69,0,0,0;d8:c7:c8:4c:eb:50,TAFENSW,-74,0,0,0;c8:b5:ad:31:26:90,TAFENSW,-79,0,0,0;24:f2:7f:bc:7a:91,TAFE-Events,-69,0,0,0;d8:c7:c8:4c:eb:40,TAFENSW,-65,0,0,0;44:1e:98:54:e8:1c,eduroam,-71,0,0,0;44:1e:98:14:e8:1c,INSEARCH Secure,-71,0,0,0;28:24:ff:94:bb:5f,ClickShare-A2.24,-82,0,0,0;d8:c7:c8:4c:eb:41,TAFE-Events,-67,0,0,0;c8:b5:ad:31:26:81,TAFE-Events,-72,0,0,0;e8:1d:a8:2d:ec:58,INSEARCH Secure,-67,0,0,0;c8:b5:ad:31:26:80,TAFENSW,-69,0,0,0;e8:1d:a8:6d:ec:5c,eduroam,-66,0,0,0;e8:1d:a8:2d:ec:5c,INSEARCH Secure,-66,0,0,0;44:1e:98:54:d2:1c,eduroam,-73,0,0,0;44:1e:98:14:d2:1c,INSEARCH Secure,-73,0,0,0;12:13:31:e6:c5:e7,TelstraE6C5DF,-85,0,0,0;c0:25:e9:3a:dd:c9,NETGEAR60,-72,0,0,0;e8:1d:a8:2e:27:9c,INSEARCH Secure,-81,0,0,0;e8:1d:a8:6e:27:9c,eduroam,-81,0,0,0;c8:b5:ad:31:1a:b0,TAFENSW,-88,0,0,0;d8:c7:c8:4c:eb:51,TAFE-Events,-74,0,0,0;12:13:31:e5:b2:8c,Fon WiFi,-73,0,0,0;10:13:31:e5:b2:89,TelstraE5B289,-73,0,0,0;d8:c7:c8:4c:eb:b0,TAFENSW,-86,0,0,0;d8:c7:c8:4c:eb:b1,TAFE-Events,-87,0,0,0;c8:b5:ad:31:1a:b1,TAFE-Events,-89,0,0,0;44:1e:98:55:8b:28,eduroam,-62,0,0,0;44:1e:98:15:8b:28,INSEARCH Secure,-63,0,0,0;6c:f3:7f:a5:12:30,TAFENSW,-78,0,0,0;2c:30:33:10:59:21,,-78,0,0,0;6c:f3:7f:a1:4d:b0,TAFENSW,-84,0,0,0;24:f2:7f:bc:9b:30,TAFENSW,-86,0,0,0;2c:30:33:10:59:22,Telstra24E1-5G,-89,0,0,0;28:24:ff:94:bd:e1,ClickShare-A1.10,-90,0,0,0;94:b4:0f:90:8d:f1,UTS-WPA,-92,0,0,0;94:b4:0f:90:8d:f3,UTS Building 15,-93,0,0,0;00:02:6f:12:34:56,Telstra Air,-60,0,0,0;24:f2:7f:bc:7a:81,TAFE-Events,-69,0,0,0;6c:f3:7f:a5:12:31,TAFE-Events,-77,0,0,0;12:13:31:e5:b2:8b,Telstra Air,-74,0,0,0;c8:b5:ad:31:26:91,TAFE-Events,-81,0,0,0;6c:f3:7f:a1:4d:b1,TAFE-Events,-83,0,0,0;24:f2:7f:bc:9b:31,TAFE-Events,-87,0,0,0;fa:8f:ca:6b:70:4d,,-91,0,0,0;

Scan6;44:1e:98:15:8b:2c,INSEARCH Secure,-73,0,0,0;44:1e:98:55:8b:2c,eduroam,-74,0,0,0;00:02:6f:12:34:56,,-68,0,0,0;10:13:31:e6:96:ad,TelstraE696AD,-79,0,0,0;12:13:31:e6:96:b5,TelstraE696AD,-81,0,0,0;12:13:31:e5:b2:91,TelstraE5B289,-71,0,0,0;24:f2:7f:bc:7a:90,TAFENSW,-69,0,0,0;d8:c7:c8:4c:eb:50,TAFENSW,-74,0,0,0;c8:b5:ad:31:26:90,TAFENSW,-79,0,0,0;24:f2:7f:bc:7a:91,TAFE-Events,-69,0,0,0;d8:c7:c8:4c:eb:40,TAFENSW,-65,0,0,0;44:1e:98:54:e8:1c,eduroam,-71,0,0,0;44:1e:98:14:e8:1c,INSEARCH Secure,-71,0,0,0;28:24:ff:94:bb:5f,ClickShare-A2.24,-82,0,0,0;d8:c7:c8:4c:eb:41,TAFE-Events,-67,0,0,0;c8:b5:ad:31:26:81,TAFE-Events,-72,0,0,0;e8:1d:a8:2d:ec:58,INSEARCH Secure,-67,0,0,0;c8:b5:ad:31:26:80,TAFENSW,-69,0,0,0;e8:1d:a8:6d:ec:5c,eduroam,-66,0,0,0;e8:1d:a8:2d:ec:5c,INSEARCH Secure,-66,0,0,0;44:1e:98:54:d2:1c,eduroam,-73,0,0,0;44:1e:98:14:d2:1c,INSEARCH Secure,-73,0,0,0;12:13:31:e6:c5:e7,TelstraE6C5DF,-85,0,0,0;c0:25:e9:3a:dd:c9,NETGEAR60,-72,0,0,0;e8:1d:a8:2e:27:9c,INSEARCH Secure,-81,0,0,0;e8:1d:a8:6e:27:9c,eduroam,-81,0,0,0;c8:b5:ad:31:1a:b0,TAFENSW,-88,0,0,0;d8:c7:c8:4c:eb:51,TAFE-Events,-74,0,0,0;12:13:31:e5:b2:8c,Fon WiFi,-73,0,0,0;10:13:31:e5:b2:89,TelstraE5B289,-73,0,0,0;d8:c7:c8:4c:eb:b0,TAFENSW,-86,0,0,0;d8:c7:c8:4c:eb:b1,TAFE-Events,-87,0,0,0;c8:b5:ad:31:1a:b1,TAFE-Events,-89,0,0,0;44:1e:98:55:8b:28,eduroam,-62,0,0,0;44:1e:98:15:8b:28,INSEARCH Secure,-63,0,0,0;6c:f3:7f:a5:12:30,TAFENSW,-78,0,0,0;2c:30:33:10:59:21,,-78,0,0,0;6c:f3:7f:a1:4d:b0,TAFENSW,-84,0,0,0;24:f2:7f:bc:9b:30,TAFENSW,-86,0,0,0;2c:30:33:10:59:22,Telstra24E1-5G,-89,0,0,0;28:24:ff:94:bd:e1,ClickShare-A1.10,-90,0,0,0;94:b4:0f:90:8d:f1,UTS-WPA,-92,0,0,0;94:b4:0f:90:8d:f3,UTS Building 15,-93,0,0,0;00:02:6f:12:34:56,Telstra Air,-60,0,0,0;24:f2:7f:bc:7a:81,TAFE-Events,-69,0,0,0;6c:f3:7f:a5:12:31,TAFE-Events,-77,0,0,0;12:13:31:e5:b2:8b,Telstra Air,-74,0,0,0;c8:b5:ad:31:26:91,TAFE-Events,-81,0,0,0;6c:f3:7f:a1:4d:b1,TAFE-Events,-83,0,0,0;24:f2:7f:bc:9b:31,TAFE-Events,-87,0,0,0;fa:8f:ca:6b:70:4d,,-91,0,0,0;

Scan7;44:1e:98:15:8b:2c,INSEARCH Secure,-73,0,0,0;44:1e:98:55:8b:2c,eduroam,-74,0,0,0;00:02:6f:12:34:56,,-68,0,0,0;10:13:31:e6:96:ad,TelstraE696AD,-79,0,0,0;12:13:31:e6:96:b5,TelstraE696AD,-81,0,0,0;12:13:31:e5:b2:91,TelstraE5B289,-71,0,0,0;24:f2:7f:bc:7a:90,TAFENSW,-69,0,0,0;d8:c7:c8:4c:eb:50,TAFENSW,-74,0,0,0;c8:b5:ad:31:26:90,TAFENSW,-79,0,0,0;24:f2:7f:bc:7a:91,TAFE-Events,-69,0,0,0;d8:c7:c8:4c:eb:40,TAFENSW,-65,0,0,0;44:1e:98:54:e8:1c,eduroam,-71,0,0,0;44:1e:98:14:e8:1c,INSEARCH Secure,-71,0,0,0;28:24:ff:94:bb:5f,ClickShare-A2.24,-82,0,0,0;d8:c7:c8:4c:eb:41,TAFE-Events,-67,0,0,0;c8:b5:ad:31:26:81,TAFE-Events,-72,0,0,0;e8:1d:a8:2d:ec:58,INSEARCH Secure,-67,0,0,0;c8:b5:ad:31:26:80,TAFENSW,-69,0,0,0;e8:1d:a8:6d:ec:5c,eduroam,-66,0,0,0;e8:1d:a8:2d:ec:5c,INSEARCH Secure,-66,0,0,0;44:1e:98:54:d2:1c,eduroam,-73,0,0,0;44:1e:98:14:d2:1c,INSEARCH Secure,-73,0,0,0;12:13:31:e6:c5:e7,TelstraE6C5DF,-85,0,0,0;c0:25:e9:3a:dd:c9,NETGEAR60,-72,0,0,0;e8:1d:a8:2e:27:9c,INSEARCH Secure,-81,0,0,0;e8:1d:a8:6e:27:9c,eduroam,-81,0,0,0;c8:b5:ad:31:1a:b0,TAFENSW,-88,0,0,0;d8:c7:c8:4c:eb:51,TAFE-Events,-74,0,0,0;12:13:31:e5:b2:8c,Fon WiFi,-73,0,0,0;10:13:31:e5:b2:89,TelstraE5B289,-73,0,0,0;d8:c7:c8:4c:eb:b0,TAFENSW,-86,0,0,0;d8:c7:c8:4c:eb:b1,TAFE-Events,-87,0,0,0;c8:b5:ad:31:1a:b1,TAFE-Events,-89,0,0,0;44:1e:98:55:8b:28,eduroam,-62,0,0,0;44:1e:98:15:8b:28,INSEARCH Secure,-63,0,0,0;6c:f3:7f:a5:12:30,TAFENSW,-78,0,0,0;2c:30:33:10:59:21,,-78,0,0,0;6c:f3:7f:a1:4d:b0,TAFENSW,-84,0,0,0;24:f2:7f:bc:9b:30,TAFENSW,-86,0,0,0;2c:30:33:10:59:22,Telstra24E1-5G,-89,0,0,0;28:24:ff:94:bd:e1,ClickShare-A1.10,-90,0,0,0;94:b4:0f:90:8d:f1,UTS-WPA,-92,0,0,0;94:b4:0f:90:8d:f3,UTS Building 15,-93,0,0,0;00:02:6f:12:34:56,Telstra Air,-60,0,0,0;24:f2:7f:bc:7a:81,TAFE-Events,-69,0,0,0;6c:f3:7f:a5:12:31,TAFE-Events,-77,0,0,0;12:13:31:e5:b2:8b,Telstra Air,-74,0,0,0;c8:b5:ad:31:26:91,TAFE-Events,-81,0,0,0;6c:f3:7f:a1:4d:b1,TAFE-Events,-83,0,0,0;24:f2:7f:bc:9b:31,TAFE-Events,-87,0,0,0;fa:8f:ca:6b:70:4d,,-91,0,0,0;

Scan8;44:1e:98:15:8b:2c,INSEARCH Secure,-73,0,0,0;44:1e:98:55:8b:2c,eduroam,-74,0,0,0;00:02:6f:12:34:56,,-68,0,0,0;10:13:31:e6:96:ad,TelstraE696AD,-79,0,0,0;12:13:31:e6:96:b5,TelstraE696AD,-81,0,0,0;12:13:31:e5:b2:91,TelstraE5B289,-71,0,0,0;24:f2:7f:bc:7a:90,TAFENSW,-69,0,0,0;d8:c7:c8:4c:eb:50,TAFENSW,-74,0,0,0;c8:b5:ad:31:26:90,TAFENSW,-79,0,0,0;24:f2:7f:bc:7a:91,TAFE-Events,-69,0,0,0;d8:c7:c8:4c:eb:40,TAFENSW,-65,0,0,0;44:1e:98:54:e8:1c,eduroam,-71,0,0,0;44:1e:98:14:e8:1c,INSEARCH Secure,-71,0,0,0;28:24:ff:94:bb:5f,ClickShare-A2.24,-82,0,0,0;d8:c7:c8:4c:eb:41,TAFE-Events,-67,0,0,0;c8:b5:ad:31:26:81,TAFE-Events,-72,0,0,0;e8:1d:a8:2d:ec:58,INSEARCH Secure,-67,0,0,0;c8:b5:ad:31:26:80,TAFENSW,-69,0,0,0;e8:1d:a8:6d:ec:5c,eduroam,-66,0,0,0;e8:1d:a8:2d:ec:5c,INSEARCH Secure,-66,0,0,0;44:1e:98:54:d2:1c,eduroam,-73,0,0,0;44:1e:98:14:d2:1c,INSEARCH Secure,-73,0,0,0;12:13:31:e6:c5:e7,TelstraE6C5DF,-85,0,0,0;c0:25:e9:3a:dd:c9,NETGEAR60,-72,0,0,0;e8:1d:a8:2e:27:9c,INSEARCH Secure,-81,0,0,0;e8:1d:a8:6e:27:9c,eduroam,-81,0,0,0;c8:b5:ad:31:1a:b0,TAFENSW,-88,0,0,0;d8:c7:c8:4c:eb:51,TAFE-Events,-74,0,0,0;12:13:31:e5:b2:8c,Fon WiFi,-73,0,0,0;10:13:31:e5:b2:89,TelstraE5B289,-73,0,0,0;d8:c7:c8:4c:eb:b0,TAFENSW,-86,0,0,0;d8:c7:c8:4c:eb:b1,TAFE-Events,-87,0,0,0;c8:b5:ad:31:1a:b1,TAFE-Events,-89,0,0,0;44:1e:98:55:8b:28,eduroam,-62,0,0,0;44:1e:98:15:8b:28,INSEARCH Secure,-63,0,0,0;6c:f3:7f:a5:12:30,TAFENSW,-78,0,0,0;2c:30:33:10:59:21,,-78,0,0,0;6c:f3:7f:a1:4d:b0,TAFENSW,-84,0,0,0;24:f2:7f:bc:9b:30,TAFENSW,-86,0,0,0;2c:30:33:10:59:22,Telstra24E1-5G,-89,0,0,0;28:24:ff:94:bd:e1,ClickShare-A1.10,-90,0,0,0;94:b4:0f:90:8d:f1,UTS-WPA,-92,0,0,0;94:b4:0f:90:8d:f3,UTS Building 15,-93,0,0,0;00:02:6f:12:34:56,Telstra Air,-60,0,0,0;24:f2:7f:bc:7a:81,TAFE-Events,-69,0,0,0;6c:f3:7f:a5:12:31,TAFE-Events,-77,0,0,0;12:13:31:e5:b2:8b,Telstra Air,-74,0,0,0;c8:b5:ad:31:26:91,TAFE-Events,-81,0,0,0;6c:f3:7f:a1:4d:b1,TAFE-Events,-83,0,0,0;24:f2:7f:bc:9b:31,TAFE-Events,-87,0,0,0;fa:8f:ca:6b:70:4d,,-91,0,0,0;

Scan9;44:1e:98:15:8b:2c,INSEARCH Secure,-73,0,0,0;44:1e:98:55:8b:2c,eduroam,-74,0,0,0;00:02:6f:12:34:56,,-68,0,0,0;10:13:31:e6:96:ad,TelstraE696AD,-79,0,0,0;12:13:31:e6:96:b5,TelstraE696AD,-81,0,0,0;12:13:31:e5:b2:91,TelstraE5B289,-71,0,0,0;24:f2:7f:bc:7a:90,TAFENSW,-69,0,0,0;d8:c7:c8:4c:eb:50,TAFENSW,-74,0,0,0;c8:b5:ad:31:26:90,TAFENSW,-79,0,0,0;24:f2:7f:bc:7a:91,TAFE-Events,-69,0,0,0;d8:c7:c8:4c:eb:40,TAFENSW,-65,0,0,0;44:1e:98:54:e8:1c,eduroam,-71,0,0,0;44:1e:98:14:e8:1c,INSEARCH Secure,-71,0,0,0;28:24:ff:94:bb:5f,ClickShare-A2.24,-82,0,0,0;d8:c7:c8:4c:eb:41,TAFE-Events,-67,0,0,0;c8:b5:ad:31:26:81,TAFE-Events,-72,0,0,0;e8:1d:a8:2d:ec:58,INSEARCH Secure,-67,0,0,0;c8:b5:ad:31:26:80,TAFENSW,-69,0,0,0;e8:1d:a8:6d:ec:5c,eduroam,-66,0,0,0;e8:1d:a8:2d:ec:5c,INSEARCH Secure,-66,0,0,0;44:1e:98:54:d2:1c,eduroam,-73,0,0,0;44:1e:98:14:d2:1c,INSEARCH Secure,-73,0,0,0;12:13:31:e6:c5:e7,TelstraE6C5DF,-85,0,0,0;c0:25:e9:3a:dd:c9,NETGEAR60,-72,0,0,0;e8:1d:a8:2e:27:9c,INSEARCH Secure,-81,0,0,0;e8:1d:a8:6e:27:9c,eduroam,-81,0,0,0;c8:b5:ad:31:1a:b0,TAFENSW,-88,0,0,0;d8:c7:c8:4c:eb:51,TAFE-Events,-74,0,0,0;12:13:31:e5:b2:8c,Fon WiFi,-73,0,0,0;10:13:31:e5:b2:89,TelstraE5B289,-73,0,0,0;d8:c7:c8:4c:eb:b0,TAFENSW,-86,0,0,0;d8:c7:c8:4c:eb:b1,TAFE-Events,-87,0,0,0;c8:b5:ad:31:1a:b1,TAFE-Events,-89,0,0,0;44:1e:98:55:8b:28,eduroam,-62,0,0,0;44:1e:98:15:8b:28,INSEARCH Secure,-63,0,0,0;6c:f3:7f:a5:12:30,TAFENSW,-78,0,0,0;2c:30:33:10:59:21,,-78,0,0,0;6c:f3:7f:a1:4d:b0,TAFENSW,-84,0,0,0;24:f2:7f:bc:9b:30,TAFENSW,-86,0,0,0;2c:30:33:10:59:22,Telstra24E1-5G,-89,0,0,0;28:24:ff:94:bd:e1,ClickShare-A1.10,-90,0,0,0;94:b4:0f:90:8d:f1,UTS-WPA,-92,0,0,0;94:b4:0f:90:8d:f3,UTS Building 15,-93,0,0,0;00:02:6f:12:34:56,Telstra Air,-60,0,0,0;24:f2:7f:bc:7a:81,TAFE-Events,-69,0,0,0;6c:f3:7f:a5:12:31,TAFE-Events,-77,0,0,0;12:13:31:e5:b2:8b,Telstra Air,-74,0,0,0;c8:b5:ad:31:26:91,TAFE-Events,-81,0,0,0;6c:f3:7f:a1:4d:b1,TAFE-Events,-83,0,0,0;24:f2:7f:bc:9b:31,TAFE-Events,-87,0,0,0;fa:8f:ca:6b:70:4d,,-91,0,0,0;

Scan10;44:1e:98:15:8b:2c,INSEARCH Secure,-73,0,0,0;44:1e:98:55:8b:2c,eduroam,-74,0,0,0;00:02:6f:12:34:56,,-68,0,0,0;10:13:31:e6:96:ad,TelstraE696AD,-79,0,0,0;12:13:31:e6:96:b5,TelstraE696AD,-81,0,0,0;12:13:31:e5:b2:91,TelstraE5B289,-71,0,0,0;24:f2:7f:bc:7a:90,TAFENSW,-69,0,0,0;d8:c7:c8:4c:eb:50,TAFENSW,-74,0,0,0;c8:b5:ad:31:26:90,TAFENSW,-79,0,0,0;24:f2:7f:bc:7a:91,TAFE-Events,-69,0,0,0;d8:c7:c8:4c:eb:40,TAFENSW,-65,0,0,0;44:1e:98:54:e8:1c,eduroam,-71,0,0,0;44:1e:98:14:e8:1c,INSEARCH Secure,-71,0,0,0;28:24:ff:94:bb:5f,ClickShare-A2.24,-82,0,0,0;d8:c7:c8:4c:eb:41,TAFE-Events,-67,0,0,0;c8:b5:ad:31:26:81,TAFE-Events,-72,0,0,0;e8:1d:a8:2d:ec:58,INSEARCH Secure,-67,0,0,0;c8:b5:ad:31:26:80,TAFENSW,-69,0,0,0;e8:1d:a8:6d:ec:5c,eduroam,-66,0,0,0;e8:1d:a8:2d:ec:5c,INSEARCH Secure,-66,0,0,0;44:1e:98:54:d2:1c,eduroam,-73,0,0,0;44:1e:98:14:d2:1c,INSEARCH Secure,-73,0,0,0;12:13:31:e6:c5:e7,TelstraE6C5DF,-85,0,0,0;c0:25:e9:3a:dd:c9,NETGEAR60,-72,0,0,0;e8:1d:a8:2e:27:9c,INSEARCH Secure,-81,0,0,0;e8:1d:a8:6e:27:9c,eduroam,-81,0,0,0;c8:b5:ad:31:1a:b0,TAFENSW,-88,0,0,0;d8:c7:c8:4c:eb:51,TAFE-Events,-74,0,0,0;12:13:31:e5:b2:8c,Fon WiFi,-73,0,0,0;10:13:31:e5:b2:89,TelstraE5B289,-73,0,0,0;d8:c7:c8:4c:eb:b0,TAFENSW,-86,0,0,0;d8:c7:c8:4c:eb:b1,TAFE-Events,-87,0,0,0;c8:b5:ad:31:1a:b1,TAFE-Events,-89,0,0,0;44:1e:98:55:8b:28,eduroam,-62,0,0,0;44:1e:98:15:8b:28,INSEARCH Secure,-63,0,0,0;6c:f3:7f:a5:12:30,TAFENSW,-78,0,0,0;2c:30:33:10:59:21,,-78,0,0,0;6c:f3:7f:a1:4d:b0,TAFENSW,-84,0,0,0;24:f2:7f:bc:9b:30,TAFENSW,-86,0,0,0;2c:30:33:10:59:22,Telstra24E1-5G,-89,0,0,0;28:24:ff:94:bd:e1,ClickShare-A1.10,-90,0,0,0;94:b4:0f:90:8d:f1,UTS-WPA,-92,0,0,0;94:b4:0f:90:8d:f3,UTS Building 15,-93,0,0,0;00:02:6f:12:34:56,Telstra Air,-60,0,0,0;24:f2:7f:bc:7a:81,TAFE-Events,-69,0,0,0;6c:f3:7f:a5:12:31,TAFE-Events,-77,0,0,0;12:13:31:e5:b2:8b,Telstra Air,-74,0,0,0;c8:b5:ad:31:26:91,TAFE-Events,-81,0,0,0;6c:f3:7f:a1:4d:b1,TAFE-Events,-83,0,0,0;24:f2:7f:bc:9b:31,TAFE-Events,-87,0,0,0;fa:8f:ca:6b:70:4d,,-91,0,0,0;

