Scan1;d8:c7:c8:4c:de:b0,TAFENSW,-73,0,0,0;d8:c7:c8:4c:de:b1,TAFE-Events,-73,0,0,0;00:02:6f:12:34:50,Telstra Air,-68,0,0,0;d8:c7:c8:4c:f4:d0,TAFENSW,-92,0,0,0;d8:c7:c8:4c:de:a1,TAFE-Events,-71,0,0,0;d8:c7:c8:4c:de:a0,TAFENSW,-70,0,0,0;d8:c7:c8:4c:f4:d1,TAFE-Events,-91,0,0,0;00:11:74:88:03:d0,CAPA Staff,-84,0,0,0;28:c7:ce:a2:40:0a,Fork and Grind,-76,0,0,0;c8:b5:ad:31:16:f0,TAFENSW,-88,0,0,0;b4:5d:50:75:73:71,UTS-WPA,-88,0,0,0;b4:5d:50:75:73:72,eval-UTS,-88,0,0,0;28:c7:ce:a2:40:0b,Cisco860_Guest1,-72,0,0,0;28:c7:ce:a2:40:0d,Cisco860_Guest3,-73,0,0,0;28:c7:ce:a2:40:0c,Cisco860_Guest2,-74,0,0,0;c8:b5:ad:31:16:f1,TAFE-Events,-90,0,0,0;00:11:74:88:03:e0,CAPA Student,-74,0,0,0;d8:c7:c8:4c:fa:f0,TAFENSW,-86,0,0,0;b4:5d:50:75:73:70,eduroam,-88,0,0,0;40:e3:d6:e8:05:10,eduroam,-91,0,0,0;12:13:31:e7:35:85,TelstraE7357D,-82,0,0,0;d8:c7:c8:4c:fa:f1,TAFE-Events,-83,0,0,0;d8:c7:c8:4c:f5:31,TAFE-Events,-90,0,0,0;d8:c7:c8:4c:f4:c0,TAFENSW,-76,0,0,0;d8:c7:c8:4c:f5:30,TAFENSW,-90,0,0,0;8c:0d:76:34:42:6c,WiFi-M7UD-5G,-88,0,0,0;64:f6:9d:b3:f4:ef,iiNet Free WiFi,-86,0,0,0;64:f6:9d:b3:f4:e1,iiNet Customer,-71,0,0,0;c0:25:e9:4b:b2:60,TP-LINK_B260,-74,0,0,0;00:25:42:83:46:a3,DR650S-8346A3,-75,0,0,0;e8:94:f6:fa:07:04,Hubris,-80,0,0,0;c8:94:bb:2e:af:78,WiFi-ZD8Q,-77,0,0,0;a8:c8:3a:2b:8f:40,TGP_wifi,-77,0,0,0;d8:c7:c8:4c:f4:10,TAFENSW,-83,0,0,0;24:7f:20:49:6b:1b,OPTUS_496B19_5GHz,-88,0,0,0;64:f6:9d:b3:f4:ee,iiNet Customer,-88,0,0,0;44:1e:98:15:8b:2c,INSEARCH Secure,-89,0,0,0;44:1e:98:55:8b:2c,eduroam,-90,0,0,0;00:02:6f:12:34:56,Telstra Air,-66,0,0,0;64:f6:9d:b3:f4:e0,iiNet Free WiFi,-71,0,0,0;d8:c7:c8:4c:f4:11,TAFE-Events,-83,0,0,0;

Scan2;d8:c7:c8:4c:de:b0,TAFENSW,-73,0,0,0;d8:c7:c8:4c:de:b1,TAFE-Events,-73,0,0,0;00:02:6f:12:34:50,Telstra Air,-68,0,0,0;d8:c7:c8:4c:f4:d0,TAFENSW,-92,0,0,0;d8:c7:c8:4c:de:a1,TAFE-Events,-71,0,0,0;d8:c7:c8:4c:de:a0,TAFENSW,-70,0,0,0;d8:c7:c8:4c:f4:d1,TAFE-Events,-91,0,0,0;00:11:74:88:03:d0,CAPA Staff,-84,0,0,0;28:c7:ce:a2:40:0a,Fork and Grind,-76,0,0,0;c8:b5:ad:31:16:f0,TAFENSW,-88,0,0,0;b4:5d:50:75:73:71,UTS-WPA,-88,0,0,0;b4:5d:50:75:73:72,eval-UTS,-88,0,0,0;28:c7:ce:a2:40:0b,Cisco860_Guest1,-72,0,0,0;28:c7:ce:a2:40:0d,Cisco860_Guest3,-73,0,0,0;28:c7:ce:a2:40:0c,Cisco860_Guest2,-74,0,0,0;c8:b5:ad:31:16:f1,TAFE-Events,-90,0,0,0;00:11:74:88:03:e0,CAPA Student,-74,0,0,0;d8:c7:c8:4c:fa:f0,TAFENSW,-86,0,0,0;b4:5d:50:75:73:70,eduroam,-88,0,0,0;40:e3:d6:e8:05:10,eduroam,-91,0,0,0;12:13:31:e7:35:85,TelstraE7357D,-82,0,0,0;d8:c7:c8:4c:fa:f1,TAFE-Events,-83,0,0,0;d8:c7:c8:4c:f5:31,TAFE-Events,-90,0,0,0;d8:c7:c8:4c:f4:c0,TAFENSW,-76,0,0,0;d8:c7:c8:4c:f5:30,TAFENSW,-90,0,0,0;8c:0d:76:34:42:6c,WiFi-M7UD-5G,-88,0,0,0;64:f6:9d:b3:f4:ef,iiNet Free WiFi,-86,0,0,0;64:f6:9d:b3:f4:e1,iiNet Customer,-71,0,0,0;c0:25:e9:4b:b2:60,TP-LINK_B260,-74,0,0,0;00:25:42:83:46:a3,DR650S-8346A3,-75,0,0,0;e8:94:f6:fa:07:04,Hubris,-80,0,0,0;c8:94:bb:2e:af:78,WiFi-ZD8Q,-77,0,0,0;a8:c8:3a:2b:8f:40,TGP_wifi,-77,0,0,0;d8:c7:c8:4c:f4:10,TAFENSW,-83,0,0,0;24:7f:20:49:6b:1b,OPTUS_496B19_5GHz,-88,0,0,0;64:f6:9d:b3:f4:ee,iiNet Customer,-88,0,0,0;44:1e:98:15:8b:2c,INSEARCH Secure,-89,0,0,0;44:1e:98:55:8b:2c,eduroam,-90,0,0,0;00:02:6f:12:34:56,Telstra Air,-66,0,0,0;64:f6:9d:b3:f4:e0,iiNet Free WiFi,-71,0,0,0;d8:c7:c8:4c:f4:11,TAFE-Events,-83,0,0,0;

Scan3;d8:c7:c8:4c:de:b0,TAFENSW,-73,0,0,0;d8:c7:c8:4c:de:b1,TAFE-Events,-73,0,0,0;00:02:6f:12:34:50,Telstra Air,-68,0,0,0;d8:c7:c8:4c:f4:d0,TAFENSW,-92,0,0,0;d8:c7:c8:4c:de:a1,TAFE-Events,-71,0,0,0;d8:c7:c8:4c:de:a0,TAFENSW,-70,0,0,0;d8:c7:c8:4c:f4:d1,TAFE-Events,-91,0,0,0;00:11:74:88:03:d0,CAPA Staff,-84,0,0,0;28:c7:ce:a2:40:0a,Fork and Grind,-76,0,0,0;c8:b5:ad:31:16:f0,TAFENSW,-88,0,0,0;b4:5d:50:75:73:71,UTS-WPA,-88,0,0,0;b4:5d:50:75:73:72,eval-UTS,-88,0,0,0;28:c7:ce:a2:40:0b,Cisco860_Guest1,-72,0,0,0;28:c7:ce:a2:40:0d,Cisco860_Guest3,-73,0,0,0;28:c7:ce:a2:40:0c,Cisco860_Guest2,-74,0,0,0;c8:b5:ad:31:16:f1,TAFE-Events,-90,0,0,0;00:11:74:88:03:e0,CAPA Student,-74,0,0,0;d8:c7:c8:4c:fa:f0,TAFENSW,-86,0,0,0;b4:5d:50:75:73:70,eduroam,-88,0,0,0;40:e3:d6:e8:05:10,eduroam,-91,0,0,0;12:13:31:e7:35:85,TelstraE7357D,-82,0,0,0;d8:c7:c8:4c:fa:f1,TAFE-Events,-83,0,0,0;d8:c7:c8:4c:f5:31,TAFE-Events,-90,0,0,0;d8:c7:c8:4c:f4:c0,TAFENSW,-76,0,0,0;d8:c7:c8:4c:f5:30,TAFENSW,-90,0,0,0;8c:0d:76:34:42:6c,WiFi-M7UD-5G,-88,0,0,0;64:f6:9d:b3:f4:ef,iiNet Free WiFi,-86,0,0,0;64:f6:9d:b3:f4:e1,iiNet Customer,-71,0,0,0;c0:25:e9:4b:b2:60,TP-LINK_B260,-74,0,0,0;00:25:42:83:46:a3,DR650S-8346A3,-75,0,0,0;e8:94:f6:fa:07:04,Hubris,-80,0,0,0;c8:94:bb:2e:af:78,WiFi-ZD8Q,-77,0,0,0;a8:c8:3a:2b:8f:40,TGP_wifi,-77,0,0,0;d8:c7:c8:4c:f4:10,TAFENSW,-83,0,0,0;24:7f:20:49:6b:1b,OPTUS_496B19_5GHz,-88,0,0,0;64:f6:9d:b3:f4:ee,iiNet Customer,-88,0,0,0;44:1e:98:15:8b:2c,INSEARCH Secure,-89,0,0,0;44:1e:98:55:8b:2c,eduroam,-90,0,0,0;00:02:6f:12:34:56,Telstra Air,-66,0,0,0;64:f6:9d:b3:f4:e0,iiNet Free WiFi,-71,0,0,0;d8:c7:c8:4c:f4:11,TAFE-Events,-83,0,0,0;

Scan4;d8:c7:c8:4c:de:b0,TAFENSW,-73,0,0,0;d8:c7:c8:4c:de:b1,TAFE-Events,-73,0,0,0;00:02:6f:12:34:50,Telstra Air,-68,0,0,0;d8:c7:c8:4c:f4:d0,TAFENSW,-92,0,0,0;d8:c7:c8:4c:de:a1,TAFE-Events,-71,0,0,0;d8:c7:c8:4c:de:a0,TAFENSW,-70,0,0,0;d8:c7:c8:4c:f4:d1,TAFE-Events,-91,0,0,0;00:11:74:88:03:d0,CAPA Staff,-84,0,0,0;28:c7:ce:a2:40:0a,Fork and Grind,-76,0,0,0;c8:b5:ad:31:16:f0,TAFENSW,-88,0,0,0;b4:5d:50:75:73:71,UTS-WPA,-88,0,0,0;b4:5d:50:75:73:72,eval-UTS,-88,0,0,0;28:c7:ce:a2:40:0b,Cisco860_Guest1,-72,0,0,0;28:c7:ce:a2:40:0d,Cisco860_Guest3,-73,0,0,0;28:c7:ce:a2:40:0c,Cisco860_Guest2,-74,0,0,0;c8:b5:ad:31:16:f1,TAFE-Events,-90,0,0,0;00:11:74:88:03:e0,CAPA Student,-74,0,0,0;d8:c7:c8:4c:fa:f0,TAFENSW,-86,0,0,0;b4:5d:50:75:73:70,eduroam,-88,0,0,0;40:e3:d6:e8:05:10,eduroam,-91,0,0,0;12:13:31:e7:35:85,TelstraE7357D,-82,0,0,0;d8:c7:c8:4c:fa:f1,TAFE-Events,-83,0,0,0;d8:c7:c8:4c:f5:31,TAFE-Events,-90,0,0,0;d8:c7:c8:4c:f4:c0,TAFENSW,-76,0,0,0;d8:c7:c8:4c:f5:30,TAFENSW,-90,0,0,0;8c:0d:76:34:42:6c,WiFi-M7UD-5G,-88,0,0,0;64:f6:9d:b3:f4:ef,iiNet Free WiFi,-86,0,0,0;64:f6:9d:b3:f4:e1,iiNet Customer,-71,0,0,0;c0:25:e9:4b:b2:60,TP-LINK_B260,-74,0,0,0;00:25:42:83:46:a3,DR650S-8346A3,-75,0,0,0;e8:94:f6:fa:07:04,Hubris,-80,0,0,0;c8:94:bb:2e:af:78,WiFi-ZD8Q,-77,0,0,0;a8:c8:3a:2b:8f:40,TGP_wifi,-77,0,0,0;d8:c7:c8:4c:f4:10,TAFENSW,-83,0,0,0;24:7f:20:49:6b:1b,OPTUS_496B19_5GHz,-88,0,0,0;64:f6:9d:b3:f4:ee,iiNet Customer,-88,0,0,0;44:1e:98:15:8b:2c,INSEARCH Secure,-89,0,0,0;44:1e:98:55:8b:2c,eduroam,-90,0,0,0;00:02:6f:12:34:56,Telstra Air,-66,0,0,0;64:f6:9d:b3:f4:e0,iiNet Free WiFi,-71,0,0,0;d8:c7:c8:4c:f4:11,TAFE-Events,-83,0,0,0;

Scan5;d8:c7:c8:4c:de:b0,TAFENSW,-73,0,0,0;d8:c7:c8:4c:de:b1,TAFE-Events,-73,0,0,0;00:02:6f:12:34:50,Telstra Air,-68,0,0,0;d8:c7:c8:4c:f4:d0,TAFENSW,-92,0,0,0;d8:c7:c8:4c:de:a1,TAFE-Events,-71,0,0,0;d8:c7:c8:4c:de:a0,TAFENSW,-70,0,0,0;d8:c7:c8:4c:f4:d1,TAFE-Events,-91,0,0,0;00:11:74:88:03:d0,CAPA Staff,-84,0,0,0;28:c7:ce:a2:40:0a,Fork and Grind,-76,0,0,0;c8:b5:ad:31:16:f0,TAFENSW,-88,0,0,0;b4:5d:50:75:73:71,UTS-WPA,-88,0,0,0;b4:5d:50:75:73:72,eval-UTS,-88,0,0,0;28:c7:ce:a2:40:0b,Cisco860_Guest1,-72,0,0,0;28:c7:ce:a2:40:0d,Cisco860_Guest3,-73,0,0,0;28:c7:ce:a2:40:0c,Cisco860_Guest2,-74,0,0,0;c8:b5:ad:31:16:f1,TAFE-Events,-90,0,0,0;00:11:74:88:03:e0,CAPA Student,-74,0,0,0;d8:c7:c8:4c:fa:f0,TAFENSW,-86,0,0,0;b4:5d:50:75:73:70,eduroam,-88,0,0,0;40:e3:d6:e8:05:10,eduroam,-91,0,0,0;12:13:31:e7:35:85,TelstraE7357D,-82,0,0,0;d8:c7:c8:4c:fa:f1,TAFE-Events,-83,0,0,0;d8:c7:c8:4c:f5:31,TAFE-Events,-90,0,0,0;d8:c7:c8:4c:f4:c0,TAFENSW,-76,0,0,0;d8:c7:c8:4c:f5:30,TAFENSW,-90,0,0,0;8c:0d:76:34:42:6c,WiFi-M7UD-5G,-88,0,0,0;64:f6:9d:b3:f4:ef,iiNet Free WiFi,-86,0,0,0;64:f6:9d:b3:f4:e1,iiNet Customer,-71,0,0,0;c0:25:e9:4b:b2:60,TP-LINK_B260,-74,0,0,0;00:25:42:83:46:a3,DR650S-8346A3,-75,0,0,0;e8:94:f6:fa:07:04,Hubris,-80,0,0,0;c8:94:bb:2e:af:78,WiFi-ZD8Q,-77,0,0,0;a8:c8:3a:2b:8f:40,TGP_wifi,-77,0,0,0;d8:c7:c8:4c:f4:10,TAFENSW,-83,0,0,0;24:7f:20:49:6b:1b,OPTUS_496B19_5GHz,-88,0,0,0;64:f6:9d:b3:f4:ee,iiNet Customer,-88,0,0,0;44:1e:98:15:8b:2c,INSEARCH Secure,-89,0,0,0;44:1e:98:55:8b:2c,eduroam,-90,0,0,0;00:02:6f:12:34:56,Telstra Air,-66,0,0,0;64:f6:9d:b3:f4:e0,iiNet Free WiFi,-71,0,0,0;d8:c7:c8:4c:f4:11,TAFE-Events,-83,0,0,0;

Scan6;d8:c7:c8:4c:de:b0,TAFENSW,-73,0,0,0;d8:c7:c8:4c:de:b1,TAFE-Events,-73,0,0,0;00:02:6f:12:34:50,Telstra Air,-68,0,0,0;d8:c7:c8:4c:f4:d0,TAFENSW,-92,0,0,0;d8:c7:c8:4c:de:a1,TAFE-Events,-71,0,0,0;d8:c7:c8:4c:de:a0,TAFENSW,-70,0,0,0;d8:c7:c8:4c:f4:d1,TAFE-Events,-91,0,0,0;00:11:74:88:03:d0,CAPA Staff,-84,0,0,0;28:c7:ce:a2:40:0a,Fork and Grind,-76,0,0,0;c8:b5:ad:31:16:f0,TAFENSW,-88,0,0,0;b4:5d:50:75:73:71,UTS-WPA,-88,0,0,0;b4:5d:50:75:73:72,eval-UTS,-88,0,0,0;28:c7:ce:a2:40:0b,Cisco860_Guest1,-72,0,0,0;28:c7:ce:a2:40:0d,Cisco860_Guest3,-73,0,0,0;28:c7:ce:a2:40:0c,Cisco860_Guest2,-74,0,0,0;c8:b5:ad:31:16:f1,TAFE-Events,-90,0,0,0;00:11:74:88:03:e0,CAPA Student,-74,0,0,0;d8:c7:c8:4c:fa:f0,TAFENSW,-86,0,0,0;b4:5d:50:75:73:70,eduroam,-88,0,0,0;40:e3:d6:e8:05:10,eduroam,-91,0,0,0;12:13:31:e7:35:85,TelstraE7357D,-82,0,0,0;d8:c7:c8:4c:fa:f1,TAFE-Events,-83,0,0,0;d8:c7:c8:4c:f5:31,TAFE-Events,-90,0,0,0;d8:c7:c8:4c:f4:c0,TAFENSW,-76,0,0,0;d8:c7:c8:4c:f5:30,TAFENSW,-90,0,0,0;8c:0d:76:34:42:6c,WiFi-M7UD-5G,-88,0,0,0;64:f6:9d:b3:f4:ef,iiNet Free WiFi,-86,0,0,0;64:f6:9d:b3:f4:e1,iiNet Customer,-71,0,0,0;c0:25:e9:4b:b2:60,TP-LINK_B260,-74,0,0,0;00:25:42:83:46:a3,DR650S-8346A3,-75,0,0,0;e8:94:f6:fa:07:04,Hubris,-80,0,0,0;c8:94:bb:2e:af:78,WiFi-ZD8Q,-77,0,0,0;a8:c8:3a:2b:8f:40,TGP_wifi,-77,0,0,0;d8:c7:c8:4c:f4:10,TAFENSW,-83,0,0,0;24:7f:20:49:6b:1b,OPTUS_496B19_5GHz,-88,0,0,0;64:f6:9d:b3:f4:ee,iiNet Customer,-88,0,0,0;44:1e:98:15:8b:2c,INSEARCH Secure,-89,0,0,0;44:1e:98:55:8b:2c,eduroam,-90,0,0,0;00:02:6f:12:34:56,Telstra Air,-66,0,0,0;64:f6:9d:b3:f4:e0,iiNet Free WiFi,-71,0,0,0;d8:c7:c8:4c:f4:11,TAFE-Events,-83,0,0,0;

Scan7;d8:c7:c8:4c:de:b0,TAFENSW,-73,0,0,0;d8:c7:c8:4c:de:b1,TAFE-Events,-73,0,0,0;00:02:6f:12:34:50,Telstra Air,-68,0,0,0;d8:c7:c8:4c:f4:d0,TAFENSW,-92,0,0,0;d8:c7:c8:4c:de:a1,TAFE-Events,-71,0,0,0;d8:c7:c8:4c:de:a0,TAFENSW,-70,0,0,0;d8:c7:c8:4c:f4:d1,TAFE-Events,-91,0,0,0;00:11:74:88:03:d0,CAPA Staff,-84,0,0,0;28:c7:ce:a2:40:0a,Fork and Grind,-76,0,0,0;c8:b5:ad:31:16:f0,TAFENSW,-88,0,0,0;b4:5d:50:75:73:71,UTS-WPA,-88,0,0,0;b4:5d:50:75:73:72,eval-UTS,-88,0,0,0;28:c7:ce:a2:40:0b,Cisco860_Guest1,-72,0,0,0;28:c7:ce:a2:40:0d,Cisco860_Guest3,-73,0,0,0;28:c7:ce:a2:40:0c,Cisco860_Guest2,-74,0,0,0;c8:b5:ad:31:16:f1,TAFE-Events,-90,0,0,0;00:11:74:88:03:e0,CAPA Student,-74,0,0,0;d8:c7:c8:4c:fa:f0,TAFENSW,-86,0,0,0;b4:5d:50:75:73:70,eduroam,-88,0,0,0;40:e3:d6:e8:05:10,eduroam,-91,0,0,0;12:13:31:e7:35:85,TelstraE7357D,-82,0,0,0;d8:c7:c8:4c:fa:f1,TAFE-Events,-83,0,0,0;d8:c7:c8:4c:f5:31,TAFE-Events,-90,0,0,0;d8:c7:c8:4c:f4:c0,TAFENSW,-76,0,0,0;d8:c7:c8:4c:f5:30,TAFENSW,-90,0,0,0;8c:0d:76:34:42:6c,WiFi-M7UD-5G,-88,0,0,0;64:f6:9d:b3:f4:ef,iiNet Free WiFi,-86,0,0,0;64:f6:9d:b3:f4:e1,iiNet Customer,-71,0,0,0;c0:25:e9:4b:b2:60,TP-LINK_B260,-74,0,0,0;00:25:42:83:46:a3,DR650S-8346A3,-75,0,0,0;e8:94:f6:fa:07:04,Hubris,-80,0,0,0;c8:94:bb:2e:af:78,WiFi-ZD8Q,-77,0,0,0;a8:c8:3a:2b:8f:40,TGP_wifi,-77,0,0,0;d8:c7:c8:4c:f4:10,TAFENSW,-83,0,0,0;24:7f:20:49:6b:1b,OPTUS_496B19_5GHz,-88,0,0,0;64:f6:9d:b3:f4:ee,iiNet Customer,-88,0,0,0;44:1e:98:15:8b:2c,INSEARCH Secure,-89,0,0,0;44:1e:98:55:8b:2c,eduroam,-90,0,0,0;00:02:6f:12:34:56,Telstra Air,-66,0,0,0;64:f6:9d:b3:f4:e0,iiNet Free WiFi,-71,0,0,0;d8:c7:c8:4c:f4:11,TAFE-Events,-83,0,0,0;

Scan8;d8:c7:c8:4c:de:b0,TAFENSW,-73,0,0,0;d8:c7:c8:4c:de:b1,TAFE-Events,-73,0,0,0;00:02:6f:12:34:50,Telstra Air,-68,0,0,0;d8:c7:c8:4c:f4:d0,TAFENSW,-92,0,0,0;d8:c7:c8:4c:de:a1,TAFE-Events,-71,0,0,0;d8:c7:c8:4c:de:a0,TAFENSW,-70,0,0,0;d8:c7:c8:4c:f4:d1,TAFE-Events,-91,0,0,0;00:11:74:88:03:d0,CAPA Staff,-84,0,0,0;28:c7:ce:a2:40:0a,Fork and Grind,-76,0,0,0;c8:b5:ad:31:16:f0,TAFENSW,-88,0,0,0;b4:5d:50:75:73:71,UTS-WPA,-88,0,0,0;b4:5d:50:75:73:72,eval-UTS,-88,0,0,0;28:c7:ce:a2:40:0b,Cisco860_Guest1,-72,0,0,0;28:c7:ce:a2:40:0d,Cisco860_Guest3,-73,0,0,0;28:c7:ce:a2:40:0c,Cisco860_Guest2,-74,0,0,0;c8:b5:ad:31:16:f1,TAFE-Events,-90,0,0,0;00:11:74:88:03:e0,CAPA Student,-74,0,0,0;d8:c7:c8:4c:fa:f0,TAFENSW,-86,0,0,0;b4:5d:50:75:73:70,eduroam,-88,0,0,0;40:e3:d6:e8:05:10,eduroam,-91,0,0,0;12:13:31:e7:35:85,TelstraE7357D,-82,0,0,0;d8:c7:c8:4c:fa:f1,TAFE-Events,-83,0,0,0;d8:c7:c8:4c:f5:31,TAFE-Events,-90,0,0,0;d8:c7:c8:4c:f4:c0,TAFENSW,-76,0,0,0;d8:c7:c8:4c:f5:30,TAFENSW,-90,0,0,0;8c:0d:76:34:42:6c,WiFi-M7UD-5G,-88,0,0,0;64:f6:9d:b3:f4:ef,iiNet Free WiFi,-86,0,0,0;64:f6:9d:b3:f4:e1,iiNet Customer,-71,0,0,0;c0:25:e9:4b:b2:60,TP-LINK_B260,-74,0,0,0;00:25:42:83:46:a3,DR650S-8346A3,-75,0,0,0;e8:94:f6:fa:07:04,Hubris,-80,0,0,0;c8:94:bb:2e:af:78,WiFi-ZD8Q,-77,0,0,0;a8:c8:3a:2b:8f:40,TGP_wifi,-77,0,0,0;d8:c7:c8:4c:f4:10,TAFENSW,-83,0,0,0;24:7f:20:49:6b:1b,OPTUS_496B19_5GHz,-88,0,0,0;64:f6:9d:b3:f4:ee,iiNet Customer,-88,0,0,0;44:1e:98:15:8b:2c,INSEARCH Secure,-89,0,0,0;44:1e:98:55:8b:2c,eduroam,-90,0,0,0;00:02:6f:12:34:56,Telstra Air,-66,0,0,0;64:f6:9d:b3:f4:e0,iiNet Free WiFi,-71,0,0,0;d8:c7:c8:4c:f4:11,TAFE-Events,-83,0,0,0;

Scan9;d8:c7:c8:4c:de:b0,TAFENSW,-73,0,0,0;d8:c7:c8:4c:de:b1,TAFE-Events,-73,0,0,0;00:02:6f:12:34:50,Telstra Air,-68,0,0,0;d8:c7:c8:4c:f4:d0,TAFENSW,-92,0,0,0;d8:c7:c8:4c:de:a1,TAFE-Events,-71,0,0,0;d8:c7:c8:4c:de:a0,TAFENSW,-70,0,0,0;d8:c7:c8:4c:f4:d1,TAFE-Events,-91,0,0,0;00:11:74:88:03:d0,CAPA Staff,-84,0,0,0;28:c7:ce:a2:40:0a,Fork and Grind,-76,0,0,0;c8:b5:ad:31:16:f0,TAFENSW,-88,0,0,0;b4:5d:50:75:73:71,UTS-WPA,-88,0,0,0;b4:5d:50:75:73:72,eval-UTS,-88,0,0,0;28:c7:ce:a2:40:0b,Cisco860_Guest1,-72,0,0,0;28:c7:ce:a2:40:0d,Cisco860_Guest3,-73,0,0,0;28:c7:ce:a2:40:0c,Cisco860_Guest2,-74,0,0,0;c8:b5:ad:31:16:f1,TAFE-Events,-90,0,0,0;00:11:74:88:03:e0,CAPA Student,-74,0,0,0;d8:c7:c8:4c:fa:f0,TAFENSW,-86,0,0,0;b4:5d:50:75:73:70,eduroam,-88,0,0,0;40:e3:d6:e8:05:10,eduroam,-91,0,0,0;12:13:31:e7:35:85,TelstraE7357D,-82,0,0,0;d8:c7:c8:4c:fa:f1,TAFE-Events,-83,0,0,0;d8:c7:c8:4c:f5:31,TAFE-Events,-90,0,0,0;d8:c7:c8:4c:f4:c0,TAFENSW,-76,0,0,0;d8:c7:c8:4c:f5:30,TAFENSW,-90,0,0,0;8c:0d:76:34:42:6c,WiFi-M7UD-5G,-88,0,0,0;64:f6:9d:b3:f4:ef,iiNet Free WiFi,-86,0,0,0;64:f6:9d:b3:f4:e1,iiNet Customer,-71,0,0,0;c0:25:e9:4b:b2:60,TP-LINK_B260,-74,0,0,0;00:25:42:83:46:a3,DR650S-8346A3,-75,0,0,0;e8:94:f6:fa:07:04,Hubris,-80,0,0,0;c8:94:bb:2e:af:78,WiFi-ZD8Q,-77,0,0,0;a8:c8:3a:2b:8f:40,TGP_wifi,-77,0,0,0;d8:c7:c8:4c:f4:10,TAFENSW,-83,0,0,0;24:7f:20:49:6b:1b,OPTUS_496B19_5GHz,-88,0,0,0;64:f6:9d:b3:f4:ee,iiNet Customer,-88,0,0,0;44:1e:98:15:8b:2c,INSEARCH Secure,-89,0,0,0;44:1e:98:55:8b:2c,eduroam,-90,0,0,0;00:02:6f:12:34:56,Telstra Air,-66,0,0,0;64:f6:9d:b3:f4:e0,iiNet Free WiFi,-71,0,0,0;d8:c7:c8:4c:f4:11,TAFE-Events,-83,0,0,0;

