Scan1;9c:1c:12:8f:b9:30,UTS-WPA,-90,0,0,0;9c:1c:12:86:5c:90,UTS-WPA,-89,0,0,0;d8:c7:c8:4c:f4:90,TAFENSW,-80,0,0,0;d8:c7:c8:4f:cb:90,TAFENSW,-72,0,0,0;d8:c7:c8:4c:f0:70,TAFENSW,-73,0,0,0;d8:c7:c8:4f:b6:b1,TAFE-Events,-80,0,0,0;d8:c7:c8:4c:f0:71,TAFE-Events,-73,0,0,0;6c:f3:7f:a1:4a:f0,TAFENSW,-76,0,0,0;d8:c7:c8:4f:b6:b0,TAFENSW,-79,0,0,0;6c:f3:7f:a1:4a:f1,TAFE-Events,-75,0,0,0;d8:c7:c8:4f:cb:91,TAFE-Events,-72,0,0,0;d8:c7:c8:4c:f4:b1,TAFE-Events,-91,0,0,0;d8:c7:c8:4c:fa:d0,TAFENSW,-85,0,0,0;70:3a:0e:43:40:f1,UTS-WPA,-88,0,0,0;d8:c7:c8:4c:fb:91,TAFE-Events,-85,0,0,0;d8:c7:c8:4c:fa:d1,TAFE-Events,-86,0,0,0;d8:c7:c8:4c:fa:70,TAFENSW,-72,0,0,0;70:3a:0e:43:40:f3,ISF-Guest,-89,0,0,0;6c:f3:7f:a1:42:70,TAFENSW,-90,0,0,0;d8:c7:c8:4c:fb:50,TAFENSW,-91,0,0,0;d8:c7:c8:4c:fa:71,TAFE-Events,-71,0,0,0;6c:f3:7f:a1:42:71,TAFE-Events,-91,0,0,0;d8:c7:c8:4c:fb:51,TAFE-Events,-91,0,0,0;9c:1c:12:8f:b9:32,UTS-Duress,-90,0,0,0;9c:1c:12:8f:b9:31,eduroam,-90,0,0,0;d8:c7:c8:4f:cc:50,TAFENSW,-68,0,0,0;d8:c7:c8:4f:cb:80,TAFENSW,-73,0,0,0;9c:1c:12:8f:b7:90,UTS-WPA,-77,0,0,0;d8:c7:c8:4c:fb:90,TAFENSW,-85,0,0,0;d8:c7:c8:4c:fa:90,TAFENSW,-86,0,0,0;9c:1c:12:8f:ba:31,eduroam,-91,0,0,0;9c:1c:12:8f:ba:32,UTS-Duress,-90,0,0,0;9c:1c:12:8f:ba:30,UTS-WPA,-91,0,0,0;70:3a:0e:43:40:f0,eduroam,-88,0,0,0;70:3a:0e:43:3d:f3,ISF-Guest,-91,0,0,0;d8:c7:c8:4f:cc:51,TAFE-Events,-68,0,0,0;d8:c7:c8:4f:cb:81,TAFE-Events,-73,0,0,0;d8:c7:c8:4c:fa:91,TAFE-Events,-87,0,0,0;6c:f3:7f:a1:4a:e0,TAFENSW,-70,0,0,0;9c:1c:12:8f:b7:92,UTS-Duress,-76,0,0,0;9c:1c:12:8f:b7:91,eduroam,-76,0,0,0;d8:c7:c8:4c:f0:60,TAFENSW,-72,0,0,0;d8:c7:c8:4c:f9:60,TAFENSW,-77,0,0,0;c4:71:54:46:8f:a0,WiFi-8F9E-5G,-83,0,0,0;9c:1c:12:8f:b6:d1,eduroam,-89,0,0,0;9c:1c:12:8f:b6:d0,UTS-WPA,-89,0,0,0;9c:1c:12:86:5c:92,UTS-Duress,-89,0,0,0;9c:1c:12:86:5c:91,eduroam,-89,0,0,0;9c:1c:12:8f:b6:d2,UTS-Duress,-90,0,0,0;d8:c7:c8:4c:fa:50,TAFENSW,-91,0,0,0;70:3a:0e:43:3d:f0,eduroam,-91,0,0,0;70:3a:0e:43:3d:f1,UTS-WPA,-91,0,0,0;d8:c7:c8:4c:f4:b0,TAFENSW,-92,0,0,0;d8:c7:c8:4c:f4:91,TAFE-Events,-80,0,0,0;d8:c7:c8:4c:f9:61,TAFE-Events,-78,0,0,0;d8:c7:c8:4c:fa:51,TAFE-Events,-90,0,0,0;

Scan2;9c:1c:12:8f:b9:30,UTS-WPA,-90,0,0,0;9c:1c:12:86:5c:90,UTS-WPA,-89,0,0,0;d8:c7:c8:4c:f4:90,TAFENSW,-80,0,0,0;d8:c7:c8:4f:cb:90,TAFENSW,-72,0,0,0;d8:c7:c8:4c:f0:70,TAFENSW,-73,0,0,0;d8:c7:c8:4f:b6:b1,TAFE-Events,-80,0,0,0;d8:c7:c8:4c:f0:71,TAFE-Events,-73,0,0,0;6c:f3:7f:a1:4a:f0,TAFENSW,-76,0,0,0;d8:c7:c8:4f:b6:b0,TAFENSW,-79,0,0,0;6c:f3:7f:a1:4a:f1,TAFE-Events,-75,0,0,0;d8:c7:c8:4f:cb:91,TAFE-Events,-72,0,0,0;d8:c7:c8:4c:f4:b1,TAFE-Events,-91,0,0,0;d8:c7:c8:4c:fa:d0,TAFENSW,-85,0,0,0;70:3a:0e:43:40:f1,UTS-WPA,-88,0,0,0;d8:c7:c8:4c:fb:91,TAFE-Events,-85,0,0,0;d8:c7:c8:4c:fa:d1,TAFE-Events,-86,0,0,0;d8:c7:c8:4c:fa:70,TAFENSW,-72,0,0,0;70:3a:0e:43:40:f3,ISF-Guest,-89,0,0,0;6c:f3:7f:a1:42:70,TAFENSW,-90,0,0,0;d8:c7:c8:4c:fb:50,TAFENSW,-91,0,0,0;d8:c7:c8:4c:fa:71,TAFE-Events,-71,0,0,0;6c:f3:7f:a1:42:71,TAFE-Events,-91,0,0,0;d8:c7:c8:4c:fb:51,TAFE-Events,-91,0,0,0;9c:1c:12:8f:b9:32,UTS-Duress,-90,0,0,0;9c:1c:12:8f:b9:31,eduroam,-90,0,0,0;d8:c7:c8:4f:cc:50,TAFENSW,-68,0,0,0;d8:c7:c8:4f:cb:80,TAFENSW,-73,0,0,0;9c:1c:12:8f:b7:90,UTS-WPA,-77,0,0,0;d8:c7:c8:4c:fb:90,TAFENSW,-85,0,0,0;d8:c7:c8:4c:fa:90,TAFENSW,-86,0,0,0;9c:1c:12:8f:ba:31,eduroam,-91,0,0,0;9c:1c:12:8f:ba:32,UTS-Duress,-90,0,0,0;9c:1c:12:8f:ba:30,UTS-WPA,-91,0,0,0;70:3a:0e:43:40:f0,eduroam,-88,0,0,0;70:3a:0e:43:3d:f3,ISF-Guest,-91,0,0,0;d8:c7:c8:4f:cc:51,TAFE-Events,-68,0,0,0;d8:c7:c8:4f:cb:81,TAFE-Events,-73,0,0,0;d8:c7:c8:4c:fa:91,TAFE-Events,-87,0,0,0;6c:f3:7f:a1:4a:e0,TAFENSW,-70,0,0,0;9c:1c:12:8f:b7:92,UTS-Duress,-76,0,0,0;9c:1c:12:8f:b7:91,eduroam,-76,0,0,0;d8:c7:c8:4c:f0:60,TAFENSW,-72,0,0,0;d8:c7:c8:4c:f9:60,TAFENSW,-77,0,0,0;c4:71:54:46:8f:a0,WiFi-8F9E-5G,-83,0,0,0;9c:1c:12:8f:b6:d1,eduroam,-89,0,0,0;9c:1c:12:8f:b6:d0,UTS-WPA,-89,0,0,0;9c:1c:12:86:5c:92,UTS-Duress,-89,0,0,0;9c:1c:12:86:5c:91,eduroam,-89,0,0,0;9c:1c:12:8f:b6:d2,UTS-Duress,-90,0,0,0;d8:c7:c8:4c:fa:50,TAFENSW,-91,0,0,0;70:3a:0e:43:3d:f0,eduroam,-91,0,0,0;70:3a:0e:43:3d:f1,UTS-WPA,-91,0,0,0;d8:c7:c8:4c:f4:b0,TAFENSW,-92,0,0,0;d8:c7:c8:4c:f4:91,TAFE-Events,-80,0,0,0;d8:c7:c8:4c:f9:61,TAFE-Events,-78,0,0,0;d8:c7:c8:4c:fa:51,TAFE-Events,-90,0,0,0;

Scan3;9c:1c:12:8f:b9:30,UTS-WPA,-90,0,0,0;9c:1c:12:86:5c:90,UTS-WPA,-89,0,0,0;d8:c7:c8:4c:f4:90,TAFENSW,-80,0,0,0;d8:c7:c8:4f:cb:90,TAFENSW,-72,0,0,0;d8:c7:c8:4c:f0:70,TAFENSW,-73,0,0,0;d8:c7:c8:4f:b6:b1,TAFE-Events,-80,0,0,0;d8:c7:c8:4c:f0:71,TAFE-Events,-73,0,0,0;6c:f3:7f:a1:4a:f0,TAFENSW,-76,0,0,0;d8:c7:c8:4f:b6:b0,TAFENSW,-79,0,0,0;6c:f3:7f:a1:4a:f1,TAFE-Events,-75,0,0,0;d8:c7:c8:4f:cb:91,TAFE-Events,-72,0,0,0;d8:c7:c8:4c:f4:b1,TAFE-Events,-91,0,0,0;d8:c7:c8:4c:fa:d0,TAFENSW,-85,0,0,0;70:3a:0e:43:40:f1,UTS-WPA,-88,0,0,0;d8:c7:c8:4c:fb:91,TAFE-Events,-85,0,0,0;d8:c7:c8:4c:fa:d1,TAFE-Events,-86,0,0,0;d8:c7:c8:4c:fa:70,TAFENSW,-72,0,0,0;70:3a:0e:43:40:f3,ISF-Guest,-89,0,0,0;6c:f3:7f:a1:42:70,TAFENSW,-90,0,0,0;d8:c7:c8:4c:fb:50,TAFENSW,-91,0,0,0;d8:c7:c8:4c:fa:71,TAFE-Events,-71,0,0,0;6c:f3:7f:a1:42:71,TAFE-Events,-91,0,0,0;d8:c7:c8:4c:fb:51,TAFE-Events,-91,0,0,0;9c:1c:12:8f:b9:32,UTS-Duress,-90,0,0,0;9c:1c:12:8f:b9:31,eduroam,-90,0,0,0;d8:c7:c8:4f:cc:50,TAFENSW,-68,0,0,0;d8:c7:c8:4f:cb:80,TAFENSW,-73,0,0,0;9c:1c:12:8f:b7:90,UTS-WPA,-77,0,0,0;d8:c7:c8:4c:fb:90,TAFENSW,-85,0,0,0;d8:c7:c8:4c:fa:90,TAFENSW,-86,0,0,0;9c:1c:12:8f:ba:31,eduroam,-91,0,0,0;9c:1c:12:8f:ba:32,UTS-Duress,-90,0,0,0;9c:1c:12:8f:ba:30,UTS-WPA,-91,0,0,0;70:3a:0e:43:40:f0,eduroam,-88,0,0,0;70:3a:0e:43:3d:f3,ISF-Guest,-91,0,0,0;d8:c7:c8:4f:cc:51,TAFE-Events,-68,0,0,0;d8:c7:c8:4f:cb:81,TAFE-Events,-73,0,0,0;d8:c7:c8:4c:fa:91,TAFE-Events,-87,0,0,0;6c:f3:7f:a1:4a:e0,TAFENSW,-70,0,0,0;9c:1c:12:8f:b7:92,UTS-Duress,-76,0,0,0;9c:1c:12:8f:b7:91,eduroam,-76,0,0,0;d8:c7:c8:4c:f0:60,TAFENSW,-72,0,0,0;d8:c7:c8:4c:f9:60,TAFENSW,-77,0,0,0;c4:71:54:46:8f:a0,WiFi-8F9E-5G,-83,0,0,0;9c:1c:12:8f:b6:d1,eduroam,-89,0,0,0;9c:1c:12:8f:b6:d0,UTS-WPA,-89,0,0,0;9c:1c:12:86:5c:92,UTS-Duress,-89,0,0,0;9c:1c:12:86:5c:91,eduroam,-89,0,0,0;9c:1c:12:8f:b6:d2,UTS-Duress,-90,0,0,0;d8:c7:c8:4c:fa:50,TAFENSW,-91,0,0,0;70:3a:0e:43:3d:f0,eduroam,-91,0,0,0;70:3a:0e:43:3d:f1,UTS-WPA,-91,0,0,0;d8:c7:c8:4c:f4:b0,TAFENSW,-92,0,0,0;d8:c7:c8:4c:f4:91,TAFE-Events,-80,0,0,0;d8:c7:c8:4c:f9:61,TAFE-Events,-78,0,0,0;d8:c7:c8:4c:fa:51,TAFE-Events,-90,0,0,0;

Scan4;9c:1c:12:8f:b9:30,UTS-WPA,-89,0,0,0;9c:1c:12:86:5c:90,UTS-WPA,-86,0,0,0;d8:c7:c8:4f:cb:90,TAFENSW,-70,0,0,0;d8:c7:c8:4c:f0:70,TAFENSW,-77,0,0,0;d8:c7:c8:4f:b6:b1,TAFE-Events,-84,0,0,0;d8:c7:c8:4c:f0:71,TAFE-Events,-79,0,0,0;6c:f3:7f:a1:4a:f0,TAFENSW,-76,0,0,0;d8:c7:c8:4f:b6:b0,TAFENSW,-83,0,0,0;6c:f3:7f:a1:4a:f1,TAFE-Events,-76,0,0,0;d8:c7:c8:4f:cb:91,TAFE-Events,-70,0,0,0;d8:c7:c8:4c:fb:91,TAFE-Events,-85,0,0,0;d8:c7:c8:4c:fa:70,TAFENSW,-76,0,0,0;d8:c7:c8:4c:fb:50,TAFENSW,-89,0,0,0;d8:c7:c8:4c:fa:71,TAFE-Events,-75,0,0,0;6c:f3:7f:a1:42:71,TAFE-Events,-91,0,0,0;d8:c7:c8:4c:fb:51,TAFE-Events,-89,0,0,0;9c:1c:12:8f:b9:32,UTS-Duress,-90,0,0,0;9c:1c:12:8f:b9:31,eduroam,-89,0,0,0;d8:c7:c8:4f:cc:50,TAFENSW,-71,0,0,0;d8:c7:c8:4f:cb:80,TAFENSW,-71,0,0,0;9c:1c:12:8f:b7:90,UTS-WPA,-84,0,0,0;d8:c7:c8:4c:fb:90,TAFENSW,-85,0,0,0;d8:c7:c8:4c:fa:90,TAFENSW,-87,0,0,0;d8:c7:c8:4f:cc:51,TAFE-Events,-71,0,0,0;d8:c7:c8:4f:cb:81,TAFE-Events,-70,0,0,0;d8:c7:c8:4c:fa:91,TAFE-Events,-87,0,0,0;6c:f3:7f:a1:4a:e0,TAFENSW,-74,0,0,0;9c:1c:12:8f:b7:92,UTS-Duress,-84,0,0,0;c4:71:54:46:8f:a0,WiFi-8F9E-5G,-83,0,0,0;9c:1c:12:8f:b6:d1,eduroam,-90,0,0,0;9c:1c:12:8f:b6:d0,UTS-WPA,-90,0,0,0;9c:1c:12:86:5c:92,UTS-Duress,-86,0,0,0;9c:1c:12:86:5c:91,eduroam,-85,0,0,0;9c:1c:12:8f:b6:d2,UTS-Duress,-90,0,0,0;d8:c7:c8:4c:fa:50,TAFENSW,-91,0,0,0;d8:c7:c8:4c:fa:51,TAFE-Events,-90,0,0,0;d8:c7:c8:4f:cc:40,TAFENSW,-68,0,0,0;d8:c7:c8:4c:fa:60,TAFENSW,-74,0,0,0;d8:c7:c8:4c:ee:20,TAFENSW,-74,0,0,0;d8:c7:c8:4c:fb:80,TAFENSW,-75,0,0,0;6c:f3:7f:a1:46:50,TAFENSW,-83,0,0,0;d8:c7:c8:4c:f9:70,TAFENSW,-84,0,0,0;d8:c7:c8:4c:ee:30,TAFENSW,-89,0,0,0;70:3a:0e:43:3e:73,ISF-Guest,-89,0,0,0;70:3a:0e:43:3e:71,UTS-WPA,-89,0,0,0;84:d4:7e:f9:d1:93,ISF-Guest,-89,0,0,0;84:d4:7e:f9:d1:90,eduroam,-89,0,0,0;70:3a:0e:43:3e:70,eduroam,-90,0,0,0;18:64:72:30:16:f0,eduroam,-91,0,0,0;d8:c7:c8:4f:95:30,TAFENSW,-92,0,0,0;18:64:72:30:16:f1,UTS-WPA,-92,0,0,0;d8:c7:c8:4f:cc:41,TAFE-Events,-71,0,0,0;d8:c7:c8:4c:fa:61,TAFE-Events,-75,0,0,0;d8:c7:c8:4c:ee:21,TAFE-Events,-76,0,0,0;6c:f3:7f:a1:4a:e1,TAFE-Events,-77,0,0,0;6c:f3:7f:a1:46:51,TAFE-Events,-83,0,0,0;d8:c7:c8:4c:f9:71,TAFE-Events,-88,0,0,0;d8:c7:c8:4c:ee:31,TAFE-Events,-89,0,0,0;d8:c7:c8:4f:95:31,TAFE-Events,-93,0,0,0;

Scan5;9c:1c:12:8f:b9:30,UTS-WPA,-89,0,0,0;9c:1c:12:86:5c:90,UTS-WPA,-86,0,0,0;d8:c7:c8:4f:cb:90,TAFENSW,-70,0,0,0;d8:c7:c8:4c:f0:70,TAFENSW,-77,0,0,0;d8:c7:c8:4f:b6:b1,TAFE-Events,-84,0,0,0;d8:c7:c8:4c:f0:71,TAFE-Events,-79,0,0,0;6c:f3:7f:a1:4a:f0,TAFENSW,-76,0,0,0;d8:c7:c8:4f:b6:b0,TAFENSW,-83,0,0,0;6c:f3:7f:a1:4a:f1,TAFE-Events,-76,0,0,0;d8:c7:c8:4f:cb:91,TAFE-Events,-70,0,0,0;d8:c7:c8:4c:fb:91,TAFE-Events,-85,0,0,0;d8:c7:c8:4c:fa:70,TAFENSW,-76,0,0,0;d8:c7:c8:4c:fb:50,TAFENSW,-89,0,0,0;d8:c7:c8:4c:fa:71,TAFE-Events,-75,0,0,0;6c:f3:7f:a1:42:71,TAFE-Events,-91,0,0,0;d8:c7:c8:4c:fb:51,TAFE-Events,-89,0,0,0;9c:1c:12:8f:b9:32,UTS-Duress,-90,0,0,0;9c:1c:12:8f:b9:31,eduroam,-89,0,0,0;d8:c7:c8:4f:cc:50,TAFENSW,-71,0,0,0;d8:c7:c8:4f:cb:80,TAFENSW,-71,0,0,0;9c:1c:12:8f:b7:90,UTS-WPA,-84,0,0,0;d8:c7:c8:4c:fb:90,TAFENSW,-85,0,0,0;d8:c7:c8:4c:fa:90,TAFENSW,-87,0,0,0;d8:c7:c8:4f:cc:51,TAFE-Events,-71,0,0,0;d8:c7:c8:4f:cb:81,TAFE-Events,-70,0,0,0;d8:c7:c8:4c:fa:91,TAFE-Events,-87,0,0,0;6c:f3:7f:a1:4a:e0,TAFENSW,-74,0,0,0;9c:1c:12:8f:b7:92,UTS-Duress,-84,0,0,0;c4:71:54:46:8f:a0,WiFi-8F9E-5G,-83,0,0,0;9c:1c:12:8f:b6:d1,eduroam,-90,0,0,0;9c:1c:12:8f:b6:d0,UTS-WPA,-90,0,0,0;9c:1c:12:86:5c:92,UTS-Duress,-86,0,0,0;9c:1c:12:86:5c:91,eduroam,-85,0,0,0;9c:1c:12:8f:b6:d2,UTS-Duress,-90,0,0,0;d8:c7:c8:4c:fa:50,TAFENSW,-91,0,0,0;d8:c7:c8:4c:fa:51,TAFE-Events,-90,0,0,0;d8:c7:c8:4f:cc:40,TAFENSW,-68,0,0,0;d8:c7:c8:4c:fa:60,TAFENSW,-74,0,0,0;d8:c7:c8:4c:ee:20,TAFENSW,-74,0,0,0;d8:c7:c8:4c:fb:80,TAFENSW,-75,0,0,0;6c:f3:7f:a1:46:50,TAFENSW,-83,0,0,0;d8:c7:c8:4c:f9:70,TAFENSW,-84,0,0,0;d8:c7:c8:4c:ee:30,TAFENSW,-89,0,0,0;70:3a:0e:43:3e:73,ISF-Guest,-89,0,0,0;70:3a:0e:43:3e:71,UTS-WPA,-89,0,0,0;84:d4:7e:f9:d1:93,ISF-Guest,-89,0,0,0;84:d4:7e:f9:d1:90,eduroam,-89,0,0,0;70:3a:0e:43:3e:70,eduroam,-90,0,0,0;18:64:72:30:16:f0,eduroam,-91,0,0,0;d8:c7:c8:4f:95:30,TAFENSW,-92,0,0,0;18:64:72:30:16:f1,UTS-WPA,-92,0,0,0;d8:c7:c8:4f:cc:41,TAFE-Events,-71,0,0,0;d8:c7:c8:4c:fa:61,TAFE-Events,-75,0,0,0;d8:c7:c8:4c:ee:21,TAFE-Events,-76,0,0,0;6c:f3:7f:a1:4a:e1,TAFE-Events,-77,0,0,0;6c:f3:7f:a1:46:51,TAFE-Events,-83,0,0,0;d8:c7:c8:4c:f9:71,TAFE-Events,-88,0,0,0;d8:c7:c8:4c:ee:31,TAFE-Events,-89,0,0,0;d8:c7:c8:4f:95:31,TAFE-Events,-93,0,0,0;

Scan6;9c:1c:12:8f:b9:30,UTS-WPA,-89,0,0,0;9c:1c:12:86:5c:90,UTS-WPA,-86,0,0,0;d8:c7:c8:4f:cb:90,TAFENSW,-70,0,0,0;d8:c7:c8:4c:f0:70,TAFENSW,-77,0,0,0;d8:c7:c8:4f:b6:b1,TAFE-Events,-84,0,0,0;d8:c7:c8:4c:f0:71,TAFE-Events,-79,0,0,0;6c:f3:7f:a1:4a:f0,TAFENSW,-76,0,0,0;d8:c7:c8:4f:b6:b0,TAFENSW,-83,0,0,0;6c:f3:7f:a1:4a:f1,TAFE-Events,-76,0,0,0;d8:c7:c8:4f:cb:91,TAFE-Events,-70,0,0,0;d8:c7:c8:4c:fb:91,TAFE-Events,-85,0,0,0;d8:c7:c8:4c:fa:70,TAFENSW,-76,0,0,0;d8:c7:c8:4c:fb:50,TAFENSW,-89,0,0,0;d8:c7:c8:4c:fa:71,TAFE-Events,-75,0,0,0;6c:f3:7f:a1:42:71,TAFE-Events,-91,0,0,0;d8:c7:c8:4c:fb:51,TAFE-Events,-89,0,0,0;9c:1c:12:8f:b9:32,UTS-Duress,-90,0,0,0;9c:1c:12:8f:b9:31,eduroam,-89,0,0,0;d8:c7:c8:4f:cc:50,TAFENSW,-71,0,0,0;d8:c7:c8:4f:cb:80,TAFENSW,-71,0,0,0;9c:1c:12:8f:b7:90,UTS-WPA,-84,0,0,0;d8:c7:c8:4c:fb:90,TAFENSW,-85,0,0,0;d8:c7:c8:4c:fa:90,TAFENSW,-87,0,0,0;d8:c7:c8:4f:cc:51,TAFE-Events,-71,0,0,0;d8:c7:c8:4f:cb:81,TAFE-Events,-70,0,0,0;d8:c7:c8:4c:fa:91,TAFE-Events,-87,0,0,0;6c:f3:7f:a1:4a:e0,TAFENSW,-74,0,0,0;9c:1c:12:8f:b7:92,UTS-Duress,-84,0,0,0;c4:71:54:46:8f:a0,WiFi-8F9E-5G,-83,0,0,0;9c:1c:12:8f:b6:d1,eduroam,-90,0,0,0;9c:1c:12:8f:b6:d0,UTS-WPA,-90,0,0,0;9c:1c:12:86:5c:92,UTS-Duress,-86,0,0,0;9c:1c:12:86:5c:91,eduroam,-85,0,0,0;9c:1c:12:8f:b6:d2,UTS-Duress,-90,0,0,0;d8:c7:c8:4c:fa:50,TAFENSW,-91,0,0,0;d8:c7:c8:4c:fa:51,TAFE-Events,-90,0,0,0;d8:c7:c8:4f:cc:40,TAFENSW,-68,0,0,0;d8:c7:c8:4c:fa:60,TAFENSW,-74,0,0,0;d8:c7:c8:4c:ee:20,TAFENSW,-74,0,0,0;d8:c7:c8:4c:fb:80,TAFENSW,-75,0,0,0;6c:f3:7f:a1:46:50,TAFENSW,-83,0,0,0;d8:c7:c8:4c:f9:70,TAFENSW,-84,0,0,0;d8:c7:c8:4c:ee:30,TAFENSW,-89,0,0,0;70:3a:0e:43:3e:73,ISF-Guest,-89,0,0,0;70:3a:0e:43:3e:71,UTS-WPA,-89,0,0,0;84:d4:7e:f9:d1:93,ISF-Guest,-89,0,0,0;84:d4:7e:f9:d1:90,eduroam,-89,0,0,0;70:3a:0e:43:3e:70,eduroam,-90,0,0,0;18:64:72:30:16:f0,eduroam,-91,0,0,0;d8:c7:c8:4f:95:30,TAFENSW,-92,0,0,0;18:64:72:30:16:f1,UTS-WPA,-92,0,0,0;d8:c7:c8:4f:cc:41,TAFE-Events,-71,0,0,0;d8:c7:c8:4c:fa:61,TAFE-Events,-75,0,0,0;d8:c7:c8:4c:ee:21,TAFE-Events,-76,0,0,0;6c:f3:7f:a1:4a:e1,TAFE-Events,-77,0,0,0;6c:f3:7f:a1:46:51,TAFE-Events,-83,0,0,0;d8:c7:c8:4c:f9:71,TAFE-Events,-88,0,0,0;d8:c7:c8:4c:ee:31,TAFE-Events,-89,0,0,0;d8:c7:c8:4f:95:31,TAFE-Events,-93,0,0,0;

Scan7;9c:1c:12:8f:b9:30,UTS-WPA,-89,0,0,0;9c:1c:12:86:5c:90,UTS-WPA,-86,0,0,0;d8:c7:c8:4f:cb:90,TAFENSW,-70,0,0,0;d8:c7:c8:4c:f0:70,TAFENSW,-77,0,0,0;d8:c7:c8:4f:b6:b1,TAFE-Events,-84,0,0,0;d8:c7:c8:4c:f0:71,TAFE-Events,-79,0,0,0;6c:f3:7f:a1:4a:f0,TAFENSW,-76,0,0,0;d8:c7:c8:4f:b6:b0,TAFENSW,-83,0,0,0;6c:f3:7f:a1:4a:f1,TAFE-Events,-76,0,0,0;d8:c7:c8:4f:cb:91,TAFE-Events,-70,0,0,0;d8:c7:c8:4c:fb:91,TAFE-Events,-85,0,0,0;d8:c7:c8:4c:fa:70,TAFENSW,-76,0,0,0;d8:c7:c8:4c:fb:50,TAFENSW,-89,0,0,0;d8:c7:c8:4c:fa:71,TAFE-Events,-75,0,0,0;6c:f3:7f:a1:42:71,TAFE-Events,-91,0,0,0;d8:c7:c8:4c:fb:51,TAFE-Events,-89,0,0,0;9c:1c:12:8f:b9:32,UTS-Duress,-90,0,0,0;9c:1c:12:8f:b9:31,eduroam,-89,0,0,0;d8:c7:c8:4f:cc:50,TAFENSW,-71,0,0,0;d8:c7:c8:4f:cb:80,TAFENSW,-71,0,0,0;9c:1c:12:8f:b7:90,UTS-WPA,-84,0,0,0;d8:c7:c8:4c:fb:90,TAFENSW,-85,0,0,0;d8:c7:c8:4c:fa:90,TAFENSW,-87,0,0,0;d8:c7:c8:4f:cc:51,TAFE-Events,-71,0,0,0;d8:c7:c8:4f:cb:81,TAFE-Events,-70,0,0,0;d8:c7:c8:4c:fa:91,TAFE-Events,-87,0,0,0;6c:f3:7f:a1:4a:e0,TAFENSW,-74,0,0,0;9c:1c:12:8f:b7:92,UTS-Duress,-84,0,0,0;c4:71:54:46:8f:a0,WiFi-8F9E-5G,-83,0,0,0;9c:1c:12:8f:b6:d1,eduroam,-90,0,0,0;9c:1c:12:8f:b6:d0,UTS-WPA,-90,0,0,0;9c:1c:12:86:5c:92,UTS-Duress,-86,0,0,0;9c:1c:12:86:5c:91,eduroam,-85,0,0,0;9c:1c:12:8f:b6:d2,UTS-Duress,-90,0,0,0;d8:c7:c8:4c:fa:50,TAFENSW,-91,0,0,0;d8:c7:c8:4c:fa:51,TAFE-Events,-90,0,0,0;d8:c7:c8:4f:cc:40,TAFENSW,-68,0,0,0;d8:c7:c8:4c:fa:60,TAFENSW,-74,0,0,0;d8:c7:c8:4c:ee:20,TAFENSW,-74,0,0,0;d8:c7:c8:4c:fb:80,TAFENSW,-75,0,0,0;6c:f3:7f:a1:46:50,TAFENSW,-83,0,0,0;d8:c7:c8:4c:f9:70,TAFENSW,-84,0,0,0;d8:c7:c8:4c:ee:30,TAFENSW,-89,0,0,0;70:3a:0e:43:3e:73,ISF-Guest,-89,0,0,0;70:3a:0e:43:3e:71,UTS-WPA,-89,0,0,0;84:d4:7e:f9:d1:93,ISF-Guest,-89,0,0,0;84:d4:7e:f9:d1:90,eduroam,-89,0,0,0;70:3a:0e:43:3e:70,eduroam,-90,0,0,0;18:64:72:30:16:f0,eduroam,-91,0,0,0;d8:c7:c8:4f:95:30,TAFENSW,-92,0,0,0;18:64:72:30:16:f1,UTS-WPA,-92,0,0,0;d8:c7:c8:4f:cc:41,TAFE-Events,-71,0,0,0;d8:c7:c8:4c:fa:61,TAFE-Events,-75,0,0,0;d8:c7:c8:4c:ee:21,TAFE-Events,-76,0,0,0;6c:f3:7f:a1:4a:e1,TAFE-Events,-77,0,0,0;6c:f3:7f:a1:46:51,TAFE-Events,-83,0,0,0;d8:c7:c8:4c:f9:71,TAFE-Events,-88,0,0,0;d8:c7:c8:4c:ee:31,TAFE-Events,-89,0,0,0;d8:c7:c8:4f:95:31,TAFE-Events,-93,0,0,0;

Scan8;9c:1c:12:8f:b9:30,UTS-WPA,-89,0,0,0;9c:1c:12:86:5c:90,UTS-WPA,-86,0,0,0;d8:c7:c8:4f:cb:90,TAFENSW,-70,0,0,0;d8:c7:c8:4c:f0:70,TAFENSW,-77,0,0,0;d8:c7:c8:4f:b6:b1,TAFE-Events,-84,0,0,0;d8:c7:c8:4c:f0:71,TAFE-Events,-79,0,0,0;6c:f3:7f:a1:4a:f0,TAFENSW,-76,0,0,0;d8:c7:c8:4f:b6:b0,TAFENSW,-83,0,0,0;6c:f3:7f:a1:4a:f1,TAFE-Events,-76,0,0,0;d8:c7:c8:4f:cb:91,TAFE-Events,-70,0,0,0;d8:c7:c8:4c:fb:91,TAFE-Events,-85,0,0,0;d8:c7:c8:4c:fa:70,TAFENSW,-76,0,0,0;d8:c7:c8:4c:fb:50,TAFENSW,-89,0,0,0;d8:c7:c8:4c:fa:71,TAFE-Events,-75,0,0,0;6c:f3:7f:a1:42:71,TAFE-Events,-91,0,0,0;d8:c7:c8:4c:fb:51,TAFE-Events,-89,0,0,0;9c:1c:12:8f:b9:32,UTS-Duress,-90,0,0,0;9c:1c:12:8f:b9:31,eduroam,-89,0,0,0;d8:c7:c8:4f:cc:50,TAFENSW,-71,0,0,0;d8:c7:c8:4f:cb:80,TAFENSW,-71,0,0,0;9c:1c:12:8f:b7:90,UTS-WPA,-84,0,0,0;d8:c7:c8:4c:fb:90,TAFENSW,-85,0,0,0;d8:c7:c8:4c:fa:90,TAFENSW,-87,0,0,0;d8:c7:c8:4f:cc:51,TAFE-Events,-71,0,0,0;d8:c7:c8:4f:cb:81,TAFE-Events,-70,0,0,0;d8:c7:c8:4c:fa:91,TAFE-Events,-87,0,0,0;6c:f3:7f:a1:4a:e0,TAFENSW,-74,0,0,0;9c:1c:12:8f:b7:92,UTS-Duress,-84,0,0,0;c4:71:54:46:8f:a0,WiFi-8F9E-5G,-83,0,0,0;9c:1c:12:8f:b6:d1,eduroam,-90,0,0,0;9c:1c:12:8f:b6:d0,UTS-WPA,-90,0,0,0;9c:1c:12:86:5c:92,UTS-Duress,-86,0,0,0;9c:1c:12:86:5c:91,eduroam,-85,0,0,0;9c:1c:12:8f:b6:d2,UTS-Duress,-90,0,0,0;d8:c7:c8:4c:fa:50,TAFENSW,-91,0,0,0;d8:c7:c8:4c:fa:51,TAFE-Events,-90,0,0,0;d8:c7:c8:4f:cc:40,TAFENSW,-68,0,0,0;d8:c7:c8:4c:fa:60,TAFENSW,-74,0,0,0;d8:c7:c8:4c:ee:20,TAFENSW,-74,0,0,0;d8:c7:c8:4c:fb:80,TAFENSW,-75,0,0,0;6c:f3:7f:a1:46:50,TAFENSW,-83,0,0,0;d8:c7:c8:4c:f9:70,TAFENSW,-84,0,0,0;d8:c7:c8:4c:ee:30,TAFENSW,-89,0,0,0;70:3a:0e:43:3e:73,ISF-Guest,-89,0,0,0;70:3a:0e:43:3e:71,UTS-WPA,-89,0,0,0;84:d4:7e:f9:d1:93,ISF-Guest,-89,0,0,0;84:d4:7e:f9:d1:90,eduroam,-89,0,0,0;70:3a:0e:43:3e:70,eduroam,-90,0,0,0;18:64:72:30:16:f0,eduroam,-91,0,0,0;d8:c7:c8:4f:95:30,TAFENSW,-92,0,0,0;18:64:72:30:16:f1,UTS-WPA,-92,0,0,0;d8:c7:c8:4f:cc:41,TAFE-Events,-71,0,0,0;d8:c7:c8:4c:fa:61,TAFE-Events,-75,0,0,0;d8:c7:c8:4c:ee:21,TAFE-Events,-76,0,0,0;6c:f3:7f:a1:4a:e1,TAFE-Events,-77,0,0,0;6c:f3:7f:a1:46:51,TAFE-Events,-83,0,0,0;d8:c7:c8:4c:f9:71,TAFE-Events,-88,0,0,0;d8:c7:c8:4c:ee:31,TAFE-Events,-89,0,0,0;d8:c7:c8:4f:95:31,TAFE-Events,-93,0,0,0;

Scan9;9c:1c:12:8f:b9:30,UTS-WPA,-89,0,0,0;9c:1c:12:86:5c:90,UTS-WPA,-86,0,0,0;d8:c7:c8:4f:cb:90,TAFENSW,-70,0,0,0;d8:c7:c8:4c:f0:70,TAFENSW,-77,0,0,0;d8:c7:c8:4f:b6:b1,TAFE-Events,-84,0,0,0;d8:c7:c8:4c:f0:71,TAFE-Events,-79,0,0,0;6c:f3:7f:a1:4a:f0,TAFENSW,-76,0,0,0;d8:c7:c8:4f:b6:b0,TAFENSW,-83,0,0,0;6c:f3:7f:a1:4a:f1,TAFE-Events,-76,0,0,0;d8:c7:c8:4f:cb:91,TAFE-Events,-70,0,0,0;d8:c7:c8:4c:fb:91,TAFE-Events,-85,0,0,0;d8:c7:c8:4c:fa:70,TAFENSW,-76,0,0,0;d8:c7:c8:4c:fb:50,TAFENSW,-89,0,0,0;d8:c7:c8:4c:fa:71,TAFE-Events,-75,0,0,0;6c:f3:7f:a1:42:71,TAFE-Events,-91,0,0,0;d8:c7:c8:4c:fb:51,TAFE-Events,-89,0,0,0;9c:1c:12:8f:b9:32,UTS-Duress,-90,0,0,0;9c:1c:12:8f:b9:31,eduroam,-89,0,0,0;d8:c7:c8:4f:cc:50,TAFENSW,-71,0,0,0;d8:c7:c8:4f:cb:80,TAFENSW,-71,0,0,0;9c:1c:12:8f:b7:90,UTS-WPA,-84,0,0,0;d8:c7:c8:4c:fb:90,TAFENSW,-85,0,0,0;d8:c7:c8:4c:fa:90,TAFENSW,-87,0,0,0;d8:c7:c8:4f:cc:51,TAFE-Events,-71,0,0,0;d8:c7:c8:4f:cb:81,TAFE-Events,-70,0,0,0;d8:c7:c8:4c:fa:91,TAFE-Events,-87,0,0,0;6c:f3:7f:a1:4a:e0,TAFENSW,-74,0,0,0;9c:1c:12:8f:b7:92,UTS-Duress,-84,0,0,0;c4:71:54:46:8f:a0,WiFi-8F9E-5G,-83,0,0,0;9c:1c:12:8f:b6:d1,eduroam,-90,0,0,0;9c:1c:12:8f:b6:d0,UTS-WPA,-90,0,0,0;9c:1c:12:86:5c:92,UTS-Duress,-86,0,0,0;9c:1c:12:86:5c:91,eduroam,-85,0,0,0;9c:1c:12:8f:b6:d2,UTS-Duress,-90,0,0,0;d8:c7:c8:4c:fa:50,TAFENSW,-91,0,0,0;d8:c7:c8:4c:fa:51,TAFE-Events,-90,0,0,0;d8:c7:c8:4f:cc:40,TAFENSW,-68,0,0,0;d8:c7:c8:4c:fa:60,TAFENSW,-74,0,0,0;d8:c7:c8:4c:ee:20,TAFENSW,-74,0,0,0;d8:c7:c8:4c:fb:80,TAFENSW,-75,0,0,0;6c:f3:7f:a1:46:50,TAFENSW,-83,0,0,0;d8:c7:c8:4c:f9:70,TAFENSW,-84,0,0,0;d8:c7:c8:4c:ee:30,TAFENSW,-89,0,0,0;70:3a:0e:43:3e:73,ISF-Guest,-89,0,0,0;70:3a:0e:43:3e:71,UTS-WPA,-89,0,0,0;84:d4:7e:f9:d1:93,ISF-Guest,-89,0,0,0;84:d4:7e:f9:d1:90,eduroam,-89,0,0,0;70:3a:0e:43:3e:70,eduroam,-90,0,0,0;18:64:72:30:16:f0,eduroam,-91,0,0,0;d8:c7:c8:4f:95:30,TAFENSW,-92,0,0,0;18:64:72:30:16:f1,UTS-WPA,-92,0,0,0;d8:c7:c8:4f:cc:41,TAFE-Events,-71,0,0,0;d8:c7:c8:4c:fa:61,TAFE-Events,-75,0,0,0;d8:c7:c8:4c:ee:21,TAFE-Events,-76,0,0,0;6c:f3:7f:a1:4a:e1,TAFE-Events,-77,0,0,0;6c:f3:7f:a1:46:51,TAFE-Events,-83,0,0,0;d8:c7:c8:4c:f9:71,TAFE-Events,-88,0,0,0;d8:c7:c8:4c:ee:31,TAFE-Events,-89,0,0,0;d8:c7:c8:4f:95:31,TAFE-Events,-93,0,0,0;

Scan10;9c:1c:12:8f:b9:30,UTS-WPA,-89,0,0,0;9c:1c:12:86:5c:90,UTS-WPA,-86,0,0,0;d8:c7:c8:4f:cb:90,TAFENSW,-70,0,0,0;d8:c7:c8:4c:f0:70,TAFENSW,-77,0,0,0;d8:c7:c8:4f:b6:b1,TAFE-Events,-84,0,0,0;d8:c7:c8:4c:f0:71,TAFE-Events,-79,0,0,0;6c:f3:7f:a1:4a:f0,TAFENSW,-76,0,0,0;d8:c7:c8:4f:b6:b0,TAFENSW,-83,0,0,0;6c:f3:7f:a1:4a:f1,TAFE-Events,-76,0,0,0;d8:c7:c8:4f:cb:91,TAFE-Events,-70,0,0,0;d8:c7:c8:4c:fb:91,TAFE-Events,-85,0,0,0;d8:c7:c8:4c:fa:70,TAFENSW,-76,0,0,0;d8:c7:c8:4c:fb:50,TAFENSW,-89,0,0,0;d8:c7:c8:4c:fa:71,TAFE-Events,-75,0,0,0;6c:f3:7f:a1:42:71,TAFE-Events,-91,0,0,0;d8:c7:c8:4c:fb:51,TAFE-Events,-89,0,0,0;9c:1c:12:8f:b9:32,UTS-Duress,-90,0,0,0;9c:1c:12:8f:b9:31,eduroam,-89,0,0,0;d8:c7:c8:4f:cc:50,TAFENSW,-71,0,0,0;d8:c7:c8:4f:cb:80,TAFENSW,-71,0,0,0;9c:1c:12:8f:b7:90,UTS-WPA,-84,0,0,0;d8:c7:c8:4c:fb:90,TAFENSW,-85,0,0,0;d8:c7:c8:4c:fa:90,TAFENSW,-87,0,0,0;d8:c7:c8:4f:cc:51,TAFE-Events,-71,0,0,0;d8:c7:c8:4f:cb:81,TAFE-Events,-70,0,0,0;d8:c7:c8:4c:fa:91,TAFE-Events,-87,0,0,0;6c:f3:7f:a1:4a:e0,TAFENSW,-74,0,0,0;9c:1c:12:8f:b7:92,UTS-Duress,-84,0,0,0;c4:71:54:46:8f:a0,WiFi-8F9E-5G,-83,0,0,0;9c:1c:12:8f:b6:d1,eduroam,-90,0,0,0;9c:1c:12:8f:b6:d0,UTS-WPA,-90,0,0,0;9c:1c:12:86:5c:92,UTS-Duress,-86,0,0,0;9c:1c:12:86:5c:91,eduroam,-85,0,0,0;9c:1c:12:8f:b6:d2,UTS-Duress,-90,0,0,0;d8:c7:c8:4c:fa:50,TAFENSW,-91,0,0,0;d8:c7:c8:4c:fa:51,TAFE-Events,-90,0,0,0;d8:c7:c8:4f:cc:40,TAFENSW,-68,0,0,0;d8:c7:c8:4c:fa:60,TAFENSW,-74,0,0,0;d8:c7:c8:4c:ee:20,TAFENSW,-74,0,0,0;d8:c7:c8:4c:fb:80,TAFENSW,-75,0,0,0;6c:f3:7f:a1:46:50,TAFENSW,-83,0,0,0;d8:c7:c8:4c:f9:70,TAFENSW,-84,0,0,0;d8:c7:c8:4c:ee:30,TAFENSW,-89,0,0,0;70:3a:0e:43:3e:73,ISF-Guest,-89,0,0,0;70:3a:0e:43:3e:71,UTS-WPA,-89,0,0,0;84:d4:7e:f9:d1:93,ISF-Guest,-89,0,0,0;84:d4:7e:f9:d1:90,eduroam,-89,0,0,0;70:3a:0e:43:3e:70,eduroam,-90,0,0,0;18:64:72:30:16:f0,eduroam,-91,0,0,0;d8:c7:c8:4f:95:30,TAFENSW,-92,0,0,0;18:64:72:30:16:f1,UTS-WPA,-92,0,0,0;d8:c7:c8:4f:cc:41,TAFE-Events,-71,0,0,0;d8:c7:c8:4c:fa:61,TAFE-Events,-75,0,0,0;d8:c7:c8:4c:ee:21,TAFE-Events,-76,0,0,0;6c:f3:7f:a1:4a:e1,TAFE-Events,-77,0,0,0;6c:f3:7f:a1:46:51,TAFE-Events,-83,0,0,0;d8:c7:c8:4c:f9:71,TAFE-Events,-88,0,0,0;d8:c7:c8:4c:ee:31,TAFE-Events,-89,0,0,0;d8:c7:c8:4f:95:31,TAFE-Events,-93,0,0,0;

Scan11;9c:1c:12:8f:b9:30,UTS-WPA,-89,0,0,0;9c:1c:12:86:5c:90,UTS-WPA,-86,0,0,0;d8:c7:c8:4f:cb:90,TAFENSW,-70,0,0,0;d8:c7:c8:4c:f0:70,TAFENSW,-77,0,0,0;d8:c7:c8:4f:b6:b1,TAFE-Events,-84,0,0,0;d8:c7:c8:4c:f0:71,TAFE-Events,-79,0,0,0;6c:f3:7f:a1:4a:f0,TAFENSW,-76,0,0,0;d8:c7:c8:4f:b6:b0,TAFENSW,-83,0,0,0;6c:f3:7f:a1:4a:f1,TAFE-Events,-76,0,0,0;d8:c7:c8:4f:cb:91,TAFE-Events,-70,0,0,0;d8:c7:c8:4c:fb:91,TAFE-Events,-85,0,0,0;d8:c7:c8:4c:fa:70,TAFENSW,-76,0,0,0;d8:c7:c8:4c:fb:50,TAFENSW,-89,0,0,0;d8:c7:c8:4c:fa:71,TAFE-Events,-75,0,0,0;6c:f3:7f:a1:42:71,TAFE-Events,-91,0,0,0;d8:c7:c8:4c:fb:51,TAFE-Events,-89,0,0,0;9c:1c:12:8f:b9:32,UTS-Duress,-90,0,0,0;9c:1c:12:8f:b9:31,eduroam,-89,0,0,0;d8:c7:c8:4f:cc:50,TAFENSW,-71,0,0,0;d8:c7:c8:4f:cb:80,TAFENSW,-71,0,0,0;9c:1c:12:8f:b7:90,UTS-WPA,-84,0,0,0;d8:c7:c8:4c:fb:90,TAFENSW,-85,0,0,0;d8:c7:c8:4c:fa:90,TAFENSW,-87,0,0,0;d8:c7:c8:4f:cc:51,TAFE-Events,-71,0,0,0;d8:c7:c8:4f:cb:81,TAFE-Events,-70,0,0,0;d8:c7:c8:4c:fa:91,TAFE-Events,-87,0,0,0;6c:f3:7f:a1:4a:e0,TAFENSW,-74,0,0,0;9c:1c:12:8f:b7:92,UTS-Duress,-84,0,0,0;c4:71:54:46:8f:a0,WiFi-8F9E-5G,-83,0,0,0;9c:1c:12:8f:b6:d1,eduroam,-90,0,0,0;9c:1c:12:8f:b6:d0,UTS-WPA,-90,0,0,0;9c:1c:12:86:5c:92,UTS-Duress,-86,0,0,0;9c:1c:12:86:5c:91,eduroam,-85,0,0,0;9c:1c:12:8f:b6:d2,UTS-Duress,-90,0,0,0;d8:c7:c8:4c:fa:50,TAFENSW,-91,0,0,0;d8:c7:c8:4c:fa:51,TAFE-Events,-90,0,0,0;d8:c7:c8:4f:cc:40,TAFENSW,-68,0,0,0;d8:c7:c8:4c:fa:60,TAFENSW,-74,0,0,0;d8:c7:c8:4c:ee:20,TAFENSW,-74,0,0,0;d8:c7:c8:4c:fb:80,TAFENSW,-75,0,0,0;6c:f3:7f:a1:46:50,TAFENSW,-83,0,0,0;d8:c7:c8:4c:f9:70,TAFENSW,-84,0,0,0;d8:c7:c8:4c:ee:30,TAFENSW,-89,0,0,0;70:3a:0e:43:3e:73,ISF-Guest,-89,0,0,0;70:3a:0e:43:3e:71,UTS-WPA,-89,0,0,0;84:d4:7e:f9:d1:93,ISF-Guest,-89,0,0,0;84:d4:7e:f9:d1:90,eduroam,-89,0,0,0;70:3a:0e:43:3e:70,eduroam,-90,0,0,0;18:64:72:30:16:f0,eduroam,-91,0,0,0;d8:c7:c8:4f:95:30,TAFENSW,-92,0,0,0;18:64:72:30:16:f1,UTS-WPA,-92,0,0,0;d8:c7:c8:4f:cc:41,TAFE-Events,-71,0,0,0;d8:c7:c8:4c:fa:61,TAFE-Events,-75,0,0,0;d8:c7:c8:4c:ee:21,TAFE-Events,-76,0,0,0;6c:f3:7f:a1:4a:e1,TAFE-Events,-77,0,0,0;6c:f3:7f:a1:46:51,TAFE-Events,-83,0,0,0;d8:c7:c8:4c:f9:71,TAFE-Events,-88,0,0,0;d8:c7:c8:4c:ee:31,TAFE-Events,-89,0,0,0;d8:c7:c8:4f:95:31,TAFE-Events,-93,0,0,0;

Scan12;9c:1c:12:8f:b9:30,UTS-WPA,-89,0,0,0;9c:1c:12:86:5c:90,UTS-WPA,-86,0,0,0;d8:c7:c8:4f:cb:90,TAFENSW,-70,0,0,0;d8:c7:c8:4c:f0:70,TAFENSW,-77,0,0,0;d8:c7:c8:4f:b6:b1,TAFE-Events,-84,0,0,0;d8:c7:c8:4c:f0:71,TAFE-Events,-79,0,0,0;6c:f3:7f:a1:4a:f0,TAFENSW,-76,0,0,0;d8:c7:c8:4f:b6:b0,TAFENSW,-83,0,0,0;6c:f3:7f:a1:4a:f1,TAFE-Events,-76,0,0,0;d8:c7:c8:4f:cb:91,TAFE-Events,-70,0,0,0;d8:c7:c8:4c:fb:91,TAFE-Events,-85,0,0,0;d8:c7:c8:4c:fa:70,TAFENSW,-76,0,0,0;d8:c7:c8:4c:fb:50,TAFENSW,-89,0,0,0;d8:c7:c8:4c:fa:71,TAFE-Events,-75,0,0,0;6c:f3:7f:a1:42:71,TAFE-Events,-91,0,0,0;d8:c7:c8:4c:fb:51,TAFE-Events,-89,0,0,0;9c:1c:12:8f:b9:32,UTS-Duress,-90,0,0,0;9c:1c:12:8f:b9:31,eduroam,-89,0,0,0;d8:c7:c8:4f:cc:50,TAFENSW,-71,0,0,0;d8:c7:c8:4f:cb:80,TAFENSW,-71,0,0,0;9c:1c:12:8f:b7:90,UTS-WPA,-84,0,0,0;d8:c7:c8:4c:fb:90,TAFENSW,-85,0,0,0;d8:c7:c8:4c:fa:90,TAFENSW,-87,0,0,0;d8:c7:c8:4f:cc:51,TAFE-Events,-71,0,0,0;d8:c7:c8:4f:cb:81,TAFE-Events,-70,0,0,0;d8:c7:c8:4c:fa:91,TAFE-Events,-87,0,0,0;6c:f3:7f:a1:4a:e0,TAFENSW,-74,0,0,0;9c:1c:12:8f:b7:92,UTS-Duress,-84,0,0,0;c4:71:54:46:8f:a0,WiFi-8F9E-5G,-83,0,0,0;9c:1c:12:8f:b6:d1,eduroam,-90,0,0,0;9c:1c:12:8f:b6:d0,UTS-WPA,-90,0,0,0;9c:1c:12:86:5c:92,UTS-Duress,-86,0,0,0;9c:1c:12:86:5c:91,eduroam,-85,0,0,0;9c:1c:12:8f:b6:d2,UTS-Duress,-90,0,0,0;d8:c7:c8:4c:fa:50,TAFENSW,-91,0,0,0;d8:c7:c8:4c:fa:51,TAFE-Events,-90,0,0,0;d8:c7:c8:4f:cc:40,TAFENSW,-68,0,0,0;d8:c7:c8:4c:fa:60,TAFENSW,-74,0,0,0;d8:c7:c8:4c:ee:20,TAFENSW,-74,0,0,0;d8:c7:c8:4c:fb:80,TAFENSW,-75,0,0,0;6c:f3:7f:a1:46:50,TAFENSW,-83,0,0,0;d8:c7:c8:4c:f9:70,TAFENSW,-84,0,0,0;d8:c7:c8:4c:ee:30,TAFENSW,-89,0,0,0;70:3a:0e:43:3e:73,ISF-Guest,-89,0,0,0;70:3a:0e:43:3e:71,UTS-WPA,-89,0,0,0;84:d4:7e:f9:d1:93,ISF-Guest,-89,0,0,0;84:d4:7e:f9:d1:90,eduroam,-89,0,0,0;70:3a:0e:43:3e:70,eduroam,-90,0,0,0;18:64:72:30:16:f0,eduroam,-91,0,0,0;d8:c7:c8:4f:95:30,TAFENSW,-92,0,0,0;18:64:72:30:16:f1,UTS-WPA,-92,0,0,0;d8:c7:c8:4f:cc:41,TAFE-Events,-71,0,0,0;d8:c7:c8:4c:fa:61,TAFE-Events,-75,0,0,0;d8:c7:c8:4c:ee:21,TAFE-Events,-76,0,0,0;6c:f3:7f:a1:4a:e1,TAFE-Events,-77,0,0,0;6c:f3:7f:a1:46:51,TAFE-Events,-83,0,0,0;d8:c7:c8:4c:f9:71,TAFE-Events,-88,0,0,0;d8:c7:c8:4c:ee:31,TAFE-Events,-89,0,0,0;d8:c7:c8:4f:95:31,TAFE-Events,-93,0,0,0;

