Scan1;00:02:6f:12:34:50,Telstra Air,-58,0,0,0;44:1e:98:15:8b:2c,INSEARCH Secure,-66,0,0,0;44:1e:98:55:8b:2c,eduroam,-66,0,0,0;00:02:6f:12:34:56,Telstra Air,-54,0,0,0;00:02:6f:12:34:56,,-55,0,0,0;10:13:31:e6:96:ad,TelstraE696AD,-73,0,0,0;12:13:31:e6:96:b5,TelstraE696AD,-84,0,0,0;44:1e:98:15:8b:28,INSEARCH Secure,-57,0,0,0;44:1e:98:55:8b:28,eduroam,-58,0,0,0;24:f2:7f:bc:9b:30,TAFENSW,-72,0,0,0;28:24:ff:94:bd:e1,ClickShare-A1.10,-79,0,0,0;24:f2:7f:bc:9b:31,TAFE-Events,-72,0,0,0;28:24:ff:8f:37:7e,ClickShare-A1.44,-84,0,0,0;12:13:31:e5:b2:91,TelstraE5B289,-85,0,0,0;24:f2:7f:bc:7a:90,TAFENSW,-81,0,0,0;c8:b5:ad:31:27:f1,TAFE-Events,-75,0,0,0;d8:c7:c8:4c:eb:50,TAFENSW,-71,0,0,0;ee:2d:b7:b6:05:64,peter’s iPhone,-72,0,0,0;c8:b5:ad:31:26:90,TAFENSW,-85,0,0,0;24:f2:7f:bc:7a:91,TAFE-Events,-81,0,0,0;c8:b5:ad:31:26:91,TAFE-Events,-85,0,0,0;c8:b5:ad:31:27:f0,TAFENSW,-75,0,0,0;d8:c7:c8:4c:eb:40,TAFENSW,-69,0,0,0;44:1e:98:54:e8:1c,eduroam,-77,0,0,0;44:1e:98:14:e8:1c,INSEARCH Secure,-77,0,0,0;28:24:ff:9b:18:f5,ClickShare-A1.7,-87,0,0,0;28:24:ff:94:bb:5f,ClickShare-A2.24,-88,0,0,0;d8:c7:c8:4c:eb:41,TAFE-Events,-70,0,0,0;12:13:31:e5:b2:8b,Telstra Air,-75,0,0,0;24:f2:7f:bc:7a:81,TAFE-Events,-72,0,0,0;c8:b5:ad:31:26:81,TAFE-Events,-77,0,0,0;e8:1d:a8:2d:ec:58,INSEARCH Secure,-74,0,0,0;c8:b5:ad:31:26:80,TAFENSW,-77,0,0,0;e8:1d:a8:6d:ec:5c,eduroam,-84,0,0,0;e8:1d:a8:2d:ec:5c,INSEARCH Secure,-84,0,0,0;44:1e:98:54:d2:1c,eduroam,-85,0,0,0;44:1e:98:14:d2:1c,INSEARCH Secure,-85,0,0,0;12:13:31:e6:c5:e7,TelstraE6C5DF,-88,0,0,0;c8:b5:ad:31:7f:f0,TAFENSW,-90,0,0,0;c8:b5:ad:31:6e:90,TAFENSW,-93,0,0,0;c8:b5:ad:31:7f:f1,TAFE-Events,-91,0,0,0;c8:b5:ad:31:6e:91,TAFE-Events,-91,0,0,0;

Scan2;00:02:6f:12:34:50,Telstra Air,-58,0,0,0;44:1e:98:15:8b:2c,INSEARCH Secure,-66,0,0,0;44:1e:98:55:8b:2c,eduroam,-66,0,0,0;00:02:6f:12:34:56,Telstra Air,-54,0,0,0;00:02:6f:12:34:56,,-55,0,0,0;10:13:31:e6:96:ad,TelstraE696AD,-73,0,0,0;12:13:31:e6:96:b5,TelstraE696AD,-84,0,0,0;44:1e:98:15:8b:28,INSEARCH Secure,-57,0,0,0;44:1e:98:55:8b:28,eduroam,-58,0,0,0;24:f2:7f:bc:9b:30,TAFENSW,-72,0,0,0;28:24:ff:94:bd:e1,ClickShare-A1.10,-79,0,0,0;24:f2:7f:bc:9b:31,TAFE-Events,-72,0,0,0;28:24:ff:8f:37:7e,ClickShare-A1.44,-84,0,0,0;12:13:31:e5:b2:91,TelstraE5B289,-85,0,0,0;24:f2:7f:bc:7a:90,TAFENSW,-81,0,0,0;c8:b5:ad:31:27:f1,TAFE-Events,-75,0,0,0;d8:c7:c8:4c:eb:50,TAFENSW,-71,0,0,0;ee:2d:b7:b6:05:64,peter’s iPhone,-72,0,0,0;c8:b5:ad:31:26:90,TAFENSW,-85,0,0,0;24:f2:7f:bc:7a:91,TAFE-Events,-81,0,0,0;c8:b5:ad:31:26:91,TAFE-Events,-85,0,0,0;c8:b5:ad:31:27:f0,TAFENSW,-75,0,0,0;d8:c7:c8:4c:eb:40,TAFENSW,-69,0,0,0;44:1e:98:54:e8:1c,eduroam,-77,0,0,0;44:1e:98:14:e8:1c,INSEARCH Secure,-77,0,0,0;28:24:ff:9b:18:f5,ClickShare-A1.7,-87,0,0,0;28:24:ff:94:bb:5f,ClickShare-A2.24,-88,0,0,0;d8:c7:c8:4c:eb:41,TAFE-Events,-70,0,0,0;12:13:31:e5:b2:8b,Telstra Air,-75,0,0,0;24:f2:7f:bc:7a:81,TAFE-Events,-72,0,0,0;c8:b5:ad:31:26:81,TAFE-Events,-77,0,0,0;e8:1d:a8:2d:ec:58,INSEARCH Secure,-74,0,0,0;c8:b5:ad:31:26:80,TAFENSW,-77,0,0,0;e8:1d:a8:6d:ec:5c,eduroam,-84,0,0,0;e8:1d:a8:2d:ec:5c,INSEARCH Secure,-84,0,0,0;44:1e:98:54:d2:1c,eduroam,-85,0,0,0;44:1e:98:14:d2:1c,INSEARCH Secure,-85,0,0,0;12:13:31:e6:c5:e7,TelstraE6C5DF,-88,0,0,0;c8:b5:ad:31:7f:f0,TAFENSW,-90,0,0,0;c8:b5:ad:31:6e:90,TAFENSW,-93,0,0,0;c8:b5:ad:31:7f:f1,TAFE-Events,-91,0,0,0;c8:b5:ad:31:6e:91,TAFE-Events,-91,0,0,0;

Scan3;00:02:6f:12:34:50,Telstra Air,-58,0,0,0;44:1e:98:15:8b:2c,INSEARCH Secure,-66,0,0,0;44:1e:98:55:8b:2c,eduroam,-66,0,0,0;00:02:6f:12:34:56,Telstra Air,-54,0,0,0;00:02:6f:12:34:56,,-55,0,0,0;10:13:31:e6:96:ad,TelstraE696AD,-73,0,0,0;12:13:31:e6:96:b5,TelstraE696AD,-84,0,0,0;44:1e:98:15:8b:28,INSEARCH Secure,-57,0,0,0;44:1e:98:55:8b:28,eduroam,-58,0,0,0;24:f2:7f:bc:9b:30,TAFENSW,-72,0,0,0;28:24:ff:94:bd:e1,ClickShare-A1.10,-79,0,0,0;24:f2:7f:bc:9b:31,TAFE-Events,-72,0,0,0;28:24:ff:8f:37:7e,ClickShare-A1.44,-84,0,0,0;12:13:31:e5:b2:91,TelstraE5B289,-85,0,0,0;24:f2:7f:bc:7a:90,TAFENSW,-81,0,0,0;c8:b5:ad:31:27:f1,TAFE-Events,-75,0,0,0;d8:c7:c8:4c:eb:50,TAFENSW,-71,0,0,0;ee:2d:b7:b6:05:64,peter’s iPhone,-72,0,0,0;c8:b5:ad:31:26:90,TAFENSW,-85,0,0,0;24:f2:7f:bc:7a:91,TAFE-Events,-81,0,0,0;c8:b5:ad:31:26:91,TAFE-Events,-85,0,0,0;c8:b5:ad:31:27:f0,TAFENSW,-75,0,0,0;d8:c7:c8:4c:eb:40,TAFENSW,-69,0,0,0;44:1e:98:54:e8:1c,eduroam,-77,0,0,0;44:1e:98:14:e8:1c,INSEARCH Secure,-77,0,0,0;28:24:ff:9b:18:f5,ClickShare-A1.7,-87,0,0,0;28:24:ff:94:bb:5f,ClickShare-A2.24,-88,0,0,0;d8:c7:c8:4c:eb:41,TAFE-Events,-70,0,0,0;12:13:31:e5:b2:8b,Telstra Air,-75,0,0,0;24:f2:7f:bc:7a:81,TAFE-Events,-72,0,0,0;c8:b5:ad:31:26:81,TAFE-Events,-77,0,0,0;e8:1d:a8:2d:ec:58,INSEARCH Secure,-74,0,0,0;c8:b5:ad:31:26:80,TAFENSW,-77,0,0,0;e8:1d:a8:6d:ec:5c,eduroam,-84,0,0,0;e8:1d:a8:2d:ec:5c,INSEARCH Secure,-84,0,0,0;44:1e:98:54:d2:1c,eduroam,-85,0,0,0;44:1e:98:14:d2:1c,INSEARCH Secure,-85,0,0,0;12:13:31:e6:c5:e7,TelstraE6C5DF,-88,0,0,0;c8:b5:ad:31:7f:f0,TAFENSW,-90,0,0,0;c8:b5:ad:31:6e:90,TAFENSW,-93,0,0,0;c8:b5:ad:31:7f:f1,TAFE-Events,-91,0,0,0;c8:b5:ad:31:6e:91,TAFE-Events,-91,0,0,0;

Scan4;00:02:6f:12:34:50,Telstra Air,-61,0,0,0;44:1e:98:15:8b:2c,INSEARCH Secure,-64,0,0,0;44:1e:98:55:8b:2c,eduroam,-65,0,0,0;00:02:6f:12:34:56,Telstra Air,-58,0,0,0;00:02:6f:12:34:56,,-55,0,0,0;10:13:31:e6:96:ad,TelstraE696AD,-75,0,0,0;12:13:31:e6:96:b5,TelstraE696AD,-90,0,0,0;44:1e:98:15:8b:28,INSEARCH Secure,-61,0,0,0;44:1e:98:55:8b:28,eduroam,-61,0,0,0;24:f2:7f:bc:9b:30,TAFENSW,-76,0,0,0;28:24:ff:94:bd:e1,ClickShare-A1.10,-81,0,0,0;24:f2:7f:bc:9b:31,TAFE-Events,-76,0,0,0;28:24:ff:8f:37:7e,ClickShare-A1.44,-84,0,0,0;12:13:31:e5:b2:91,TelstraE5B289,-79,0,0,0;24:f2:7f:bc:7a:90,TAFENSW,-65,0,0,0;c8:b5:ad:31:27:f1,TAFE-Events,-77,0,0,0;d8:c7:c8:4c:eb:50,TAFENSW,-75,0,0,0;ee:2d:b7:b6:05:64,peter’s iPhone,-73,0,0,0;c8:b5:ad:31:26:90,TAFENSW,-79,0,0,0;24:f2:7f:bc:7a:91,TAFE-Events,-65,0,0,0;c8:b5:ad:31:26:91,TAFE-Events,-79,0,0,0;c8:b5:ad:31:27:f0,TAFENSW,-78,0,0,0;d8:c7:c8:4c:eb:40,TAFENSW,-61,0,0,0;44:1e:98:54:e8:1c,eduroam,-78,0,0,0;44:1e:98:14:e8:1c,INSEARCH Secure,-77,0,0,0;28:24:ff:94:bb:5f,ClickShare-A2.24,-88,0,0,0;d8:c7:c8:4c:eb:41,TAFE-Events,-63,0,0,0;12:13:31:e5:b2:8b,Telstra Air,-77,0,0,0;24:f2:7f:bc:7a:81,TAFE-Events,-68,0,0,0;c8:b5:ad:31:26:81,TAFE-Events,-73,0,0,0;e8:1d:a8:2d:ec:58,INSEARCH Secure,-71,0,0,0;c8:b5:ad:31:26:80,TAFENSW,-73,0,0,0;e8:1d:a8:6d:ec:5c,eduroam,-74,0,0,0;e8:1d:a8:2d:ec:5c,INSEARCH Secure,-74,0,0,0;44:1e:98:54:d2:1c,eduroam,-82,0,0,0;44:1e:98:14:d2:1c,INSEARCH Secure,-81,0,0,0;12:13:31:e6:c5:e7,TelstraE6C5DF,-90,0,0,0;c8:b5:ad:31:7f:f0,TAFENSW,-90,0,0,0;c8:b5:ad:31:7f:f1,TAFE-Events,-91,0,0,0;24:f2:7f:bc:7a:80,TAFENSW,-67,0,0,0;c0:25:e9:3a:dd:c9,NETGEAR60,-70,0,0,0;70:3a:cb:19:5e:5a,Byzantium,-84,0,0,0;e8:1d:a8:2e:27:9c,INSEARCH Secure,-86,0,0,0;e8:1d:a8:6e:27:9c,eduroam,-87,0,0,0;c8:b5:ad:31:1a:b0,TAFENSW,-91,0,0,0;d8:c7:c8:4c:eb:51,TAFE-Events,-77,0,0,0;12:13:31:e5:b2:8c,Fon WiFi,-77,0,0,0;

Scan5;00:02:6f:12:34:50,Telstra Air,-61,0,0,0;44:1e:98:15:8b:2c,INSEARCH Secure,-64,0,0,0;44:1e:98:55:8b:2c,eduroam,-65,0,0,0;00:02:6f:12:34:56,Telstra Air,-58,0,0,0;00:02:6f:12:34:56,,-55,0,0,0;10:13:31:e6:96:ad,TelstraE696AD,-75,0,0,0;12:13:31:e6:96:b5,TelstraE696AD,-90,0,0,0;44:1e:98:15:8b:28,INSEARCH Secure,-61,0,0,0;44:1e:98:55:8b:28,eduroam,-61,0,0,0;24:f2:7f:bc:9b:30,TAFENSW,-76,0,0,0;28:24:ff:94:bd:e1,ClickShare-A1.10,-81,0,0,0;24:f2:7f:bc:9b:31,TAFE-Events,-76,0,0,0;28:24:ff:8f:37:7e,ClickShare-A1.44,-84,0,0,0;12:13:31:e5:b2:91,TelstraE5B289,-79,0,0,0;24:f2:7f:bc:7a:90,TAFENSW,-65,0,0,0;c8:b5:ad:31:27:f1,TAFE-Events,-77,0,0,0;d8:c7:c8:4c:eb:50,TAFENSW,-75,0,0,0;ee:2d:b7:b6:05:64,peter’s iPhone,-73,0,0,0;c8:b5:ad:31:26:90,TAFENSW,-79,0,0,0;24:f2:7f:bc:7a:91,TAFE-Events,-65,0,0,0;c8:b5:ad:31:26:91,TAFE-Events,-79,0,0,0;c8:b5:ad:31:27:f0,TAFENSW,-78,0,0,0;d8:c7:c8:4c:eb:40,TAFENSW,-61,0,0,0;44:1e:98:54:e8:1c,eduroam,-78,0,0,0;44:1e:98:14:e8:1c,INSEARCH Secure,-77,0,0,0;28:24:ff:94:bb:5f,ClickShare-A2.24,-88,0,0,0;d8:c7:c8:4c:eb:41,TAFE-Events,-63,0,0,0;12:13:31:e5:b2:8b,Telstra Air,-77,0,0,0;24:f2:7f:bc:7a:81,TAFE-Events,-68,0,0,0;c8:b5:ad:31:26:81,TAFE-Events,-73,0,0,0;e8:1d:a8:2d:ec:58,INSEARCH Secure,-71,0,0,0;c8:b5:ad:31:26:80,TAFENSW,-73,0,0,0;e8:1d:a8:6d:ec:5c,eduroam,-74,0,0,0;e8:1d:a8:2d:ec:5c,INSEARCH Secure,-74,0,0,0;44:1e:98:54:d2:1c,eduroam,-82,0,0,0;44:1e:98:14:d2:1c,INSEARCH Secure,-81,0,0,0;12:13:31:e6:c5:e7,TelstraE6C5DF,-90,0,0,0;c8:b5:ad:31:7f:f0,TAFENSW,-90,0,0,0;c8:b5:ad:31:7f:f1,TAFE-Events,-91,0,0,0;24:f2:7f:bc:7a:80,TAFENSW,-67,0,0,0;c0:25:e9:3a:dd:c9,NETGEAR60,-70,0,0,0;70:3a:cb:19:5e:5a,Byzantium,-84,0,0,0;e8:1d:a8:2e:27:9c,INSEARCH Secure,-86,0,0,0;e8:1d:a8:6e:27:9c,eduroam,-87,0,0,0;c8:b5:ad:31:1a:b0,TAFENSW,-91,0,0,0;d8:c7:c8:4c:eb:51,TAFE-Events,-77,0,0,0;12:13:31:e5:b2:8c,Fon WiFi,-77,0,0,0;

Scan6;00:02:6f:12:34:50,Telstra Air,-61,0,0,0;44:1e:98:15:8b:2c,INSEARCH Secure,-64,0,0,0;44:1e:98:55:8b:2c,eduroam,-65,0,0,0;00:02:6f:12:34:56,Telstra Air,-58,0,0,0;00:02:6f:12:34:56,,-55,0,0,0;10:13:31:e6:96:ad,TelstraE696AD,-75,0,0,0;12:13:31:e6:96:b5,TelstraE696AD,-90,0,0,0;44:1e:98:15:8b:28,INSEARCH Secure,-61,0,0,0;44:1e:98:55:8b:28,eduroam,-61,0,0,0;24:f2:7f:bc:9b:30,TAFENSW,-76,0,0,0;28:24:ff:94:bd:e1,ClickShare-A1.10,-81,0,0,0;24:f2:7f:bc:9b:31,TAFE-Events,-76,0,0,0;28:24:ff:8f:37:7e,ClickShare-A1.44,-84,0,0,0;12:13:31:e5:b2:91,TelstraE5B289,-79,0,0,0;24:f2:7f:bc:7a:90,TAFENSW,-65,0,0,0;c8:b5:ad:31:27:f1,TAFE-Events,-77,0,0,0;d8:c7:c8:4c:eb:50,TAFENSW,-75,0,0,0;ee:2d:b7:b6:05:64,peter’s iPhone,-73,0,0,0;c8:b5:ad:31:26:90,TAFENSW,-79,0,0,0;24:f2:7f:bc:7a:91,TAFE-Events,-65,0,0,0;c8:b5:ad:31:26:91,TAFE-Events,-79,0,0,0;c8:b5:ad:31:27:f0,TAFENSW,-78,0,0,0;d8:c7:c8:4c:eb:40,TAFENSW,-61,0,0,0;44:1e:98:54:e8:1c,eduroam,-78,0,0,0;44:1e:98:14:e8:1c,INSEARCH Secure,-77,0,0,0;28:24:ff:94:bb:5f,ClickShare-A2.24,-88,0,0,0;d8:c7:c8:4c:eb:41,TAFE-Events,-63,0,0,0;12:13:31:e5:b2:8b,Telstra Air,-77,0,0,0;24:f2:7f:bc:7a:81,TAFE-Events,-68,0,0,0;c8:b5:ad:31:26:81,TAFE-Events,-73,0,0,0;e8:1d:a8:2d:ec:58,INSEARCH Secure,-71,0,0,0;c8:b5:ad:31:26:80,TAFENSW,-73,0,0,0;e8:1d:a8:6d:ec:5c,eduroam,-74,0,0,0;e8:1d:a8:2d:ec:5c,INSEARCH Secure,-74,0,0,0;44:1e:98:54:d2:1c,eduroam,-82,0,0,0;44:1e:98:14:d2:1c,INSEARCH Secure,-81,0,0,0;12:13:31:e6:c5:e7,TelstraE6C5DF,-90,0,0,0;c8:b5:ad:31:7f:f0,TAFENSW,-90,0,0,0;c8:b5:ad:31:7f:f1,TAFE-Events,-91,0,0,0;24:f2:7f:bc:7a:80,TAFENSW,-67,0,0,0;c0:25:e9:3a:dd:c9,NETGEAR60,-70,0,0,0;70:3a:cb:19:5e:5a,Byzantium,-84,0,0,0;e8:1d:a8:2e:27:9c,INSEARCH Secure,-86,0,0,0;e8:1d:a8:6e:27:9c,eduroam,-87,0,0,0;c8:b5:ad:31:1a:b0,TAFENSW,-91,0,0,0;d8:c7:c8:4c:eb:51,TAFE-Events,-77,0,0,0;12:13:31:e5:b2:8c,Fon WiFi,-77,0,0,0;

Scan7;00:02:6f:12:34:50,Telstra Air,-61,0,0,0;44:1e:98:15:8b:2c,INSEARCH Secure,-64,0,0,0;44:1e:98:55:8b:2c,eduroam,-65,0,0,0;00:02:6f:12:34:56,Telstra Air,-58,0,0,0;00:02:6f:12:34:56,,-55,0,0,0;10:13:31:e6:96:ad,TelstraE696AD,-75,0,0,0;12:13:31:e6:96:b5,TelstraE696AD,-90,0,0,0;44:1e:98:15:8b:28,INSEARCH Secure,-61,0,0,0;44:1e:98:55:8b:28,eduroam,-61,0,0,0;24:f2:7f:bc:9b:30,TAFENSW,-76,0,0,0;28:24:ff:94:bd:e1,ClickShare-A1.10,-81,0,0,0;24:f2:7f:bc:9b:31,TAFE-Events,-76,0,0,0;28:24:ff:8f:37:7e,ClickShare-A1.44,-84,0,0,0;12:13:31:e5:b2:91,TelstraE5B289,-79,0,0,0;24:f2:7f:bc:7a:90,TAFENSW,-65,0,0,0;c8:b5:ad:31:27:f1,TAFE-Events,-77,0,0,0;d8:c7:c8:4c:eb:50,TAFENSW,-75,0,0,0;ee:2d:b7:b6:05:64,peter’s iPhone,-73,0,0,0;c8:b5:ad:31:26:90,TAFENSW,-79,0,0,0;24:f2:7f:bc:7a:91,TAFE-Events,-65,0,0,0;c8:b5:ad:31:26:91,TAFE-Events,-79,0,0,0;c8:b5:ad:31:27:f0,TAFENSW,-78,0,0,0;d8:c7:c8:4c:eb:40,TAFENSW,-61,0,0,0;44:1e:98:54:e8:1c,eduroam,-78,0,0,0;44:1e:98:14:e8:1c,INSEARCH Secure,-77,0,0,0;28:24:ff:94:bb:5f,ClickShare-A2.24,-88,0,0,0;d8:c7:c8:4c:eb:41,TAFE-Events,-63,0,0,0;12:13:31:e5:b2:8b,Telstra Air,-77,0,0,0;24:f2:7f:bc:7a:81,TAFE-Events,-68,0,0,0;c8:b5:ad:31:26:81,TAFE-Events,-73,0,0,0;e8:1d:a8:2d:ec:58,INSEARCH Secure,-71,0,0,0;c8:b5:ad:31:26:80,TAFENSW,-73,0,0,0;e8:1d:a8:6d:ec:5c,eduroam,-74,0,0,0;e8:1d:a8:2d:ec:5c,INSEARCH Secure,-74,0,0,0;44:1e:98:54:d2:1c,eduroam,-82,0,0,0;44:1e:98:14:d2:1c,INSEARCH Secure,-81,0,0,0;12:13:31:e6:c5:e7,TelstraE6C5DF,-90,0,0,0;c8:b5:ad:31:7f:f0,TAFENSW,-90,0,0,0;c8:b5:ad:31:7f:f1,TAFE-Events,-91,0,0,0;24:f2:7f:bc:7a:80,TAFENSW,-67,0,0,0;c0:25:e9:3a:dd:c9,NETGEAR60,-70,0,0,0;70:3a:cb:19:5e:5a,Byzantium,-84,0,0,0;e8:1d:a8:2e:27:9c,INSEARCH Secure,-86,0,0,0;e8:1d:a8:6e:27:9c,eduroam,-87,0,0,0;c8:b5:ad:31:1a:b0,TAFENSW,-91,0,0,0;d8:c7:c8:4c:eb:51,TAFE-Events,-77,0,0,0;12:13:31:e5:b2:8c,Fon WiFi,-77,0,0,0;

Scan8;00:02:6f:12:34:50,Telstra Air,-61,0,0,0;44:1e:98:15:8b:2c,INSEARCH Secure,-64,0,0,0;44:1e:98:55:8b:2c,eduroam,-65,0,0,0;00:02:6f:12:34:56,Telstra Air,-58,0,0,0;00:02:6f:12:34:56,,-55,0,0,0;10:13:31:e6:96:ad,TelstraE696AD,-75,0,0,0;12:13:31:e6:96:b5,TelstraE696AD,-90,0,0,0;44:1e:98:15:8b:28,INSEARCH Secure,-61,0,0,0;44:1e:98:55:8b:28,eduroam,-61,0,0,0;24:f2:7f:bc:9b:30,TAFENSW,-76,0,0,0;28:24:ff:94:bd:e1,ClickShare-A1.10,-81,0,0,0;24:f2:7f:bc:9b:31,TAFE-Events,-76,0,0,0;28:24:ff:8f:37:7e,ClickShare-A1.44,-84,0,0,0;12:13:31:e5:b2:91,TelstraE5B289,-79,0,0,0;24:f2:7f:bc:7a:90,TAFENSW,-65,0,0,0;c8:b5:ad:31:27:f1,TAFE-Events,-77,0,0,0;d8:c7:c8:4c:eb:50,TAFENSW,-75,0,0,0;ee:2d:b7:b6:05:64,peter’s iPhone,-73,0,0,0;c8:b5:ad:31:26:90,TAFENSW,-79,0,0,0;24:f2:7f:bc:7a:91,TAFE-Events,-65,0,0,0;c8:b5:ad:31:26:91,TAFE-Events,-79,0,0,0;c8:b5:ad:31:27:f0,TAFENSW,-78,0,0,0;d8:c7:c8:4c:eb:40,TAFENSW,-61,0,0,0;44:1e:98:54:e8:1c,eduroam,-78,0,0,0;44:1e:98:14:e8:1c,INSEARCH Secure,-77,0,0,0;28:24:ff:94:bb:5f,ClickShare-A2.24,-88,0,0,0;d8:c7:c8:4c:eb:41,TAFE-Events,-63,0,0,0;12:13:31:e5:b2:8b,Telstra Air,-77,0,0,0;24:f2:7f:bc:7a:81,TAFE-Events,-68,0,0,0;c8:b5:ad:31:26:81,TAFE-Events,-73,0,0,0;e8:1d:a8:2d:ec:58,INSEARCH Secure,-71,0,0,0;c8:b5:ad:31:26:80,TAFENSW,-73,0,0,0;e8:1d:a8:6d:ec:5c,eduroam,-74,0,0,0;e8:1d:a8:2d:ec:5c,INSEARCH Secure,-74,0,0,0;44:1e:98:54:d2:1c,eduroam,-82,0,0,0;44:1e:98:14:d2:1c,INSEARCH Secure,-81,0,0,0;12:13:31:e6:c5:e7,TelstraE6C5DF,-90,0,0,0;c8:b5:ad:31:7f:f0,TAFENSW,-90,0,0,0;c8:b5:ad:31:7f:f1,TAFE-Events,-91,0,0,0;24:f2:7f:bc:7a:80,TAFENSW,-67,0,0,0;c0:25:e9:3a:dd:c9,NETGEAR60,-70,0,0,0;70:3a:cb:19:5e:5a,Byzantium,-84,0,0,0;e8:1d:a8:2e:27:9c,INSEARCH Secure,-86,0,0,0;e8:1d:a8:6e:27:9c,eduroam,-87,0,0,0;c8:b5:ad:31:1a:b0,TAFENSW,-91,0,0,0;d8:c7:c8:4c:eb:51,TAFE-Events,-77,0,0,0;12:13:31:e5:b2:8c,Fon WiFi,-77,0,0,0;

Scan9;00:02:6f:12:34:50,Telstra Air,-61,0,0,0;44:1e:98:15:8b:2c,INSEARCH Secure,-64,0,0,0;44:1e:98:55:8b:2c,eduroam,-65,0,0,0;00:02:6f:12:34:56,Telstra Air,-58,0,0,0;00:02:6f:12:34:56,,-55,0,0,0;10:13:31:e6:96:ad,TelstraE696AD,-75,0,0,0;12:13:31:e6:96:b5,TelstraE696AD,-90,0,0,0;44:1e:98:15:8b:28,INSEARCH Secure,-61,0,0,0;44:1e:98:55:8b:28,eduroam,-61,0,0,0;24:f2:7f:bc:9b:30,TAFENSW,-76,0,0,0;28:24:ff:94:bd:e1,ClickShare-A1.10,-81,0,0,0;24:f2:7f:bc:9b:31,TAFE-Events,-76,0,0,0;28:24:ff:8f:37:7e,ClickShare-A1.44,-84,0,0,0;12:13:31:e5:b2:91,TelstraE5B289,-79,0,0,0;24:f2:7f:bc:7a:90,TAFENSW,-65,0,0,0;c8:b5:ad:31:27:f1,TAFE-Events,-77,0,0,0;d8:c7:c8:4c:eb:50,TAFENSW,-75,0,0,0;ee:2d:b7:b6:05:64,peter’s iPhone,-73,0,0,0;c8:b5:ad:31:26:90,TAFENSW,-79,0,0,0;24:f2:7f:bc:7a:91,TAFE-Events,-65,0,0,0;c8:b5:ad:31:26:91,TAFE-Events,-79,0,0,0;c8:b5:ad:31:27:f0,TAFENSW,-78,0,0,0;d8:c7:c8:4c:eb:40,TAFENSW,-61,0,0,0;44:1e:98:54:e8:1c,eduroam,-78,0,0,0;44:1e:98:14:e8:1c,INSEARCH Secure,-77,0,0,0;28:24:ff:94:bb:5f,ClickShare-A2.24,-88,0,0,0;d8:c7:c8:4c:eb:41,TAFE-Events,-63,0,0,0;12:13:31:e5:b2:8b,Telstra Air,-77,0,0,0;24:f2:7f:bc:7a:81,TAFE-Events,-68,0,0,0;c8:b5:ad:31:26:81,TAFE-Events,-73,0,0,0;e8:1d:a8:2d:ec:58,INSEARCH Secure,-71,0,0,0;c8:b5:ad:31:26:80,TAFENSW,-73,0,0,0;e8:1d:a8:6d:ec:5c,eduroam,-74,0,0,0;e8:1d:a8:2d:ec:5c,INSEARCH Secure,-74,0,0,0;44:1e:98:54:d2:1c,eduroam,-82,0,0,0;44:1e:98:14:d2:1c,INSEARCH Secure,-81,0,0,0;12:13:31:e6:c5:e7,TelstraE6C5DF,-90,0,0,0;c8:b5:ad:31:7f:f0,TAFENSW,-90,0,0,0;c8:b5:ad:31:7f:f1,TAFE-Events,-91,0,0,0;24:f2:7f:bc:7a:80,TAFENSW,-67,0,0,0;c0:25:e9:3a:dd:c9,NETGEAR60,-70,0,0,0;70:3a:cb:19:5e:5a,Byzantium,-84,0,0,0;e8:1d:a8:2e:27:9c,INSEARCH Secure,-86,0,0,0;e8:1d:a8:6e:27:9c,eduroam,-87,0,0,0;c8:b5:ad:31:1a:b0,TAFENSW,-91,0,0,0;d8:c7:c8:4c:eb:51,TAFE-Events,-77,0,0,0;12:13:31:e5:b2:8c,Fon WiFi,-77,0,0,0;

