Scan1;d8:c7:c8:4f:cb:90,TAFENSW,-89,0,0,0;d8:c7:c8:4f:cb:91,TAFE-Events,-91,0,0,0;d8:c7:c8:4c:f4:10,TAFENSW,-82,0,0,0;28:c7:ce:a2:40:0b,Cisco860_Guest1,-69,0,0,0;28:c7:ce:a2:40:0a,Fork and Grind,-68,0,0,0;28:c7:ce:a2:40:0c,Cisco860_Guest2,-67,0,0,0;28:c7:ce:a2:40:0d,Cisco860_Guest3,-67,0,0,0;f0:5c:19:84:83:d0,TAFE-Events,-90,0,0,0;d8:c7:c8:4c:f7:b0,TAFENSW,-86,0,0,0;d8:c7:c8:4c:f7:b1,TAFE-Events,-86,0,0,0;d8:c7:c8:4c:de:b1,TAFE-Events,-83,0,0,0;d8:c7:c8:4c:fa:f0,TAFENSW,-86,0,0,0;f0:5c:19:84:8a:90,TAFENSW,-95,0,0,0;f0:5c:19:84:7c:70,TAFENSW,-90,0,0,0;f0:5c:19:84:8a:91,TAFE-Events,-94,0,0,0;d8:c7:c8:4c:f4:c0,TAFENSW,-77,0,0,0;f0:5c:19:84:83:d1,TAFENSW,-90,0,0,0;d8:c7:c8:4c:de:b0,TAFENSW,-83,0,0,0;d8:c7:c8:4c:ea:50,TAFENSW,-83,0,0,0;d8:c7:c8:4c:f4:c1,TAFE-Events,-77,0,0,0;d8:c7:c8:4c:ea:51,TAFE-Events,-83,0,0,0;d8:c7:c8:4c:96:f0,TAFENSW,-88,0,0,0;a0:04:60:a5:e5:a8,iiMAV_2,-74,0,0,0;14:cc:20:e1:11:fe,,-92,0,0,0;f0:5c:19:84:7c:71,TAFE-Events,-91,0,0,0;a0:04:60:a5:e5:ac,iiMAV_1,-82,0,0,0;70:3a:cb:19:5e:5e,Byzantium,-78,0,0,0;44:c3:46:7f:3b:d8,Doodeeee,-78,0,0,0;d8:c7:c8:4c:f7:a0,TAFENSW,-82,0,0,0;a8:c8:3a:2b:8f:40,TGP_wifi,-85,0,0,0;d8:c7:c8:4c:f9:10,TAFENSW,-91,0,0,0;24:7f:20:49:6b:1b,OPTUS_496B19_5GHz,-92,0,0,0;d8:c7:c8:4c:f8:90,TAFENSW,-96,0,0,0;d8:c7:c8:4c:f4:d0,TAFENSW,-96,0,0,0;6c:f3:7f:a1:46:d0,TAFENSW,-96,0,0,0;64:f6:9d:b3:f4:e0,iiNet Free WiFi,-73,0,0,0;d8:c7:c8:4c:de:a1,TAFE-Events,-75,0,0,0;00:02:6f:12:34:50,Telstra Air,-88,0,0,0;d8:c7:c8:4c:f9:11,TAFE-Events,-91,0,0,0;6c:f3:7f:a1:46:d1,TAFE-Events,-95,0,0,0;d8:c7:c8:4c:f8:91,TAFE-Events,-96,0,0,0;d8:c7:c8:4c:f4:d1,TAFE-Events,-97,0,0,0;d8:c7:c8:4f:b6:b1,TAFE-Events,-97,0,0,0;

Scan2;d8:c7:c8:4f:cb:90,TAFENSW,-89,0,0,0;d8:c7:c8:4f:cb:91,TAFE-Events,-91,0,0,0;d8:c7:c8:4c:f4:10,TAFENSW,-82,0,0,0;28:c7:ce:a2:40:0b,Cisco860_Guest1,-69,0,0,0;28:c7:ce:a2:40:0a,Fork and Grind,-68,0,0,0;28:c7:ce:a2:40:0c,Cisco860_Guest2,-67,0,0,0;28:c7:ce:a2:40:0d,Cisco860_Guest3,-67,0,0,0;f0:5c:19:84:83:d0,TAFE-Events,-90,0,0,0;d8:c7:c8:4c:f7:b0,TAFENSW,-86,0,0,0;d8:c7:c8:4c:f7:b1,TAFE-Events,-86,0,0,0;d8:c7:c8:4c:de:b1,TAFE-Events,-83,0,0,0;d8:c7:c8:4c:fa:f0,TAFENSW,-86,0,0,0;f0:5c:19:84:8a:90,TAFENSW,-95,0,0,0;f0:5c:19:84:7c:70,TAFENSW,-90,0,0,0;f0:5c:19:84:8a:91,TAFE-Events,-94,0,0,0;d8:c7:c8:4c:f4:c0,TAFENSW,-77,0,0,0;f0:5c:19:84:83:d1,TAFENSW,-90,0,0,0;d8:c7:c8:4c:de:b0,TAFENSW,-83,0,0,0;d8:c7:c8:4c:ea:50,TAFENSW,-83,0,0,0;d8:c7:c8:4c:f4:c1,TAFE-Events,-77,0,0,0;d8:c7:c8:4c:ea:51,TAFE-Events,-83,0,0,0;d8:c7:c8:4c:96:f0,TAFENSW,-88,0,0,0;a0:04:60:a5:e5:a8,iiMAV_2,-74,0,0,0;14:cc:20:e1:11:fe,,-92,0,0,0;f0:5c:19:84:7c:71,TAFE-Events,-91,0,0,0;a0:04:60:a5:e5:ac,iiMAV_1,-82,0,0,0;70:3a:cb:19:5e:5e,Byzantium,-78,0,0,0;44:c3:46:7f:3b:d8,Doodeeee,-78,0,0,0;d8:c7:c8:4c:f7:a0,TAFENSW,-82,0,0,0;a8:c8:3a:2b:8f:40,TGP_wifi,-85,0,0,0;d8:c7:c8:4c:f9:10,TAFENSW,-91,0,0,0;24:7f:20:49:6b:1b,OPTUS_496B19_5GHz,-92,0,0,0;d8:c7:c8:4c:f8:90,TAFENSW,-96,0,0,0;d8:c7:c8:4c:f4:d0,TAFENSW,-96,0,0,0;6c:f3:7f:a1:46:d0,TAFENSW,-96,0,0,0;64:f6:9d:b3:f4:e0,iiNet Free WiFi,-73,0,0,0;d8:c7:c8:4c:de:a1,TAFE-Events,-75,0,0,0;00:02:6f:12:34:50,Telstra Air,-88,0,0,0;d8:c7:c8:4c:f9:11,TAFE-Events,-91,0,0,0;6c:f3:7f:a1:46:d1,TAFE-Events,-95,0,0,0;d8:c7:c8:4c:f8:91,TAFE-Events,-96,0,0,0;d8:c7:c8:4c:f4:d1,TAFE-Events,-97,0,0,0;d8:c7:c8:4f:b6:b1,TAFE-Events,-97,0,0,0;

Scan3;d8:c7:c8:4f:cb:90,TAFENSW,-89,0,0,0;d8:c7:c8:4f:cb:91,TAFE-Events,-91,0,0,0;d8:c7:c8:4c:f4:10,TAFENSW,-82,0,0,0;28:c7:ce:a2:40:0b,Cisco860_Guest1,-69,0,0,0;28:c7:ce:a2:40:0a,Fork and Grind,-68,0,0,0;28:c7:ce:a2:40:0c,Cisco860_Guest2,-67,0,0,0;28:c7:ce:a2:40:0d,Cisco860_Guest3,-67,0,0,0;f0:5c:19:84:83:d0,TAFE-Events,-90,0,0,0;d8:c7:c8:4c:f7:b0,TAFENSW,-86,0,0,0;d8:c7:c8:4c:f7:b1,TAFE-Events,-86,0,0,0;d8:c7:c8:4c:de:b1,TAFE-Events,-83,0,0,0;d8:c7:c8:4c:fa:f0,TAFENSW,-86,0,0,0;f0:5c:19:84:8a:90,TAFENSW,-95,0,0,0;f0:5c:19:84:7c:70,TAFENSW,-90,0,0,0;f0:5c:19:84:8a:91,TAFE-Events,-94,0,0,0;d8:c7:c8:4c:f4:c0,TAFENSW,-77,0,0,0;f0:5c:19:84:83:d1,TAFENSW,-90,0,0,0;d8:c7:c8:4c:de:b0,TAFENSW,-83,0,0,0;d8:c7:c8:4c:ea:50,TAFENSW,-83,0,0,0;d8:c7:c8:4c:f4:c1,TAFE-Events,-77,0,0,0;d8:c7:c8:4c:ea:51,TAFE-Events,-83,0,0,0;d8:c7:c8:4c:96:f0,TAFENSW,-88,0,0,0;a0:04:60:a5:e5:a8,iiMAV_2,-74,0,0,0;14:cc:20:e1:11:fe,,-92,0,0,0;f0:5c:19:84:7c:71,TAFE-Events,-91,0,0,0;a0:04:60:a5:e5:ac,iiMAV_1,-82,0,0,0;70:3a:cb:19:5e:5e,Byzantium,-78,0,0,0;44:c3:46:7f:3b:d8,Doodeeee,-78,0,0,0;d8:c7:c8:4c:f7:a0,TAFENSW,-82,0,0,0;a8:c8:3a:2b:8f:40,TGP_wifi,-85,0,0,0;d8:c7:c8:4c:f9:10,TAFENSW,-91,0,0,0;24:7f:20:49:6b:1b,OPTUS_496B19_5GHz,-92,0,0,0;d8:c7:c8:4c:f8:90,TAFENSW,-96,0,0,0;d8:c7:c8:4c:f4:d0,TAFENSW,-96,0,0,0;6c:f3:7f:a1:46:d0,TAFENSW,-96,0,0,0;64:f6:9d:b3:f4:e0,iiNet Free WiFi,-73,0,0,0;d8:c7:c8:4c:de:a1,TAFE-Events,-75,0,0,0;00:02:6f:12:34:50,Telstra Air,-88,0,0,0;d8:c7:c8:4c:f9:11,TAFE-Events,-91,0,0,0;6c:f3:7f:a1:46:d1,TAFE-Events,-95,0,0,0;d8:c7:c8:4c:f8:91,TAFE-Events,-96,0,0,0;d8:c7:c8:4c:f4:d1,TAFE-Events,-97,0,0,0;d8:c7:c8:4f:b6:b1,TAFE-Events,-97,0,0,0;

Scan4;d8:c7:c8:4f:cb:90,TAFENSW,-89,0,0,0;d8:c7:c8:4f:cb:91,TAFE-Events,-91,0,0,0;d8:c7:c8:4c:f4:10,TAFENSW,-82,0,0,0;28:c7:ce:a2:40:0b,Cisco860_Guest1,-69,0,0,0;28:c7:ce:a2:40:0a,Fork and Grind,-68,0,0,0;28:c7:ce:a2:40:0c,Cisco860_Guest2,-67,0,0,0;28:c7:ce:a2:40:0d,Cisco860_Guest3,-67,0,0,0;f0:5c:19:84:83:d0,TAFE-Events,-90,0,0,0;d8:c7:c8:4c:f7:b0,TAFENSW,-86,0,0,0;d8:c7:c8:4c:f7:b1,TAFE-Events,-86,0,0,0;d8:c7:c8:4c:de:b1,TAFE-Events,-83,0,0,0;d8:c7:c8:4c:fa:f0,TAFENSW,-86,0,0,0;f0:5c:19:84:8a:90,TAFENSW,-95,0,0,0;f0:5c:19:84:7c:70,TAFENSW,-90,0,0,0;f0:5c:19:84:8a:91,TAFE-Events,-94,0,0,0;d8:c7:c8:4c:f4:c0,TAFENSW,-77,0,0,0;f0:5c:19:84:83:d1,TAFENSW,-90,0,0,0;d8:c7:c8:4c:de:b0,TAFENSW,-83,0,0,0;d8:c7:c8:4c:ea:50,TAFENSW,-83,0,0,0;d8:c7:c8:4c:f4:c1,TAFE-Events,-77,0,0,0;d8:c7:c8:4c:ea:51,TAFE-Events,-83,0,0,0;d8:c7:c8:4c:96:f0,TAFENSW,-88,0,0,0;a0:04:60:a5:e5:a8,iiMAV_2,-74,0,0,0;14:cc:20:e1:11:fe,,-92,0,0,0;f0:5c:19:84:7c:71,TAFE-Events,-91,0,0,0;a0:04:60:a5:e5:ac,iiMAV_1,-82,0,0,0;70:3a:cb:19:5e:5e,Byzantium,-78,0,0,0;44:c3:46:7f:3b:d8,Doodeeee,-78,0,0,0;d8:c7:c8:4c:f7:a0,TAFENSW,-82,0,0,0;a8:c8:3a:2b:8f:40,TGP_wifi,-85,0,0,0;d8:c7:c8:4c:f9:10,TAFENSW,-91,0,0,0;24:7f:20:49:6b:1b,OPTUS_496B19_5GHz,-92,0,0,0;d8:c7:c8:4c:f8:90,TAFENSW,-96,0,0,0;d8:c7:c8:4c:f4:d0,TAFENSW,-96,0,0,0;6c:f3:7f:a1:46:d0,TAFENSW,-96,0,0,0;64:f6:9d:b3:f4:e0,iiNet Free WiFi,-73,0,0,0;d8:c7:c8:4c:de:a1,TAFE-Events,-75,0,0,0;00:02:6f:12:34:50,Telstra Air,-88,0,0,0;d8:c7:c8:4c:f9:11,TAFE-Events,-91,0,0,0;6c:f3:7f:a1:46:d1,TAFE-Events,-95,0,0,0;d8:c7:c8:4c:f8:91,TAFE-Events,-96,0,0,0;d8:c7:c8:4c:f4:d1,TAFE-Events,-97,0,0,0;d8:c7:c8:4f:b6:b1,TAFE-Events,-97,0,0,0;

Scan5;d8:c7:c8:4f:cb:90,TAFENSW,-89,0,0,0;d8:c7:c8:4f:cb:91,TAFE-Events,-91,0,0,0;d8:c7:c8:4c:f4:10,TAFENSW,-82,0,0,0;28:c7:ce:a2:40:0b,Cisco860_Guest1,-69,0,0,0;28:c7:ce:a2:40:0a,Fork and Grind,-68,0,0,0;28:c7:ce:a2:40:0c,Cisco860_Guest2,-67,0,0,0;28:c7:ce:a2:40:0d,Cisco860_Guest3,-67,0,0,0;f0:5c:19:84:83:d0,TAFE-Events,-90,0,0,0;d8:c7:c8:4c:f7:b0,TAFENSW,-86,0,0,0;d8:c7:c8:4c:f7:b1,TAFE-Events,-86,0,0,0;d8:c7:c8:4c:de:b1,TAFE-Events,-83,0,0,0;d8:c7:c8:4c:fa:f0,TAFENSW,-86,0,0,0;f0:5c:19:84:8a:90,TAFENSW,-95,0,0,0;f0:5c:19:84:7c:70,TAFENSW,-90,0,0,0;f0:5c:19:84:8a:91,TAFE-Events,-94,0,0,0;d8:c7:c8:4c:f4:c0,TAFENSW,-77,0,0,0;f0:5c:19:84:83:d1,TAFENSW,-90,0,0,0;d8:c7:c8:4c:de:b0,TAFENSW,-83,0,0,0;d8:c7:c8:4c:ea:50,TAFENSW,-83,0,0,0;d8:c7:c8:4c:f4:c1,TAFE-Events,-77,0,0,0;d8:c7:c8:4c:ea:51,TAFE-Events,-83,0,0,0;d8:c7:c8:4c:96:f0,TAFENSW,-88,0,0,0;a0:04:60:a5:e5:a8,iiMAV_2,-74,0,0,0;14:cc:20:e1:11:fe,,-92,0,0,0;f0:5c:19:84:7c:71,TAFE-Events,-91,0,0,0;a0:04:60:a5:e5:ac,iiMAV_1,-82,0,0,0;70:3a:cb:19:5e:5e,Byzantium,-78,0,0,0;44:c3:46:7f:3b:d8,Doodeeee,-78,0,0,0;d8:c7:c8:4c:f7:a0,TAFENSW,-82,0,0,0;a8:c8:3a:2b:8f:40,TGP_wifi,-85,0,0,0;d8:c7:c8:4c:f9:10,TAFENSW,-91,0,0,0;24:7f:20:49:6b:1b,OPTUS_496B19_5GHz,-92,0,0,0;d8:c7:c8:4c:f8:90,TAFENSW,-96,0,0,0;d8:c7:c8:4c:f4:d0,TAFENSW,-96,0,0,0;6c:f3:7f:a1:46:d0,TAFENSW,-96,0,0,0;64:f6:9d:b3:f4:e0,iiNet Free WiFi,-73,0,0,0;d8:c7:c8:4c:de:a1,TAFE-Events,-75,0,0,0;00:02:6f:12:34:50,Telstra Air,-88,0,0,0;d8:c7:c8:4c:f9:11,TAFE-Events,-91,0,0,0;6c:f3:7f:a1:46:d1,TAFE-Events,-95,0,0,0;d8:c7:c8:4c:f8:91,TAFE-Events,-96,0,0,0;d8:c7:c8:4c:f4:d1,TAFE-Events,-97,0,0,0;d8:c7:c8:4f:b6:b1,TAFE-Events,-97,0,0,0;

Scan6;d8:c7:c8:4f:cb:90,TAFENSW,-89,0,0,0;d8:c7:c8:4f:cb:91,TAFE-Events,-91,0,0,0;d8:c7:c8:4c:f4:10,TAFENSW,-82,0,0,0;28:c7:ce:a2:40:0b,Cisco860_Guest1,-69,0,0,0;28:c7:ce:a2:40:0a,Fork and Grind,-68,0,0,0;28:c7:ce:a2:40:0c,Cisco860_Guest2,-67,0,0,0;28:c7:ce:a2:40:0d,Cisco860_Guest3,-67,0,0,0;f0:5c:19:84:83:d0,TAFE-Events,-90,0,0,0;d8:c7:c8:4c:f7:b0,TAFENSW,-86,0,0,0;d8:c7:c8:4c:f7:b1,TAFE-Events,-86,0,0,0;d8:c7:c8:4c:de:b1,TAFE-Events,-83,0,0,0;d8:c7:c8:4c:fa:f0,TAFENSW,-86,0,0,0;f0:5c:19:84:8a:90,TAFENSW,-95,0,0,0;f0:5c:19:84:7c:70,TAFENSW,-90,0,0,0;f0:5c:19:84:8a:91,TAFE-Events,-94,0,0,0;d8:c7:c8:4c:f4:c0,TAFENSW,-77,0,0,0;f0:5c:19:84:83:d1,TAFENSW,-90,0,0,0;d8:c7:c8:4c:de:b0,TAFENSW,-83,0,0,0;d8:c7:c8:4c:ea:50,TAFENSW,-83,0,0,0;d8:c7:c8:4c:f4:c1,TAFE-Events,-77,0,0,0;d8:c7:c8:4c:ea:51,TAFE-Events,-83,0,0,0;d8:c7:c8:4c:96:f0,TAFENSW,-88,0,0,0;a0:04:60:a5:e5:a8,iiMAV_2,-74,0,0,0;14:cc:20:e1:11:fe,,-92,0,0,0;f0:5c:19:84:7c:71,TAFE-Events,-91,0,0,0;a0:04:60:a5:e5:ac,iiMAV_1,-82,0,0,0;70:3a:cb:19:5e:5e,Byzantium,-78,0,0,0;44:c3:46:7f:3b:d8,Doodeeee,-78,0,0,0;d8:c7:c8:4c:f7:a0,TAFENSW,-82,0,0,0;a8:c8:3a:2b:8f:40,TGP_wifi,-85,0,0,0;d8:c7:c8:4c:f9:10,TAFENSW,-91,0,0,0;24:7f:20:49:6b:1b,OPTUS_496B19_5GHz,-92,0,0,0;d8:c7:c8:4c:f8:90,TAFENSW,-96,0,0,0;d8:c7:c8:4c:f4:d0,TAFENSW,-96,0,0,0;6c:f3:7f:a1:46:d0,TAFENSW,-96,0,0,0;64:f6:9d:b3:f4:e0,iiNet Free WiFi,-73,0,0,0;d8:c7:c8:4c:de:a1,TAFE-Events,-75,0,0,0;00:02:6f:12:34:50,Telstra Air,-88,0,0,0;d8:c7:c8:4c:f9:11,TAFE-Events,-91,0,0,0;6c:f3:7f:a1:46:d1,TAFE-Events,-95,0,0,0;d8:c7:c8:4c:f8:91,TAFE-Events,-96,0,0,0;d8:c7:c8:4c:f4:d1,TAFE-Events,-97,0,0,0;d8:c7:c8:4f:b6:b1,TAFE-Events,-97,0,0,0;

Scan7;d8:c7:c8:4f:cb:90,TAFENSW,-89,0,0,0;d8:c7:c8:4f:cb:91,TAFE-Events,-91,0,0,0;d8:c7:c8:4c:f4:10,TAFENSW,-82,0,0,0;28:c7:ce:a2:40:0b,Cisco860_Guest1,-69,0,0,0;28:c7:ce:a2:40:0a,Fork and Grind,-68,0,0,0;28:c7:ce:a2:40:0c,Cisco860_Guest2,-67,0,0,0;28:c7:ce:a2:40:0d,Cisco860_Guest3,-67,0,0,0;f0:5c:19:84:83:d0,TAFE-Events,-90,0,0,0;d8:c7:c8:4c:f7:b0,TAFENSW,-86,0,0,0;d8:c7:c8:4c:f7:b1,TAFE-Events,-86,0,0,0;d8:c7:c8:4c:de:b1,TAFE-Events,-83,0,0,0;d8:c7:c8:4c:fa:f0,TAFENSW,-86,0,0,0;f0:5c:19:84:8a:90,TAFENSW,-95,0,0,0;f0:5c:19:84:7c:70,TAFENSW,-90,0,0,0;f0:5c:19:84:8a:91,TAFE-Events,-94,0,0,0;d8:c7:c8:4c:f4:c0,TAFENSW,-77,0,0,0;f0:5c:19:84:83:d1,TAFENSW,-90,0,0,0;d8:c7:c8:4c:de:b0,TAFENSW,-83,0,0,0;d8:c7:c8:4c:ea:50,TAFENSW,-83,0,0,0;d8:c7:c8:4c:f4:c1,TAFE-Events,-77,0,0,0;d8:c7:c8:4c:ea:51,TAFE-Events,-83,0,0,0;d8:c7:c8:4c:96:f0,TAFENSW,-88,0,0,0;a0:04:60:a5:e5:a8,iiMAV_2,-74,0,0,0;14:cc:20:e1:11:fe,,-92,0,0,0;f0:5c:19:84:7c:71,TAFE-Events,-91,0,0,0;a0:04:60:a5:e5:ac,iiMAV_1,-82,0,0,0;70:3a:cb:19:5e:5e,Byzantium,-78,0,0,0;44:c3:46:7f:3b:d8,Doodeeee,-78,0,0,0;d8:c7:c8:4c:f7:a0,TAFENSW,-82,0,0,0;a8:c8:3a:2b:8f:40,TGP_wifi,-85,0,0,0;d8:c7:c8:4c:f9:10,TAFENSW,-91,0,0,0;24:7f:20:49:6b:1b,OPTUS_496B19_5GHz,-92,0,0,0;d8:c7:c8:4c:f8:90,TAFENSW,-96,0,0,0;d8:c7:c8:4c:f4:d0,TAFENSW,-96,0,0,0;6c:f3:7f:a1:46:d0,TAFENSW,-96,0,0,0;64:f6:9d:b3:f4:e0,iiNet Free WiFi,-73,0,0,0;d8:c7:c8:4c:de:a1,TAFE-Events,-75,0,0,0;00:02:6f:12:34:50,Telstra Air,-88,0,0,0;d8:c7:c8:4c:f9:11,TAFE-Events,-91,0,0,0;6c:f3:7f:a1:46:d1,TAFE-Events,-95,0,0,0;d8:c7:c8:4c:f8:91,TAFE-Events,-96,0,0,0;d8:c7:c8:4c:f4:d1,TAFE-Events,-97,0,0,0;d8:c7:c8:4f:b6:b1,TAFE-Events,-97,0,0,0;

