Scan1;d8:c7:c8:4f:cb:90,TAFENSW,-74,0,0,0;d8:c7:c8:4f:b6:b0,TAFENSW,-86,0,0,0;d8:c7:c8:4f:cb:80,TAFENSW,-73,0,0,0;d8:c7:c8:4f:cc:50,TAFENSW,-87,0,0,0;d8:c7:c8:4f:cb:81,TAFE-Events,-73,0,0,0;d8:c7:c8:4f:cb:91,TAFE-Events,-74,0,0,0;d8:c7:c8:4f:b6:b1,TAFE-Events,-87,0,0,0;54:b8:0a:5c:28:10,Yiannis,-76,0,0,0;6c:f3:7f:a1:3c:10,TAFENSW,-90,0,0,0;d8:c7:c8:4c:fa:c1,TAFE-Events,-71,0,0,0;6c:f3:7f:a1:3c:11,TAFE-Events,-91,0,0,0;6c:f3:7f:a1:4a:f0,TAFENSW,-91,0,0,0;d8:c7:c8:4c:fa:f0,TAFENSW,-77,0,0,0;6c:f3:7f:a1:46:d0,TAFENSW,-83,0,0,0;d8:c7:c8:4c:fb:51,TAFE-Events,-94,0,0,0;d8:c7:c8:4c:de:70,TAFENSW,-85,0,0,0;6c:f3:7f:a1:46:d1,TAFE-Events,-83,0,0,0;d8:c7:c8:4c:de:71,TAFE-Events,-85,0,0,0;70:3a:0e:43:40:f1,UTS-WPA,-95,0,0,0;6c:f3:7f:a1:46:c0,TAFENSW,-73,0,0,0;d8:c7:c8:4c:f4:10,TAFENSW,-88,0,0,0;d8:c7:c8:4c:f5:30,TAFENSW,-92,0,0,0;d8:c7:c8:4c:fa:f1,TAFE-Events,-77,0,0,0;28:c7:ce:a2:40:0b,Cisco860_Guest1,-75,0,0,0;d8:c7:c8:4c:f5:31,TAFE-Events,-92,0,0,0;28:c7:ce:a2:40:0a,Fork and Grind,-79,0,0,0;d8:c7:c8:4c:fa:e1,TAFE-Events,-75,0,0,0;d8:c7:c8:4c:f5:21,TAFE-Events,-75,0,0,0;28:c7:ce:a2:40:0c,Cisco860_Guest2,-80,0,0,0;28:c7:ce:a2:40:0d,Cisco860_Guest3,-75,0,0,0;d8:c7:c8:4c:f4:11,TAFE-Events,-88,0,0,0;d8:c7:c8:4f:cc:51,TAFE-Events,-87,0,0,0;f0:5c:19:84:83:d0,TAFE-Events,-95,0,0,0;d8:c7:c8:4c:f5:20,TAFENSW,-71,0,0,0;d8:c7:c8:4c:f4:00,TAFENSW,-76,0,0,0;70:3a:0e:34:0b:a0,eduroam,-77,0,0,0;d8:c7:c8:4f:b6:a0,TAFENSW,-79,0,0,0;18:a6:f7:e8:e7:9f,2400 baud modem f,-81,0,0,0;70:3a:0e:43:3e:72,UTS-FunctionCenter,-95,0,0,0;70:3a:0e:43:3e:70,eduroam,-95,0,0,0;d8:c7:c8:4c:fb:90,TAFENSW,-95,0,0,0;70:3a:0e:43:3e:71,UTS-WPA,-96,0,0,0;d8:c7:c8:4c:96:50,TAFENSW,-96,0,0,0;6c:f3:7f:a1:46:c1,TAFE-Events,-71,0,0,0;d8:c7:c8:4c:f4:01,TAFE-Events,-76,0,0,0;d8:c7:c8:4f:b6:a1,TAFE-Events,-78,0,0,0;d8:c7:c8:4c:96:51,TAFE-Events,-96,0,0,0;

Scan2;d8:c7:c8:4f:cb:90,TAFENSW,-74,0,0,0;d8:c7:c8:4f:b6:b0,TAFENSW,-86,0,0,0;d8:c7:c8:4f:cb:80,TAFENSW,-73,0,0,0;d8:c7:c8:4f:cc:50,TAFENSW,-87,0,0,0;d8:c7:c8:4f:cb:81,TAFE-Events,-73,0,0,0;d8:c7:c8:4f:cb:91,TAFE-Events,-74,0,0,0;d8:c7:c8:4f:b6:b1,TAFE-Events,-87,0,0,0;54:b8:0a:5c:28:10,Yiannis,-76,0,0,0;6c:f3:7f:a1:3c:10,TAFENSW,-90,0,0,0;d8:c7:c8:4c:fa:c1,TAFE-Events,-71,0,0,0;6c:f3:7f:a1:3c:11,TAFE-Events,-91,0,0,0;6c:f3:7f:a1:4a:f0,TAFENSW,-91,0,0,0;d8:c7:c8:4c:fa:f0,TAFENSW,-77,0,0,0;6c:f3:7f:a1:46:d0,TAFENSW,-83,0,0,0;d8:c7:c8:4c:fb:51,TAFE-Events,-94,0,0,0;d8:c7:c8:4c:de:70,TAFENSW,-85,0,0,0;6c:f3:7f:a1:46:d1,TAFE-Events,-83,0,0,0;d8:c7:c8:4c:de:71,TAFE-Events,-85,0,0,0;70:3a:0e:43:40:f1,UTS-WPA,-95,0,0,0;6c:f3:7f:a1:46:c0,TAFENSW,-73,0,0,0;d8:c7:c8:4c:f4:10,TAFENSW,-88,0,0,0;d8:c7:c8:4c:f5:30,TAFENSW,-92,0,0,0;d8:c7:c8:4c:fa:f1,TAFE-Events,-77,0,0,0;28:c7:ce:a2:40:0b,Cisco860_Guest1,-75,0,0,0;d8:c7:c8:4c:f5:31,TAFE-Events,-92,0,0,0;28:c7:ce:a2:40:0a,Fork and Grind,-79,0,0,0;d8:c7:c8:4c:fa:e1,TAFE-Events,-75,0,0,0;d8:c7:c8:4c:f5:21,TAFE-Events,-75,0,0,0;28:c7:ce:a2:40:0c,Cisco860_Guest2,-80,0,0,0;28:c7:ce:a2:40:0d,Cisco860_Guest3,-75,0,0,0;d8:c7:c8:4c:f4:11,TAFE-Events,-88,0,0,0;d8:c7:c8:4f:cc:51,TAFE-Events,-87,0,0,0;f0:5c:19:84:83:d0,TAFE-Events,-95,0,0,0;d8:c7:c8:4c:f5:20,TAFENSW,-71,0,0,0;d8:c7:c8:4c:f4:00,TAFENSW,-76,0,0,0;70:3a:0e:34:0b:a0,eduroam,-77,0,0,0;d8:c7:c8:4f:b6:a0,TAFENSW,-79,0,0,0;18:a6:f7:e8:e7:9f,2400 baud modem f,-81,0,0,0;70:3a:0e:43:3e:72,UTS-FunctionCenter,-95,0,0,0;70:3a:0e:43:3e:70,eduroam,-95,0,0,0;d8:c7:c8:4c:fb:90,TAFENSW,-95,0,0,0;70:3a:0e:43:3e:71,UTS-WPA,-96,0,0,0;d8:c7:c8:4c:96:50,TAFENSW,-96,0,0,0;6c:f3:7f:a1:46:c1,TAFE-Events,-71,0,0,0;d8:c7:c8:4c:f4:01,TAFE-Events,-76,0,0,0;d8:c7:c8:4f:b6:a1,TAFE-Events,-78,0,0,0;d8:c7:c8:4c:96:51,TAFE-Events,-96,0,0,0;

Scan3;d8:c7:c8:4f:cb:90,TAFENSW,-74,0,0,0;d8:c7:c8:4f:b6:b0,TAFENSW,-86,0,0,0;d8:c7:c8:4f:cb:80,TAFENSW,-73,0,0,0;d8:c7:c8:4f:cc:50,TAFENSW,-87,0,0,0;d8:c7:c8:4f:cb:81,TAFE-Events,-73,0,0,0;d8:c7:c8:4f:cb:91,TAFE-Events,-74,0,0,0;d8:c7:c8:4f:b6:b1,TAFE-Events,-87,0,0,0;54:b8:0a:5c:28:10,Yiannis,-76,0,0,0;6c:f3:7f:a1:3c:10,TAFENSW,-90,0,0,0;d8:c7:c8:4c:fa:c1,TAFE-Events,-71,0,0,0;6c:f3:7f:a1:3c:11,TAFE-Events,-91,0,0,0;6c:f3:7f:a1:4a:f0,TAFENSW,-91,0,0,0;d8:c7:c8:4c:fa:f0,TAFENSW,-77,0,0,0;6c:f3:7f:a1:46:d0,TAFENSW,-83,0,0,0;d8:c7:c8:4c:fb:51,TAFE-Events,-94,0,0,0;d8:c7:c8:4c:de:70,TAFENSW,-85,0,0,0;6c:f3:7f:a1:46:d1,TAFE-Events,-83,0,0,0;d8:c7:c8:4c:de:71,TAFE-Events,-85,0,0,0;70:3a:0e:43:40:f1,UTS-WPA,-95,0,0,0;6c:f3:7f:a1:46:c0,TAFENSW,-73,0,0,0;d8:c7:c8:4c:f4:10,TAFENSW,-88,0,0,0;d8:c7:c8:4c:f5:30,TAFENSW,-92,0,0,0;d8:c7:c8:4c:fa:f1,TAFE-Events,-77,0,0,0;28:c7:ce:a2:40:0b,Cisco860_Guest1,-75,0,0,0;d8:c7:c8:4c:f5:31,TAFE-Events,-92,0,0,0;28:c7:ce:a2:40:0a,Fork and Grind,-79,0,0,0;d8:c7:c8:4c:fa:e1,TAFE-Events,-75,0,0,0;d8:c7:c8:4c:f5:21,TAFE-Events,-75,0,0,0;28:c7:ce:a2:40:0c,Cisco860_Guest2,-80,0,0,0;28:c7:ce:a2:40:0d,Cisco860_Guest3,-75,0,0,0;d8:c7:c8:4c:f4:11,TAFE-Events,-88,0,0,0;d8:c7:c8:4f:cc:51,TAFE-Events,-87,0,0,0;f0:5c:19:84:83:d0,TAFE-Events,-95,0,0,0;d8:c7:c8:4c:f5:20,TAFENSW,-71,0,0,0;d8:c7:c8:4c:f4:00,TAFENSW,-76,0,0,0;70:3a:0e:34:0b:a0,eduroam,-77,0,0,0;d8:c7:c8:4f:b6:a0,TAFENSW,-79,0,0,0;18:a6:f7:e8:e7:9f,2400 baud modem f,-81,0,0,0;70:3a:0e:43:3e:72,UTS-FunctionCenter,-95,0,0,0;70:3a:0e:43:3e:70,eduroam,-95,0,0,0;d8:c7:c8:4c:fb:90,TAFENSW,-95,0,0,0;70:3a:0e:43:3e:71,UTS-WPA,-96,0,0,0;d8:c7:c8:4c:96:50,TAFENSW,-96,0,0,0;6c:f3:7f:a1:46:c1,TAFE-Events,-71,0,0,0;d8:c7:c8:4c:f4:01,TAFE-Events,-76,0,0,0;d8:c7:c8:4f:b6:a1,TAFE-Events,-78,0,0,0;d8:c7:c8:4c:96:51,TAFE-Events,-96,0,0,0;

Scan4;d8:c7:c8:4f:cb:90,TAFENSW,-74,0,0,0;d8:c7:c8:4f:b6:b0,TAFENSW,-86,0,0,0;d8:c7:c8:4f:cb:80,TAFENSW,-73,0,0,0;d8:c7:c8:4f:cc:50,TAFENSW,-87,0,0,0;d8:c7:c8:4f:cb:81,TAFE-Events,-73,0,0,0;d8:c7:c8:4f:cb:91,TAFE-Events,-74,0,0,0;d8:c7:c8:4f:b6:b1,TAFE-Events,-87,0,0,0;54:b8:0a:5c:28:10,Yiannis,-76,0,0,0;6c:f3:7f:a1:3c:10,TAFENSW,-90,0,0,0;d8:c7:c8:4c:fa:c1,TAFE-Events,-71,0,0,0;6c:f3:7f:a1:3c:11,TAFE-Events,-91,0,0,0;6c:f3:7f:a1:4a:f0,TAFENSW,-91,0,0,0;d8:c7:c8:4c:fa:f0,TAFENSW,-77,0,0,0;6c:f3:7f:a1:46:d0,TAFENSW,-83,0,0,0;d8:c7:c8:4c:fb:51,TAFE-Events,-94,0,0,0;d8:c7:c8:4c:de:70,TAFENSW,-85,0,0,0;6c:f3:7f:a1:46:d1,TAFE-Events,-83,0,0,0;d8:c7:c8:4c:de:71,TAFE-Events,-85,0,0,0;70:3a:0e:43:40:f1,UTS-WPA,-95,0,0,0;6c:f3:7f:a1:46:c0,TAFENSW,-73,0,0,0;d8:c7:c8:4c:f4:10,TAFENSW,-88,0,0,0;d8:c7:c8:4c:f5:30,TAFENSW,-92,0,0,0;d8:c7:c8:4c:fa:f1,TAFE-Events,-77,0,0,0;28:c7:ce:a2:40:0b,Cisco860_Guest1,-75,0,0,0;d8:c7:c8:4c:f5:31,TAFE-Events,-92,0,0,0;28:c7:ce:a2:40:0a,Fork and Grind,-79,0,0,0;d8:c7:c8:4c:fa:e1,TAFE-Events,-75,0,0,0;d8:c7:c8:4c:f5:21,TAFE-Events,-75,0,0,0;28:c7:ce:a2:40:0c,Cisco860_Guest2,-80,0,0,0;28:c7:ce:a2:40:0d,Cisco860_Guest3,-75,0,0,0;d8:c7:c8:4c:f4:11,TAFE-Events,-88,0,0,0;d8:c7:c8:4f:cc:51,TAFE-Events,-87,0,0,0;f0:5c:19:84:83:d0,TAFE-Events,-95,0,0,0;d8:c7:c8:4c:f5:20,TAFENSW,-71,0,0,0;d8:c7:c8:4c:f4:00,TAFENSW,-76,0,0,0;70:3a:0e:34:0b:a0,eduroam,-77,0,0,0;d8:c7:c8:4f:b6:a0,TAFENSW,-79,0,0,0;18:a6:f7:e8:e7:9f,2400 baud modem f,-81,0,0,0;70:3a:0e:43:3e:72,UTS-FunctionCenter,-95,0,0,0;70:3a:0e:43:3e:70,eduroam,-95,0,0,0;d8:c7:c8:4c:fb:90,TAFENSW,-95,0,0,0;70:3a:0e:43:3e:71,UTS-WPA,-96,0,0,0;d8:c7:c8:4c:96:50,TAFENSW,-96,0,0,0;6c:f3:7f:a1:46:c1,TAFE-Events,-71,0,0,0;d8:c7:c8:4c:f4:01,TAFE-Events,-76,0,0,0;d8:c7:c8:4f:b6:a1,TAFE-Events,-78,0,0,0;d8:c7:c8:4c:96:51,TAFE-Events,-96,0,0,0;

Scan5;d8:c7:c8:4f:cb:90,TAFENSW,-74,0,0,0;d8:c7:c8:4f:b6:b0,TAFENSW,-86,0,0,0;d8:c7:c8:4f:cb:80,TAFENSW,-73,0,0,0;d8:c7:c8:4f:cc:50,TAFENSW,-87,0,0,0;d8:c7:c8:4f:cb:81,TAFE-Events,-73,0,0,0;d8:c7:c8:4f:cb:91,TAFE-Events,-74,0,0,0;d8:c7:c8:4f:b6:b1,TAFE-Events,-87,0,0,0;54:b8:0a:5c:28:10,Yiannis,-76,0,0,0;6c:f3:7f:a1:3c:10,TAFENSW,-90,0,0,0;d8:c7:c8:4c:fa:c1,TAFE-Events,-71,0,0,0;6c:f3:7f:a1:3c:11,TAFE-Events,-91,0,0,0;6c:f3:7f:a1:4a:f0,TAFENSW,-91,0,0,0;d8:c7:c8:4c:fa:f0,TAFENSW,-77,0,0,0;6c:f3:7f:a1:46:d0,TAFENSW,-83,0,0,0;d8:c7:c8:4c:fb:51,TAFE-Events,-94,0,0,0;d8:c7:c8:4c:de:70,TAFENSW,-85,0,0,0;6c:f3:7f:a1:46:d1,TAFE-Events,-83,0,0,0;d8:c7:c8:4c:de:71,TAFE-Events,-85,0,0,0;70:3a:0e:43:40:f1,UTS-WPA,-95,0,0,0;6c:f3:7f:a1:46:c0,TAFENSW,-73,0,0,0;d8:c7:c8:4c:f4:10,TAFENSW,-88,0,0,0;d8:c7:c8:4c:f5:30,TAFENSW,-92,0,0,0;d8:c7:c8:4c:fa:f1,TAFE-Events,-77,0,0,0;28:c7:ce:a2:40:0b,Cisco860_Guest1,-75,0,0,0;d8:c7:c8:4c:f5:31,TAFE-Events,-92,0,0,0;28:c7:ce:a2:40:0a,Fork and Grind,-79,0,0,0;d8:c7:c8:4c:fa:e1,TAFE-Events,-75,0,0,0;d8:c7:c8:4c:f5:21,TAFE-Events,-75,0,0,0;28:c7:ce:a2:40:0c,Cisco860_Guest2,-80,0,0,0;28:c7:ce:a2:40:0d,Cisco860_Guest3,-75,0,0,0;d8:c7:c8:4c:f4:11,TAFE-Events,-88,0,0,0;d8:c7:c8:4f:cc:51,TAFE-Events,-87,0,0,0;f0:5c:19:84:83:d0,TAFE-Events,-95,0,0,0;d8:c7:c8:4c:f5:20,TAFENSW,-71,0,0,0;d8:c7:c8:4c:f4:00,TAFENSW,-76,0,0,0;70:3a:0e:34:0b:a0,eduroam,-77,0,0,0;d8:c7:c8:4f:b6:a0,TAFENSW,-79,0,0,0;18:a6:f7:e8:e7:9f,2400 baud modem f,-81,0,0,0;70:3a:0e:43:3e:72,UTS-FunctionCenter,-95,0,0,0;70:3a:0e:43:3e:70,eduroam,-95,0,0,0;d8:c7:c8:4c:fb:90,TAFENSW,-95,0,0,0;70:3a:0e:43:3e:71,UTS-WPA,-96,0,0,0;d8:c7:c8:4c:96:50,TAFENSW,-96,0,0,0;6c:f3:7f:a1:46:c1,TAFE-Events,-71,0,0,0;d8:c7:c8:4c:f4:01,TAFE-Events,-76,0,0,0;d8:c7:c8:4f:b6:a1,TAFE-Events,-78,0,0,0;d8:c7:c8:4c:96:51,TAFE-Events,-96,0,0,0;

Scan6;d8:c7:c8:4f:cb:90,TAFENSW,-74,0,0,0;d8:c7:c8:4f:b6:b0,TAFENSW,-86,0,0,0;d8:c7:c8:4f:cb:80,TAFENSW,-73,0,0,0;d8:c7:c8:4f:cc:50,TAFENSW,-87,0,0,0;d8:c7:c8:4f:cb:81,TAFE-Events,-73,0,0,0;d8:c7:c8:4f:cb:91,TAFE-Events,-74,0,0,0;d8:c7:c8:4f:b6:b1,TAFE-Events,-87,0,0,0;54:b8:0a:5c:28:10,Yiannis,-76,0,0,0;6c:f3:7f:a1:3c:10,TAFENSW,-90,0,0,0;d8:c7:c8:4c:fa:c1,TAFE-Events,-71,0,0,0;6c:f3:7f:a1:3c:11,TAFE-Events,-91,0,0,0;6c:f3:7f:a1:4a:f0,TAFENSW,-91,0,0,0;d8:c7:c8:4c:fa:f0,TAFENSW,-77,0,0,0;6c:f3:7f:a1:46:d0,TAFENSW,-83,0,0,0;d8:c7:c8:4c:fb:51,TAFE-Events,-94,0,0,0;d8:c7:c8:4c:de:70,TAFENSW,-85,0,0,0;6c:f3:7f:a1:46:d1,TAFE-Events,-83,0,0,0;d8:c7:c8:4c:de:71,TAFE-Events,-85,0,0,0;70:3a:0e:43:40:f1,UTS-WPA,-95,0,0,0;6c:f3:7f:a1:46:c0,TAFENSW,-73,0,0,0;d8:c7:c8:4c:f4:10,TAFENSW,-88,0,0,0;d8:c7:c8:4c:f5:30,TAFENSW,-92,0,0,0;d8:c7:c8:4c:fa:f1,TAFE-Events,-77,0,0,0;28:c7:ce:a2:40:0b,Cisco860_Guest1,-75,0,0,0;d8:c7:c8:4c:f5:31,TAFE-Events,-92,0,0,0;28:c7:ce:a2:40:0a,Fork and Grind,-79,0,0,0;d8:c7:c8:4c:fa:e1,TAFE-Events,-75,0,0,0;d8:c7:c8:4c:f5:21,TAFE-Events,-75,0,0,0;28:c7:ce:a2:40:0c,Cisco860_Guest2,-80,0,0,0;28:c7:ce:a2:40:0d,Cisco860_Guest3,-75,0,0,0;d8:c7:c8:4c:f4:11,TAFE-Events,-88,0,0,0;d8:c7:c8:4f:cc:51,TAFE-Events,-87,0,0,0;f0:5c:19:84:83:d0,TAFE-Events,-95,0,0,0;d8:c7:c8:4c:f5:20,TAFENSW,-71,0,0,0;d8:c7:c8:4c:f4:00,TAFENSW,-76,0,0,0;70:3a:0e:34:0b:a0,eduroam,-77,0,0,0;d8:c7:c8:4f:b6:a0,TAFENSW,-79,0,0,0;18:a6:f7:e8:e7:9f,2400 baud modem f,-81,0,0,0;70:3a:0e:43:3e:72,UTS-FunctionCenter,-95,0,0,0;70:3a:0e:43:3e:70,eduroam,-95,0,0,0;d8:c7:c8:4c:fb:90,TAFENSW,-95,0,0,0;70:3a:0e:43:3e:71,UTS-WPA,-96,0,0,0;d8:c7:c8:4c:96:50,TAFENSW,-96,0,0,0;6c:f3:7f:a1:46:c1,TAFE-Events,-71,0,0,0;d8:c7:c8:4c:f4:01,TAFE-Events,-76,0,0,0;d8:c7:c8:4f:b6:a1,TAFE-Events,-78,0,0,0;d8:c7:c8:4c:96:51,TAFE-Events,-96,0,0,0;

Scan7;d8:c7:c8:4f:cb:90,TAFENSW,-74,0,0,0;d8:c7:c8:4f:b6:b0,TAFENSW,-86,0,0,0;d8:c7:c8:4f:cb:80,TAFENSW,-73,0,0,0;d8:c7:c8:4f:cc:50,TAFENSW,-87,0,0,0;d8:c7:c8:4f:cb:81,TAFE-Events,-73,0,0,0;d8:c7:c8:4f:cb:91,TAFE-Events,-74,0,0,0;d8:c7:c8:4f:b6:b1,TAFE-Events,-87,0,0,0;54:b8:0a:5c:28:10,Yiannis,-76,0,0,0;6c:f3:7f:a1:3c:10,TAFENSW,-90,0,0,0;d8:c7:c8:4c:fa:c1,TAFE-Events,-71,0,0,0;6c:f3:7f:a1:3c:11,TAFE-Events,-91,0,0,0;6c:f3:7f:a1:4a:f0,TAFENSW,-91,0,0,0;d8:c7:c8:4c:fa:f0,TAFENSW,-77,0,0,0;6c:f3:7f:a1:46:d0,TAFENSW,-83,0,0,0;d8:c7:c8:4c:fb:51,TAFE-Events,-94,0,0,0;d8:c7:c8:4c:de:70,TAFENSW,-85,0,0,0;6c:f3:7f:a1:46:d1,TAFE-Events,-83,0,0,0;d8:c7:c8:4c:de:71,TAFE-Events,-85,0,0,0;70:3a:0e:43:40:f1,UTS-WPA,-95,0,0,0;6c:f3:7f:a1:46:c0,TAFENSW,-73,0,0,0;d8:c7:c8:4c:f4:10,TAFENSW,-88,0,0,0;d8:c7:c8:4c:f5:30,TAFENSW,-92,0,0,0;d8:c7:c8:4c:fa:f1,TAFE-Events,-77,0,0,0;28:c7:ce:a2:40:0b,Cisco860_Guest1,-75,0,0,0;d8:c7:c8:4c:f5:31,TAFE-Events,-92,0,0,0;28:c7:ce:a2:40:0a,Fork and Grind,-79,0,0,0;d8:c7:c8:4c:fa:e1,TAFE-Events,-75,0,0,0;d8:c7:c8:4c:f5:21,TAFE-Events,-75,0,0,0;28:c7:ce:a2:40:0c,Cisco860_Guest2,-80,0,0,0;28:c7:ce:a2:40:0d,Cisco860_Guest3,-75,0,0,0;d8:c7:c8:4c:f4:11,TAFE-Events,-88,0,0,0;d8:c7:c8:4f:cc:51,TAFE-Events,-87,0,0,0;f0:5c:19:84:83:d0,TAFE-Events,-95,0,0,0;d8:c7:c8:4c:f5:20,TAFENSW,-71,0,0,0;d8:c7:c8:4c:f4:00,TAFENSW,-76,0,0,0;70:3a:0e:34:0b:a0,eduroam,-77,0,0,0;d8:c7:c8:4f:b6:a0,TAFENSW,-79,0,0,0;18:a6:f7:e8:e7:9f,2400 baud modem f,-81,0,0,0;70:3a:0e:43:3e:72,UTS-FunctionCenter,-95,0,0,0;70:3a:0e:43:3e:70,eduroam,-95,0,0,0;d8:c7:c8:4c:fb:90,TAFENSW,-95,0,0,0;70:3a:0e:43:3e:71,UTS-WPA,-96,0,0,0;d8:c7:c8:4c:96:50,TAFENSW,-96,0,0,0;6c:f3:7f:a1:46:c1,TAFE-Events,-71,0,0,0;d8:c7:c8:4c:f4:01,TAFE-Events,-76,0,0,0;d8:c7:c8:4f:b6:a1,TAFE-Events,-78,0,0,0;d8:c7:c8:4c:96:51,TAFE-Events,-96,0,0,0;

