Scan1;28:c7:ce:a2:40:0a,Fork and Grind,-66,0,0,0;28:c7:ce:a2:40:0c,Cisco860_Guest2,-71,0,0,0;d8:c7:c8:4c:de:b1,TAFE-Events,-80,0,0,0;d8:c7:c8:4c:fa:f0,TAFENSW,-89,0,0,0;d8:c7:c8:4c:de:b0,TAFENSW,-80,0,0,0;d8:c7:c8:4c:96:f0,TAFENSW,-88,0,0,0;14:cc:20:e1:11:fe,,-90,0,0,0;a8:c8:3a:2b:8f:40,TGP_wifi,-74,0,0,0;24:7f:20:49:6b:1b,OPTUS_496B19_5GHz,-82,0,0,0;64:f6:9d:b3:f4:e0,iiNet Free WiFi,-75,0,0,0;d8:c7:c8:4c:de:a1,TAFE-Events,-71,0,0,0;d8:c7:c8:4c:de:a0,TAFENSW,-71,0,0,0;d0:65:ca:54:fb:90,WiFi-7DUR,-77,0,0,0;d8:c7:c8:4c:fa:f1,TAFE-Events,-90,0,0,0;64:f6:9d:b3:f4:ef,iiNet Free WiFi,-91,0,0,0;a0:04:60:a5:e5:ac,iiMAV_1,-73,0,0,0;24:7f:20:49:6b:1a,OPTUS_496B19,-71,0,0,0;c4:71:54:46:90:f1,WiFi-90F1,-78,0,0,0;d8:c7:c8:4c:ea:50,TAFENSW,-85,0,0,0;4e:ef:c0:b4:cb:74,,-88,0,0,0;64:f6:9d:b3:f4:ee,iiNet Customer,-88,0,0,0;d8:c7:c8:4c:f4:d0,TAFENSW,-89,0,0,0;34:6b:46:bc:65:94,OPTUS_BC6592_5GHz,-92,0,0,0;44:c3:46:7f:66:70,WiFi-G4ZT-5G,-97,0,0,0;c8:94:bb:b6:01:2c,WiFi-Q4LF-5G,-99,0,0,0;d8:c7:c8:4c:ea:51,TAFE-Events,-85,0,0,0;d8:c7:c8:4f:cb:91,TAFE-Events,-89,0,0,0;d8:c7:c8:4c:f4:d1,TAFE-Events,-89,0,0,0;

Scan2;28:c7:ce:a2:40:0a,Fork and Grind,-66,0,0,0;28:c7:ce:a2:40:0c,Cisco860_Guest2,-71,0,0,0;d8:c7:c8:4c:de:b1,TAFE-Events,-80,0,0,0;d8:c7:c8:4c:fa:f0,TAFENSW,-89,0,0,0;d8:c7:c8:4c:de:b0,TAFENSW,-80,0,0,0;d8:c7:c8:4c:96:f0,TAFENSW,-88,0,0,0;14:cc:20:e1:11:fe,,-90,0,0,0;a8:c8:3a:2b:8f:40,TGP_wifi,-74,0,0,0;24:7f:20:49:6b:1b,OPTUS_496B19_5GHz,-82,0,0,0;64:f6:9d:b3:f4:e0,iiNet Free WiFi,-75,0,0,0;d8:c7:c8:4c:de:a1,TAFE-Events,-71,0,0,0;d8:c7:c8:4c:de:a0,TAFENSW,-71,0,0,0;d0:65:ca:54:fb:90,WiFi-7DUR,-77,0,0,0;d8:c7:c8:4c:fa:f1,TAFE-Events,-90,0,0,0;64:f6:9d:b3:f4:ef,iiNet Free WiFi,-91,0,0,0;a0:04:60:a5:e5:ac,iiMAV_1,-73,0,0,0;24:7f:20:49:6b:1a,OPTUS_496B19,-71,0,0,0;c4:71:54:46:90:f1,WiFi-90F1,-78,0,0,0;d8:c7:c8:4c:ea:50,TAFENSW,-85,0,0,0;4e:ef:c0:b4:cb:74,,-88,0,0,0;64:f6:9d:b3:f4:ee,iiNet Customer,-88,0,0,0;d8:c7:c8:4c:f4:d0,TAFENSW,-89,0,0,0;34:6b:46:bc:65:94,OPTUS_BC6592_5GHz,-92,0,0,0;44:c3:46:7f:66:70,WiFi-G4ZT-5G,-97,0,0,0;c8:94:bb:b6:01:2c,WiFi-Q4LF-5G,-99,0,0,0;d8:c7:c8:4c:ea:51,TAFE-Events,-85,0,0,0;d8:c7:c8:4f:cb:91,TAFE-Events,-89,0,0,0;d8:c7:c8:4c:f4:d1,TAFE-Events,-89,0,0,0;

Scan3;28:c7:ce:a2:40:0a,Fork and Grind,-65,0,0,0;28:c7:ce:a2:40:0c,Cisco860_Guest2,-67,0,0,0;d8:c7:c8:4c:de:b1,TAFE-Events,-79,0,0,0;d8:c7:c8:4c:de:b0,TAFENSW,-81,0,0,0;24:7f:20:49:6b:1b,OPTUS_496B19_5GHz,-86,0,0,0;64:f6:9d:b3:f4:ef,iiNet Free WiFi,-86,0,0,0;a0:04:60:a5:e5:ac,iiMAV_1,-85,0,0,0;24:7f:20:49:6b:1a,OPTUS_496B19,-75,0,0,0;d8:c7:c8:4c:ea:50,TAFENSW,-88,0,0,0;4e:ef:c0:b4:cb:74,,-90,0,0,0;d8:c7:c8:4c:f4:d0,TAFENSW,-85,0,0,0;34:6b:46:bc:65:94,OPTUS_BC6592_5GHz,-96,0,0,0;44:c3:46:7f:66:70,WiFi-G4ZT-5G,-95,0,0,0;d8:c7:c8:4c:ea:51,TAFE-Events,-88,0,0,0;d8:c7:c8:4c:f4:d1,TAFE-Events,-84,0,0,0;a0:04:60:a5:e5:a8,iiMAV_2,-75,0,0,0;18:a6:f7:2d:60:a6,TP-LINK_AP_60A6,-78,0,0,0;18:64:72:30:21:81,UTS-WPA,-78,0,0,0;18:64:72:30:21:80,eduroam,-79,0,0,0;d0:65:ca:54:fb:94,WiFi-7DUR-5G,-94,0,0,0;d8:c7:c8:4c:f4:10,TAFENSW,-94,0,0,0;d8:c7:c8:4c:f5:30,TAFENSW,-98,0,0,0;28:c7:ce:a2:40:0d,Cisco860_Guest3,-65,0,0,0;28:c7:ce:a2:40:0b,Cisco860_Guest1,-66,0,0,0;00:02:6f:12:34:50,Telstra Air,-75,0,0,0;d8:c7:c8:4c:f4:11,TAFE-Events,-94,0,0,0;

Scan4;28:c7:ce:a2:40:0a,Fork and Grind,-65,0,0,0;28:c7:ce:a2:40:0c,Cisco860_Guest2,-67,0,0,0;d8:c7:c8:4c:de:b1,TAFE-Events,-79,0,0,0;d8:c7:c8:4c:de:b0,TAFENSW,-81,0,0,0;24:7f:20:49:6b:1b,OPTUS_496B19_5GHz,-86,0,0,0;64:f6:9d:b3:f4:ef,iiNet Free WiFi,-86,0,0,0;a0:04:60:a5:e5:ac,iiMAV_1,-85,0,0,0;24:7f:20:49:6b:1a,OPTUS_496B19,-75,0,0,0;d8:c7:c8:4c:ea:50,TAFENSW,-88,0,0,0;4e:ef:c0:b4:cb:74,,-90,0,0,0;d8:c7:c8:4c:f4:d0,TAFENSW,-85,0,0,0;34:6b:46:bc:65:94,OPTUS_BC6592_5GHz,-96,0,0,0;44:c3:46:7f:66:70,WiFi-G4ZT-5G,-95,0,0,0;d8:c7:c8:4c:ea:51,TAFE-Events,-88,0,0,0;d8:c7:c8:4c:f4:d1,TAFE-Events,-84,0,0,0;a0:04:60:a5:e5:a8,iiMAV_2,-75,0,0,0;18:a6:f7:2d:60:a6,TP-LINK_AP_60A6,-78,0,0,0;18:64:72:30:21:81,UTS-WPA,-78,0,0,0;18:64:72:30:21:80,eduroam,-79,0,0,0;d0:65:ca:54:fb:94,WiFi-7DUR-5G,-94,0,0,0;d8:c7:c8:4c:f4:10,TAFENSW,-94,0,0,0;d8:c7:c8:4c:f5:30,TAFENSW,-98,0,0,0;28:c7:ce:a2:40:0d,Cisco860_Guest3,-65,0,0,0;28:c7:ce:a2:40:0b,Cisco860_Guest1,-66,0,0,0;00:02:6f:12:34:50,Telstra Air,-75,0,0,0;d8:c7:c8:4c:f4:11,TAFE-Events,-94,0,0,0;

Scan5;28:c7:ce:a2:40:0a,Fork and Grind,-65,0,0,0;28:c7:ce:a2:40:0c,Cisco860_Guest2,-67,0,0,0;d8:c7:c8:4c:de:b1,TAFE-Events,-79,0,0,0;d8:c7:c8:4c:de:b0,TAFENSW,-81,0,0,0;24:7f:20:49:6b:1b,OPTUS_496B19_5GHz,-86,0,0,0;64:f6:9d:b3:f4:ef,iiNet Free WiFi,-86,0,0,0;a0:04:60:a5:e5:ac,iiMAV_1,-85,0,0,0;24:7f:20:49:6b:1a,OPTUS_496B19,-75,0,0,0;d8:c7:c8:4c:ea:50,TAFENSW,-88,0,0,0;4e:ef:c0:b4:cb:74,,-90,0,0,0;d8:c7:c8:4c:f4:d0,TAFENSW,-85,0,0,0;34:6b:46:bc:65:94,OPTUS_BC6592_5GHz,-96,0,0,0;44:c3:46:7f:66:70,WiFi-G4ZT-5G,-95,0,0,0;d8:c7:c8:4c:ea:51,TAFE-Events,-88,0,0,0;d8:c7:c8:4c:f4:d1,TAFE-Events,-84,0,0,0;a0:04:60:a5:e5:a8,iiMAV_2,-75,0,0,0;18:a6:f7:2d:60:a6,TP-LINK_AP_60A6,-78,0,0,0;18:64:72:30:21:81,UTS-WPA,-78,0,0,0;18:64:72:30:21:80,eduroam,-79,0,0,0;d0:65:ca:54:fb:94,WiFi-7DUR-5G,-94,0,0,0;d8:c7:c8:4c:f4:10,TAFENSW,-94,0,0,0;d8:c7:c8:4c:f5:30,TAFENSW,-98,0,0,0;28:c7:ce:a2:40:0d,Cisco860_Guest3,-65,0,0,0;28:c7:ce:a2:40:0b,Cisco860_Guest1,-66,0,0,0;00:02:6f:12:34:50,Telstra Air,-75,0,0,0;d8:c7:c8:4c:f4:11,TAFE-Events,-94,0,0,0;

Scan6;28:c7:ce:a2:40:0a,Fork and Grind,-65,0,0,0;28:c7:ce:a2:40:0c,Cisco860_Guest2,-67,0,0,0;d8:c7:c8:4c:de:b1,TAFE-Events,-79,0,0,0;d8:c7:c8:4c:de:b0,TAFENSW,-81,0,0,0;24:7f:20:49:6b:1b,OPTUS_496B19_5GHz,-86,0,0,0;64:f6:9d:b3:f4:ef,iiNet Free WiFi,-86,0,0,0;a0:04:60:a5:e5:ac,iiMAV_1,-85,0,0,0;24:7f:20:49:6b:1a,OPTUS_496B19,-75,0,0,0;d8:c7:c8:4c:ea:50,TAFENSW,-88,0,0,0;4e:ef:c0:b4:cb:74,,-90,0,0,0;d8:c7:c8:4c:f4:d0,TAFENSW,-85,0,0,0;34:6b:46:bc:65:94,OPTUS_BC6592_5GHz,-96,0,0,0;44:c3:46:7f:66:70,WiFi-G4ZT-5G,-95,0,0,0;d8:c7:c8:4c:ea:51,TAFE-Events,-88,0,0,0;d8:c7:c8:4c:f4:d1,TAFE-Events,-84,0,0,0;a0:04:60:a5:e5:a8,iiMAV_2,-75,0,0,0;18:a6:f7:2d:60:a6,TP-LINK_AP_60A6,-78,0,0,0;18:64:72:30:21:81,UTS-WPA,-78,0,0,0;18:64:72:30:21:80,eduroam,-79,0,0,0;d0:65:ca:54:fb:94,WiFi-7DUR-5G,-94,0,0,0;d8:c7:c8:4c:f4:10,TAFENSW,-94,0,0,0;d8:c7:c8:4c:f5:30,TAFENSW,-98,0,0,0;28:c7:ce:a2:40:0d,Cisco860_Guest3,-65,0,0,0;28:c7:ce:a2:40:0b,Cisco860_Guest1,-66,0,0,0;00:02:6f:12:34:50,Telstra Air,-75,0,0,0;d8:c7:c8:4c:f4:11,TAFE-Events,-94,0,0,0;

Scan7;28:c7:ce:a2:40:0a,Fork and Grind,-65,0,0,0;28:c7:ce:a2:40:0c,Cisco860_Guest2,-67,0,0,0;d8:c7:c8:4c:de:b1,TAFE-Events,-79,0,0,0;d8:c7:c8:4c:de:b0,TAFENSW,-81,0,0,0;24:7f:20:49:6b:1b,OPTUS_496B19_5GHz,-86,0,0,0;64:f6:9d:b3:f4:ef,iiNet Free WiFi,-86,0,0,0;a0:04:60:a5:e5:ac,iiMAV_1,-85,0,0,0;24:7f:20:49:6b:1a,OPTUS_496B19,-75,0,0,0;d8:c7:c8:4c:ea:50,TAFENSW,-88,0,0,0;4e:ef:c0:b4:cb:74,,-90,0,0,0;d8:c7:c8:4c:f4:d0,TAFENSW,-85,0,0,0;34:6b:46:bc:65:94,OPTUS_BC6592_5GHz,-96,0,0,0;44:c3:46:7f:66:70,WiFi-G4ZT-5G,-95,0,0,0;d8:c7:c8:4c:ea:51,TAFE-Events,-88,0,0,0;d8:c7:c8:4c:f4:d1,TAFE-Events,-84,0,0,0;a0:04:60:a5:e5:a8,iiMAV_2,-75,0,0,0;18:a6:f7:2d:60:a6,TP-LINK_AP_60A6,-78,0,0,0;18:64:72:30:21:81,UTS-WPA,-78,0,0,0;18:64:72:30:21:80,eduroam,-79,0,0,0;d0:65:ca:54:fb:94,WiFi-7DUR-5G,-94,0,0,0;d8:c7:c8:4c:f4:10,TAFENSW,-94,0,0,0;d8:c7:c8:4c:f5:30,TAFENSW,-98,0,0,0;28:c7:ce:a2:40:0d,Cisco860_Guest3,-65,0,0,0;28:c7:ce:a2:40:0b,Cisco860_Guest1,-66,0,0,0;00:02:6f:12:34:50,Telstra Air,-75,0,0,0;d8:c7:c8:4c:f4:11,TAFE-Events,-94,0,0,0;

Scan8;28:c7:ce:a2:40:0a,Fork and Grind,-65,0,0,0;28:c7:ce:a2:40:0c,Cisco860_Guest2,-67,0,0,0;d8:c7:c8:4c:de:b1,TAFE-Events,-79,0,0,0;d8:c7:c8:4c:de:b0,TAFENSW,-81,0,0,0;24:7f:20:49:6b:1b,OPTUS_496B19_5GHz,-86,0,0,0;64:f6:9d:b3:f4:ef,iiNet Free WiFi,-86,0,0,0;a0:04:60:a5:e5:ac,iiMAV_1,-85,0,0,0;24:7f:20:49:6b:1a,OPTUS_496B19,-75,0,0,0;d8:c7:c8:4c:ea:50,TAFENSW,-88,0,0,0;4e:ef:c0:b4:cb:74,,-90,0,0,0;d8:c7:c8:4c:f4:d0,TAFENSW,-85,0,0,0;34:6b:46:bc:65:94,OPTUS_BC6592_5GHz,-96,0,0,0;44:c3:46:7f:66:70,WiFi-G4ZT-5G,-95,0,0,0;d8:c7:c8:4c:ea:51,TAFE-Events,-88,0,0,0;d8:c7:c8:4c:f4:d1,TAFE-Events,-84,0,0,0;a0:04:60:a5:e5:a8,iiMAV_2,-75,0,0,0;18:a6:f7:2d:60:a6,TP-LINK_AP_60A6,-78,0,0,0;18:64:72:30:21:81,UTS-WPA,-78,0,0,0;18:64:72:30:21:80,eduroam,-79,0,0,0;d0:65:ca:54:fb:94,WiFi-7DUR-5G,-94,0,0,0;d8:c7:c8:4c:f4:10,TAFENSW,-94,0,0,0;d8:c7:c8:4c:f5:30,TAFENSW,-98,0,0,0;28:c7:ce:a2:40:0d,Cisco860_Guest3,-65,0,0,0;28:c7:ce:a2:40:0b,Cisco860_Guest1,-66,0,0,0;00:02:6f:12:34:50,Telstra Air,-75,0,0,0;d8:c7:c8:4c:f4:11,TAFE-Events,-94,0,0,0;

