Scan1;00:02:6f:12:34:50,Telstra Air,-77,0,0,0;10:13:31:e6:96:ad,TelstraE696AD,-78,0,0,0;e8:1d:a8:6d:ec:5c,eduroam,-71,0,0,0;12:13:31:e5:b2:91,TelstraE5B289,-83,0,0,0;c8:b5:ad:31:27:f1,TAFE-Events,-88,0,0,0;d8:c7:c8:4c:eb:50,TAFENSW,-84,0,0,0;24:f2:7f:bc:9b:31,TAFE-Events,-89,0,0,0;d8:c7:c8:4c:eb:51,TAFE-Events,-85,0,0,0;44:1e:98:14:d9:4c,INSEARCH Secure,-76,0,0,0;28:24:ff:94:bd:e1,ClickShare-A1.10,-94,0,0,0;44:1e:98:54:d9:4c,eduroam,-75,0,0,0;12:13:31:e6:96:b5,TelstraE696AD,-94,0,0,0;44:1e:98:15:8b:28,INSEARCH Secure,-60,0,0,0;e8:1d:a8:6d:ec:58,eduroam,-61,0,0,0;e8:1d:a8:2d:ec:58,INSEARCH Secure,-61,0,0,0;28:24:ff:94:bb:5f,ClickShare-A2.24,-95,0,0,0;e8:1d:a8:2e:27:9c,INSEARCH Secure,-86,0,0,0;e8:1d:a8:6e:27:9c,eduroam,-87,0,0,0;24:f2:7f:bc:7a:80,TAFENSW,-61,0,0,0;44:1e:98:55:8b:2c,eduroam,-74,0,0,0;44:1e:98:15:8b:2c,INSEARCH Secure,-74,0,0,0;d8:c7:c8:4c:eb:40,TAFENSW,-70,0,0,0;44:1e:98:54:d8:dc,eduroam,-74,0,0,0;12:13:31:e6:c5:e7,TelstraE6C5DF,-92,0,0,0;24:f2:7f:bc:7a:81,TAFE-Events,-62,0,0,0;e8:1d:a8:2d:ec:5c,INSEARCH Secure,-70,0,0,0;44:1e:98:54:d2:1c,eduroam,-73,0,0,0;44:1e:98:14:d2:1c,INSEARCH Secure,-73,0,0,0;00:50:7f:7a:17:c0,AMX Wireless,-73,0,0,0;44:1e:98:14:d8:dc,INSEARCH Secure,-73,0,0,0;e8:1d:a8:6e:e1:3c,eduroam,-81,0,0,0;d8:c7:c8:4c:eb:b0,TAFENSW,-85,0,0,0;28:24:ff:9b:18:f5,ClickShare-A1.7,-90,0,0,0;6c:f3:7f:a1:4d:b0,TAFENSW,-86,0,0,0;44:1e:98:14:ec:ac,INSEARCH Secure,-93,0,0,0;c8:b5:ad:31:27:f0,TAFENSW,-88,0,0,0;d8:c7:c8:4c:eb:41,TAFE-Events,-69,0,0,0;d8:c7:c8:4c:eb:b1,TAFE-Events,-85,0,0,0;6c:f3:7f:a1:4d:b1,TAFE-Events,-86,0,0,0;44:1e:98:14:e8:18,INSEARCH Secure,-62,0,0,0;e8:1d:a8:6e:27:98,eduroam,-66,0,0,0;e8:1d:a8:2e:27:98,INSEARCH Secure,-66,0,0,0;44:1e:98:54:e8:18,eduroam,-66,0,0,0;44:1e:98:14:d9:48,INSEARCH Secure,-68,0,0,0;44:1e:98:54:d9:48,eduroam,-69,0,0,0;6c:f3:7f:a5:12:20,TAFENSW,-71,0,0,0;e8:1d:a8:6e:e1:38,eduroam,-72,0,0,0;e8:1d:a8:2e:e1:38,INSEARCH Secure,-72,0,0,0;e8:1d:a8:2e:e1:3c,INSEARCH Secure,-79,0,0,0;d8:c7:c8:4c:eb:a0,TAFENSW,-76,0,0,0;ba:ca:33:5c:f4:d9, Timothy‘s iPhone,-79,0,0,0;44:1e:98:15:91:ac,INSEARCH Secure,-88,0,0,0;44:1e:98:55:91:ac,eduroam,-89,0,0,0;2c:30:33:10:59:22,Telstra24E1-5G,-94,0,0,0;70:3a:0e:43:35:d2,UTS Building 15,-95,0,0,0;70:3a:0e:43:35:d0,eduroam,-96,0,0,0;70:3a:0e:43:35:d1,UTS-WPA,-96,0,0,0;00:02:6f:12:34:56,,-67,0,0,0;d8:c7:c8:4c:84:10,TAFE-Events,-93,0,0,0;

Scan2;00:02:6f:12:34:50,Telstra Air,-77,0,0,0;10:13:31:e6:96:ad,TelstraE696AD,-78,0,0,0;e8:1d:a8:6d:ec:5c,eduroam,-71,0,0,0;12:13:31:e5:b2:91,TelstraE5B289,-83,0,0,0;c8:b5:ad:31:27:f1,TAFE-Events,-88,0,0,0;d8:c7:c8:4c:eb:50,TAFENSW,-84,0,0,0;24:f2:7f:bc:9b:31,TAFE-Events,-89,0,0,0;d8:c7:c8:4c:eb:51,TAFE-Events,-85,0,0,0;44:1e:98:14:d9:4c,INSEARCH Secure,-76,0,0,0;28:24:ff:94:bd:e1,ClickShare-A1.10,-94,0,0,0;44:1e:98:54:d9:4c,eduroam,-75,0,0,0;12:13:31:e6:96:b5,TelstraE696AD,-94,0,0,0;44:1e:98:15:8b:28,INSEARCH Secure,-60,0,0,0;e8:1d:a8:6d:ec:58,eduroam,-61,0,0,0;e8:1d:a8:2d:ec:58,INSEARCH Secure,-61,0,0,0;28:24:ff:94:bb:5f,ClickShare-A2.24,-95,0,0,0;e8:1d:a8:2e:27:9c,INSEARCH Secure,-86,0,0,0;e8:1d:a8:6e:27:9c,eduroam,-87,0,0,0;24:f2:7f:bc:7a:80,TAFENSW,-61,0,0,0;44:1e:98:55:8b:2c,eduroam,-74,0,0,0;44:1e:98:15:8b:2c,INSEARCH Secure,-74,0,0,0;d8:c7:c8:4c:eb:40,TAFENSW,-70,0,0,0;44:1e:98:54:d8:dc,eduroam,-74,0,0,0;12:13:31:e6:c5:e7,TelstraE6C5DF,-92,0,0,0;24:f2:7f:bc:7a:81,TAFE-Events,-62,0,0,0;e8:1d:a8:2d:ec:5c,INSEARCH Secure,-70,0,0,0;44:1e:98:54:d2:1c,eduroam,-73,0,0,0;44:1e:98:14:d2:1c,INSEARCH Secure,-73,0,0,0;00:50:7f:7a:17:c0,AMX Wireless,-73,0,0,0;44:1e:98:14:d8:dc,INSEARCH Secure,-73,0,0,0;e8:1d:a8:6e:e1:3c,eduroam,-81,0,0,0;d8:c7:c8:4c:eb:b0,TAFENSW,-85,0,0,0;28:24:ff:9b:18:f5,ClickShare-A1.7,-90,0,0,0;6c:f3:7f:a1:4d:b0,TAFENSW,-86,0,0,0;44:1e:98:14:ec:ac,INSEARCH Secure,-93,0,0,0;c8:b5:ad:31:27:f0,TAFENSW,-88,0,0,0;d8:c7:c8:4c:eb:41,TAFE-Events,-69,0,0,0;d8:c7:c8:4c:eb:b1,TAFE-Events,-85,0,0,0;6c:f3:7f:a1:4d:b1,TAFE-Events,-86,0,0,0;44:1e:98:14:e8:18,INSEARCH Secure,-62,0,0,0;e8:1d:a8:6e:27:98,eduroam,-66,0,0,0;e8:1d:a8:2e:27:98,INSEARCH Secure,-66,0,0,0;44:1e:98:54:e8:18,eduroam,-66,0,0,0;44:1e:98:14:d9:48,INSEARCH Secure,-68,0,0,0;44:1e:98:54:d9:48,eduroam,-69,0,0,0;6c:f3:7f:a5:12:20,TAFENSW,-71,0,0,0;e8:1d:a8:6e:e1:38,eduroam,-72,0,0,0;e8:1d:a8:2e:e1:38,INSEARCH Secure,-72,0,0,0;e8:1d:a8:2e:e1:3c,INSEARCH Secure,-79,0,0,0;d8:c7:c8:4c:eb:a0,TAFENSW,-76,0,0,0;ba:ca:33:5c:f4:d9, Timothy‘s iPhone,-79,0,0,0;44:1e:98:15:91:ac,INSEARCH Secure,-88,0,0,0;44:1e:98:55:91:ac,eduroam,-89,0,0,0;2c:30:33:10:59:22,Telstra24E1-5G,-94,0,0,0;70:3a:0e:43:35:d2,UTS Building 15,-95,0,0,0;70:3a:0e:43:35:d0,eduroam,-96,0,0,0;70:3a:0e:43:35:d1,UTS-WPA,-96,0,0,0;00:02:6f:12:34:56,,-67,0,0,0;d8:c7:c8:4c:84:10,TAFE-Events,-93,0,0,0;

Scan3;00:02:6f:12:34:50,Telstra Air,-77,0,0,0;10:13:31:e6:96:ad,TelstraE696AD,-78,0,0,0;e8:1d:a8:6d:ec:5c,eduroam,-71,0,0,0;12:13:31:e5:b2:91,TelstraE5B289,-83,0,0,0;c8:b5:ad:31:27:f1,TAFE-Events,-88,0,0,0;d8:c7:c8:4c:eb:50,TAFENSW,-84,0,0,0;24:f2:7f:bc:9b:31,TAFE-Events,-89,0,0,0;d8:c7:c8:4c:eb:51,TAFE-Events,-85,0,0,0;44:1e:98:14:d9:4c,INSEARCH Secure,-76,0,0,0;28:24:ff:94:bd:e1,ClickShare-A1.10,-94,0,0,0;44:1e:98:54:d9:4c,eduroam,-75,0,0,0;12:13:31:e6:96:b5,TelstraE696AD,-94,0,0,0;44:1e:98:15:8b:28,INSEARCH Secure,-60,0,0,0;e8:1d:a8:6d:ec:58,eduroam,-61,0,0,0;e8:1d:a8:2d:ec:58,INSEARCH Secure,-61,0,0,0;28:24:ff:94:bb:5f,ClickShare-A2.24,-95,0,0,0;e8:1d:a8:2e:27:9c,INSEARCH Secure,-86,0,0,0;e8:1d:a8:6e:27:9c,eduroam,-87,0,0,0;24:f2:7f:bc:7a:80,TAFENSW,-61,0,0,0;44:1e:98:55:8b:2c,eduroam,-74,0,0,0;44:1e:98:15:8b:2c,INSEARCH Secure,-74,0,0,0;d8:c7:c8:4c:eb:40,TAFENSW,-70,0,0,0;44:1e:98:54:d8:dc,eduroam,-74,0,0,0;12:13:31:e6:c5:e7,TelstraE6C5DF,-92,0,0,0;24:f2:7f:bc:7a:81,TAFE-Events,-62,0,0,0;e8:1d:a8:2d:ec:5c,INSEARCH Secure,-70,0,0,0;44:1e:98:54:d2:1c,eduroam,-73,0,0,0;44:1e:98:14:d2:1c,INSEARCH Secure,-73,0,0,0;00:50:7f:7a:17:c0,AMX Wireless,-73,0,0,0;44:1e:98:14:d8:dc,INSEARCH Secure,-73,0,0,0;e8:1d:a8:6e:e1:3c,eduroam,-81,0,0,0;d8:c7:c8:4c:eb:b0,TAFENSW,-85,0,0,0;28:24:ff:9b:18:f5,ClickShare-A1.7,-90,0,0,0;6c:f3:7f:a1:4d:b0,TAFENSW,-86,0,0,0;44:1e:98:14:ec:ac,INSEARCH Secure,-93,0,0,0;c8:b5:ad:31:27:f0,TAFENSW,-88,0,0,0;d8:c7:c8:4c:eb:41,TAFE-Events,-69,0,0,0;d8:c7:c8:4c:eb:b1,TAFE-Events,-85,0,0,0;6c:f3:7f:a1:4d:b1,TAFE-Events,-86,0,0,0;44:1e:98:14:e8:18,INSEARCH Secure,-62,0,0,0;e8:1d:a8:6e:27:98,eduroam,-66,0,0,0;e8:1d:a8:2e:27:98,INSEARCH Secure,-66,0,0,0;44:1e:98:54:e8:18,eduroam,-66,0,0,0;44:1e:98:14:d9:48,INSEARCH Secure,-68,0,0,0;44:1e:98:54:d9:48,eduroam,-69,0,0,0;6c:f3:7f:a5:12:20,TAFENSW,-71,0,0,0;e8:1d:a8:6e:e1:38,eduroam,-72,0,0,0;e8:1d:a8:2e:e1:38,INSEARCH Secure,-72,0,0,0;e8:1d:a8:2e:e1:3c,INSEARCH Secure,-79,0,0,0;d8:c7:c8:4c:eb:a0,TAFENSW,-76,0,0,0;ba:ca:33:5c:f4:d9, Timothy‘s iPhone,-79,0,0,0;44:1e:98:15:91:ac,INSEARCH Secure,-88,0,0,0;44:1e:98:55:91:ac,eduroam,-89,0,0,0;2c:30:33:10:59:22,Telstra24E1-5G,-94,0,0,0;70:3a:0e:43:35:d2,UTS Building 15,-95,0,0,0;70:3a:0e:43:35:d0,eduroam,-96,0,0,0;70:3a:0e:43:35:d1,UTS-WPA,-96,0,0,0;00:02:6f:12:34:56,,-67,0,0,0;d8:c7:c8:4c:84:10,TAFE-Events,-93,0,0,0;

Scan4;00:02:6f:12:34:50,Telstra Air,-77,0,0,0;10:13:31:e6:96:ad,TelstraE696AD,-78,0,0,0;e8:1d:a8:6d:ec:5c,eduroam,-71,0,0,0;12:13:31:e5:b2:91,TelstraE5B289,-83,0,0,0;c8:b5:ad:31:27:f1,TAFE-Events,-88,0,0,0;d8:c7:c8:4c:eb:50,TAFENSW,-84,0,0,0;24:f2:7f:bc:9b:31,TAFE-Events,-89,0,0,0;d8:c7:c8:4c:eb:51,TAFE-Events,-85,0,0,0;44:1e:98:14:d9:4c,INSEARCH Secure,-76,0,0,0;28:24:ff:94:bd:e1,ClickShare-A1.10,-94,0,0,0;44:1e:98:54:d9:4c,eduroam,-75,0,0,0;12:13:31:e6:96:b5,TelstraE696AD,-94,0,0,0;44:1e:98:15:8b:28,INSEARCH Secure,-60,0,0,0;e8:1d:a8:6d:ec:58,eduroam,-61,0,0,0;e8:1d:a8:2d:ec:58,INSEARCH Secure,-61,0,0,0;28:24:ff:94:bb:5f,ClickShare-A2.24,-95,0,0,0;e8:1d:a8:2e:27:9c,INSEARCH Secure,-86,0,0,0;e8:1d:a8:6e:27:9c,eduroam,-87,0,0,0;24:f2:7f:bc:7a:80,TAFENSW,-61,0,0,0;44:1e:98:55:8b:2c,eduroam,-74,0,0,0;44:1e:98:15:8b:2c,INSEARCH Secure,-74,0,0,0;d8:c7:c8:4c:eb:40,TAFENSW,-70,0,0,0;44:1e:98:54:d8:dc,eduroam,-74,0,0,0;12:13:31:e6:c5:e7,TelstraE6C5DF,-92,0,0,0;24:f2:7f:bc:7a:81,TAFE-Events,-62,0,0,0;e8:1d:a8:2d:ec:5c,INSEARCH Secure,-70,0,0,0;44:1e:98:54:d2:1c,eduroam,-73,0,0,0;44:1e:98:14:d2:1c,INSEARCH Secure,-73,0,0,0;00:50:7f:7a:17:c0,AMX Wireless,-73,0,0,0;44:1e:98:14:d8:dc,INSEARCH Secure,-73,0,0,0;e8:1d:a8:6e:e1:3c,eduroam,-81,0,0,0;d8:c7:c8:4c:eb:b0,TAFENSW,-85,0,0,0;28:24:ff:9b:18:f5,ClickShare-A1.7,-90,0,0,0;6c:f3:7f:a1:4d:b0,TAFENSW,-86,0,0,0;44:1e:98:14:ec:ac,INSEARCH Secure,-93,0,0,0;c8:b5:ad:31:27:f0,TAFENSW,-88,0,0,0;d8:c7:c8:4c:eb:41,TAFE-Events,-69,0,0,0;d8:c7:c8:4c:eb:b1,TAFE-Events,-85,0,0,0;6c:f3:7f:a1:4d:b1,TAFE-Events,-86,0,0,0;44:1e:98:14:e8:18,INSEARCH Secure,-62,0,0,0;e8:1d:a8:6e:27:98,eduroam,-66,0,0,0;e8:1d:a8:2e:27:98,INSEARCH Secure,-66,0,0,0;44:1e:98:54:e8:18,eduroam,-66,0,0,0;44:1e:98:14:d9:48,INSEARCH Secure,-68,0,0,0;44:1e:98:54:d9:48,eduroam,-69,0,0,0;6c:f3:7f:a5:12:20,TAFENSW,-71,0,0,0;e8:1d:a8:6e:e1:38,eduroam,-72,0,0,0;e8:1d:a8:2e:e1:38,INSEARCH Secure,-72,0,0,0;e8:1d:a8:2e:e1:3c,INSEARCH Secure,-79,0,0,0;d8:c7:c8:4c:eb:a0,TAFENSW,-76,0,0,0;ba:ca:33:5c:f4:d9, Timothy‘s iPhone,-79,0,0,0;44:1e:98:15:91:ac,INSEARCH Secure,-88,0,0,0;44:1e:98:55:91:ac,eduroam,-89,0,0,0;2c:30:33:10:59:22,Telstra24E1-5G,-94,0,0,0;70:3a:0e:43:35:d2,UTS Building 15,-95,0,0,0;70:3a:0e:43:35:d0,eduroam,-96,0,0,0;70:3a:0e:43:35:d1,UTS-WPA,-96,0,0,0;00:02:6f:12:34:56,,-67,0,0,0;d8:c7:c8:4c:84:10,TAFE-Events,-93,0,0,0;

Scan5;00:02:6f:12:34:50,Telstra Air,-77,0,0,0;10:13:31:e6:96:ad,TelstraE696AD,-78,0,0,0;e8:1d:a8:6d:ec:5c,eduroam,-71,0,0,0;12:13:31:e5:b2:91,TelstraE5B289,-83,0,0,0;c8:b5:ad:31:27:f1,TAFE-Events,-88,0,0,0;d8:c7:c8:4c:eb:50,TAFENSW,-84,0,0,0;24:f2:7f:bc:9b:31,TAFE-Events,-89,0,0,0;d8:c7:c8:4c:eb:51,TAFE-Events,-85,0,0,0;44:1e:98:14:d9:4c,INSEARCH Secure,-76,0,0,0;28:24:ff:94:bd:e1,ClickShare-A1.10,-94,0,0,0;44:1e:98:54:d9:4c,eduroam,-75,0,0,0;12:13:31:e6:96:b5,TelstraE696AD,-94,0,0,0;44:1e:98:15:8b:28,INSEARCH Secure,-60,0,0,0;e8:1d:a8:6d:ec:58,eduroam,-61,0,0,0;e8:1d:a8:2d:ec:58,INSEARCH Secure,-61,0,0,0;28:24:ff:94:bb:5f,ClickShare-A2.24,-95,0,0,0;e8:1d:a8:2e:27:9c,INSEARCH Secure,-86,0,0,0;e8:1d:a8:6e:27:9c,eduroam,-87,0,0,0;24:f2:7f:bc:7a:80,TAFENSW,-61,0,0,0;44:1e:98:55:8b:2c,eduroam,-74,0,0,0;44:1e:98:15:8b:2c,INSEARCH Secure,-74,0,0,0;d8:c7:c8:4c:eb:40,TAFENSW,-70,0,0,0;44:1e:98:54:d8:dc,eduroam,-74,0,0,0;12:13:31:e6:c5:e7,TelstraE6C5DF,-92,0,0,0;24:f2:7f:bc:7a:81,TAFE-Events,-62,0,0,0;e8:1d:a8:2d:ec:5c,INSEARCH Secure,-70,0,0,0;44:1e:98:54:d2:1c,eduroam,-73,0,0,0;44:1e:98:14:d2:1c,INSEARCH Secure,-73,0,0,0;00:50:7f:7a:17:c0,AMX Wireless,-73,0,0,0;44:1e:98:14:d8:dc,INSEARCH Secure,-73,0,0,0;e8:1d:a8:6e:e1:3c,eduroam,-81,0,0,0;d8:c7:c8:4c:eb:b0,TAFENSW,-85,0,0,0;28:24:ff:9b:18:f5,ClickShare-A1.7,-90,0,0,0;6c:f3:7f:a1:4d:b0,TAFENSW,-86,0,0,0;44:1e:98:14:ec:ac,INSEARCH Secure,-93,0,0,0;c8:b5:ad:31:27:f0,TAFENSW,-88,0,0,0;d8:c7:c8:4c:eb:41,TAFE-Events,-69,0,0,0;d8:c7:c8:4c:eb:b1,TAFE-Events,-85,0,0,0;6c:f3:7f:a1:4d:b1,TAFE-Events,-86,0,0,0;44:1e:98:14:e8:18,INSEARCH Secure,-62,0,0,0;e8:1d:a8:6e:27:98,eduroam,-66,0,0,0;e8:1d:a8:2e:27:98,INSEARCH Secure,-66,0,0,0;44:1e:98:54:e8:18,eduroam,-66,0,0,0;44:1e:98:14:d9:48,INSEARCH Secure,-68,0,0,0;44:1e:98:54:d9:48,eduroam,-69,0,0,0;6c:f3:7f:a5:12:20,TAFENSW,-71,0,0,0;e8:1d:a8:6e:e1:38,eduroam,-72,0,0,0;e8:1d:a8:2e:e1:38,INSEARCH Secure,-72,0,0,0;e8:1d:a8:2e:e1:3c,INSEARCH Secure,-79,0,0,0;d8:c7:c8:4c:eb:a0,TAFENSW,-76,0,0,0;ba:ca:33:5c:f4:d9, Timothy‘s iPhone,-79,0,0,0;44:1e:98:15:91:ac,INSEARCH Secure,-88,0,0,0;44:1e:98:55:91:ac,eduroam,-89,0,0,0;2c:30:33:10:59:22,Telstra24E1-5G,-94,0,0,0;70:3a:0e:43:35:d2,UTS Building 15,-95,0,0,0;70:3a:0e:43:35:d0,eduroam,-96,0,0,0;70:3a:0e:43:35:d1,UTS-WPA,-96,0,0,0;00:02:6f:12:34:56,,-67,0,0,0;d8:c7:c8:4c:84:10,TAFE-Events,-93,0,0,0;

Scan6;00:02:6f:12:34:50,Telstra Air,-72,0,0,0;10:13:31:e6:96:ad,TelstraE696AD,-75,0,0,0;e8:1d:a8:6d:ec:5c,eduroam,-67,0,0,0;12:13:31:e5:b2:91,TelstraE5B289,-78,0,0,0;d8:c7:c8:4c:eb:50,TAFENSW,-80,0,0,0;d8:c7:c8:4c:eb:51,TAFE-Events,-81,0,0,0;44:1e:98:14:d9:4c,INSEARCH Secure,-71,0,0,0;44:1e:98:54:d9:4c,eduroam,-71,0,0,0;12:13:31:e6:96:b5,TelstraE696AD,-97,0,0,0;e8:1d:a8:6d:ec:58,eduroam,-61,0,0,0;e8:1d:a8:2d:ec:58,INSEARCH Secure,-60,0,0,0;24:f2:7f:bc:7a:80,TAFENSW,-74,0,0,0;44:1e:98:55:8b:2c,eduroam,-75,0,0,0;44:1e:98:15:8b:2c,INSEARCH Secure,-75,0,0,0;44:1e:98:54:d8:dc,eduroam,-77,0,0,0;e8:1d:a8:2d:ec:5c,INSEARCH Secure,-66,0,0,0;44:1e:98:54:d2:1c,eduroam,-67,0,0,0;44:1e:98:14:d2:1c,INSEARCH Secure,-67,0,0,0;00:50:7f:7a:17:c0,AMX Wireless,-72,0,0,0;44:1e:98:14:d8:dc,INSEARCH Secure,-77,0,0,0;e8:1d:a8:6e:e1:3c,eduroam,-73,0,0,0;d8:c7:c8:4c:eb:b0,TAFENSW,-85,0,0,0;6c:f3:7f:a1:4d:b0,TAFENSW,-83,0,0,0;d8:c7:c8:4c:eb:41,TAFE-Events,-71,0,0,0;d8:c7:c8:4c:eb:b1,TAFE-Events,-85,0,0,0;6c:f3:7f:a1:4d:b1,TAFE-Events,-83,0,0,0;e8:1d:a8:6e:27:98,eduroam,-70,0,0,0;e8:1d:a8:2e:27:98,INSEARCH Secure,-70,0,0,0;44:1e:98:54:d9:48,eduroam,-65,0,0,0;e8:1d:a8:6e:e1:38,eduroam,-68,0,0,0;e8:1d:a8:2e:e1:38,INSEARCH Secure,-70,0,0,0;e8:1d:a8:2e:e1:3c,INSEARCH Secure,-72,0,0,0;44:1e:98:15:91:ac,INSEARCH Secure,-84,0,0,0;44:1e:98:55:91:ac,eduroam,-85,0,0,0;2c:30:33:10:59:22,Telstra24E1-5G,-92,0,0,0;70:3a:0e:43:35:d2,UTS Building 15,-91,0,0,0;70:3a:0e:43:35:d0,eduroam,-92,0,0,0;70:3a:0e:43:35:d1,UTS-WPA,-93,0,0,0;44:1e:98:14:d2:18,INSEARCH Secure,-63,0,0,0;44:1e:98:54:d2:18,eduroam,-63,0,0,0;e8:1d:a8:2d:ef:0c,INSEARCH Secure,-69,0,0,0;e8:1d:a8:6d:ef:0c,eduroam,-70,0,0,0;e8:1d:a8:2d:ef:08,INSEARCH Secure,-67,0,0,0;e8:1d:a8:6d:ef:08,eduroam,-68,0,0,0;44:1e:98:54:d8:d8,eduroam,-72,0,0,0;44:1e:98:14:d8:d8,INSEARCH Secure,-73,0,0,0;f0:9f:c2:34:01:d0,Rosehills,-80,0,0,0;e8:1d:a8:2c:1d:1c,INSEARCH Secure,-87,0,0,0;e8:1d:a8:6c:1d:1c,eduroam,-87,0,0,0;94:b4:0f:90:8d:f0,eduroam,-91,0,0,0;24:f2:7f:bc:7a:90,TAFENSW,-94,0,0,0;94:b4:0f:90:87:90,eduroam,-95,0,0,0;94:b4:0f:90:87:93,UTS Building 15,-96,0,0,0;94:b4:0f:90:87:91,UTS-WPA,-96,0,0,0;6c:f3:7f:a5:12:31,TAFE-Events,-85,0,0,0;fa:8f:ca:6b:70:4d,,-92,0,0,0;24:f2:7f:bc:7a:91,TAFE-Events,-94,0,0,0;f0:5c:19:9b:1a:50,TAFE-Events,-99,0,0,0;

