Format Version,1.2,Take Name,Take 2020-02-07 04.43.07 PM,Capture Frame Rate,120.000000,Export Frame Rate,120.000000,Capture Start Time,2020-02-07 04.43.07.007 PM,Total Frames,621,Rotation Type,Quaternion,Length Units,Meters,Coordinate Space,Global

,,Rigid Body Marker,Rigid Body Marker,Rigid Body Marker,Rigid Body Marker,Rigid Body Marker,Rigid Body Marker,Rigid Body Marker,Rigid Body Marker,Rigid Body Marker,Rigid Body Marker,Rigid Body Marker,Rigid Body Marker,Rigid Body Marker,Rigid Body Marker,Rigid Body Marker
,,Rigid Body 1_1,Rigid Body 1_1,Rigid Body 1_1,Rigid Body 1_2,Rigid Body 1_2,Rigid Body 1_2,Rigid Body 1_3,Rigid Body 1_3,Rigid Body 1_3,Rigid Body 1_4,Rigid Body 1_4,Rigid Body 1_4,Rigid Body 1_5,Rigid Body 1_5,Rigid Body 1_5
,,"FB1F47AA496A11EAE5BE26CA05685A8D","FB1F47AA496A11EAE5BE26CA05685A8D","FB1F47AA496A11EAE5BE26CA05685A8D","FB1F47AA496A11EAE5BE26CA05685A8D","FB1F47AA496A11EAE5BE26CA05685A8D","FB1F47AA496A11EAE5BE26CA05685A8D","FB1F47AA496A11EAE5BE26CA05685A8D","FB1F47AA496A11EAE5BE26CA05685A8D","FB1F47AA496A11EAE5BE26CA05685A8D","FB1F47AA496A11EAE5BE26CA05685A8D","FB1F47AA496A11EAE5BE26CA05685A8D","FB1F47AA496A11EAE5BE26CA05685A8D","FB1F47AA496A11EAE5BE26CA05685A8D","FB1F47AA496A11EAE5BE26CA05685A8D","FB1F47AA496A11EAE5BE26CA05685A8D"
,,Position,Position,Position,Position,Position,Position,Position,Position,Position,Position,Position,Position,Position,Position,Position
Frame,Time,X,Y,Z,X,Y,Z,X,Y,Z,X,Y,Z,X,Y,Z
0,0.000000,2.098270,2.178794,1.715680,1.958532,2.172637,2.078619,2.083265,1.662540,1.701243,1.943889,1.657730,2.064254,2.062002,2.177123,1.803626
1,0.008333,2.098232,2.178791,1.715658,1.958530,2.172625,2.078611,2.083276,1.662535,1.701230,1.943935,1.657716,2.064255,2.061973,2.177117,1.803608
2,0.016667,2.098229,2.178790,1.715652,1.958492,2.172628,2.078592,2.083225,1.662537,1.701208,1.943850,1.657721,2.064220,2.061961,2.177117,1.803598
3,0.025000,2.098208,2.178786,1.715629,1.958467,2.172640,2.078568,2.083236,1.662530,1.701220,1.943857,1.657731,2.064231,2.061939,2.177117,1.803575
4,0.033333,2.098546,2.178688,1.715664,1.958241,2.172876,2.078391,2.082802,1.662451,1.701400,1.942861,1.657985,2.064199,2.062140,2.177104,1.803555
5,0.041667,2.098251,2.178691,1.715655,1.958391,2.172551,2.078548,2.083151,1.662440,1.701198,1.943653,1.657647,2.064163,2.061953,2.177024,1.803589
6,0.050000,2.098152,2.178790,1.715589,1.958367,2.172634,2.078510,2.083176,1.662535,1.701161,1.943753,1.657725,2.064154,2.061873,2.177118,1.803530
7,0.058333,2.097995,2.178819,1.715518,1.958498,2.172413,2.078546,2.083479,1.662556,1.700928,1.944342,1.657496,2.064028,2.061785,2.177085,1.803487
8,0.066667,2.098277,2.178637,1.715561,1.958414,2.172594,2.078454,2.083102,1.662386,1.701213,1.943602,1.657689,2.064178,2.061979,2.176994,1.803495
9,0.075000,2.098262,2.178817,1.715700,1.958050,2.172569,2.078454,2.083192,1.662570,1.701080,1.943341,1.657668,2.063907,2.061879,2.177124,1.803598
10,0.083333,2.098248,2.178635,1.715533,1.958385,2.172612,2.078426,2.083085,1.662382,1.701219,1.943584,1.657706,2.064184,2.061949,2.176996,1.803467
11,0.091667,2.098221,2.178626,1.715518,1.958394,2.172596,2.078425,2.083102,1.662372,1.701213,1.943637,1.657688,2.064192,2.061932,2.176986,1.803456
12,0.100000,2.098166,2.178699,1.715560,1.958251,2.172566,2.078432,2.083078,1.662448,1.701116,1.943526,1.657661,2.064060,2.061855,2.177034,1.803489
13,0.108333,2.098206,2.178627,1.715491,1.958356,2.172606,2.078389,2.083075,1.662373,1.701191,1.943587,1.657698,2.064161,2.061911,2.176989,1.803427
14,0.116667,2.098229,2.178820,1.715643,1.957995,2.172596,2.078390,2.083202,1.662570,1.701074,1.943330,1.657693,2.063894,2.061841,2.177132,1.803539
15,0.125000,2.098224,2.178631,1.715474,1.958323,2.172628,2.078354,2.083047,1.662379,1.701180,1.943509,1.657721,2.064131,2.061916,2.176997,1.803405
16,0.133333,2.098217,2.178808,1.715616,1.957977,2.172572,2.078360,2.083145,1.662561,1.701012,1.943266,1.657672,2.063829,2.061828,2.177118,1.803512
17,0.141667,2.098217,2.178817,1.715609,1.957966,2.172601,2.078349,2.083156,1.662568,1.701037,1.943267,1.657699,2.063851,2.061825,2.177131,1.803503
18,0.150000,2.098146,2.178713,1.715495,1.958204,2.172582,2.078356,2.083073,1.662461,1.701056,1.943493,1.657676,2.063989,2.061829,2.177048,1.803421
19,0.158333,2.098231,2.178812,1.715581,1.958020,2.172614,2.078337,2.083181,1.662562,1.701042,1.943332,1.657711,2.063871,2.061848,2.177130,1.803480
20,0.166667,2.098158,2.178581,1.715420,1.958470,2.172516,2.078380,2.083167,1.662323,1.701121,1.943841,1.657605,2.064153,2.061903,2.176932,1.803371
21,0.175000,2.098230,2.178788,1.715553,1.958033,2.172595,2.078315,2.083196,1.662538,1.701027,1.943361,1.657691,2.063862,2.061851,2.177108,1.803454
22,0.183333,2.098267,2.178816,1.715570,1.958018,2.172622,2.078312,2.083189,1.662567,1.701024,1.943302,1.657720,2.063838,2.061875,2.177136,1.803465
23,0.191667,2.098258,2.178621,1.715412,1.958395,2.172639,2.078306,2.083079,1.662368,1.701149,1.943578,1.657732,2.064115,2.061960,2.176993,1.803346
24,0.200000,2.098273,2.178818,1.715551,1.958070,2.172622,2.078311,2.083214,1.662568,1.701011,1.943373,1.657719,2.063844,2.061892,2.177137,1.803451
25,0.208333,2.098277,2.178681,1.715494,1.958281,2.172576,2.078335,2.083194,1.662429,1.701086,1.943561,1.657670,2.064000,2.061947,2.177022,1.803415
26,0.216667,2.098300,2.178609,1.715405,1.958455,2.172617,2.078306,2.083138,1.662355,1.701136,1.943655,1.657710,2.064109,2.062006,2.176978,1.803341
27,0.225000,2.098130,2.178761,1.715383,1.958429,2.172656,2.078337,2.083176,1.662503,1.701041,1.943837,1.657744,2.064068,2.061871,2.177101,1.803333
28,0.233333,2.098366,2.178685,1.715487,1.958275,2.172731,2.078294,2.082995,1.662439,1.701178,1.943267,1.657831,2.064056,2.062013,2.177064,1.803399
29,0.241667,2.098082,2.178787,1.715356,1.958608,2.172455,2.078394,2.083465,1.662524,1.700834,1.944351,1.657539,2.063944,2.061878,2.177071,1.803328
30,0.250000,2.098585,2.178663,1.715451,1.958274,2.172917,2.078176,2.082819,1.662424,1.701273,1.942872,1.658025,2.064070,2.062178,2.177094,1.803342
31,0.258333,2.098436,2.178673,1.715496,1.958375,2.172745,2.078314,2.082992,1.662429,1.701197,1.943294,1.657847,2.064087,2.062090,2.177059,1.803411
32,0.266667,2.098460,2.178668,1.715509,1.958403,2.172749,2.078329,2.082983,1.662424,1.701211,1.943288,1.657852,2.064103,2.062115,2.177056,1.803424
33,0.275000,2.098660,2.178652,1.715471,1.958349,2.172913,2.078197,2.082860,1.662414,1.701290,1.942913,1.658022,2.064087,2.062253,2.177085,1.803362
34,0.283333,2.098308,2.178747,1.715438,1.958614,2.172656,2.078395,2.083260,1.662492,1.701081,1.943928,1.657748,2.064110,2.062050,2.177092,1.803389
35,0.291667,2.098722,2.178668,1.715500,1.958391,2.172914,2.078218,2.082872,1.662433,1.701277,1.942905,1.658025,2.064066,2.062310,2.177098,1.803389
36,0.300000,2.098740,2.178664,1.715518,1.958426,2.172914,2.078242,2.082898,1.662429,1.701303,1.942948,1.658024,2.064098,2.062332,2.177095,1.803408
37,0.308333,2.098759,2.178665,1.715531,1.958455,2.172918,2.078258,2.082911,1.662430,1.701319,1.942970,1.658029,2.064118,2.062354,2.177096,1.803422
38,0.316667,2.098606,2.178672,1.715582,1.958560,2.172744,2.078406,2.083082,1.662430,1.701253,1.943399,1.657848,2.064149,2.062263,2.177058,1.803498
39,0.325000,2.098437,2.178761,1.715512,1.958768,2.172659,2.078479,2.083344,1.662509,1.701123,1.944038,1.657753,2.064162,2.062186,2.177103,1.803465
40,0.333333,2.098839,2.178670,1.715569,1.958537,2.172923,2.078297,2.082956,1.662437,1.701344,1.943018,1.658036,2.064145,2.062434,2.177102,1.803461
41,0.341667,2.098856,2.178677,1.715589,1.958560,2.172917,2.078319,2.082966,1.662444,1.701343,1.943034,1.658030,2.064146,2.062453,2.177105,1.803481
42,0.350000,2.098892,2.178673,1.715596,1.958573,2.172925,2.078318,2.082979,1.662441,1.701357,1.943024,1.658038,2.064151,2.062483,2.177104,1.803486
43,0.358333,2.098556,2.178758,1.715581,1.958824,2.172658,2.078523,2.083385,1.662508,1.701161,1.944015,1.657755,2.064176,2.062290,2.177101,1.803528
44,0.366667,2.098924,2.178687,1.715631,1.958635,2.172922,2.078364,2.082978,1.662457,1.701356,1.943053,1.658038,2.064162,2.062523,2.177115,1.803524
45,0.375000,2.098586,2.178769,1.715614,1.958891,2.172682,2.078571,2.083488,1.662516,1.701242,1.944155,1.657775,2.064271,2.062329,2.177115,1.803565
46,0.383333,2.098929,2.178686,1.715659,1.958706,2.172906,2.078418,2.083008,1.662455,1.701378,1.943148,1.658022,2.064209,2.062543,2.177110,1.803559
47,0.391667,2.098985,2.178695,1.715683,1.958673,2.172935,2.078408,2.083027,1.662465,1.701411,1.943079,1.658051,2.064207,2.062578,2.177124,1.803574
48,0.400000,2.098990,2.178685,1.715695,1.958711,2.172910,2.078431,2.083068,1.662454,1.701417,1.943153,1.658025,2.064225,2.062591,2.177110,1.803588
49,0.408333,2.099003,2.178689,1.715701,1.958727,2.172915,2.078439,2.083082,1.662458,1.701424,1.943170,1.658029,2.064234,2.062604,2.177114,1.803595
50,0.416667,2.098998,2.178619,1.715871,1.958718,2.172691,2.078606,2.083309,1.662385,1.701465,1.943393,1.657802,2.064272,2.062598,2.177006,1.803764
51,0.425000,2.098670,2.178788,1.715688,1.958979,2.172677,2.078646,2.083501,1.662539,1.701255,1.944172,1.657774,2.064286,2.062413,2.177128,1.803639
52,0.433333,2.099030,2.178701,1.715734,1.958774,2.172915,2.078480,2.083073,1.662472,1.701428,1.943181,1.658032,2.064246,2.062636,2.177124,1.803630
53,0.441667,2.098882,2.178710,1.715805,1.958822,2.172742,2.078624,2.083308,1.662472,1.701399,1.943612,1.657850,2.064290,2.062536,2.177087,1.803720
54,0.450000,2.099059,2.178698,1.715765,1.958762,2.172924,2.078495,2.083088,1.662469,1.701468,1.943156,1.658041,2.064270,2.062655,2.177123,1.803657
55,0.458333,2.099074,2.178703,1.715780,1.958749,2.172926,2.078499,2.083076,1.662476,1.701466,1.943115,1.658044,2.064257,2.062663,2.177128,1.803669
56,0.466667,2.098889,2.178721,1.715837,1.958831,2.172735,2.078656,2.083333,1.662483,1.701412,1.943638,1.657843,2.064304,2.062543,2.177094,1.803752
57,0.475000,2.098889,2.178715,1.715844,1.958832,2.172734,2.078663,2.083311,1.662478,1.701419,1.943617,1.657843,2.064311,2.062544,2.177089,1.803759
58,0.483333,2.099074,2.178704,1.715804,1.958740,2.172929,2.078520,2.083059,1.662477,1.701486,1.943089,1.658048,2.064273,2.062661,2.177130,1.803692
59,0.491667,2.099056,2.178710,1.715816,1.958747,2.172921,2.078542,2.083083,1.662482,1.701498,1.943139,1.658039,2.064296,2.062649,2.177132,1.803707
60,0.500000,2.099036,2.178713,1.715809,1.958757,2.172907,2.078545,2.083071,1.662485,1.701469,1.943156,1.658025,2.064278,2.062637,2.177131,1.803702
61,0.508333,2.099039,2.178708,1.715819,1.958728,2.172917,2.078543,2.083069,1.662480,1.701497,1.943122,1.658034,2.064294,2.062632,2.177130,1.803710
62,0.516667,2.099018,2.178707,1.715813,1.958736,2.172907,2.078549,2.083078,1.662478,1.701491,1.943160,1.658023,2.064299,2.062618,2.177126,1.803707
63,0.525000,2.098998,2.178707,1.715827,1.958728,2.172895,2.078566,2.083035,1.662480,1.701481,1.943129,1.658014,2.064292,2.062601,2.177124,1.803721
64,0.533333,2.098832,2.178723,1.715872,1.958758,2.172727,2.078684,2.083284,1.662485,1.701435,1.943573,1.657835,2.064319,2.062483,2.177093,1.803785
65,0.541667,2.098820,2.178725,1.715866,1.958744,2.172728,2.078678,2.083273,1.662487,1.701428,1.943561,1.657836,2.064312,2.062470,2.177094,1.803779
66,0.550000,2.098968,2.178707,1.715821,1.958648,2.172905,2.078542,2.083025,1.662478,1.701493,1.943069,1.658022,2.064286,2.062559,2.177125,1.803710
67,0.558333,2.098928,2.178701,1.715804,1.958649,2.172902,2.078540,2.083026,1.662471,1.701498,1.943111,1.658017,2.064307,2.062529,2.177120,1.803697
68,0.566667,2.098756,2.178728,1.715862,1.958679,2.172714,2.078673,2.083251,1.662489,1.701416,1.943537,1.657821,2.064300,2.062406,2.177093,1.803775
69,0.575000,2.098886,2.178710,1.715796,1.958614,2.172902,2.078535,2.083013,1.662479,1.701489,1.943104,1.658016,2.064300,2.062488,2.177127,1.803690
70,0.583333,2.098723,2.178718,1.715841,1.958636,2.172719,2.078648,2.083229,1.662478,1.701419,1.943505,1.657825,2.064299,2.062371,2.177087,1.803753
71,0.591667,2.098837,2.178703,1.715787,1.958558,2.172887,2.078523,2.082989,1.662470,1.701478,1.943074,1.658000,2.064287,2.062438,2.177118,1.803680
72,0.600000,2.098665,2.178719,1.715831,1.958576,2.172713,2.078637,2.083192,1.662479,1.701407,1.943466,1.657818,2.064286,2.062311,2.177086,1.803743
73,0.608333,2.098454,2.178804,1.715733,1.958691,2.172632,2.078663,2.083370,1.662554,1.701243,1.943969,1.657728,2.064245,2.062180,2.177129,1.803677
74,0.616667,2.098615,2.178721,1.715798,1.958534,2.172709,2.078607,2.083159,1.662480,1.701373,1.943441,1.657814,2.064255,2.062264,2.177086,1.803710
75,0.625000,2.098742,2.178694,1.715739,1.958449,2.172886,2.078470,2.082917,1.662460,1.701451,1.942987,1.657999,2.064254,2.062340,2.177111,1.803631
76,0.633333,2.098715,2.178696,1.715723,1.958439,2.172883,2.078461,2.082908,1.662462,1.701435,1.942996,1.657995,2.064245,2.062316,2.177111,1.803617
77,0.641667,2.098356,2.178785,1.715678,1.958592,2.172635,2.078608,2.083271,1.662534,1.701218,1.943868,1.657730,2.064220,2.062082,2.177115,1.803622
78,0.650000,2.098680,2.178689,1.715701,1.958364,2.172886,2.078423,2.082863,1.662456,1.701421,1.942911,1.657998,2.064215,2.062272,2.177107,1.803591
79,0.658333,2.098638,2.178690,1.715678,1.958338,2.172875,2.078406,2.082860,1.662455,1.701397,1.942924,1.657986,2.064197,2.062234,2.177105,1.803569
80,0.666667,2.098620,2.178688,1.715675,1.958308,2.172871,2.078398,2.082841,1.662453,1.701390,1.942892,1.657982,2.064185,2.062213,2.177103,1.803565
81,0.675000,2.098593,2.178695,1.715661,1.958304,2.172870,2.078393,2.082802,1.662461,1.701362,1.942877,1.657982,2.064166,2.062191,2.177107,1.803553
82,0.683333,2.098398,2.178692,1.715691,1.958339,2.172707,2.078509,2.082973,1.662448,1.701319,1.943277,1.657810,2.064210,2.062052,2.177064,1.803606
83,0.691667,2.098545,2.178691,1.715628,1.958241,2.172872,2.078355,2.082807,1.662454,1.701357,1.942867,1.657981,2.064156,2.062139,2.177104,1.803519
84,0.700000,2.098536,2.178677,1.715625,1.958215,2.172868,2.078346,2.082793,1.662441,1.701364,1.942836,1.657977,2.064156,2.062127,2.177093,1.803515
85,0.708333,2.098280,2.178684,1.715646,1.958371,2.172552,2.078520,2.083099,1.662437,1.701166,1.943552,1.657651,2.064112,2.061971,2.177019,1.803575
86,0.716667,2.098491,2.178673,1.715590,1.958188,2.172857,2.078317,2.082794,1.662434,1.701340,1.942855,1.657965,2.064139,2.062086,2.177087,1.803481
87,0.725000,2.098249,2.178678,1.715606,1.958332,2.172564,2.078477,2.083072,1.662430,1.701153,1.943518,1.657662,2.064097,2.061938,2.177018,1.803535
88,0.733333,2.098260,2.178787,1.715662,1.958100,2.172568,2.078438,2.083213,1.662538,1.701095,1.943415,1.657665,2.063944,2.061890,2.177101,1.803566
89,0.741667,2.098267,2.178762,1.715667,1.958089,2.172539,2.078436,2.083182,1.662515,1.701081,1.943366,1.657639,2.063922,2.061892,2.177075,1.803569
90,0.750000,2.098145,2.178679,1.715518,1.958329,2.172571,2.078429,2.083076,1.662426,1.701122,1.943622,1.657664,2.064105,2.061858,2.177019,1.803457
91,0.758333,2.098135,2.178686,1.715512,1.958325,2.172565,2.078424,2.083089,1.662432,1.701106,1.943641,1.657657,2.064090,2.061850,2.177023,1.803451
92,0.766667,2.098251,2.178674,1.715549,1.958200,2.172705,2.078371,2.082890,1.662428,1.701224,1.943202,1.657805,2.064118,2.061907,2.177050,1.803465
93,0.775000,2.098177,2.178677,1.715538,1.958265,2.172559,2.078411,2.083059,1.662426,1.701104,1.943509,1.657655,2.064049,2.061867,2.177015,1.803467
94,0.783333,2.098201,2.178780,1.715596,1.958050,2.172580,2.078376,2.083177,1.662529,1.701068,1.943388,1.657676,2.063920,2.061833,2.177098,1.803501
95,0.791667,2.098210,2.178679,1.715543,1.958207,2.172552,2.078381,2.083165,1.662426,1.701119,1.943525,1.657645,2.064029,2.061878,2.177015,1.803463
96,0.800000,2.098118,2.178673,1.715467,1.958312,2.172584,2.078381,2.083056,1.662419,1.701101,1.943611,1.657676,2.064087,2.061834,2.177018,1.803407
97,0.808333,2.098232,2.178784,1.715595,1.958028,2.172567,2.078353,2.083174,1.662536,1.701024,1.943332,1.657665,2.063856,2.061852,2.177098,1.803494
98,0.816667,2.098235,2.178807,1.715600,1.958016,2.172596,2.078353,2.083179,1.662559,1.701037,1.943322,1.657693,2.063863,2.061851,2.177123,1.803498
99,0.825000,2.098242,2.178805,1.715583,1.958017,2.172583,2.078334,2.083181,1.662557,1.701004,1.943318,1.657681,2.063827,2.061856,2.177118,1.803481
100,0.833333,2.098249,2.178772,1.715584,1.958080,2.172577,2.078356,2.083180,1.662524,1.701043,1.943373,1.657675,2.063888,2.061877,2.177092,1.803487
101,0.841667,2.098232,2.178679,1.715514,1.958242,2.172562,2.078357,2.083160,1.662427,1.701093,1.943532,1.657656,2.064008,2.061903,2.177018,1.803435
102,0.850000,2.098282,2.178674,1.715500,1.958222,2.172727,2.078319,2.082896,1.662428,1.701196,1.943199,1.657827,2.064087,2.061936,2.177055,1.803415
103,0.858333,2.098294,2.178673,1.715503,1.958233,2.172723,2.078321,2.082911,1.662426,1.701197,1.943213,1.657823,2.064087,2.061947,2.177053,1.803418
104,0.866667,2.098116,2.178760,1.715423,1.958376,2.172637,2.078362,2.083115,1.662504,1.701035,1.943737,1.657728,2.064046,2.061848,2.177096,1.803369
105,0.875000,2.098267,2.178668,1.715510,1.958351,2.172582,2.078382,2.083079,1.662419,1.701093,1.943525,1.657679,2.064037,2.061956,2.177014,1.803439
106,0.883333,2.098339,2.178680,1.715514,1.958293,2.172727,2.078338,2.082949,1.662434,1.701202,1.943266,1.657827,2.064098,2.061996,2.177059,1.803431
107,0.891667,2.098059,2.178787,1.715394,1.958549,2.172438,2.078418,2.083480,1.662524,1.700860,1.944331,1.657522,2.063956,2.061846,2.177067,1.803362
108,0.900000,2.098346,2.178789,1.715598,1.958174,2.172592,2.078369,2.083251,1.662541,1.701046,1.943441,1.657691,2.063890,2.061973,2.177108,1.803501
109,0.908333,2.098582,2.178661,1.715499,1.958259,2.172899,2.078219,2.082831,1.662423,1.701302,1.942873,1.658007,2.064095,2.062172,2.177089,1.803388
110,0.916667,2.098428,2.178669,1.715539,1.958370,2.172735,2.078359,2.083001,1.662424,1.701238,1.943305,1.657836,2.064130,2.062083,2.177053,1.803454
111,0.925000,2.098446,2.178668,1.715552,1.958389,2.172732,2.078372,2.083013,1.662424,1.701245,1.943319,1.657833,2.064137,2.062101,2.177052,1.803468
112,0.933333,2.098468,2.178672,1.715564,1.958414,2.172729,2.078385,2.083010,1.662428,1.701240,1.943318,1.657832,2.064133,2.062124,2.177054,1.803480
113,0.941667,2.098508,2.178657,1.715577,1.958455,2.172724,2.078399,2.083008,1.662415,1.701249,1.943318,1.657827,2.064143,2.062163,2.177042,1.803493
114,0.950000,2.098343,2.178767,1.715502,1.958610,2.172650,2.078444,2.083280,1.662514,1.701099,1.943909,1.657743,2.064113,2.062077,2.177105,1.803449
115,0.958333,2.098540,2.178676,1.715604,1.958495,2.172732,2.078429,2.083061,1.662433,1.701270,1.943379,1.657835,2.064167,2.062198,2.177058,1.803520
116,0.966667,2.098552,2.178677,1.715607,1.958513,2.172732,2.078434,2.083074,1.662434,1.701272,1.943398,1.657835,2.064171,2.062211,2.177059,1.803524
117,0.975000,2.098750,2.178659,1.715576,1.958478,2.172881,2.078315,2.082972,1.662423,1.701349,1.943063,1.657990,2.064160,2.062353,2.177083,1.803470
118,0.983333,2.098608,2.178683,1.715629,1.958571,2.172737,2.078457,2.083102,1.662441,1.701283,1.943429,1.657842,2.064183,2.062267,2.177064,1.803547
119,0.991667,2.098644,2.178684,1.715649,1.958601,2.172738,2.078475,2.083119,1.662443,1.701294,1.943440,1.657844,2.064192,2.062302,2.177066,1.803566
120,1.000000,2.098654,2.178682,1.715658,1.958634,2.172742,2.078493,2.083120,1.662441,1.701311,1.943463,1.657848,2.064217,2.062318,2.177066,1.803577
121,1.008333,2.098675,2.178689,1.715673,1.958649,2.172735,2.078505,2.083153,1.662449,1.701308,1.943490,1.657840,2.064212,2.062337,2.177069,1.803591
122,1.016667,2.098879,2.178669,1.715651,1.958584,2.172902,2.078382,2.082996,1.662437,1.701398,1.943066,1.658015,2.064201,2.062476,2.177096,1.803543
123,1.025000,2.098725,2.178685,1.715698,1.958696,2.172731,2.078528,2.083172,1.662446,1.701322,1.943506,1.657838,2.064225,2.062387,2.177065,1.803616
124,1.033333,2.098739,2.178686,1.715715,1.958719,2.172723,2.078549,2.083181,1.662447,1.701324,1.943523,1.657830,2.064230,2.062402,2.177064,1.803634
125,1.041667,2.098916,2.178680,1.715683,1.958652,2.172904,2.078426,2.083035,1.662448,1.701420,1.943134,1.658018,2.064235,2.062520,2.177105,1.803578
126,1.050000,2.098781,2.178695,1.715743,1.958720,2.172731,2.078561,2.083261,1.662455,1.701362,1.943563,1.657837,2.064253,2.062434,2.177073,1.803658
127,1.058333,2.098965,2.178682,1.715714,1.958681,2.172901,2.078449,2.083043,1.662451,1.701427,1.943123,1.658017,2.064234,2.062565,2.177106,1.803607
128,1.066667,2.098966,2.178568,1.715874,1.958694,2.172679,2.078612,2.083129,1.662338,1.701467,1.943221,1.657795,2.064278,2.062568,2.176965,1.803768
129,1.075000,2.098808,2.178697,1.715767,1.958803,2.172735,2.078606,2.083212,1.662459,1.701365,1.943571,1.657844,2.064277,2.062475,2.177075,1.803687
130,1.083333,2.098822,2.178699,1.715773,1.958820,2.172740,2.078614,2.083216,1.662462,1.701371,1.943578,1.657849,2.064284,2.062490,2.177078,1.803693
131,1.091667,2.098829,2.178697,1.715780,1.958817,2.172738,2.078617,2.083238,1.662460,1.701383,1.943589,1.657847,2.064292,2.062495,2.177076,1.803699
132,1.100000,2.098843,2.178699,1.715799,1.958824,2.172730,2.078634,2.083241,1.662462,1.701385,1.943586,1.657840,2.064292,2.062506,2.177076,1.803718
133,1.108333,2.099003,2.178689,1.715765,1.958745,2.172893,2.078510,2.083104,1.662458,1.701467,1.943211,1.658008,2.064284,2.062609,2.177109,1.803661
134,1.116667,2.098845,2.178708,1.715809,1.958822,2.172731,2.078642,2.083247,1.662471,1.701385,1.943587,1.657841,2.064290,2.062508,2.177083,1.803728
135,1.125000,2.098672,2.178787,1.715743,1.958967,2.172652,2.078696,2.083504,1.662538,1.701277,1.944162,1.657750,2.064302,2.062413,2.177121,1.803693
136,1.133333,2.099023,2.178696,1.715781,1.958759,2.172888,2.078524,2.083092,1.662467,1.701454,1.943192,1.658005,2.064268,2.062627,2.177113,1.803676
137,1.141667,2.099014,2.178697,1.715784,1.958745,2.172906,2.078524,2.083087,1.662467,1.701481,1.943182,1.658022,2.064293,2.062617,2.177119,1.803679
138,1.150000,2.099017,2.178704,1.715795,1.958738,2.172894,2.078531,2.083089,1.662474,1.701465,1.943175,1.658010,2.064273,2.062617,2.177120,1.803688
139,1.158333,2.098851,2.178723,1.715850,1.958797,2.172724,2.078671,2.083311,1.662485,1.701413,1.943620,1.657832,2.064305,2.062506,2.177092,1.803766
140,1.166667,2.099003,2.178706,1.715804,1.958735,2.172901,2.078545,2.083086,1.662476,1.701486,1.943183,1.658017,2.064299,2.062606,2.177124,1.803699
141,1.175000,2.098643,2.178804,1.715764,1.958922,2.172649,2.078710,2.083441,1.662558,1.701255,1.944083,1.657749,2.064273,2.062379,2.177134,1.803712
142,1.183333,2.098965,2.178707,1.715793,1.958720,2.172888,2.078543,2.083068,1.662477,1.701464,1.943187,1.658003,2.064286,2.062574,2.177121,1.803690
143,1.191667,2.098974,2.178707,1.715792,1.958691,2.172894,2.078527,2.083072,1.662477,1.701467,1.943153,1.658010,2.064274,2.062574,2.177123,1.803685
144,1.200000,2.098946,2.178699,1.715797,1.958685,2.172894,2.078540,2.083044,1.662469,1.701485,1.943146,1.658010,2.064300,2.062551,2.177117,1.803693
145,1.208333,2.098769,2.178714,1.715832,1.958731,2.172726,2.078659,2.083206,1.662476,1.701404,1.943532,1.657834,2.064303,2.062429,2.177085,1.803749
146,1.216667,2.098759,2.178721,1.715829,1.958699,2.172726,2.078647,2.083250,1.662482,1.701410,1.943553,1.657833,2.064301,2.062413,2.177091,1.803744
147,1.225000,2.098888,2.178706,1.715766,1.958634,2.172895,2.078512,2.083026,1.662474,1.701463,1.943136,1.658009,2.064281,2.062495,2.177122,1.803662
148,1.233333,2.098725,2.178722,1.715819,1.958648,2.172724,2.078630,2.083250,1.662482,1.701407,1.943536,1.657829,2.064291,2.062375,2.177091,1.803732
149,1.241667,2.098870,2.178704,1.715758,1.958560,2.172897,2.078482,2.082981,1.662474,1.701445,1.943035,1.658012,2.064241,2.062463,2.177122,1.803648
150,1.250000,2.098838,2.178703,1.715760,1.958554,2.172893,2.078494,2.082968,1.662472,1.701452,1.943047,1.658008,2.064258,2.062438,2.177119,1.803653
151,1.258333,2.098640,2.178703,1.715779,1.958614,2.172727,2.078610,2.083122,1.662463,1.701386,1.943460,1.657834,2.064290,2.062302,2.177077,1.803697
152,1.266667,2.098617,2.178710,1.715774,1.958591,2.172723,2.078605,2.083125,1.662470,1.701375,1.943462,1.657829,2.064278,2.062279,2.177082,1.803692
153,1.275000,2.098753,2.178696,1.715715,1.958504,2.172884,2.078463,2.082938,1.662462,1.701427,1.943052,1.657996,2.064247,2.062361,2.177112,1.803612
154,1.283333,2.098401,2.178794,1.715671,1.958646,2.172644,2.078604,2.083309,1.662544,1.701210,1.943917,1.657740,2.064215,2.062129,2.177125,1.803616
155,1.291667,2.098722,2.178688,1.715696,1.958436,2.172892,2.078430,2.082908,1.662454,1.701429,1.942986,1.658003,2.064234,2.062321,2.177108,1.803589
156,1.300000,2.098713,2.178691,1.715690,1.958398,2.172896,2.078413,2.082866,1.662458,1.701410,1.942914,1.658009,2.064205,2.062305,2.177111,1.803580
157,1.308333,2.098503,2.178702,1.715712,1.958467,2.172723,2.078539,2.083030,1.662460,1.701331,1.943357,1.657828,2.064230,2.062163,2.177076,1.803629
158,1.316667,2.098479,2.178705,1.715700,1.958441,2.172721,2.078527,2.082993,1.662465,1.701306,1.943318,1.657826,2.064205,2.062139,2.177078,1.803617
159,1.325000,2.098625,2.178692,1.715658,1.958322,2.172881,2.078385,2.082844,1.662457,1.701380,1.942905,1.657992,2.064180,2.062220,2.177108,1.803549
160,1.333333,2.098251,2.178784,1.715606,1.958526,2.172633,2.078550,2.083248,1.662530,1.701178,1.943884,1.657726,2.064194,2.061986,2.177114,1.803553
161,1.341667,2.098405,2.178696,1.715675,1.958347,2.172715,2.078495,2.082972,1.662453,1.701306,1.943277,1.657819,2.064198,2.062059,2.177069,1.803591
162,1.350000,2.098564,2.178680,1.715619,1.958254,2.172887,2.078343,2.082807,1.662443,1.701377,1.942860,1.657996,2.064174,2.062157,2.177100,1.803509
163,1.358333,2.098546,2.178684,1.715607,1.958235,2.172885,2.078331,2.082804,1.662447,1.701362,1.942857,1.657994,2.064158,2.062139,2.177103,1.803498
164,1.366667,2.098293,2.178694,1.715630,1.958382,2.172569,2.078503,2.083126,1.662446,1.701165,1.943577,1.657667,2.064110,2.061983,2.177031,1.803559
165,1.375000,2.098502,2.178683,1.715580,1.958196,2.172884,2.078306,2.082790,1.662445,1.701348,1.942847,1.657992,2.064146,2.062096,2.177102,1.803471
166,1.383333,2.098325,2.178699,1.715618,1.958256,2.172717,2.078433,2.082909,1.662456,1.701252,1.943203,1.657820,2.064139,2.061977,2.177072,1.803532
167,1.391667,2.098010,2.178799,1.715477,1.958534,2.172400,2.078513,2.083445,1.662537,1.700880,1.944329,1.657485,2.063988,2.061806,2.177066,1.803448
168,1.400000,2.098263,2.178789,1.715657,1.958084,2.172574,2.078426,2.083213,1.662540,1.701096,1.943396,1.657672,2.063937,2.061888,2.177103,1.803559
169,1.408333,2.098150,2.178694,1.715528,1.958337,2.172580,2.078439,2.083093,1.662440,1.701127,1.943641,1.657673,2.064111,2.061864,2.177032,1.803467
170,1.416667,2.098253,2.178796,1.715653,1.958069,2.172575,2.078419,2.083208,1.662547,1.701084,1.943385,1.657673,2.063923,2.061877,2.177109,1.803555
171,1.425000,2.098176,2.178587,1.715491,1.958493,2.172493,2.078453,2.083196,1.662329,1.701156,1.943874,1.657582,2.064189,2.061922,2.176930,1.803443
172,1.433333,2.098446,2.178674,1.715527,1.958091,2.172892,2.078234,2.082708,1.662436,1.701305,1.942717,1.658000,2.064085,2.062028,2.177097,1.803413
173,1.441667,2.098188,2.178680,1.715550,1.958268,2.172574,2.078420,2.083042,1.662430,1.701120,1.943484,1.657670,2.064063,2.061876,2.177021,1.803478
174,1.450000,2.098228,2.178783,1.715617,1.958056,2.172569,2.078388,2.083179,1.662534,1.701056,1.943369,1.657666,2.063900,2.061855,2.177098,1.803519
175,1.458333,2.098045,2.178764,1.715455,1.958327,2.172623,2.078403,2.083146,1.662505,1.701082,1.943790,1.657711,2.064102,2.061782,2.177095,1.803403
176,1.466667,2.098157,2.178690,1.715513,1.958299,2.172570,2.078406,2.083097,1.662438,1.701099,1.943601,1.657663,2.064065,2.061860,2.177028,1.803447
177,1.475000,2.098433,2.178671,1.715506,1.958089,2.172898,2.078217,2.082710,1.662433,1.701302,1.942729,1.658005,2.064085,2.062018,2.177096,1.803393
178,1.483333,2.098168,2.178679,1.715504,1.958306,2.172565,2.078396,2.083093,1.662427,1.701093,1.943592,1.657659,2.064057,2.061870,2.177018,1.803438
179,1.491667,2.098270,2.178681,1.715529,1.958217,2.172726,2.078351,2.082898,1.662434,1.701220,1.943208,1.657825,2.064114,2.061926,2.177060,1.803445
180,1.500000,2.098452,2.178672,1.715498,1.958122,2.172894,2.078215,2.082733,1.662433,1.701291,1.942766,1.658001,2.064080,2.062040,2.177096,1.803387
181,1.508333,2.098197,2.178679,1.715509,1.958324,2.172573,2.078398,2.083109,1.662427,1.701104,1.943599,1.657667,2.064065,2.061896,2.177021,1.803442
182,1.516667,2.098207,2.178572,1.715458,1.958527,2.172495,2.078421,2.083213,1.662315,1.701142,1.943895,1.657584,2.064177,2.061953,2.176920,1.803411
183,1.525000,2.098290,2.178623,1.715476,1.958429,2.172608,2.078370,2.083118,1.662370,1.701170,1.943620,1.657702,2.064136,2.061992,2.176986,1.803410
184,1.533333,2.098323,2.178798,1.715642,1.958089,2.172586,2.078389,2.083222,1.662552,1.701061,1.943350,1.657686,2.063881,2.061935,2.177114,1.803538
185,1.541667,2.098284,2.178589,1.715484,1.958513,2.172540,2.078412,2.083177,1.662335,1.701159,1.943768,1.657632,2.064160,2.062008,2.176944,1.803427
186,1.550000,2.098360,2.178678,1.715554,1.958312,2.172725,2.078377,2.082942,1.662433,1.701230,1.943257,1.657826,2.064125,2.062017,2.177058,1.803470
187,1.558333,2.098378,2.178677,1.715564,1.958317,2.172728,2.078383,2.082946,1.662432,1.701240,1.943248,1.657830,2.064131,2.062032,2.177058,1.803479
188,1.566667,2.098333,2.178666,1.715575,1.958433,2.172568,2.078453,2.083126,1.662418,1.701136,1.943588,1.657667,2.064086,2.062026,2.177010,1.803506
189,1.575000,2.098384,2.178761,1.715644,1.958231,2.172566,2.078422,2.083269,1.662513,1.701088,1.943478,1.657666,2.063939,2.062016,2.177080,1.803548
190,1.583333,2.098269,2.178755,1.715523,1.958534,2.172639,2.078465,2.083233,1.662501,1.701132,1.943859,1.657731,2.064145,2.062002,2.177094,1.803470
191,1.591667,2.098280,2.178751,1.715534,1.958565,2.172633,2.078483,2.083247,1.662496,1.701144,1.943895,1.657725,2.064165,2.062017,2.177089,1.803483
192,1.600000,2.098309,2.178763,1.715549,1.958575,2.172649,2.078491,2.083245,1.662510,1.701150,1.943873,1.657742,2.064164,2.062042,2.177102,1.803496
193,1.608333,2.098323,2.178759,1.715553,1.958627,2.172660,2.078509,2.083287,1.662504,1.701188,1.943952,1.657751,2.064216,2.062066,2.177102,1.803504
194,1.616667,2.098691,2.178664,1.715599,1.958397,2.172878,2.078330,2.082916,1.662427,1.701361,1.942986,1.657988,2.064165,2.062288,2.177086,1.803491
195,1.625000,2.098731,2.178675,1.715609,1.958408,2.172903,2.078329,2.082915,1.662440,1.701372,1.942957,1.658013,2.064165,2.062321,2.177101,1.803498
196,1.633333,2.098402,2.178752,1.715589,1.958669,2.172641,2.078531,2.083319,1.662499,1.701188,1.943949,1.657735,2.064202,2.062135,2.177092,1.803536
197,1.641667,2.098601,2.178688,1.715674,1.958543,2.172731,2.078493,2.083144,1.662445,1.701329,1.943449,1.657835,2.064221,2.062256,2.177067,1.803589
198,1.650000,2.098617,2.178685,1.715677,1.958583,2.172729,2.078505,2.083124,1.662443,1.701321,1.943453,1.657834,2.064222,2.062277,2.177065,1.803594
199,1.658333,2.098640,2.178690,1.715688,1.958592,2.172726,2.078511,2.083140,1.662449,1.701316,1.943455,1.657831,2.064211,2.062297,2.177068,1.803604
200,1.666667,2.098668,2.178677,1.715707,1.958634,2.172729,2.078535,2.083105,1.662438,1.701336,1.943434,1.657836,2.064236,2.062328,2.177059,1.803625
201,1.675000,2.098685,2.178686,1.715707,1.958649,2.172732,2.078535,2.083143,1.662446,1.701335,1.943470,1.657838,2.064235,2.062345,2.177066,1.803625
202,1.683333,2.098696,2.178684,1.715719,1.958664,2.172725,2.078548,2.083176,1.662443,1.701348,1.943507,1.657830,2.064250,2.062357,2.177063,1.803636
203,1.691667,2.098760,2.178686,1.715760,1.958662,2.172710,2.078563,2.083269,1.662445,1.701373,1.943534,1.657815,2.064249,2.062405,2.177060,1.803671
204,1.700000,2.098730,2.178689,1.715741,1.958700,2.172727,2.078571,2.083183,1.662450,1.701355,1.943516,1.657834,2.064258,2.062391,2.177067,1.803659
205,1.708333,2.098596,2.178767,1.715683,1.958827,2.172646,2.078611,2.083439,1.662518,1.701236,1.944033,1.657743,2.064237,2.062321,2.177105,1.803626
206,1.716667,2.098928,2.178563,1.715856,1.958653,2.172672,2.078593,2.083121,1.662332,1.701457,1.943210,1.657787,2.064266,2.062530,2.176960,1.803750
207,1.725000,2.098760,2.178699,1.715765,1.958744,2.172724,2.078600,2.083205,1.662461,1.701357,1.943552,1.657831,2.064265,2.062425,2.177074,1.803684
208,1.733333,2.098960,2.178571,1.715883,1.958661,2.172663,2.078610,2.083136,1.662341,1.701452,1.943201,1.657779,2.064251,2.062556,2.176964,1.803774
209,1.741667,2.098638,2.178761,1.715715,1.958891,2.172651,2.078652,2.083426,1.662513,1.701265,1.944040,1.657750,2.064274,2.062368,2.177102,1.803661
210,1.750000,2.098639,2.178776,1.715716,1.958900,2.172642,2.078655,2.083461,1.662528,1.701245,1.944085,1.657741,2.064257,2.062371,2.177111,1.803662
211,1.758333,2.098655,2.178777,1.715720,1.958910,2.172648,2.078657,2.083485,1.662528,1.701260,1.944102,1.657746,2.064269,2.062386,2.177113,1.803666
212,1.766667,2.098631,2.178786,1.715716,1.958938,2.172653,2.078673,2.083496,1.662536,1.701266,1.944165,1.657750,2.064295,2.062374,2.177120,1.803667
213,1.775000,2.098662,2.178796,1.715735,1.958914,2.172658,2.078671,2.083496,1.662548,1.701262,1.944110,1.657756,2.064270,2.062391,2.177130,1.803681
214,1.783333,2.098668,2.178785,1.715747,1.958914,2.172649,2.078681,2.083540,1.662536,1.701292,1.944149,1.657746,2.064298,2.062396,2.177119,1.803692
215,1.791667,2.098994,2.178682,1.715776,1.958716,2.172885,2.078513,2.083080,1.662451,1.701470,1.943166,1.658000,2.064279,2.062595,2.177101,1.803670
216,1.800000,2.098832,2.178701,1.715820,1.958791,2.172710,2.078645,2.083304,1.662462,1.701401,1.943627,1.657817,2.064298,2.062490,2.177072,1.803737
217,1.808333,2.098672,2.178783,1.715754,1.958909,2.172649,2.078684,2.083467,1.662536,1.701271,1.944066,1.657748,2.064273,2.062398,2.177118,1.803698
218,1.816667,2.098994,2.178686,1.715787,1.958724,2.172888,2.078526,2.083082,1.662456,1.701479,1.943175,1.658003,2.064291,2.062597,2.177106,1.803681
219,1.825000,2.098995,2.178695,1.715787,1.958704,2.172890,2.078519,2.083086,1.662465,1.701471,1.943159,1.658006,2.064274,2.062593,2.177113,1.803680
220,1.833333,2.098647,2.178787,1.715746,1.958890,2.172650,2.078678,2.083467,1.662539,1.701270,1.944071,1.657749,2.064274,2.062375,2.177121,1.803691
221,1.841667,2.098800,2.178698,1.715816,1.958771,2.172716,2.078646,2.083229,1.662460,1.701394,1.943564,1.657825,2.064296,2.062461,2.177071,1.803734
222,1.850000,2.098976,2.178696,1.715779,1.958656,2.172881,2.078499,2.083064,1.662467,1.701444,1.943109,1.657997,2.064237,2.062567,2.177112,1.803668
223,1.858333,2.098607,2.178789,1.715748,1.958877,2.172639,2.078690,2.083454,1.662541,1.701265,1.944087,1.657737,2.064280,2.062341,2.177120,1.803695
224,1.866667,2.098599,2.178789,1.715738,1.958869,2.172631,2.078680,2.083470,1.662541,1.701252,1.944102,1.657729,2.064266,2.062333,2.177118,1.803685
225,1.875000,2.098579,2.178792,1.715734,1.958807,2.172647,2.078661,2.083434,1.662543,1.701259,1.944024,1.657745,2.064258,2.062303,2.177124,1.803677
226,1.883333,2.098892,2.178691,1.715749,1.958616,2.172876,2.078486,2.083043,1.662459,1.701442,1.943130,1.657990,2.064251,2.062493,2.177106,1.803643
227,1.891667,2.098535,2.178780,1.715716,1.958786,2.172630,2.078652,2.083432,1.662530,1.701252,1.944046,1.657727,2.064259,2.062264,2.177110,1.803662
228,1.900000,2.098706,2.178684,1.715781,1.958656,2.172712,2.078603,2.083139,1.662446,1.701373,1.943452,1.657820,2.064268,2.062362,2.177060,1.803697
229,1.908333,2.098668,2.178700,1.715768,1.958622,2.172714,2.078591,2.083159,1.662461,1.701362,1.943477,1.657821,2.064258,2.062325,2.177073,1.803684
230,1.916667,2.098641,2.178700,1.715758,1.958596,2.172712,2.078582,2.083142,1.662460,1.701353,1.943460,1.657818,2.064250,2.062298,2.177072,1.803674
231,1.925000,2.098635,2.178682,1.715744,1.958593,2.172711,2.078570,2.083114,1.662442,1.701356,1.943436,1.657817,2.064254,2.062293,2.177058,1.803661
232,1.933333,2.098602,2.178687,1.715737,1.958552,2.172707,2.078559,2.083118,1.662446,1.701348,1.943431,1.657812,2.064242,2.062258,2.177061,1.803653
233,1.941667,2.098583,2.178694,1.715733,1.958543,2.172710,2.078558,2.083099,1.662453,1.701340,1.943421,1.657815,2.064238,2.062242,2.177066,1.803649
234,1.950000,2.098558,2.178688,1.715720,1.958514,2.172703,2.078544,2.083096,1.662446,1.701334,1.943414,1.657808,2.064230,2.062216,2.177060,1.803637
235,1.958333,2.098538,2.178670,1.715710,1.958497,2.172698,2.078536,2.083051,1.662429,1.701333,1.943372,1.657803,2.064230,2.062197,2.177045,1.803627
236,1.966667,2.098512,2.178673,1.715700,1.958461,2.172706,2.078521,2.083033,1.662431,1.701331,1.943344,1.657810,2.064225,2.062168,2.177050,1.803615
237,1.975000,2.098528,2.178669,1.715702,1.958421,2.172673,2.078502,2.083107,1.662426,1.701312,1.943363,1.657776,2.064184,2.062171,2.177038,1.803612
238,1.983333,2.098482,2.178679,1.715681,1.958431,2.172701,2.078503,2.083024,1.662436,1.701307,1.943337,1.657805,2.064201,2.062138,2.177052,1.803597
239,1.991667,2.098462,2.178673,1.715668,1.958406,2.172704,2.078488,2.083002,1.662431,1.701304,1.943308,1.657808,2.064196,2.062117,2.177049,1.803583
240,2.000000,2.098448,2.178671,1.715669,1.958385,2.172702,2.078486,2.082992,1.662428,1.701308,1.943291,1.657806,2.064197,2.062101,2.177047,1.803584
241,2.008333,2.098418,2.178687,1.715639,1.958364,2.172713,2.078460,2.082990,1.662443,1.701281,1.943300,1.657815,2.064174,2.062073,2.177061,1.803555
242,2.016667,2.098392,2.178676,1.715629,1.958348,2.172704,2.078453,2.082983,1.662432,1.701282,1.943301,1.657806,2.064178,2.062050,2.177051,1.803545
243,2.025000,2.098236,2.178768,1.715570,1.958423,2.172636,2.078481,2.083203,1.662515,1.701153,1.943753,1.657729,2.064136,2.061950,2.177103,1.803509
244,2.033333,2.098094,2.178799,1.715512,1.958543,2.172426,2.078520,2.083485,1.662538,1.700929,1.944294,1.657511,2.064009,2.061872,2.177073,1.803476
245,2.041667,2.098292,2.178590,1.715533,1.958547,2.172521,2.078471,2.083198,1.662336,1.701185,1.943814,1.657613,2.064195,2.062022,2.176940,1.803479
246,2.050000,2.098183,2.178581,1.715479,1.958614,2.172576,2.078486,2.083002,1.662328,1.701200,1.943795,1.657669,2.064279,2.061956,2.176947,1.803443
247,2.058333,2.098314,2.178772,1.715661,1.958117,2.172555,2.078422,2.083221,1.662525,1.701078,1.943387,1.657655,2.063913,2.061935,2.177087,1.803561
248,2.066667,2.098259,2.178576,1.715507,1.958498,2.172518,2.078439,2.083167,1.662322,1.701175,1.943768,1.657610,2.064179,2.061985,2.176929,1.803451
249,2.075000,2.098213,2.178560,1.715497,1.958538,2.172475,2.078462,2.083215,1.662303,1.701169,1.943902,1.657565,2.064205,2.061960,2.176906,1.803450
250,2.083333,2.098144,2.178574,1.715452,1.958546,2.172547,2.078447,2.082981,1.662321,1.701147,1.943745,1.657640,2.064214,2.061910,2.176934,1.803413
251,2.091667,2.098140,2.178576,1.715447,1.958568,2.172570,2.078452,2.082980,1.662322,1.701174,1.943770,1.657662,2.064251,2.061912,2.176942,1.803410
252,2.100000,2.098201,2.178731,1.715569,1.958224,2.172515,2.078415,2.083236,1.662478,1.701051,1.943622,1.657609,2.063970,2.061875,2.177045,1.803491
253,2.108333,2.098258,2.178611,1.715487,1.958409,2.172607,2.078386,2.083099,1.662358,1.701201,1.943612,1.657700,2.064172,2.061963,2.176977,1.803422
254,2.116667,2.098200,2.178570,1.715483,1.958502,2.172495,2.078439,2.083215,1.662312,1.701172,1.943878,1.657584,2.064200,2.061941,2.176919,1.803434
255,2.125000,2.098270,2.178620,1.715477,1.958392,2.172618,2.078365,2.083078,1.662368,1.701181,1.943562,1.657712,2.064141,2.061968,2.176987,1.803410
256,2.133333,2.098455,2.178667,1.715510,1.958144,2.172884,2.078234,2.082769,1.662427,1.701309,1.942821,1.657990,2.064105,2.062048,2.177089,1.803400
257,2.141667,2.098230,2.178667,1.715555,1.958330,2.172563,2.078432,2.083061,1.662418,1.701120,1.943522,1.657660,2.064070,2.061923,2.177009,1.803485
258,2.150000,2.098255,2.178676,1.715567,1.958268,2.172552,2.078411,2.083192,1.662423,1.701140,1.943566,1.657646,2.064056,2.061927,2.177012,1.803489
259,2.158333,2.098159,2.178761,1.715503,1.958332,2.172647,2.078409,2.083112,1.662507,1.701105,1.943647,1.657740,2.064083,2.061870,2.177100,1.803441
260,2.166667,2.098243,2.178686,1.715546,1.958330,2.172566,2.078418,2.083130,1.662436,1.701109,1.943579,1.657662,2.064054,2.061933,2.177024,1.803475
261,2.175000,2.098170,2.178583,1.715450,1.958551,2.172566,2.078437,2.083004,1.662330,1.701156,1.943748,1.657659,2.064215,2.061930,2.176946,1.803408
262,2.183333,2.098306,2.178791,1.715638,1.958126,2.172571,2.078405,2.083242,1.662543,1.701064,1.943424,1.657670,2.063904,2.061931,2.177104,1.803539
263,2.191667,2.098343,2.178683,1.715577,1.958285,2.172718,2.078396,2.082948,1.662437,1.701244,1.943253,1.657818,2.064136,2.061998,2.177059,1.803492
264,2.200000,2.098087,2.178802,1.715477,1.958571,2.172426,2.078498,2.083467,1.662541,1.700890,1.944312,1.657512,2.063983,2.061873,2.177075,1.803444
265,2.208333,2.098285,2.178738,1.715599,1.958297,2.172533,2.078441,2.083282,1.662487,1.701079,1.943657,1.657628,2.063994,2.061957,2.177055,1.803520
266,2.216667,2.098393,2.178679,1.715590,1.958334,2.172715,2.078409,2.082975,1.662435,1.701250,1.943279,1.657817,2.064141,2.062047,2.177056,1.803505
267,2.225000,2.098564,2.178668,1.715559,1.958277,2.172881,2.078293,2.082834,1.662429,1.701338,1.942911,1.657989,2.064143,2.062163,2.177089,1.803452
268,2.233333,2.098590,2.178665,1.715564,1.958290,2.172877,2.078292,2.082847,1.662428,1.701334,1.942911,1.657985,2.064134,2.062185,2.177087,1.803455
269,2.241667,2.098613,2.178668,1.715571,1.958296,2.172884,2.078293,2.082846,1.662431,1.701337,1.942892,1.657994,2.064131,2.062205,2.177090,1.803461
270,2.250000,2.098456,2.178682,1.715621,1.958390,2.172724,2.078437,2.083011,1.662438,1.701278,1.943308,1.657827,2.064167,2.062109,2.177060,1.803535
271,2.258333,2.098640,2.178670,1.715590,1.958349,2.172882,2.078322,2.082868,1.662434,1.701350,1.942941,1.657992,2.064154,2.062238,2.177092,1.803483
272,2.266667,2.098669,2.178679,1.715604,1.958355,2.172887,2.078327,2.082891,1.662443,1.701356,1.942941,1.657997,2.064151,2.062261,2.177100,1.803495
273,2.275000,2.098686,2.178681,1.715612,1.958380,2.172892,2.078338,2.082865,1.662446,1.701351,1.942924,1.658003,2.064149,2.062280,2.177102,1.803503
274,2.283333,2.098524,2.178683,1.715667,1.958484,2.172719,2.078493,2.083060,1.662441,1.701309,1.943383,1.657822,2.064208,2.062183,2.177060,1.803584
275,2.291667,2.098737,2.178679,1.715637,1.958422,2.172895,2.078359,2.082902,1.662444,1.701378,1.942951,1.658007,2.064173,2.062329,2.177101,1.803527
276,2.300000,2.098754,2.178664,1.715645,1.958446,2.172879,2.078371,2.082933,1.662429,1.701391,1.942989,1.657990,2.064189,2.062347,2.177086,1.803536
277,2.308333,2.098778,2.178674,1.715662,1.958464,2.172889,2.078385,2.082930,1.662440,1.701397,1.942981,1.658002,2.064193,2.062370,2.177096,1.803552
278,2.316667,2.098611,2.178690,1.715714,1.958582,2.172728,2.078545,2.083105,1.662449,1.701345,1.943440,1.657833,2.064248,2.062272,2.177068,1.803632
279,2.325000,2.098790,2.178573,1.715815,1.958504,2.172684,2.078547,2.083040,1.662339,1.701441,1.943118,1.657797,2.064245,2.062389,2.176970,1.803707
280,2.333333,2.098850,2.178684,1.715691,1.958511,2.172911,2.078405,2.082947,1.662452,1.701420,1.942973,1.658026,2.064206,2.062436,2.177110,1.803578
281,2.341667,2.098673,2.178694,1.715740,1.958646,2.172725,2.078571,2.083141,1.662454,1.701351,1.943477,1.657832,2.064255,2.062335,2.177070,1.803658
282,2.350000,2.098682,2.178696,1.715761,1.958663,2.172717,2.078595,2.083150,1.662457,1.701358,1.943494,1.657824,2.064265,2.062346,2.177070,1.803680
283,2.358333,2.098702,2.178693,1.715764,1.958685,2.172719,2.078599,2.083166,1.662454,1.701367,1.943511,1.657826,2.064274,2.062366,2.177068,1.803683
284,2.366667,2.098884,2.178687,1.715730,1.958608,2.172873,2.078468,2.083027,1.662455,1.701421,1.943116,1.657987,2.064231,2.062485,2.177102,1.803624
285,2.375000,2.098724,2.178694,1.715768,1.958710,2.172729,2.078604,2.083163,1.662456,1.701374,1.943513,1.657837,2.064282,2.062389,2.177072,1.803687
286,2.383333,2.098752,2.178705,1.715789,1.958706,2.172724,2.078613,2.083237,1.662465,1.701389,1.943554,1.657831,2.064285,2.062409,2.177078,1.803705
287,2.391667,2.098765,2.178702,1.715783,1.958735,2.172730,2.078613,2.083194,1.662464,1.701375,1.943527,1.657838,2.064277,2.062426,2.177078,1.803701
288,2.400000,2.098596,2.178785,1.715716,1.958864,2.172637,2.078658,2.083446,1.662536,1.701236,1.944077,1.657735,2.064250,2.062330,2.177116,1.803663
289,2.408333,2.098941,2.178694,1.715755,1.958663,2.172910,2.078492,2.083055,1.662462,1.701478,1.943141,1.658024,2.064287,2.062542,2.177117,1.803649
290,2.416667,2.098643,2.178793,1.715739,1.958869,2.172668,2.078665,2.083494,1.662544,1.701291,1.944082,1.657765,2.064289,2.062366,2.177130,1.803682
291,2.425000,2.098627,2.178801,1.715739,1.958894,2.172663,2.078681,2.083453,1.662553,1.701265,1.944082,1.657762,2.064278,2.062361,2.177135,1.803686
292,2.433333,2.098791,2.178710,1.715811,1.958770,2.172736,2.078645,2.083200,1.662473,1.701392,1.943541,1.657845,2.064297,2.062454,2.177085,1.803730
293,2.441667,2.098791,2.178705,1.715809,1.958773,2.172737,2.078643,2.083207,1.662467,1.701401,1.943552,1.657845,2.064308,2.062455,2.177082,1.803728
294,2.450000,2.098655,2.178803,1.715739,1.958901,2.172675,2.078673,2.083470,1.662555,1.701273,1.944079,1.657773,2.064279,2.062383,2.177139,1.803684
295,2.458333,2.098851,2.178720,1.715841,1.958737,2.172726,2.078639,2.083325,1.662482,1.701414,1.943574,1.657834,2.064284,2.062492,2.177091,1.803751
296,2.466667,2.098778,2.178711,1.715801,1.958776,2.172746,2.078641,2.083204,1.662473,1.701402,1.943564,1.657854,2.064315,2.062446,2.177089,1.803722
297,2.475000,2.098784,2.178708,1.715801,1.958771,2.172740,2.078637,2.083210,1.662470,1.701397,1.943560,1.657848,2.064305,2.062450,2.177085,1.803720
298,2.483333,2.098629,2.178803,1.715740,1.958879,2.172652,2.078675,2.083473,1.662555,1.701254,1.944085,1.657751,2.064261,2.062358,2.177133,1.803685
299,2.491667,2.098775,2.178713,1.715799,1.958748,2.172736,2.078630,2.083210,1.662475,1.701385,1.943546,1.657844,2.064289,2.062437,2.177088,1.803717
300,2.500000,2.098885,2.178624,1.715862,1.958675,2.172684,2.078623,2.083216,1.662389,1.701450,1.943370,1.657795,2.064284,2.062503,2.177008,1.803762
301,2.508333,2.098927,2.178691,1.715748,1.958663,2.172888,2.078490,2.083032,1.662460,1.701441,1.943132,1.658003,2.064255,2.062531,2.177109,1.803643
302,2.516667,2.098588,2.178784,1.715712,1.958853,2.172665,2.078653,2.083439,1.662535,1.701273,1.944066,1.657762,2.064287,2.062321,2.177122,1.803659
303,2.525000,2.098732,2.178704,1.715775,1.958719,2.172724,2.078611,2.083186,1.662466,1.701366,1.943537,1.657832,2.064274,2.062398,2.177078,1.803694
304,2.533333,2.098722,2.178700,1.715770,1.958684,2.172724,2.078597,2.083179,1.662461,1.701367,1.943504,1.657831,2.064266,2.062381,2.177074,1.803687
305,2.541667,2.098720,2.178699,1.715751,1.958684,2.172727,2.078578,2.083177,1.662460,1.701353,1.943504,1.657835,2.064253,2.062380,2.177075,1.803668
306,2.550000,2.098868,2.178688,1.715703,1.958578,2.172895,2.078436,2.083007,1.662456,1.701422,1.943081,1.658008,2.064227,2.062466,2.177109,1.803596
307,2.558333,2.098859,2.178690,1.715707,1.958556,2.172904,2.078434,2.082994,1.662458,1.701433,1.943055,1.658017,2.064233,2.062454,2.177113,1.803598
308,2.566667,2.098660,2.178691,1.715735,1.958633,2.172719,2.078566,2.083139,1.662451,1.701347,1.943475,1.657826,2.064250,2.062322,2.177067,1.803654
309,2.575000,2.098652,2.178688,1.715725,1.958614,2.172724,2.078552,2.083138,1.662448,1.701349,1.943463,1.657830,2.064248,2.062311,2.177066,1.803642
310,2.583333,2.098633,2.178677,1.715722,1.958587,2.172723,2.078546,2.083101,1.662437,1.701353,1.943418,1.657829,2.064249,2.062290,2.177057,1.803638
311,2.591667,2.098773,2.178683,1.715662,1.958504,2.172881,2.078402,2.082963,1.662449,1.701389,1.943059,1.657993,2.064202,2.062376,2.177101,1.803556
312,2.600000,2.098451,2.178780,1.715637,1.958644,2.172654,2.078550,2.083369,1.662528,1.701210,1.943925,1.657748,2.064196,2.062166,2.177116,1.803577
313,2.608333,2.098755,2.178680,1.715646,1.958449,2.172893,2.078372,2.082912,1.662446,1.701379,1.942970,1.658005,2.064177,2.062349,2.177102,1.803537
314,2.616667,2.098543,2.178689,1.715673,1.958514,2.172720,2.078504,2.083064,1.662447,1.701304,1.943397,1.657824,2.064206,2.062205,2.177065,1.803591
315,2.625000,2.098543,2.178679,1.715681,1.958484,2.172710,2.078500,2.083032,1.662439,1.701298,1.943336,1.657816,2.064188,2.062197,2.177056,1.803596
316,2.633333,2.098525,2.178691,1.715654,1.958466,2.172722,2.078473,2.083060,1.662449,1.701289,1.943364,1.657826,2.064180,2.062179,2.177068,1.803569
317,2.641667,2.098327,2.178781,1.715577,1.958535,2.172655,2.078496,2.083257,1.662529,1.701156,1.943828,1.657749,2.064147,2.062046,2.177117,1.803518
318,2.650000,2.098487,2.178674,1.715652,1.958434,2.172719,2.078473,2.082999,1.662432,1.701297,1.943309,1.657823,2.064190,2.062143,2.177053,1.803567
319,2.658333,2.098468,2.178693,1.715619,1.958420,2.172726,2.078442,2.083033,1.662449,1.701270,1.943348,1.657829,2.064165,2.062125,2.177069,1.803535
320,2.666667,2.098292,2.178761,1.715554,1.958470,2.172654,2.078462,2.083230,1.662508,1.701161,1.943771,1.657747,2.064141,2.062003,2.177102,1.803492
321,2.675000,2.098423,2.178689,1.715608,1.958364,2.172720,2.078426,2.082987,1.662446,1.701253,1.943291,1.657823,2.064144,2.062078,2.177065,1.803523
322,2.683333,2.098339,2.178685,1.715586,1.958424,2.172578,2.078458,2.083170,1.662436,1.701146,1.943617,1.657675,2.064090,2.062028,2.177026,1.803514
323,2.691667,2.098407,2.178673,1.715594,1.958343,2.172724,2.078411,2.082984,1.662428,1.701274,1.943282,1.657825,2.064163,2.062060,2.177053,1.803509
324,2.700000,2.098384,2.178673,1.715587,1.958323,2.172722,2.078406,2.082953,1.662429,1.701261,1.943255,1.657824,2.064152,2.062038,2.177053,1.803502
325,2.708333,2.098078,2.178801,1.715471,1.958542,2.172437,2.078484,2.083487,1.662539,1.700909,1.944312,1.657521,2.063995,2.061860,2.177077,1.803436
326,2.716667,2.098332,2.178788,1.715651,1.958156,2.172576,2.078420,2.083255,1.662540,1.701081,1.943441,1.657674,2.063924,2.061958,2.177104,1.803553
327,2.725000,2.098321,2.178611,1.715493,1.958466,2.172596,2.078390,2.083167,1.662357,1.701194,1.943674,1.657689,2.064163,2.062025,2.176974,1.803428
328,2.733333,2.098301,2.178615,1.715487,1.958439,2.172621,2.078381,2.083123,1.662362,1.701207,1.943623,1.657714,2.064173,2.062003,2.176984,1.803421
329,2.741667,2.098157,2.178580,1.715435,1.958586,2.172585,2.078442,2.083002,1.662325,1.701180,1.943793,1.657676,2.064258,2.061930,2.176948,1.803399
330,2.750000,2.098286,2.178779,1.715623,1.958138,2.172570,2.078404,2.083240,1.662530,1.701073,1.943454,1.657667,2.063926,2.061918,2.177095,1.803528
331,2.758333,2.098322,2.178776,1.715646,1.958097,2.172565,2.078396,2.083259,1.662528,1.701082,1.943395,1.657663,2.063905,2.061936,2.177092,1.803543
332,2.766667,2.098156,2.178770,1.715491,1.958327,2.172649,2.078396,2.083163,1.662515,1.701105,1.943695,1.657740,2.064081,2.061866,2.177107,1.803428
333,2.775000,2.098238,2.178684,1.715555,1.958328,2.172573,2.078429,2.083080,1.662435,1.701114,1.943532,1.657670,2.064060,2.061929,2.177024,1.803484
334,2.783333,2.098270,2.178690,1.715565,1.958281,2.172556,2.078408,2.083220,1.662438,1.701128,1.943592,1.657650,2.064043,2.061942,2.177025,1.803486
335,2.791667,2.098215,2.178582,1.715474,1.958532,2.172508,2.078436,2.083232,1.662324,1.701166,1.943910,1.657596,2.064199,2.061960,2.176930,1.803426
336,2.800000,2.098300,2.178802,1.715655,1.958054,2.172563,2.078397,2.083196,1.662556,1.701034,1.943312,1.657663,2.063849,2.061909,2.177111,1.803550
337,2.808333,2.098146,2.178589,1.715440,1.958608,2.172582,2.078459,2.082972,1.662335,1.701163,1.943796,1.657675,2.064253,2.061927,2.176954,1.803407
338,2.816667,2.098168,2.178753,1.715505,1.958367,2.172634,2.078421,2.083133,1.662499,1.701106,1.943693,1.657727,2.064094,2.061885,2.177091,1.803445
339,2.825000,2.098333,2.178689,1.715571,1.958278,2.172720,2.078391,2.082942,1.662444,1.701234,1.943250,1.657821,2.064127,2.061988,2.177065,1.803486
340,2.833333,2.098233,2.178689,1.715543,1.958374,2.172575,2.078436,2.083138,1.662438,1.701125,1.943640,1.657670,2.064090,2.061936,2.177029,1.803477
341,2.841667,2.098216,2.178565,1.715490,1.958599,2.172542,2.078478,2.083005,1.662314,1.701171,1.943750,1.657637,2.064231,2.061977,2.176927,1.803449
342,2.850000,2.098175,2.178768,1.715510,1.958425,2.172632,2.078445,2.083178,1.662513,1.701105,1.943789,1.657724,2.064112,2.061904,2.177102,1.803455
343,2.858333,2.098192,2.178774,1.715518,1.958422,2.172638,2.078446,2.083204,1.662519,1.701116,1.943796,1.657729,2.064115,2.061917,2.177107,1.803462
344,2.866667,2.098228,2.178769,1.715546,1.958408,2.172643,2.078454,2.083208,1.662514,1.701144,1.943750,1.657736,2.064124,2.061940,2.177105,1.803484
345,2.875000,2.098386,2.178691,1.715610,1.958324,2.172719,2.078428,2.082985,1.662446,1.701265,1.943286,1.657820,2.064155,2.062039,2.177066,1.803525
346,2.883333,2.098341,2.178680,1.715614,1.958439,2.172574,2.078490,2.083140,1.662433,1.701164,1.943600,1.657673,2.064113,2.062033,2.177022,1.803544
347,2.891667,2.098585,2.178663,1.715580,1.958291,2.172874,2.078310,2.082863,1.662424,1.701359,1.942933,1.657982,2.064162,2.062182,2.177084,1.803472
348,2.900000,2.098439,2.178688,1.715636,1.958386,2.172720,2.078457,2.082997,1.662444,1.701282,1.943307,1.657823,2.064175,2.062095,2.177064,1.803552
349,2.908333,2.098456,2.178693,1.715646,1.958395,2.172717,2.078464,2.083032,1.662450,1.701286,1.943333,1.657819,2.064176,2.062110,2.177067,1.803561
350,2.916667,2.098482,2.178672,1.715656,1.958434,2.172714,2.078479,2.083002,1.662430,1.701302,1.943317,1.657818,2.064197,2.062139,2.177051,1.803572
351,2.925000,2.098496,2.178672,1.715663,1.958445,2.172718,2.078486,2.083010,1.662430,1.701312,1.943322,1.657822,2.064207,2.062152,2.177052,1.803579
352,2.933333,2.098502,2.178689,1.715672,1.958453,2.172718,2.078495,2.083049,1.662446,1.701310,1.943362,1.657822,2.064204,2.062159,2.177064,1.803588
353,2.941667,2.098531,2.178682,1.715685,1.958488,2.172718,2.078510,2.083029,1.662441,1.701314,1.943349,1.657823,2.064212,2.062189,2.177059,1.803602
354,2.950000,2.098548,2.178691,1.715692,1.958502,2.172716,2.078516,2.083060,1.662450,1.701311,1.943377,1.657821,2.064207,2.062205,2.177066,1.803609
355,2.958333,2.098560,2.178695,1.715695,1.958523,2.172723,2.078522,2.083079,1.662453,1.701321,1.943405,1.657828,2.064221,2.062219,2.177070,1.803612
356,2.966667,2.098584,2.178704,1.715709,1.958538,2.172725,2.078533,2.083108,1.662462,1.701327,1.943425,1.657830,2.064222,2.062241,2.177077,1.803625
357,2.975000,2.098603,2.178692,1.715723,1.958571,2.172722,2.078552,2.083097,1.662452,1.701342,1.943429,1.657827,2.064244,2.062263,2.177068,1.803641
358,2.983333,2.098611,2.178692,1.715722,1.958578,2.172717,2.078551,2.083101,1.662452,1.701332,1.943431,1.657823,2.064233,2.062271,2.177067,1.803639
359,2.991667,2.098636,2.178684,1.715738,1.958601,2.172725,2.078566,2.083102,1.662444,1.701362,1.943430,1.657831,2.064262,2.062296,2.177063,1.803655
360,3.000000,2.098645,2.178709,1.715748,1.958614,2.172726,2.078578,2.083143,1.662469,1.701351,1.943476,1.657832,2.064252,2.062306,2.177082,1.803666
361,3.008333,2.098655,2.178703,1.715750,1.958624,2.172727,2.078580,2.083142,1.662463,1.701358,1.943474,1.657833,2.064260,2.062316,2.177078,1.803668
362,3.016667,2.098686,2.178699,1.715767,1.958646,2.172724,2.078593,2.083140,1.662461,1.701362,1.943464,1.657831,2.064260,2.062345,2.177074,1.803684
363,3.025000,2.098701,2.178687,1.715776,1.958660,2.172722,2.078602,2.083139,1.662449,1.701380,1.943461,1.657829,2.064278,2.062359,2.177064,1.803693
364,3.033333,2.098704,2.178703,1.715774,1.958681,2.172725,2.078606,2.083168,1.662464,1.701370,1.943508,1.657832,2.064275,2.062367,2.177077,1.803692
365,3.041667,2.098706,2.178706,1.715778,1.958682,2.172720,2.078610,2.083184,1.662467,1.701368,1.943522,1.657827,2.064272,2.062369,2.177078,1.803697
366,3.050000,2.098722,2.178711,1.715790,1.958695,2.172724,2.078621,2.083178,1.662473,1.701370,1.943514,1.657831,2.064273,2.062384,2.177083,1.803708
367,3.058333,2.098742,2.178694,1.715794,1.958723,2.172719,2.078629,2.083162,1.662457,1.701378,1.943506,1.657827,2.064284,2.062406,2.177069,1.803713
368,3.066667,2.098748,2.178698,1.715794,1.958722,2.172719,2.078625,2.083181,1.662460,1.701377,1.943517,1.657828,2.064281,2.062410,2.177072,1.803712
369,3.075000,2.098755,2.178692,1.715797,1.958713,2.172722,2.078623,2.083196,1.662454,1.701395,1.943517,1.657830,2.064292,2.062413,2.177068,1.803714
370,3.083333,2.098583,2.178788,1.715722,1.958855,2.172644,2.078666,2.083422,1.662540,1.701243,1.944057,1.657742,2.064259,2.062317,2.177120,1.803670
371,3.091667,2.098768,2.178705,1.715797,1.958733,2.172718,2.078625,2.083221,1.662466,1.701377,1.943550,1.657826,2.064277,2.062428,2.177077,1.803715
372,3.100000,2.098775,2.178705,1.715797,1.958755,2.172730,2.078630,2.083212,1.662467,1.701388,1.943555,1.657838,2.064293,2.062438,2.177080,1.803716
373,3.108333,2.098765,2.178700,1.715800,1.958744,2.172727,2.078633,2.083203,1.662462,1.701394,1.943545,1.657835,2.064299,2.062428,2.177075,1.803718
374,3.116667,2.098587,2.178780,1.715724,1.958885,2.172630,2.078677,2.083461,1.662531,1.701251,1.944121,1.657727,2.064276,2.062328,2.177111,1.803674
375,3.125000,2.098781,2.178705,1.715797,1.958746,2.172727,2.078625,2.083203,1.662467,1.701377,1.943531,1.657835,2.064277,2.062441,2.177079,1.803714
376,3.133333,2.098773,2.178708,1.715785,1.958740,2.172734,2.078614,2.083229,1.662469,1.701384,1.943560,1.657841,2.064285,2.062433,2.177083,1.803703
377,3.141667,2.098763,2.178708,1.715785,1.958735,2.172738,2.078615,2.083210,1.662470,1.701385,1.943545,1.657846,2.064288,2.062425,2.177084,1.803703
378,3.150000,2.098756,2.178704,1.715778,1.958729,2.172735,2.078609,2.083197,1.662466,1.701378,1.943533,1.657843,2.064282,2.062418,2.177081,1.803697
379,3.158333,2.098754,2.178699,1.715776,1.958731,2.172729,2.078609,2.083180,1.662462,1.701370,1.943521,1.657838,2.064275,2.062417,2.177076,1.803695
380,3.166667,2.098742,2.178694,1.715772,1.958721,2.172731,2.078606,2.083169,1.662456,1.701376,1.943512,1.657839,2.064282,2.062405,2.177072,1.803691
381,3.175000,2.098721,2.178706,1.715763,1.958695,2.172734,2.078595,2.083173,1.662467,1.701364,1.943511,1.657842,2.064268,2.062383,2.177082,1.803681
382,3.183333,2.098559,2.178770,1.715689,1.958834,2.172650,2.078634,2.083413,1.662520,1.701250,1.944050,1.657746,2.064267,2.062294,2.177108,1.803637
383,3.191667,2.098712,2.178696,1.715736,1.958695,2.172731,2.078571,2.083172,1.662457,1.701350,1.943518,1.657838,2.064257,2.062376,2.177074,1.803655
384,3.200000,2.098696,2.178697,1.715739,1.958661,2.172738,2.078567,2.083164,1.662457,1.701364,1.943492,1.657844,2.064265,2.062356,2.177076,1.803656
385,3.208333,2.098682,2.178705,1.715735,1.958648,2.172739,2.078563,2.083145,1.662465,1.701348,1.943474,1.657845,2.064248,2.062342,2.177082,1.803652
386,3.216667,2.098488,2.178778,1.715640,1.958792,2.172635,2.078596,2.083407,1.662527,1.701195,1.944074,1.657730,2.064223,2.062230,2.177110,1.803590
387,3.225000,2.098674,2.178671,1.715714,1.958625,2.172722,2.078537,2.083113,1.662432,1.701341,1.943427,1.657829,2.064236,2.062331,2.177052,1.803630
388,3.233333,2.098639,2.178695,1.715707,1.958600,2.172732,2.078533,2.083134,1.662454,1.701336,1.943457,1.657838,2.064235,2.062298,2.177073,1.803624
389,3.241667,2.098619,2.178695,1.715698,1.958591,2.172737,2.078529,2.083114,1.662454,1.701336,1.943449,1.657842,2.064239,2.062280,2.177074,1.803616
390,3.250000,2.098621,2.178691,1.715678,1.958588,2.172736,2.078506,2.083116,1.662449,1.701319,1.943445,1.657841,2.064220,2.062282,2.177070,1.803595
391,3.258333,2.098597,2.178680,1.715686,1.958556,2.172719,2.078512,2.083099,1.662438,1.701320,1.943421,1.657823,2.064218,2.062255,2.177058,1.803603
392,3.266667,2.098573,2.178696,1.715677,1.958538,2.172734,2.078506,2.083081,1.662454,1.701314,1.943410,1.657839,2.064215,2.062233,2.177074,1.803595
393,3.275000,2.098392,2.178769,1.715590,1.958658,2.172640,2.078532,2.083309,1.662517,1.701164,1.943938,1.657735,2.064178,2.062125,2.177104,1.803537
394,3.283333,2.098547,2.178684,1.715651,1.958508,2.172725,2.078477,2.083080,1.662441,1.701300,1.943403,1.657829,2.064199,2.062206,2.177063,1.803568
395,3.291667,2.098532,2.178695,1.715648,1.958456,2.172717,2.078460,2.083115,1.662451,1.701288,1.943401,1.657820,2.064172,2.062182,2.177069,1.803561
396,3.300000,2.098316,2.178768,1.715568,1.958593,2.172650,2.078514,2.083246,1.662515,1.701162,1.943884,1.657743,2.064180,2.062052,2.177106,1.803516
397,3.308333,2.098632,2.178600,1.715709,1.958392,2.172671,2.078458,2.083051,1.662361,1.701346,1.943174,1.657779,2.064168,2.062242,2.176986,1.803606
398,3.316667,2.098489,2.178678,1.715635,1.958431,2.172728,2.078454,2.083010,1.662436,1.701291,1.943316,1.657831,2.064182,2.062143,2.177059,1.803550
399,3.325000,2.098266,2.178776,1.715534,1.958542,2.172646,2.078480,2.083242,1.662521,1.701130,1.943880,1.657738,2.064147,2.062001,2.177111,1.803482
400,3.333333,2.098343,2.178693,1.715584,1.958502,2.172582,2.078485,2.083206,1.662443,1.701155,1.943727,1.657678,2.064128,2.062050,2.177033,1.803520
401,3.341667,2.098615,2.178673,1.715567,1.958291,2.172894,2.078286,2.082834,1.662436,1.701335,1.942874,1.658004,2.064127,2.062205,2.177096,1.803456
402,3.350000,2.098583,2.178672,1.715567,1.958268,2.172894,2.078290,2.082812,1.662435,1.701341,1.942861,1.658003,2.064136,2.062175,2.177096,1.803457
403,3.358333,2.098391,2.178687,1.715598,1.958339,2.172726,2.078419,2.082972,1.662443,1.701262,1.943283,1.657828,2.064156,2.062047,2.177065,1.803513
404,3.366667,2.098401,2.178699,1.715600,1.958319,2.172722,2.078409,2.083032,1.662454,1.701259,1.943313,1.657823,2.064141,2.062049,2.177073,1.803512
405,3.375000,2.098333,2.178692,1.715569,1.958359,2.172729,2.078421,2.082956,1.662446,1.701251,1.943344,1.657829,2.064175,2.062008,2.177069,1.803493
406,3.383333,2.098081,2.178808,1.715467,1.958542,2.172435,2.078479,2.083458,1.662547,1.700880,1.944281,1.657521,2.063965,2.061861,2.177082,1.803432
407,3.391667,2.098310,2.178787,1.715646,1.958154,2.172581,2.078423,2.083248,1.662538,1.701093,1.943454,1.657678,2.063943,2.061940,2.177104,1.803550
408,3.400000,2.098342,2.178633,1.715506,1.958454,2.172639,2.078390,2.083131,1.662381,1.701213,1.943605,1.657734,2.064169,2.062038,2.177002,1.803438
409,3.408333,2.098184,2.178768,1.715513,1.958396,2.172637,2.078434,2.083208,1.662513,1.701120,1.943782,1.657727,2.064112,2.061904,2.177103,1.803454
410,3.416667,2.098141,2.178782,1.715489,1.958404,2.172649,2.078429,2.083188,1.662525,1.701106,1.943812,1.657739,2.064118,2.061873,2.177116,1.803435
411,3.425000,2.098242,2.178687,1.715545,1.958384,2.172578,2.078439,2.083128,1.662436,1.701126,1.943632,1.657673,2.064093,2.061945,2.177028,1.803479
412,3.433333,2.098326,2.178626,1.715501,1.958463,2.172623,2.078395,2.083125,1.662374,1.701201,1.943624,1.657718,2.064167,2.062028,2.176992,1.803436
413,3.441667,2.098331,2.178684,1.715582,1.958272,2.172715,2.078401,2.082937,1.662438,1.701245,1.943241,1.657817,2.064137,2.061985,2.177059,1.803497
414,3.450000,2.098162,2.178765,1.715506,1.958372,2.172653,2.078426,2.083124,1.662511,1.701117,1.943697,1.657745,2.064109,2.061881,2.177104,1.803447
415,3.458333,2.098494,2.178671,1.715540,1.958199,2.172873,2.078270,2.082798,1.662432,1.701316,1.942867,1.657980,2.064118,2.062091,2.177089,1.803432
416,3.466667,2.098518,2.178678,1.715542,1.958192,2.172894,2.078261,2.082788,1.662439,1.701323,1.942825,1.658002,2.064113,2.062108,2.177100,1.803431
417,3.475000,2.098155,2.178771,1.715514,1.958401,2.172635,2.078447,2.083141,1.662517,1.701101,1.943749,1.657727,2.064107,2.061883,2.177104,1.803459
418,3.483333,2.098345,2.178685,1.715595,1.958283,2.172719,2.078413,2.082932,1.662441,1.701253,1.943233,1.657820,2.064143,2.061998,2.177062,1.803509
419,3.491667,2.098528,2.178678,1.715569,1.958213,2.172878,2.078292,2.082802,1.662440,1.701329,1.942851,1.657986,2.064123,2.062120,2.177096,1.803459
420,3.500000,2.098196,2.178780,1.715536,1.958393,2.172644,2.078450,2.083206,1.662525,1.701131,1.943765,1.657736,2.064117,2.061913,2.177113,1.803475
421,3.508333,2.098212,2.178772,1.715542,1.958391,2.172648,2.078450,2.083188,1.662518,1.701139,1.943729,1.657740,2.064120,2.061924,2.177108,1.803480
422,3.516667,2.098073,2.178812,1.715504,1.958596,2.172426,2.078539,2.083486,1.662551,1.700915,1.944369,1.657511,2.064023,2.061869,2.177083,1.803475
423,3.525000,2.098382,2.178633,1.715555,1.958510,2.172612,2.078446,2.083152,1.662383,1.701218,1.943642,1.657709,2.064181,2.062082,2.176995,1.803489
424,3.533333,2.098234,2.178775,1.715564,1.958429,2.172641,2.078477,2.083205,1.662521,1.701146,1.943761,1.657734,2.064132,2.061950,2.177109,1.803503
425,3.541667,2.098249,2.178769,1.715572,1.958455,2.172631,2.078490,2.083185,1.662517,1.701137,1.943753,1.657726,2.064127,2.061967,2.177102,1.803513
426,3.550000,2.098395,2.178697,1.715678,1.958401,2.172546,2.078518,2.083252,1.662448,1.701181,1.943619,1.657644,2.064094,2.062065,2.177027,1.803598
427,3.558333,2.098279,2.178769,1.715587,1.958495,2.172636,2.078510,2.083235,1.662516,1.701167,1.943813,1.657730,2.064161,2.062000,2.177104,1.803529
428,3.566667,2.098291,2.178771,1.715590,1.958513,2.172640,2.078515,2.083222,1.662519,1.701163,1.943806,1.657734,2.064159,2.062013,2.177106,1.803533
429,3.575000,2.098302,2.178786,1.715608,1.958529,2.172655,2.078534,2.083251,1.662533,1.701188,1.943841,1.657748,2.064187,2.062025,2.177120,1.803551
430,3.583333,2.098335,2.178771,1.715617,1.958556,2.172642,2.078541,2.083255,1.662520,1.701187,1.943838,1.657737,2.064183,2.062057,2.177107,1.803559
431,3.591667,2.098336,2.178779,1.715628,1.958563,2.172632,2.078554,2.083298,1.662526,1.701190,1.943886,1.657726,2.064188,2.062060,2.177110,1.803571
432,3.600000,2.098347,2.178771,1.715622,1.958596,2.172643,2.078557,2.083281,1.662519,1.701200,1.943892,1.657737,2.064207,2.062076,2.177107,1.803567
433,3.608333,2.098698,2.178676,1.715672,1.958434,2.172865,2.078414,2.082913,1.662440,1.701398,1.943013,1.657976,2.064212,2.062302,2.177092,1.803567
434,3.616667,2.098383,2.178779,1.715653,1.958609,2.172647,2.078579,2.083307,1.662528,1.701222,1.943894,1.657742,2.064220,2.062107,2.177114,1.803596
435,3.625000,2.098398,2.178777,1.715659,1.958639,2.172631,2.078590,2.083314,1.662526,1.701206,1.943916,1.657726,2.064209,2.062125,2.177108,1.803603
436,3.633333,2.098423,2.178781,1.715670,1.958643,2.172647,2.078593,2.083309,1.662531,1.701221,1.943890,1.657743,2.064216,2.062145,2.177115,1.803612
437,3.641667,2.098593,2.178696,1.715744,1.958566,2.172709,2.078574,2.083105,1.662455,1.701346,1.943441,1.657814,2.064249,2.062255,2.177068,1.803662
438,3.650000,2.098455,2.178769,1.715688,1.958687,2.172630,2.078617,2.083368,1.662517,1.701244,1.943962,1.657725,2.064244,2.062180,2.177102,1.803632
439,3.658333,2.098443,2.178784,1.715679,1.958694,2.172636,2.078614,2.083354,1.662533,1.701222,1.943967,1.657732,2.064230,2.062172,2.177115,1.803624
440,3.666667,2.098804,2.178693,1.715724,1.958534,2.172883,2.078464,2.082968,1.662460,1.701429,1.943062,1.657996,2.064241,2.062407,2.177109,1.803618
441,3.675000,2.098652,2.178701,1.715768,1.958619,2.172718,2.078597,2.083145,1.662461,1.701368,1.943475,1.657824,2.064269,2.062312,2.177074,1.803686
442,3.683333,2.098665,2.178704,1.715771,1.958648,2.172724,2.078605,2.083143,1.662464,1.701370,1.943489,1.657830,2.064276,2.062330,2.177077,1.803690
443,3.691667,2.098851,2.178685,1.715735,1.958575,2.172880,2.078472,2.083002,1.662452,1.701442,1.943089,1.657993,2.064251,2.062452,2.177103,1.803629
444,3.700000,2.098689,2.178710,1.715773,1.958663,2.172727,2.078604,2.083162,1.662471,1.701365,1.943498,1.657833,2.064269,2.062351,2.177083,1.803691
445,3.708333,2.098699,2.178708,1.715785,1.958663,2.172722,2.078613,2.083167,1.662469,1.701372,1.943494,1.657829,2.064271,2.062359,2.177080,1.803703
446,3.716667,2.098886,2.178688,1.715739,1.958614,2.172885,2.078478,2.083017,1.662456,1.701443,1.943108,1.657999,2.064254,2.062488,2.177106,1.803634
447,3.725000,2.098719,2.178709,1.715787,1.958687,2.172724,2.078616,2.083171,1.662471,1.701368,1.943502,1.657832,2.064269,2.062380,2.177081,1.803704
448,3.733333,2.098722,2.178705,1.715792,1.958694,2.172722,2.078622,2.083174,1.662467,1.701376,1.943509,1.657830,2.064279,2.062384,2.177078,1.803710
449,3.741667,2.098736,2.178710,1.715791,1.958708,2.172731,2.078621,2.083173,1.662472,1.701375,1.943509,1.657839,2.064278,2.062397,2.177084,1.803709
450,3.750000,2.098893,2.178694,1.715751,1.958633,2.172892,2.078495,2.083027,1.662462,1.701456,1.943131,1.658006,2.064272,2.062498,2.177113,1.803646
451,3.758333,2.098740,2.178691,1.715797,1.958701,2.172732,2.078624,2.083150,1.662454,1.701398,1.943474,1.657840,2.064297,2.062399,2.177070,1.803714
452,3.766667,2.098739,2.178700,1.715785,1.958714,2.172721,2.078617,2.083197,1.662462,1.701377,1.943535,1.657828,2.064281,2.062402,2.177074,1.803703
453,3.775000,2.098912,2.178582,1.715891,1.958650,2.172672,2.078633,2.083081,1.662353,1.701457,1.943183,1.657788,2.064271,2.062517,2.176974,1.803786
454,3.783333,2.098537,2.178791,1.715701,1.958855,2.172648,2.078662,2.083428,1.662540,1.701247,1.944108,1.657744,2.064281,2.062283,2.177123,1.803653
455,3.791667,2.098738,2.178703,1.715780,1.958704,2.172725,2.078608,2.083174,1.662465,1.701364,1.943503,1.657834,2.064265,2.062398,2.177078,1.803697
456,3.800000,2.098730,2.178711,1.715771,1.958724,2.172733,2.078610,2.083188,1.662472,1.701366,1.943545,1.657840,2.064277,2.062397,2.177085,1.803691
457,3.808333,2.098902,2.178690,1.715728,1.958629,2.172883,2.078467,2.083039,1.662458,1.701428,1.943130,1.657997,2.064239,2.062504,2.177107,1.803622
458,3.816667,2.098723,2.178696,1.715768,1.958697,2.172724,2.078599,2.083172,1.662458,1.701367,1.943509,1.657831,2.064271,2.062385,2.177072,1.803686
459,3.825000,2.098718,2.178698,1.715755,1.958695,2.172734,2.078587,2.083163,1.662459,1.701365,1.943503,1.657841,2.064270,2.062381,2.177075,1.803673
460,3.833333,2.098763,2.178687,1.715780,1.958644,2.172703,2.078575,2.083282,1.662446,1.701384,1.943526,1.657808,2.064251,2.062403,2.177060,1.803689
461,3.841667,2.098706,2.178692,1.715745,1.958676,2.172728,2.078575,2.083168,1.662453,1.701360,1.943500,1.657835,2.064262,2.062367,2.177070,1.803663
462,3.850000,2.098700,2.178685,1.715739,1.958657,2.172735,2.078564,2.083116,1.662447,1.701356,1.943436,1.657843,2.064253,2.062358,2.177066,1.803656
463,3.858333,2.098686,2.178701,1.715733,1.958663,2.172730,2.078566,2.083150,1.662462,1.701340,1.943491,1.657837,2.064245,2.062349,2.177077,1.803651
464,3.866667,2.098483,2.178782,1.715633,1.958808,2.172645,2.078598,2.083360,1.662532,1.701183,1.944048,1.657741,2.064219,2.062230,2.177115,1.803586
465,3.875000,2.098671,2.178694,1.715719,1.958639,2.172740,2.078549,2.083099,1.662456,1.701335,1.943430,1.657847,2.064236,2.062332,2.177074,1.803637
466,3.883333,2.098801,2.178580,1.715788,1.958538,2.172687,2.078529,2.083029,1.662348,1.701401,1.943130,1.657801,2.064214,2.062405,2.176976,1.803683
467,3.891667,2.098637,2.178697,1.715687,1.958604,2.172738,2.078516,2.083127,1.662456,1.701319,1.943458,1.657843,2.064220,2.062298,2.177076,1.803604
468,3.900000,2.098619,2.178689,1.715676,1.958584,2.172737,2.078504,2.083108,1.662448,1.701319,1.943437,1.657842,2.064219,2.062279,2.177070,1.803593
469,3.908333,2.098605,2.178699,1.715672,1.958562,2.172738,2.078497,2.083102,1.662458,1.701305,1.943423,1.657843,2.064202,2.062263,2.177077,1.803589
470,3.916667,2.098592,2.178695,1.715668,1.958552,2.172738,2.078494,2.083080,1.662454,1.701302,1.943403,1.657843,2.064201,2.062250,2.177074,1.803585
471,3.925000,2.098572,2.178689,1.715650,1.958540,2.172738,2.078479,2.083071,1.662448,1.701298,1.943402,1.657842,2.064199,2.062233,2.177070,1.803568
472,3.933333,2.098564,2.178676,1.715650,1.958524,2.172726,2.078476,2.083050,1.662435,1.701293,1.943374,1.657831,2.064192,2.062223,2.177057,1.803567
473,3.941667,2.098711,2.178559,1.715731,1.958401,2.172674,2.078454,2.083010,1.662323,1.701380,1.943064,1.657785,2.064176,2.062304,2.176957,1.803621
474,3.950000,2.098532,2.178687,1.715626,1.958476,2.172739,2.078446,2.083063,1.662444,1.701289,1.943370,1.657842,2.064182,2.062187,2.177068,1.803541
475,3.958333,2.098514,2.178689,1.715628,1.958463,2.172731,2.078450,2.083041,1.662447,1.701277,1.943353,1.657835,2.064171,2.062170,2.177068,1.803544
476,3.966667,2.098492,2.178693,1.715615,1.958451,2.172739,2.078441,2.083023,1.662451,1.701270,1.943345,1.657842,2.064167,2.062150,2.177073,1.803532
477,3.975000,2.098487,2.178681,1.715613,1.958431,2.172733,2.078433,2.083019,1.662439,1.701276,1.943326,1.657836,2.064168,2.062142,2.177063,1.803529
478,3.983333,2.098299,2.178766,1.715535,1.958548,2.172640,2.078470,2.083271,1.662512,1.701132,1.943882,1.657732,2.064139,2.062028,2.177102,1.803480
479,3.991667,2.098462,2.178666,1.715608,1.958398,2.172723,2.078424,2.082983,1.662423,1.701274,1.943282,1.657827,2.064163,2.062115,2.177048,1.803522
480,4.000000,2.098441,2.178682,1.715589,1.958378,2.172728,2.078407,2.083006,1.662438,1.701257,1.943307,1.657830,2.064146,2.062094,2.177062,1.803504
481,4.008333,2.098433,2.178665,1.715591,1.958379,2.172729,2.078412,2.082975,1.662421,1.701275,1.943283,1.657831,2.064169,2.062088,2.177049,1.803507
482,4.016667,2.098347,2.178686,1.715581,1.958447,2.172578,2.078458,2.083160,1.662438,1.701133,1.943621,1.657676,2.064083,2.062040,2.177027,1.803511
483,4.025000,2.098387,2.178631,1.715509,1.958524,2.172630,2.078403,2.083174,1.662379,1.701207,1.943673,1.657725,2.064173,2.062088,2.176998,1.803444
484,4.033333,2.098393,2.178685,1.715583,1.958332,2.172725,2.078401,2.082976,1.662441,1.701249,1.943278,1.657827,2.064140,2.062047,2.177063,1.803498
485,4.041667,2.098544,2.178662,1.715535,1.958239,2.172890,2.078262,2.082829,1.662422,1.701339,1.942887,1.657996,2.064138,2.062139,2.177087,1.803426
486,4.050000,2.098317,2.178684,1.715573,1.958393,2.172576,2.078442,2.083154,1.662435,1.701135,1.943593,1.657674,2.064076,2.062004,2.177025,1.803501
487,4.058333,2.098355,2.178772,1.715653,1.958187,2.172566,2.078426,2.083237,1.662526,1.701078,1.943431,1.657666,2.063923,2.061983,2.177089,1.803556
488,4.066667,2.098538,2.178679,1.715538,1.958226,2.172890,2.078262,2.082812,1.662440,1.701314,1.942864,1.657997,2.064110,2.062131,2.177099,1.803429
489,4.075000,2.098188,2.178765,1.715511,1.958416,2.172651,2.078438,2.083184,1.662510,1.701133,1.943774,1.657742,2.064132,2.061912,2.177104,1.803454
490,4.083333,2.098528,2.178672,1.715544,1.958220,2.172879,2.078269,2.082811,1.662433,1.701318,1.942865,1.657987,2.064115,2.062122,2.177092,1.803434
491,4.091667,2.098071,2.178813,1.715470,1.958547,2.172445,2.078488,2.083480,1.662551,1.700904,1.944317,1.657530,2.063995,2.061855,2.177088,1.803437
492,4.100000,2.098359,2.178675,1.715585,1.958302,2.172720,2.078404,2.082938,1.662431,1.701255,1.943243,1.657821,2.064147,2.062014,2.177055,1.803500
493,4.108333,2.098363,2.178687,1.715594,1.958291,2.172721,2.078408,2.082950,1.662442,1.701253,1.943241,1.657823,2.064139,2.062014,2.177063,1.803507
494,4.116667,2.098070,2.178808,1.715479,1.958560,2.172431,2.078503,2.083457,1.662547,1.700893,1.944308,1.657517,2.063989,2.061857,2.177081,1.803447
495,4.125000,2.098260,2.178741,1.715608,1.958282,2.172527,2.078454,2.083272,1.662489,1.701083,1.943655,1.657622,2.064001,2.061934,2.177055,1.803530
496,4.133333,2.098364,2.178695,1.715616,1.958302,2.172727,2.078433,2.082952,1.662450,1.701272,1.943253,1.657828,2.064162,2.062017,2.177071,1.803530
497,4.141667,2.098305,2.178688,1.715614,1.958406,2.172579,2.078493,2.083101,1.662440,1.701160,1.943565,1.657678,2.064111,2.061998,2.177029,1.803545
498,4.150000,2.098363,2.178821,1.715707,1.958148,2.172591,2.078461,2.083263,1.662574,1.701103,1.943410,1.657691,2.063930,2.061980,2.177132,1.803605
499,4.158333,2.098540,2.178671,1.715591,1.958247,2.172884,2.078322,2.082816,1.662433,1.701370,1.942886,1.657991,2.064173,2.062138,2.177093,1.803483
500,4.166667,2.098384,2.178691,1.715638,1.958325,2.172715,2.078457,2.082966,1.662447,1.701281,1.943270,1.657817,2.064172,2.062038,2.177065,1.803553
501,4.175000,2.098108,2.178821,1.715531,1.958599,2.172423,2.078555,2.083529,1.662560,1.700928,1.944381,1.657509,2.064024,2.061895,2.177089,1.803499
502,4.183333,2.098585,2.178684,1.715620,1.958270,2.172881,2.078342,2.082822,1.662448,1.701361,1.942870,1.657991,2.064156,2.062177,2.177102,1.803510
503,4.191667,2.098243,2.178793,1.715587,1.958467,2.172648,2.078511,2.083223,1.662539,1.701159,1.943809,1.657741,2.064156,2.061966,2.177124,1.803529
504,4.200000,2.098431,2.178702,1.715671,1.958382,2.172723,2.078494,2.082996,1.662459,1.701304,1.943309,1.657826,2.064199,2.062088,2.177075,1.803587
505,4.208333,2.098279,2.178784,1.715606,1.958476,2.172645,2.078521,2.083222,1.662532,1.701170,1.943781,1.657739,2.064157,2.061995,2.177117,1.803546
506,4.216667,2.098606,2.178576,1.715768,1.958345,2.172666,2.078509,2.082944,1.662339,1.701399,1.943046,1.657776,2.064213,2.062211,2.176967,1.803663
507,4.225000,2.098630,2.178688,1.715659,1.958334,2.172881,2.078389,2.082868,1.662452,1.701396,1.942935,1.657991,2.064198,2.062227,2.177104,1.803551
508,4.233333,2.098645,2.178578,1.715804,1.958347,2.172670,2.078531,2.082956,1.662343,1.701425,1.943021,1.657781,2.064224,2.062241,2.176970,1.803695
509,4.241667,2.098494,2.178706,1.715710,1.958455,2.172723,2.078536,2.083026,1.662464,1.701325,1.943350,1.657828,2.064224,2.062152,2.177078,1.803627
510,4.250000,2.098681,2.178696,1.715689,1.958382,2.172878,2.078417,2.082891,1.662462,1.701399,1.942955,1.657990,2.064199,2.062277,2.177111,1.803581
511,4.258333,2.098690,2.178699,1.715690,1.958392,2.172887,2.078418,2.082890,1.662464,1.701404,1.942955,1.657998,2.064206,2.062286,2.177114,1.803581
512,4.266667,2.098709,2.178696,1.715702,1.958417,2.172880,2.078434,2.082900,1.662462,1.701407,1.942972,1.657992,2.064211,2.062306,2.177111,1.803594
513,4.275000,2.098722,2.178697,1.715703,1.958431,2.172883,2.078434,2.082913,1.662463,1.701412,1.942986,1.657995,2.064215,2.062320,2.177112,1.803595
514,4.283333,2.098722,2.178688,1.715698,1.958455,2.172889,2.078440,2.082907,1.662453,1.701428,1.943005,1.658000,2.064242,2.062325,2.177107,1.803593
515,4.291667,2.098746,2.178699,1.715714,1.958464,2.172876,2.078449,2.082936,1.662465,1.701411,1.943018,1.657988,2.064218,2.062346,2.177112,1.803607
516,4.300000,2.098765,2.178700,1.715715,1.958492,2.172884,2.078453,2.082942,1.662466,1.701416,1.943033,1.657996,2.064227,2.062367,2.177114,1.803609
517,4.308333,2.098783,2.178690,1.715719,1.958494,2.172898,2.078452,2.082930,1.662457,1.701442,1.943005,1.658011,2.064247,2.062382,2.177111,1.803612
518,4.316667,2.098790,2.178698,1.715726,1.958504,2.172894,2.078460,2.082942,1.662465,1.701435,1.943020,1.658007,2.064241,2.062389,2.177116,1.803619
519,4.325000,2.098791,2.178692,1.715725,1.958527,2.172885,2.078467,2.082948,1.662459,1.701433,1.943048,1.657998,2.064248,2.062396,2.177109,1.803620
520,4.333333,2.098814,2.178689,1.715732,1.958540,2.172894,2.078470,2.082963,1.662456,1.701453,1.943053,1.658006,2.064263,2.062415,2.177109,1.803626
521,4.341667,2.098825,2.178707,1.715742,1.958553,2.172884,2.078481,2.082980,1.662474,1.701426,1.943072,1.657998,2.064237,2.062427,2.177120,1.803636
522,4.350000,2.098830,2.178697,1.715750,1.958561,2.172890,2.078490,2.082972,1.662465,1.701452,1.943068,1.658004,2.064265,2.062433,2.177114,1.803645
523,4.358333,2.098836,2.178693,1.715747,1.958567,2.172878,2.078486,2.082991,1.662461,1.701442,1.943086,1.657992,2.064254,2.062439,2.177109,1.803641
524,4.366667,2.098515,2.178799,1.715717,1.958786,2.172649,2.078660,2.083402,1.662549,1.701249,1.944036,1.657745,2.064264,2.062249,2.177130,1.803664
525,4.375000,2.098517,2.178801,1.715716,1.958781,2.172643,2.078656,2.083384,1.662552,1.701228,1.944010,1.657741,2.064241,2.062249,2.177130,1.803663
526,4.383333,2.098872,2.178705,1.715759,1.958588,2.172902,2.078494,2.082966,1.662475,1.701447,1.943046,1.658017,2.064254,2.062472,2.177123,1.803653
527,4.391667,2.098865,2.178700,1.715754,1.958610,2.172889,2.078499,2.082993,1.662468,1.701445,1.943102,1.658003,2.064263,2.062471,2.177116,1.803650
528,4.400000,2.098884,2.178701,1.715750,1.958605,2.172907,2.078486,2.083007,1.662470,1.701461,1.943092,1.658021,2.064270,2.062485,2.177122,1.803643
529,4.408333,2.098538,2.178805,1.715713,1.958798,2.172644,2.078651,2.083416,1.662556,1.701225,1.944038,1.657742,2.064235,2.062270,2.177133,1.803659
530,4.416667,2.098554,2.178784,1.715705,1.958789,2.172656,2.078635,2.083385,1.662535,1.701244,1.943982,1.657754,2.064246,2.062280,2.177120,1.803649
531,4.425000,2.098539,2.178795,1.715695,1.958823,2.172651,2.078643,2.083429,1.662545,1.701237,1.944075,1.657747,2.064257,2.062276,2.177127,1.803643
532,4.433333,2.098886,2.178690,1.715728,1.958619,2.172892,2.078469,2.083020,1.662458,1.701440,1.943117,1.658006,2.064253,2.062490,2.177109,1.803623
533,4.441667,2.098723,2.178698,1.715761,1.958696,2.172731,2.078593,2.083155,1.662460,1.701361,1.943492,1.657839,2.064265,2.062385,2.177075,1.803679
534,4.450000,2.098534,2.178787,1.715690,1.958798,2.172647,2.078630,2.083411,1.662537,1.701232,1.944037,1.657744,2.064245,2.062266,2.177120,1.803636
535,4.458333,2.098565,2.178785,1.715688,1.958801,2.172657,2.078618,2.083408,1.662536,1.701231,1.944006,1.657754,2.064233,2.062291,2.177121,1.803631
536,4.466667,2.098549,2.178788,1.715678,1.958799,2.172652,2.078613,2.083394,1.662539,1.701213,1.944007,1.657750,2.064220,2.062278,2.177122,1.803623
537,4.475000,2.098529,2.178791,1.715675,1.958792,2.172648,2.078615,2.083416,1.662541,1.701216,1.944041,1.657745,2.064228,2.062261,2.177124,1.803621
538,4.483333,2.098526,2.178771,1.715669,1.958807,2.172646,2.078616,2.083395,1.662521,1.701230,1.944039,1.657743,2.064249,2.062263,2.177108,1.803617
539,4.491667,2.098538,2.178773,1.715664,1.958786,2.172657,2.078599,2.083371,1.662524,1.701223,1.943981,1.657754,2.064229,2.062267,2.177112,1.803609
540,4.500000,2.098516,2.178775,1.715656,1.958762,2.172651,2.078589,2.083398,1.662524,1.701222,1.944006,1.657747,2.064228,2.062244,2.177112,1.803600
541,4.508333,2.098845,2.178675,1.715678,1.958572,2.172901,2.078417,2.082979,1.662442,1.701423,1.943070,1.658014,2.064234,2.062447,2.177100,1.803572
542,4.516667,2.098489,2.178770,1.715635,1.958755,2.172661,2.078577,2.083334,1.662520,1.701209,1.943963,1.657757,2.064223,2.062222,2.177110,1.803582
543,4.525000,2.098651,2.178680,1.715706,1.958635,2.172729,2.078541,2.083105,1.662440,1.701338,1.943452,1.657836,2.064246,2.062315,2.177061,1.803625
544,4.533333,2.098810,2.178670,1.715657,1.958537,2.172885,2.078396,2.082982,1.662436,1.701402,1.943073,1.657997,2.064213,2.062412,2.177092,1.803551
545,4.541667,2.098785,2.178677,1.715651,1.958533,2.172893,2.078398,2.082927,1.662443,1.701386,1.943039,1.658006,2.064205,2.062392,2.177099,1.803547
546,4.550000,2.098621,2.178691,1.715675,1.958595,2.172736,2.078507,2.083098,1.662450,1.701310,1.943435,1.657841,2.064214,2.062283,2.177071,1.803594
547,4.558333,2.098619,2.178695,1.715676,1.958556,2.172731,2.078494,2.083154,1.662453,1.701318,1.943455,1.657835,2.064208,2.062272,2.177072,1.803591
548,4.566667,2.098435,2.178786,1.715592,1.958678,2.172669,2.078525,2.083356,1.662533,1.701183,1.943961,1.657763,2.064187,2.062163,2.177124,1.803536
549,4.575000,2.098416,2.178778,1.715585,1.958684,2.172666,2.078528,2.083364,1.662525,1.701194,1.943995,1.657758,2.064208,2.062150,2.177118,1.803532
550,4.583333,2.098388,2.178780,1.715567,1.958669,2.172672,2.078514,2.083317,1.662526,1.701175,1.943961,1.657765,2.064194,2.062124,2.177120,1.803515
551,4.591667,2.098564,2.178692,1.715636,1.958524,2.172736,2.078462,2.083073,1.662451,1.701280,1.943397,1.657840,2.064178,2.062222,2.177072,1.803553
552,4.600000,2.098372,2.178777,1.715556,1.958632,2.172673,2.078495,2.083300,1.662524,1.701169,1.943922,1.657767,2.064180,2.062104,2.177119,1.803502
553,4.608333,2.098360,2.178774,1.715547,1.958606,2.172647,2.078481,2.083305,1.662521,1.701133,1.943914,1.657741,2.064139,2.062088,2.177110,1.803492
554,4.616667,2.098324,2.178778,1.715539,1.958609,2.172667,2.078488,2.083286,1.662523,1.701156,1.943933,1.657759,2.064177,2.062062,2.177117,1.803488
555,4.625000,2.098343,2.178772,1.715538,1.958564,2.172660,2.078463,2.083256,1.662520,1.701132,1.943840,1.657754,2.064128,2.062065,2.177112,1.803481
556,4.633333,2.098323,2.178779,1.715527,1.958551,2.172655,2.078454,2.083273,1.662526,1.701117,1.943864,1.657748,2.064116,2.062047,2.177116,1.803470
557,4.641667,2.098492,2.178696,1.715597,1.958416,2.172739,2.078409,2.083065,1.662452,1.701262,1.943352,1.657841,2.064147,2.062142,2.177074,1.803510
558,4.650000,2.098284,2.178783,1.715521,1.958526,2.172657,2.078453,2.083235,1.662529,1.701110,1.943839,1.657750,2.064115,2.062012,2.177119,1.803466
559,4.658333,2.098281,2.178777,1.715521,1.958505,2.172664,2.078447,2.083235,1.662524,1.701128,1.943821,1.657757,2.064126,2.062004,2.177117,1.803464
560,4.666667,2.098283,2.178775,1.715531,1.958504,2.172648,2.078455,2.083234,1.662522,1.701117,1.943817,1.657742,2.064113,2.062005,2.177111,1.803473
561,4.675000,2.098428,2.178686,1.715593,1.958377,2.172730,2.078415,2.082982,1.662442,1.701255,1.943294,1.657833,2.064149,2.062084,2.177065,1.803509
562,4.683333,2.098133,2.178812,1.715471,1.958629,2.172451,2.078497,2.083541,1.662550,1.700915,1.944398,1.657536,2.064013,2.061922,2.177089,1.803440
563,4.691667,2.098226,2.178773,1.715514,1.958503,2.172657,2.078459,2.083194,1.662519,1.701125,1.943833,1.657749,2.064143,2.061962,2.177111,1.803462
564,4.700000,2.098405,2.178685,1.715586,1.958356,2.172732,2.078408,2.082979,1.662441,1.701259,1.943293,1.657834,2.064154,2.062062,2.177065,1.803502
565,4.708333,2.098396,2.178692,1.715591,1.958330,2.172718,2.078407,2.083003,1.662447,1.701246,1.943300,1.657819,2.064134,2.062048,2.177066,1.803505
566,4.716667,2.098282,2.178692,1.715558,1.958433,2.172577,2.078455,2.083177,1.662440,1.701136,1.943690,1.657672,2.064105,2.061988,2.177031,1.803493
567,4.725000,2.098372,2.178787,1.715659,1.958192,2.172579,2.078427,2.083279,1.662539,1.701091,1.943462,1.657678,2.063932,2.061997,2.177103,1.803561
568,4.733333,2.098202,2.178773,1.715528,1.958444,2.172643,2.078460,2.083205,1.662518,1.701131,1.943809,1.657734,2.064135,2.061929,2.177108,1.803473
569,4.741667,2.098275,2.178688,1.715563,1.958421,2.172579,2.078458,2.083171,1.662436,1.701150,1.943679,1.657674,2.064118,2.061979,2.177028,1.803498
570,4.750000,2.098361,2.178806,1.715682,1.958142,2.172577,2.078434,2.083256,1.662560,1.701077,1.943399,1.657678,2.063903,2.061976,2.177117,1.803580
571,4.758333,2.098196,2.178763,1.715526,1.958438,2.172645,2.078459,2.083201,1.662507,1.701148,1.943805,1.657736,2.064152,2.061924,2.177101,1.803471
572,4.766667,2.098269,2.178691,1.715581,1.958418,2.172568,2.078478,2.083164,1.662440,1.701148,1.943676,1.657663,2.064116,2.061974,2.177028,1.803517
573,4.775000,2.098348,2.178637,1.715541,1.958489,2.172617,2.078436,2.083134,1.662386,1.701212,1.943637,1.657713,2.064178,2.062051,2.176999,1.803475
574,4.783333,2.098363,2.178812,1.715703,1.958135,2.172569,2.078452,2.083251,1.662566,1.701075,1.943385,1.657670,2.063896,2.061977,2.177120,1.803600
575,4.791667,2.098284,2.178735,1.715640,1.958298,2.172519,2.078483,2.083264,1.662484,1.701100,1.943640,1.657615,2.064015,2.061956,2.177049,1.803562
576,4.800000,2.098197,2.178772,1.715556,1.958434,2.172623,2.078486,2.083218,1.662517,1.701138,1.943817,1.657714,2.064140,2.061923,2.177103,1.803500
577,4.808333,2.098540,2.178559,1.715742,1.958244,2.172663,2.078470,2.082894,1.662322,1.701397,1.942961,1.657772,2.064198,2.062136,2.176954,1.803634
578,4.816667,2.098089,2.178820,1.715530,1.958610,2.172405,2.078564,2.083504,1.662560,1.700902,1.944386,1.657492,2.064009,2.061884,2.177084,1.803501
579,4.825000,2.098215,2.178787,1.715576,1.958460,2.172642,2.078509,2.083219,1.662533,1.701157,1.943826,1.657733,2.064162,2.061943,2.177118,1.803520
580,4.833333,2.098574,2.178680,1.715626,1.958267,2.172871,2.078351,2.082817,1.662444,1.701361,1.942873,1.657981,2.064158,2.062168,2.177096,1.803517
581,4.841667,2.098411,2.178698,1.715672,1.958335,2.172711,2.078484,2.083020,1.662453,1.701309,1.943306,1.657813,2.064193,2.062061,2.177069,1.803585
582,4.850000,2.098139,2.178822,1.715567,1.958629,2.172418,2.078589,2.083532,1.662562,1.700944,1.944382,1.657505,2.064039,2.061927,2.177088,1.803534
583,4.858333,2.098602,2.178574,1.715794,1.958304,2.172672,2.078521,2.082942,1.662338,1.701434,1.943008,1.657781,2.064234,2.062198,2.176967,1.803685
584,4.866667,2.098453,2.178711,1.715702,1.958350,2.172722,2.078503,2.083067,1.662466,1.701337,1.943326,1.657824,2.064210,2.062097,2.177082,1.803612
585,4.875000,2.098599,2.178615,1.715799,1.958313,2.172658,2.078530,2.083056,1.662375,1.701408,1.943133,1.657765,2.064212,2.062198,2.176994,1.803691
586,4.883333,2.098628,2.178692,1.715674,1.958329,2.172873,2.078402,2.082876,1.662456,1.701398,1.942941,1.657983,2.064199,2.062224,2.177106,1.803565
587,4.891667,2.098653,2.178692,1.715678,1.958350,2.172880,2.078405,2.082870,1.662457,1.701400,1.942931,1.657991,2.064199,2.062248,2.177108,1.803570
588,4.900000,2.098676,2.178688,1.715694,1.958367,2.172888,2.078418,2.082864,1.662454,1.701421,1.942919,1.658000,2.064218,2.062269,2.177107,1.803584
589,4.908333,2.098672,2.178694,1.715691,1.958379,2.172888,2.078423,2.082889,1.662459,1.701422,1.942961,1.657999,2.064225,2.062269,2.177111,1.803584
590,4.916667,2.098351,2.178797,1.715667,1.958574,2.172645,2.078591,2.083297,1.662544,1.701216,1.943882,1.657739,2.064213,2.062074,2.177126,1.803609
591,4.925000,2.098365,2.178801,1.715678,1.958591,2.172644,2.078604,2.083290,1.662550,1.701211,1.943878,1.657739,2.064209,2.062088,2.177130,1.803621
592,4.933333,2.098388,2.178797,1.715695,1.958610,2.172646,2.078619,2.083296,1.662546,1.701231,1.943880,1.657742,2.064227,2.062110,2.177127,1.803637
593,4.941667,2.098736,2.178704,1.715734,1.958433,2.172883,2.078461,2.082924,1.662471,1.701431,1.942984,1.657996,2.064230,2.062331,2.177118,1.803625
594,4.950000,2.098385,2.178809,1.715685,1.958664,2.172651,2.078631,2.083338,1.662557,1.701230,1.943979,1.657745,2.064248,2.062121,2.177137,1.803633
595,4.958333,2.098411,2.178801,1.715694,1.958646,2.172657,2.078623,2.083310,1.662550,1.701238,1.943907,1.657753,2.064239,2.062137,2.177133,1.803638
596,4.966667,2.098763,2.178699,1.715732,1.958485,2.172885,2.078469,2.082953,1.662465,1.701442,1.943040,1.657997,2.064252,2.062364,2.177114,1.803626
597,4.975000,2.098772,2.178692,1.715741,1.958507,2.172879,2.078482,2.082968,1.662458,1.701454,1.943067,1.657991,2.064268,2.062376,2.177108,1.803636
598,4.983333,2.098638,2.178724,1.715798,1.958558,2.172730,2.078608,2.083175,1.662482,1.701397,1.943458,1.657835,2.064280,2.062287,2.177094,1.803711
599,4.991667,2.098814,2.178704,1.715752,1.958523,2.172889,2.078484,2.082971,1.662471,1.701448,1.943044,1.658003,2.064252,2.062411,2.177119,1.803645
600,5.000000,2.098820,2.178695,1.715752,1.958531,2.172884,2.078484,2.082981,1.662463,1.701453,1.943056,1.657997,2.064257,2.062418,2.177111,1.803644
601,5.008333,2.098840,2.178710,1.715747,1.958529,2.172904,2.078471,2.082971,1.662478,1.701444,1.943024,1.658018,2.064240,2.062433,2.177127,1.803638
602,5.016667,2.098844,2.178702,1.715758,1.958539,2.172897,2.078485,2.082984,1.662470,1.701460,1.943044,1.658011,2.064259,2.062438,2.177120,1.803649
603,5.025000,2.098851,2.178702,1.715759,1.958560,2.172903,2.078491,2.082991,1.662470,1.701470,1.943064,1.658017,2.064274,2.062449,2.177121,1.803651
604,5.033333,2.098864,2.178701,1.715751,1.958562,2.172899,2.078478,2.082990,1.662469,1.701452,1.943052,1.658014,2.064252,2.062459,2.177119,1.803642
605,5.041667,2.098854,2.178703,1.715750,1.958559,2.172894,2.078480,2.083000,1.662471,1.701449,1.943069,1.658008,2.064251,2.062451,2.177120,1.803642
606,5.050000,2.098858,2.178685,1.715734,1.958582,2.172902,2.078472,2.083006,1.662451,1.701472,1.943095,1.658014,2.064282,2.062459,2.177108,1.803628
607,5.058333,2.098873,2.178694,1.715750,1.958592,2.172884,2.078486,2.083020,1.662462,1.701449,1.943103,1.657997,2.064257,2.062473,2.177110,1.803644
608,5.066667,2.098880,2.178696,1.715741,1.958568,2.172920,2.078465,2.082987,1.662464,1.701471,1.943038,1.658034,2.064267,2.062473,2.177121,1.803631
609,5.075000,2.098875,2.178690,1.715737,1.958590,2.172893,2.078471,2.083013,1.662458,1.701450,1.943092,1.658007,2.064256,2.062474,2.177110,1.803630
610,5.083333,2.098702,2.178704,1.715764,1.958665,2.172733,2.078592,2.083185,1.662464,1.701378,1.943512,1.657839,2.064277,2.062361,2.177080,1.803681
611,5.091667,2.098875,2.178686,1.715724,1.958598,2.172894,2.078462,2.083017,1.662453,1.701446,1.943104,1.658007,2.064256,2.062476,2.177106,1.803618
612,5.100000,2.098875,2.178684,1.715718,1.958600,2.172894,2.078456,2.083016,1.662451,1.701443,1.943105,1.658007,2.064253,2.062477,2.177105,1.803612
613,5.108333,2.098692,2.178703,1.715752,1.958666,2.172729,2.078583,2.083175,1.662463,1.701360,1.943512,1.657835,2.064264,2.062354,2.177078,1.803670
614,5.116667,2.098870,2.178673,1.715706,1.958576,2.172889,2.078437,2.083006,1.662440,1.701436,1.943076,1.658002,2.064240,2.062467,2.177096,1.803598
615,5.125000,2.098868,2.178683,1.715703,1.958571,2.172883,2.078433,2.083005,1.662450,1.701412,1.943072,1.657997,2.064214,2.062465,2.177102,1.803595
616,5.133333,2.098855,2.178672,1.715690,1.958587,2.172889,2.078431,2.083018,1.662438,1.701433,1.943114,1.658000,2.064246,2.062459,2.177095,1.803585
617,5.141667,2.098688,2.178684,1.715727,1.958656,2.172722,2.078556,2.083151,1.662444,1.701347,1.943483,1.657829,2.064248,2.062348,2.177062,1.803645
618,5.150000,2.098683,2.178692,1.715719,1.958651,2.172729,2.078548,2.083163,1.662451,1.701343,1.943494,1.657835,2.064244,2.062344,2.177069,1.803636
619,5.158333,2.098849,2.178679,1.715667,1.958558,2.172898,2.078399,2.082980,1.662446,1.701400,1.943052,1.658012,2.064204,2.062447,2.177102,1.803559
620,5.166667,2.098668,2.178684,1.715704,1.958625,2.172721,2.078529,2.083154,1.662444,1.701329,1.943473,1.657826,2.064226,2.062326,2.177062,1.803620
