Format Version,1.2,Take Name,Take 2020-02-07 04.43.53 PM,Capture Frame Rate,120.000000,Export Frame Rate,120.000000,Capture Start Time,2020-02-07 04.43.53.034 PM,Total Frames,606,Rotation Type,Quaternion,Length Units,Meters,Coordinate Space,Global

,,Rigid Body Marker,Rigid Body Marker,Rigid Body Marker,Rigid Body Marker,Rigid Body Marker,Rigid Body Marker,Rigid Body Marker,Rigid Body Marker,Rigid Body Marker,Rigid Body Marker,Rigid Body Marker,Rigid Body Marker,Rigid Body Marker,Rigid Body Marker,Rigid Body Marker
,,Rigid Body 1_1,Rigid Body 1_1,Rigid Body 1_1,Rigid Body 1_2,Rigid Body 1_2,Rigid Body 1_2,Rigid Body 1_3,Rigid Body 1_3,Rigid Body 1_3,Rigid Body 1_4,Rigid Body 1_4,Rigid Body 1_4,Rigid Body 1_5,Rigid Body 1_5,Rigid Body 1_5
,,"FB1F47AA496A11EAE5BE26CA05685A8D","FB1F47AA496A11EAE5BE26CA05685A8D","FB1F47AA496A11EAE5BE26CA05685A8D","FB1F47AA496A11EAE5BE26CA05685A8D","FB1F47AA496A11EAE5BE26CA05685A8D","FB1F47AA496A11EAE5BE26CA05685A8D","FB1F47AA496A11EAE5BE26CA05685A8D","FB1F47AA496A11EAE5BE26CA05685A8D","FB1F47AA496A11EAE5BE26CA05685A8D","FB1F47AA496A11EAE5BE26CA05685A8D","FB1F47AA496A11EAE5BE26CA05685A8D","FB1F47AA496A11EAE5BE26CA05685A8D","FB1F47AA496A11EAE5BE26CA05685A8D","FB1F47AA496A11EAE5BE26CA05685A8D","FB1F47AA496A11EAE5BE26CA05685A8D"
,,Position,Position,Position,Position,Position,Position,Position,Position,Position,Position,Position,Position,Position,Position,Position
Frame,Time,X,Y,Z,X,Y,Z,X,Y,Z,X,Y,Z,X,Y,Z
0,0.000000,1.180157,2.185273,2.401806,0.920751,2.180417,2.691589,1.166786,1.669179,2.381310,0.907704,1.665666,2.671294,1.115047,2.183939,2.471171
1,0.008333,1.180133,2.185285,2.401816,0.920726,2.180415,2.691599,1.166779,1.669191,2.381310,0.907696,1.665664,2.671293,1.115022,2.183947,2.471181
2,0.016667,1.180114,2.185290,2.401812,0.920708,2.180417,2.691595,1.166757,1.669197,2.381299,0.907675,1.665667,2.671282,1.115004,2.183952,2.471178
3,0.025000,1.180108,2.185282,2.401811,0.920703,2.180407,2.691596,1.166751,1.669189,2.381294,0.907671,1.665656,2.671279,1.114998,2.183943,2.471177
4,0.033333,1.180087,2.185291,2.401819,0.920676,2.180411,2.691598,1.166740,1.669198,2.381302,0.907653,1.665660,2.671281,1.114976,2.183951,2.471184
5,0.041667,1.180069,2.185295,2.401833,0.920656,2.180411,2.691610,1.166722,1.669202,2.381309,0.907633,1.665661,2.671286,1.114956,2.183954,2.471197
6,0.050000,1.180065,2.185272,2.401829,0.920684,2.180395,2.691634,1.166758,1.669176,2.381356,0.907701,1.665642,2.671361,1.114961,2.183932,2.471200
7,0.058333,1.180050,2.185292,2.401825,0.920631,2.180404,2.691597,1.166726,1.669197,2.381315,0.907631,1.665653,2.671287,1.114936,2.183949,2.471188
8,0.066667,1.180005,2.185277,2.401816,0.920659,2.180317,2.691651,1.166804,1.669180,2.381293,0.907781,1.665563,2.671328,1.114909,2.183917,2.471194
9,0.075000,1.179978,2.185274,2.401815,0.920648,2.180306,2.691665,1.166785,1.669177,2.381287,0.907779,1.665552,2.671337,1.114886,2.183912,2.471197
10,0.083333,1.179969,2.185267,2.401810,0.920635,2.180295,2.691657,1.166814,1.669168,2.381310,0.907805,1.665539,2.671357,1.114876,2.183903,2.471191
11,0.091667,1.179965,2.185270,2.401805,0.920626,2.180297,2.691648,1.166805,1.669172,2.381298,0.907790,1.665542,2.671340,1.114870,2.183907,2.471185
12,0.100000,1.179951,2.185281,2.401804,0.920603,2.180304,2.691638,1.166789,1.669183,2.381287,0.907765,1.665549,2.671321,1.114854,2.183916,2.471182
13,0.108333,1.179937,2.185273,2.401797,0.920595,2.180303,2.691635,1.166781,1.669174,2.381298,0.907762,1.665547,2.671336,1.114842,2.183910,2.471176
14,0.116667,1.179941,2.185276,2.401789,0.920602,2.180304,2.691630,1.166788,1.669177,2.381289,0.907773,1.665548,2.671330,1.114847,2.183913,2.471169
15,0.125000,1.179948,2.185292,2.401792,0.920538,2.180391,2.691571,1.166669,1.669196,2.381297,0.907583,1.665638,2.671277,1.114837,2.183947,2.471156
16,0.133333,1.179944,2.185281,2.401785,0.920576,2.180374,2.691602,1.166699,1.669183,2.381316,0.907655,1.665619,2.671333,1.114843,2.183933,2.471159
17,0.141667,1.179941,2.185300,2.401791,0.920521,2.180395,2.691561,1.166649,1.669205,2.381277,0.907553,1.665643,2.671247,1.114827,2.183954,2.471153
18,0.150000,1.179900,2.185276,2.401759,0.920555,2.180306,2.691596,1.166759,1.669176,2.381272,0.907737,1.665549,2.671309,1.114804,2.183913,2.471138
19,0.158333,1.179891,2.185274,2.401753,0.920546,2.180296,2.691589,1.166761,1.669174,2.381261,0.907739,1.665539,2.671297,1.114795,2.183909,2.471131
20,0.166667,1.179918,2.185301,2.401756,0.920502,2.180399,2.691530,1.166633,1.669205,2.381256,0.907541,1.665647,2.671230,1.114805,2.183955,2.471119
21,0.175000,1.179887,2.185270,2.401730,0.920549,2.180314,2.691573,1.166733,1.669170,2.381257,0.907719,1.665557,2.671300,1.114793,2.183911,2.471110
22,0.183333,1.179885,2.185271,2.401716,0.920550,2.180307,2.691561,1.166741,1.669171,2.381238,0.907730,1.665550,2.671284,1.114792,2.183910,2.471097
23,0.191667,1.179879,2.185263,2.401703,0.920545,2.180303,2.691549,1.166743,1.669162,2.381239,0.907733,1.665545,2.671285,1.114786,2.183903,2.471084
24,0.200000,1.179881,2.185267,2.401694,0.920538,2.180312,2.691533,1.166739,1.669166,2.381234,0.907720,1.665554,2.671272,1.114786,2.183908,2.471073
25,0.208333,1.179878,2.185264,2.401681,0.920537,2.180308,2.691520,1.166735,1.669163,2.381218,0.907717,1.665551,2.671258,1.114784,2.183905,2.471060
26,0.216667,1.179879,2.185259,2.401664,0.920544,2.180314,2.691510,1.166735,1.669158,2.381222,0.907724,1.665556,2.671267,1.114786,2.183902,2.471045
27,0.225000,1.179887,2.185262,2.401658,0.920545,2.180309,2.691496,1.166763,1.669160,2.381215,0.907744,1.665550,2.671254,1.114792,2.183903,2.471037
28,0.233333,1.179894,2.185265,2.401645,0.920552,2.180314,2.691484,1.166753,1.669163,2.381193,0.907735,1.665555,2.671232,1.114799,2.183906,2.471025
29,0.241667,1.179900,2.185256,2.401629,0.920559,2.180322,2.691469,1.166750,1.669154,2.381199,0.907732,1.665563,2.671240,1.114805,2.183902,2.471009
30,0.250000,1.179904,2.185249,2.401618,0.920567,2.180312,2.691461,1.166768,1.669146,2.381196,0.907754,1.665553,2.671240,1.114810,2.183894,2.470998
31,0.258333,1.179908,2.185251,2.401608,0.920565,2.180313,2.691447,1.166767,1.669149,2.381179,0.907748,1.665554,2.671218,1.114813,2.183896,2.470987
32,0.266667,1.179911,2.185247,2.401593,0.920576,2.180318,2.691439,1.166757,1.669145,2.381167,0.907745,1.665559,2.671212,1.114818,2.183894,2.470974
33,0.275000,1.179928,2.185248,2.401582,0.920586,2.180323,2.691422,1.166778,1.669146,2.381168,0.907760,1.665564,2.671207,1.114833,2.183896,2.470962
34,0.283333,1.179930,2.185248,2.401571,0.920598,2.180324,2.691420,1.166772,1.669146,2.381153,0.907764,1.665565,2.671201,1.114838,2.183896,2.470953
35,0.291667,1.179952,2.185241,2.401560,0.920607,2.180334,2.691397,1.166782,1.669139,2.381158,0.907761,1.665574,2.671196,1.114856,2.183893,2.470938
36,0.300000,1.179958,2.185237,2.401553,0.920609,2.180334,2.691387,1.166796,1.669134,2.381167,0.907771,1.665574,2.671201,1.114861,2.183891,2.470932
37,0.308333,1.179960,2.185242,2.401542,0.920624,2.180336,2.691387,1.166798,1.669139,2.381151,0.907785,1.665576,2.671196,1.114867,2.183894,2.470922
38,0.316667,1.179979,2.185239,2.401529,0.920642,2.180336,2.691373,1.166808,1.669136,2.381136,0.907794,1.665576,2.671180,1.114885,2.183892,2.470909
39,0.325000,1.179989,2.185236,2.401523,0.920650,2.180337,2.691366,1.166815,1.669133,2.381134,0.907800,1.665577,2.671177,1.114895,2.183890,2.470903
40,0.333333,1.180014,2.185231,2.401525,0.920659,2.180344,2.691354,1.166822,1.669129,2.381139,0.907791,1.665584,2.671167,1.114916,2.183889,2.470902
41,0.341667,1.180019,2.185233,2.401516,0.920672,2.180344,2.691352,1.166839,1.669130,2.381139,0.907816,1.665584,2.671175,1.114923,2.183890,2.470894
42,0.350000,1.180078,2.185239,2.401522,0.920690,2.180418,2.691322,1.166790,1.669137,2.381166,0.907726,1.665660,2.671166,1.114972,2.183913,2.470891
43,0.358333,1.180070,2.185254,2.401514,0.920660,2.180447,2.691295,1.166735,1.669155,2.381138,0.907649,1.665691,2.671118,1.114959,2.183931,2.470878
44,0.366667,1.180104,2.185228,2.401517,0.920713,2.180423,2.691315,1.166800,1.669126,2.381174,0.907734,1.665664,2.671171,1.114998,2.183905,2.470886
45,0.375000,1.180073,2.185223,2.401501,0.920735,2.180354,2.691345,1.166856,1.669121,2.381127,0.907841,1.665595,2.671171,1.114979,2.183885,2.470882
46,0.383333,1.180086,2.185220,2.401499,0.920743,2.180343,2.691338,1.166881,1.669118,2.381121,0.907861,1.665584,2.671160,1.114991,2.183880,2.470878
47,0.391667,1.180128,2.185243,2.401513,0.920713,2.180446,2.691288,1.166762,1.669144,2.381126,0.907671,1.665691,2.671102,1.115016,2.183923,2.470876
48,0.400000,1.180162,2.185225,2.401513,0.920778,2.180432,2.691317,1.166825,1.669124,2.381163,0.907766,1.665674,2.671168,1.115057,2.183905,2.470884
49,0.408333,1.180128,2.185221,2.401503,0.920781,2.180367,2.691339,1.166873,1.669120,2.381121,0.907849,1.665609,2.671157,1.115032,2.183887,2.470881
50,0.416667,1.180169,2.185238,2.401513,0.920753,2.180457,2.691289,1.166775,1.669141,2.381129,0.907684,1.665702,2.671105,1.115056,2.183922,2.470876
51,0.425000,1.180170,2.185241,2.401511,0.920758,2.180457,2.691291,1.166789,1.669143,2.381134,0.907701,1.665702,2.671114,1.115058,2.183924,2.470876
52,0.433333,1.180186,2.185247,2.401520,0.920776,2.180455,2.691301,1.166795,1.669150,2.381121,0.907710,1.665701,2.671102,1.115075,2.183928,2.470885
53,0.441667,1.180170,2.185219,2.401514,0.920823,2.180367,2.691351,1.166920,1.669117,2.381141,0.907897,1.665609,2.671178,1.115074,2.183885,2.470893
54,0.450000,1.180186,2.185218,2.401520,0.920842,2.180368,2.691360,1.166922,1.669117,2.381140,0.907902,1.665611,2.671179,1.115090,2.183884,2.470900
55,0.458333,1.180214,2.185235,2.401535,0.920796,2.180460,2.691308,1.166807,1.669137,2.381150,0.907713,1.665706,2.671124,1.115101,2.183920,2.470898
56,0.466667,1.180228,2.185236,2.401549,0.920819,2.180463,2.691331,1.166816,1.669139,2.381163,0.907731,1.665709,2.671145,1.115117,2.183922,2.470914
57,0.475000,1.180237,2.185236,2.401554,0.920829,2.180462,2.691338,1.166809,1.669140,2.381154,0.907726,1.665709,2.671137,1.115126,2.183922,2.470920
58,0.483333,1.180211,2.185216,2.401546,0.920880,2.180369,2.691397,1.166924,1.669116,2.381150,0.907918,1.665612,2.671201,1.115118,2.183883,2.470928
59,0.491667,1.180245,2.185236,2.401578,0.920832,2.180454,2.691356,1.166817,1.669140,2.381165,0.907729,1.665702,2.671143,1.115133,2.183920,2.470942
60,0.500000,1.180220,2.185222,2.401577,0.920876,2.180367,2.691415,1.166940,1.669123,2.381170,0.907920,1.665611,2.671208,1.115125,2.183888,2.470956
61,0.508333,1.180248,2.185247,2.401596,0.920836,2.180462,2.691375,1.166829,1.669152,2.381183,0.907741,1.665709,2.671162,1.115136,2.183930,2.470960
62,0.516667,1.180250,2.185252,2.401605,0.920846,2.180462,2.691391,1.166827,1.669157,2.381180,0.907747,1.665710,2.671166,1.115140,2.183934,2.470970
63,0.525000,1.180252,2.185246,2.401612,0.920841,2.180461,2.691393,1.166817,1.669152,2.381185,0.907731,1.665710,2.671166,1.115140,2.183929,2.470976
64,0.533333,1.180229,2.185224,2.401612,0.920894,2.180370,2.691460,1.166934,1.669125,2.381197,0.907923,1.665615,2.671244,1.115135,2.183890,2.470994
65,0.541667,1.180254,2.185250,2.401638,0.920841,2.180452,2.691416,1.166832,1.669155,2.381201,0.907743,1.665701,2.671179,1.115142,2.183930,2.471002
66,0.550000,1.180246,2.185247,2.401648,0.920840,2.180454,2.691432,1.166819,1.669152,2.381214,0.907737,1.665702,2.671198,1.115136,2.183928,2.471013
67,0.558333,1.180262,2.185235,2.401671,0.920864,2.180444,2.691463,1.166884,1.669137,2.381285,0.907809,1.665689,2.671276,1.115153,2.183916,2.471038
68,0.566667,1.180216,2.185238,2.401662,0.920877,2.180365,2.691505,1.166931,1.669140,2.381220,0.907916,1.665610,2.671263,1.115122,2.183899,2.471042
69,0.575000,1.180232,2.185258,2.401676,0.920825,2.180448,2.691460,1.166825,1.669164,2.381230,0.907743,1.665696,2.671214,1.115121,2.183935,2.471041
70,0.583333,1.180196,2.185238,2.401688,0.920862,2.180350,2.691535,1.166925,1.669140,2.381233,0.907914,1.665595,2.671279,1.115103,2.183896,2.471069
71,0.591667,1.180217,2.185255,2.401704,0.920809,2.180437,2.691487,1.166813,1.669160,2.381248,0.907730,1.665685,2.671231,1.115106,2.183930,2.471069
72,0.600000,1.180224,2.185242,2.401716,0.920856,2.180418,2.691534,1.166859,1.669146,2.381286,0.907815,1.665664,2.671304,1.115123,2.183916,2.471090
73,0.608333,1.180205,2.185259,2.401723,0.920795,2.180434,2.691504,1.166807,1.669165,2.381258,0.907722,1.665683,2.671238,1.115094,2.183933,2.471087
74,0.616667,1.180167,2.185243,2.401730,0.920822,2.180346,2.691567,1.166899,1.669146,2.381259,0.907878,1.665592,2.671297,1.115071,2.183899,2.471108
75,0.625000,1.180186,2.185266,2.401741,0.920769,2.180431,2.691516,1.166786,1.669173,2.381256,0.907694,1.665680,2.671231,1.115073,2.183937,2.471104
76,0.633333,1.180140,2.185248,2.401745,0.920798,2.180339,2.691585,1.166892,1.669150,2.381271,0.907874,1.665584,2.671311,1.115045,2.183901,2.471124
77,0.641667,1.180157,2.185268,2.401757,0.920746,2.180422,2.691537,1.166784,1.669173,2.381278,0.907698,1.665670,2.671258,1.115045,2.183936,2.471122
78,0.650000,1.180113,2.185251,2.401748,0.920779,2.180334,2.691595,1.166878,1.669153,2.381273,0.907868,1.665579,2.671320,1.115020,2.183901,2.471129
79,0.658333,1.180109,2.185254,2.401767,0.920769,2.180324,2.691608,1.166880,1.669156,2.381275,0.907864,1.665570,2.671316,1.115014,2.183901,2.471147
80,0.666667,1.180089,2.185257,2.401760,0.920756,2.180323,2.691608,1.166875,1.669159,2.381274,0.907865,1.665568,2.671322,1.114996,2.183903,2.471142
81,0.675000,1.180122,2.185266,2.401776,0.920749,2.180403,2.691588,1.166782,1.669171,2.381299,0.907733,1.665651,2.671312,1.115019,2.183930,2.471148
82,0.683333,1.180057,2.185253,2.401771,0.920720,2.180327,2.691615,1.166826,1.669156,2.381283,0.907813,1.665573,2.671327,1.114963,2.183902,2.471151
83,0.691667,1.180052,2.185269,2.401774,0.920709,2.180326,2.691613,1.166840,1.669171,2.381274,0.907821,1.665572,2.671312,1.114957,2.183913,2.471153
84,0.700000,1.180068,2.185276,2.401782,0.920660,2.180398,2.691562,1.166752,1.669180,2.381297,0.907667,1.665646,2.671277,1.114957,2.183936,2.471146
85,0.708333,1.180023,2.185261,2.401770,0.920686,2.180317,2.691613,1.166816,1.669163,2.381272,0.907802,1.665562,2.671315,1.114929,2.183904,2.471150
86,0.716667,1.180035,2.185261,2.401776,0.920672,2.180387,2.691597,1.166746,1.669163,2.381325,0.907706,1.665632,2.671346,1.114935,2.183922,2.471151
87,0.725000,1.180036,2.185270,2.401782,0.920656,2.180395,2.691589,1.166744,1.669172,2.381328,0.907688,1.665641,2.671334,1.114932,2.183930,2.471153
88,0.733333,1.180019,2.185273,2.401774,0.920641,2.180391,2.691582,1.166733,1.669176,2.381311,0.907680,1.665637,2.671320,1.114915,2.183932,2.471145
89,0.741667,1.179961,2.185269,2.401766,0.920615,2.180321,2.691601,1.166768,1.669171,2.381272,0.907746,1.665566,2.671307,1.114865,2.183912,2.471144
90,0.750000,1.179944,2.185263,2.401760,0.920607,2.180307,2.691604,1.166777,1.669164,2.381277,0.907764,1.665551,2.671320,1.114850,2.183904,2.471140
91,0.758333,1.179939,2.185266,2.401761,0.920591,2.180305,2.691595,1.166786,1.669167,2.381278,0.907762,1.665548,2.671312,1.114842,2.183906,2.471139
92,0.766667,1.179966,2.185270,2.401758,0.920585,2.180379,2.691564,1.166708,1.669172,2.381304,0.907650,1.665624,2.671309,1.114861,2.183927,2.471129
93,0.775000,1.179919,2.185271,2.401750,0.920568,2.180312,2.691582,1.166757,1.669172,2.381264,0.907731,1.665555,2.671296,1.114822,2.183911,2.471128
94,0.783333,1.179914,2.185273,2.401755,0.920560,2.180309,2.691584,1.166760,1.669173,2.381269,0.907731,1.665553,2.671298,1.114816,2.183912,2.471131
95,0.791667,1.179898,2.185272,2.401739,0.920551,2.180303,2.691574,1.166761,1.669171,2.381259,0.907738,1.665546,2.671294,1.114801,2.183909,2.471117
96,0.800000,1.179886,2.185272,2.401725,0.920548,2.180304,2.691568,1.166742,1.669172,2.381241,0.907728,1.665547,2.671284,1.114792,2.183909,2.471105
97,0.808333,1.179878,2.185267,2.401717,0.920527,2.180304,2.691547,1.166742,1.669166,2.381246,0.907714,1.665546,2.671276,1.114781,2.183906,2.471094
98,0.816667,1.179864,2.185270,2.401701,0.920523,2.180301,2.691542,1.166735,1.669169,2.381228,0.907718,1.665544,2.671268,1.114769,2.183908,2.471081
99,0.825000,1.179863,2.185259,2.401691,0.920523,2.180307,2.691532,1.166726,1.669158,2.381241,0.907710,1.665548,2.671281,1.114768,2.183901,2.471071
100,0.833333,1.179854,2.185267,2.401681,0.920520,2.180302,2.691528,1.166733,1.669166,2.381223,0.907722,1.665544,2.671269,1.114761,2.183905,2.471062
101,0.841667,1.179863,2.185260,2.401674,0.920519,2.180303,2.691510,1.166731,1.669158,2.381220,0.907710,1.665545,2.671257,1.114768,2.183900,2.471052
102,0.850000,1.179849,2.185256,2.401654,0.920507,2.180303,2.691493,1.166726,1.669154,2.381214,0.907707,1.665544,2.671253,1.114754,2.183897,2.471033
103,0.858333,1.179850,2.185260,2.401651,0.920502,2.180305,2.691485,1.166727,1.669158,2.381209,0.907704,1.665546,2.671243,1.114753,2.183901,2.471029
104,0.866667,1.179846,2.185260,2.401639,0.920502,2.180309,2.691477,1.166726,1.669157,2.381207,0.907707,1.665550,2.671245,1.114750,2.183901,2.471018
105,0.875000,1.179850,2.185251,2.401626,0.920507,2.180304,2.691464,1.166729,1.669148,2.381200,0.907710,1.665545,2.671238,1.114755,2.183893,2.471005
106,0.883333,1.179850,2.185256,2.401607,0.920509,2.180317,2.691446,1.166715,1.669154,2.381181,0.907696,1.665558,2.671220,1.114755,2.183901,2.470986
107,0.891667,1.179860,2.185241,2.401603,0.920531,2.180309,2.691454,1.166729,1.669138,2.381194,0.907724,1.665549,2.671246,1.114768,2.183887,2.470985
108,0.900000,1.179852,2.185259,2.401594,0.920513,2.180320,2.691436,1.166725,1.669156,2.381178,0.907709,1.665560,2.671219,1.114758,2.183903,2.470974
109,0.908333,1.179852,2.185244,2.401577,0.920506,2.180315,2.691413,1.166719,1.669141,2.381171,0.907696,1.665555,2.671206,1.114756,2.183891,2.470956
110,0.916667,1.179851,2.185250,2.401565,0.920514,2.180317,2.691408,1.166718,1.669146,2.381154,0.907704,1.665558,2.671197,1.114757,2.183896,2.470945
111,0.925000,1.179895,2.185269,2.401568,0.920467,2.180417,2.691333,1.166611,1.669170,2.381156,0.907507,1.665661,2.671120,1.114779,2.183935,2.470929
112,0.933333,1.179892,2.185228,2.401543,0.920559,2.180328,2.691391,1.166724,1.669125,2.381158,0.907715,1.665568,2.671206,1.114799,2.183882,2.470924
113,0.941667,1.179877,2.185247,2.401534,0.920537,2.180318,2.691375,1.166739,1.669143,2.381125,0.907723,1.665558,2.671167,1.114782,2.183894,2.470913
114,0.950000,1.179891,2.185242,2.401530,0.920545,2.180326,2.691366,1.166740,1.669139,2.381130,0.907718,1.665566,2.671166,1.114795,2.183892,2.470908
115,0.958333,1.179900,2.185244,2.401520,0.920552,2.180334,2.691355,1.166759,1.669139,2.381142,0.907735,1.665573,2.671176,1.114803,2.183895,2.470898
116,0.966667,1.179910,2.185239,2.401504,0.920565,2.180338,2.691340,1.166758,1.669135,2.381130,0.907736,1.665577,2.671166,1.114814,2.183893,2.470882
117,0.975000,1.179935,2.185222,2.401501,0.920598,2.180341,2.691346,1.166765,1.669118,2.381147,0.907752,1.665579,2.671191,1.114841,2.183881,2.470882
118,0.983333,1.179925,2.185232,2.401491,0.920586,2.180331,2.691334,1.166770,1.669128,2.381116,0.907755,1.665571,2.671159,1.114831,2.183886,2.470872
119,0.991667,1.179934,2.185225,2.401489,0.920591,2.180328,2.691328,1.166770,1.669121,2.381113,0.907751,1.665567,2.671151,1.114839,2.183879,2.470868
120,1.000000,1.179951,2.185232,2.401492,0.920603,2.180340,2.691327,1.166781,1.669128,2.381118,0.907757,1.665579,2.671153,1.114854,2.183888,2.470870
121,1.008333,1.179959,2.185236,2.401490,0.920613,2.180342,2.691326,1.166796,1.669132,2.381119,0.907774,1.665581,2.671155,1.114863,2.183891,2.470868
122,1.016667,1.179976,2.185224,2.401487,0.920621,2.180343,2.691316,1.166785,1.669121,2.381113,0.907755,1.665583,2.671143,1.114877,2.183883,2.470864
123,1.025000,1.179981,2.185236,2.401479,0.920640,2.180350,2.691320,1.166797,1.669132,2.381105,0.907780,1.665590,2.671145,1.114886,2.183893,2.470858
124,1.033333,1.179998,2.185224,2.401480,0.920648,2.180341,2.691313,1.166810,1.669121,2.381107,0.907783,1.665581,2.671139,1.114901,2.183882,2.470858
125,1.041667,1.180040,2.185247,2.401490,0.920620,2.180441,2.691263,1.166698,1.669148,2.381109,0.907603,1.665685,2.671081,1.114926,2.183925,2.470853
126,1.050000,1.180037,2.185225,2.401482,0.920684,2.180358,2.691314,1.166817,1.669123,2.381108,0.907789,1.665598,2.671139,1.114939,2.183887,2.470860
127,1.058333,1.180094,2.185228,2.401493,0.920695,2.180439,2.691283,1.166774,1.669127,2.381161,0.907698,1.665680,2.671151,1.114986,2.183910,2.470860
128,1.066667,1.180058,2.185228,2.401490,0.920708,2.180363,2.691323,1.166838,1.669126,2.381120,0.907812,1.665604,2.671153,1.114961,2.183891,2.470868
129,1.075000,1.180067,2.185229,2.401493,0.920725,2.180354,2.691334,1.166862,1.669126,2.381121,0.907844,1.665595,2.671161,1.114972,2.183889,2.470873
130,1.083333,1.180081,2.185220,2.401494,0.920734,2.180357,2.691330,1.166864,1.669117,2.381130,0.907841,1.665597,2.671166,1.114985,2.183883,2.470872
131,1.091667,1.180085,2.185221,2.401492,0.920745,2.180357,2.691334,1.166865,1.669118,2.381125,0.907849,1.665597,2.671167,1.114990,2.183884,2.470872
132,1.100000,1.180107,2.185223,2.401511,0.920760,2.180352,2.691348,1.166894,1.669120,2.381137,0.907871,1.665592,2.671173,1.115011,2.183884,2.470890
133,1.108333,1.180127,2.185220,2.401517,0.920779,2.180359,2.691352,1.166877,1.669119,2.381126,0.907853,1.665601,2.671161,1.115030,2.183884,2.470895
134,1.116667,1.180137,2.185215,2.401522,0.920779,2.180354,2.691350,1.166895,1.669114,2.381139,0.907862,1.665596,2.671165,1.115038,2.183879,2.470899
135,1.125000,1.180139,2.185220,2.401525,0.920795,2.180360,2.691364,1.166900,1.669118,2.381147,0.907880,1.665601,2.671185,1.115044,2.183884,2.470905
136,1.133333,1.180144,2.185219,2.401534,0.920804,2.180357,2.691376,1.166906,1.669117,2.381154,0.907891,1.665598,2.671197,1.115049,2.183882,2.470914
137,1.141667,1.180180,2.185241,2.401554,0.920761,2.180451,2.691327,1.166786,1.669144,2.381155,0.907692,1.665697,2.671129,1.115066,2.183923,2.470917
138,1.150000,1.180158,2.185218,2.401560,0.920806,2.180361,2.691392,1.166900,1.669117,2.381170,0.907872,1.665603,2.671201,1.115061,2.183883,2.470937
139,1.158333,1.180166,2.185227,2.401565,0.920822,2.180364,2.691404,1.166908,1.669127,2.381165,0.907888,1.665607,2.671204,1.115070,2.183891,2.470944
140,1.166667,1.180169,2.185228,2.401570,0.920840,2.180362,2.691422,1.166923,1.669127,2.381178,0.907918,1.665604,2.671230,1.115077,2.183890,2.470952
141,1.175000,1.180202,2.185244,2.401588,0.920787,2.180452,2.691364,1.166797,1.669148,2.381174,0.907706,1.665699,2.671150,1.115090,2.183925,2.470951
142,1.183333,1.180201,2.185249,2.401608,0.920783,2.180451,2.691382,1.166795,1.669153,2.381184,0.907702,1.665698,2.671158,1.115088,2.183929,2.470971
143,1.191667,1.180212,2.185253,2.401625,0.920797,2.180456,2.691401,1.166804,1.669157,2.381201,0.907713,1.665704,2.671177,1.115100,2.183933,2.470989
144,1.200000,1.180205,2.185256,2.401633,0.920796,2.180447,2.691414,1.166806,1.669161,2.381194,0.907721,1.665695,2.671175,1.115094,2.183933,2.470997
145,1.208333,1.180178,2.185232,2.401627,0.920839,2.180367,2.691470,1.166908,1.669133,2.381212,0.907893,1.665611,2.671256,1.115084,2.183895,2.471007
146,1.216667,1.180211,2.185251,2.401650,0.920795,2.180446,2.691426,1.166804,1.669156,2.381214,0.907712,1.665694,2.671189,1.115098,2.183929,2.471014
147,1.225000,1.180209,2.185261,2.401667,0.920791,2.180450,2.691440,1.166806,1.669166,2.381222,0.907712,1.665699,2.671195,1.115096,2.183938,2.471030
148,1.233333,1.180203,2.185260,2.401679,0.920795,2.180434,2.691460,1.166811,1.669165,2.381219,0.907727,1.665683,2.671201,1.115092,2.183933,2.471043
149,1.241667,1.180215,2.185237,2.401682,0.920840,2.180420,2.691494,1.166861,1.669140,2.381275,0.907810,1.665666,2.671287,1.115112,2.183912,2.471055
150,1.250000,1.180192,2.185263,2.401695,0.920780,2.180439,2.691474,1.166791,1.669169,2.381229,0.907704,1.665688,2.671208,1.115080,2.183937,2.471059
151,1.258333,1.180195,2.185260,2.401706,0.920780,2.180436,2.691482,1.166791,1.669166,2.381237,0.907700,1.665685,2.671214,1.115083,2.183933,2.471070
152,1.266667,1.180162,2.185247,2.401701,0.920820,2.180347,2.691541,1.166904,1.669149,2.381235,0.907886,1.665592,2.671275,1.115067,2.183902,2.471081
153,1.275000,1.180158,2.185244,2.401715,0.920812,2.180341,2.691551,1.166901,1.669146,2.381244,0.907879,1.665586,2.671280,1.115062,2.183897,2.471093
154,1.283333,1.180144,2.185248,2.401723,0.920806,2.180341,2.691566,1.166898,1.669150,2.381256,0.907884,1.665586,2.671299,1.115050,2.183901,2.471103
155,1.291667,1.180168,2.185272,2.401740,0.920752,2.180439,2.691515,1.166777,1.669177,2.381268,0.907685,1.665688,2.671243,1.115055,2.183943,2.471103
156,1.300000,1.180156,2.185270,2.401744,0.920736,2.180428,2.691516,1.166779,1.669176,2.381266,0.907683,1.665676,2.671237,1.115042,2.183939,2.471107
157,1.308333,1.180147,2.185272,2.401756,0.920731,2.180427,2.691531,1.166765,1.669179,2.381268,0.907674,1.665676,2.671243,1.115034,2.183941,2.471119
158,1.316667,1.180102,2.185247,2.401752,0.920759,2.180331,2.691591,1.166864,1.669149,2.381277,0.907845,1.665577,2.671315,1.115007,2.183898,2.471131
159,1.325000,1.180134,2.185264,2.401767,0.920723,2.180416,2.691546,1.166777,1.669168,2.381300,0.907690,1.665664,2.671279,1.115022,2.183931,2.471132
160,1.333333,1.180110,2.185277,2.401770,0.920701,2.180418,2.691551,1.166748,1.669183,2.381278,0.907664,1.665668,2.671259,1.114998,2.183943,2.471135
161,1.341667,1.180104,2.185277,2.401773,0.920693,2.180418,2.691552,1.166736,1.669183,2.381276,0.907649,1.665668,2.671255,1.114993,2.183942,2.471137
162,1.350000,1.180066,2.185261,2.401764,0.920726,2.180326,2.691606,1.166852,1.669163,2.381276,0.907836,1.665571,2.671317,1.114972,2.183907,2.471144
163,1.358333,1.180051,2.185255,2.401769,0.920710,2.180316,2.691609,1.166854,1.669156,2.381289,0.907836,1.665560,2.671329,1.114956,2.183900,2.471148
164,1.366667,1.180069,2.185283,2.401777,0.920655,2.180415,2.691553,1.166729,1.669188,2.381288,0.907639,1.665664,2.671264,1.114957,2.183946,2.471141
165,1.375000,1.180028,2.185259,2.401772,0.920676,2.180324,2.691603,1.166830,1.669160,2.381298,0.907802,1.665568,2.671329,1.114931,2.183904,2.471150
166,1.383333,1.180012,2.185258,2.401767,0.920675,2.180314,2.691610,1.166818,1.669159,2.381281,0.907805,1.665558,2.671324,1.114918,2.183902,2.471147
167,1.391667,1.180029,2.185282,2.401772,0.920609,2.180405,2.691542,1.166708,1.669187,2.381283,0.907612,1.665653,2.671253,1.114915,2.183943,2.471134
168,1.400000,1.180035,2.185269,2.401771,0.920651,2.180394,2.691574,1.166747,1.669171,2.381320,0.907688,1.665640,2.671323,1.114930,2.183929,2.471141
169,1.408333,1.179987,2.185268,2.401757,0.920647,2.180319,2.691598,1.166818,1.669168,2.381284,0.907802,1.665562,2.671325,1.114892,2.183910,2.471137
170,1.416667,1.179966,2.185266,2.401760,0.920627,2.180317,2.691602,1.166799,1.669166,2.381290,0.907784,1.665561,2.671331,1.114872,2.183908,2.471140
171,1.425000,1.179956,2.185266,2.401750,0.920615,2.180310,2.691591,1.166794,1.669166,2.381273,0.907778,1.665554,2.671314,1.114861,2.183906,2.471130
172,1.433333,1.179942,2.185270,2.401751,0.920594,2.180316,2.691585,1.166782,1.669170,2.381276,0.907758,1.665559,2.671310,1.114845,2.183911,2.471129
173,1.441667,1.179933,2.185270,2.401741,0.920600,2.180311,2.691589,1.166784,1.669170,2.381268,0.907776,1.665554,2.671316,1.114840,2.183910,2.471122
174,1.450000,1.179933,2.185269,2.401744,0.920591,2.180309,2.691582,1.166775,1.669169,2.381260,0.907756,1.665553,2.671299,1.114838,2.183909,2.471123
175,1.458333,1.179923,2.185270,2.401731,0.920578,2.180313,2.691568,1.166772,1.669169,2.381260,0.907752,1.665556,2.671297,1.114827,2.183910,2.471110
176,1.466667,1.179906,2.185268,2.401713,0.920566,2.180314,2.691554,1.166760,1.669167,2.381252,0.907744,1.665556,2.671293,1.114812,2.183909,2.471093
177,1.475000,1.179932,2.185293,2.401720,0.920522,2.180408,2.691499,1.166648,1.669196,2.381251,0.907561,1.665655,2.671230,1.114821,2.183951,2.471084
178,1.483333,1.179920,2.185251,2.401701,0.920588,2.180322,2.691550,1.166761,1.669149,2.381274,0.907753,1.665564,2.671323,1.114827,2.183898,2.471083
179,1.491667,1.179899,2.185268,2.401696,0.920551,2.180318,2.691530,1.166754,1.669167,2.381241,0.907730,1.665560,2.671276,1.114802,2.183910,2.471074
180,1.500000,1.179893,2.185264,2.401683,0.920543,2.180313,2.691515,1.166749,1.669162,2.381229,0.907723,1.665555,2.671261,1.114796,2.183906,2.471061
181,1.508333,1.179884,2.185255,2.401668,0.920542,2.180306,2.691507,1.166739,1.669154,2.381216,0.907720,1.665548,2.671255,1.114789,2.183897,2.471047
182,1.516667,1.179884,2.185259,2.401662,0.920541,2.180310,2.691500,1.166745,1.669158,2.381216,0.907725,1.665552,2.671254,1.114789,2.183902,2.471041
183,1.525000,1.179877,2.185261,2.401651,0.920534,2.180317,2.691489,1.166743,1.669159,2.381218,0.907724,1.665558,2.671257,1.114781,2.183905,2.471030
184,1.533333,1.179886,2.185263,2.401646,0.920545,2.180317,2.691486,1.166741,1.669162,2.381200,0.907724,1.665559,2.671240,1.114792,2.183906,2.471025
185,1.541667,1.179880,2.185255,2.401635,0.920537,2.180311,2.691473,1.166742,1.669153,2.381199,0.907722,1.665552,2.671237,1.114785,2.183898,2.471014
186,1.550000,1.179883,2.185257,2.401628,0.920535,2.180313,2.691463,1.166749,1.669155,2.381194,0.907724,1.665554,2.671228,1.114786,2.183901,2.471006
187,1.558333,1.179881,2.185254,2.401618,0.920535,2.180316,2.691454,1.166746,1.669152,2.381194,0.907724,1.665557,2.671230,1.114785,2.183899,2.470996
188,1.566667,1.179887,2.185251,2.401606,0.920543,2.180319,2.691444,1.166753,1.669148,2.381193,0.907734,1.665559,2.671232,1.114791,2.183897,2.470984
189,1.575000,1.179891,2.185247,2.401591,0.920550,2.180317,2.691432,1.166748,1.669144,2.381175,0.907731,1.665557,2.671215,1.114796,2.183894,2.470970
190,1.583333,1.179888,2.185253,2.401587,0.920543,2.180314,2.691423,1.166758,1.669150,2.381166,0.907737,1.665554,2.671202,1.114792,2.183897,2.470965
191,1.591667,1.179896,2.185256,2.401575,0.920560,2.180323,2.691420,1.166757,1.669153,2.381157,0.907745,1.665563,2.671202,1.114802,2.183902,2.470956
192,1.600000,1.179901,2.185245,2.401565,0.920558,2.180322,2.691404,1.166760,1.669142,2.381164,0.907742,1.665562,2.671203,1.114805,2.183894,2.470944
193,1.608333,1.179923,2.185241,2.401565,0.920573,2.180327,2.691398,1.166765,1.669137,2.381165,0.907738,1.665568,2.671196,1.114826,2.183891,2.470943
194,1.616667,1.179922,2.185243,2.401560,0.920568,2.180326,2.691389,1.166780,1.669139,2.381167,0.907749,1.665566,2.671196,1.114824,2.183893,2.470937
195,1.625000,1.179958,2.185262,2.401556,0.920544,2.180429,2.691333,1.166645,1.669163,2.381152,0.907555,1.665673,2.671129,1.114845,2.183933,2.470920
196,1.633333,1.179973,2.185260,2.401561,0.920550,2.180423,2.691329,1.166661,1.669162,2.381150,0.907562,1.665668,2.671119,1.114858,2.183930,2.470922
197,1.641667,1.179950,2.185231,2.401535,0.920605,2.180327,2.691374,1.166784,1.669128,2.381145,0.907764,1.665568,2.671183,1.114854,2.183884,2.470914
198,1.650000,1.179962,2.185227,2.401534,0.920616,2.180331,2.691371,1.166789,1.669124,2.381152,0.907768,1.665571,2.671189,1.114866,2.183882,2.470913
199,1.658333,1.179977,2.185235,2.401537,0.920626,2.180331,2.691370,1.166803,1.669132,2.381140,0.907777,1.665572,2.671173,1.114879,2.183888,2.470915
200,1.666667,1.179992,2.185230,2.401529,0.920638,2.180335,2.691358,1.166809,1.669127,2.381138,0.907779,1.665576,2.671167,1.114894,2.183885,2.470906
201,1.675000,1.180001,2.185224,2.401524,0.920660,2.180331,2.691366,1.166809,1.669121,2.381132,0.907793,1.665572,2.671173,1.114906,2.183880,2.470904
202,1.683333,1.180018,2.185226,2.401523,0.920676,2.180340,2.691363,1.166824,1.669124,2.381138,0.907805,1.665580,2.671177,1.114923,2.183884,2.470902
203,1.691667,1.180026,2.185222,2.401522,0.920680,2.180337,2.691360,1.166832,1.669119,2.381141,0.907810,1.665578,2.671178,1.114930,2.183880,2.470901
204,1.700000,1.180048,2.185221,2.401531,0.920695,2.180340,2.691361,1.166836,1.669119,2.381139,0.907807,1.665581,2.671169,1.114950,2.183880,2.470908
205,1.708333,1.180058,2.185220,2.401534,0.920712,2.180339,2.691371,1.166849,1.669118,2.381145,0.907827,1.665580,2.671181,1.114962,2.183879,2.470913
206,1.716667,1.180066,2.185219,2.401541,0.920722,2.180341,2.691379,1.166852,1.669116,2.381155,0.907832,1.665582,2.671194,1.114970,2.183878,2.470920
207,1.725000,1.180082,2.185221,2.401542,0.920734,2.180343,2.691376,1.166855,1.669120,2.381142,0.907830,1.665585,2.671176,1.114986,2.183881,2.470920
208,1.733333,1.180089,2.185218,2.401543,0.920748,2.180340,2.691385,1.166855,1.669117,2.381138,0.907839,1.665582,2.671179,1.114994,2.183878,2.470923
209,1.741667,1.180102,2.185227,2.401545,0.920755,2.180345,2.691381,1.166892,1.669125,2.381154,0.907869,1.665586,2.671189,1.115006,2.183886,2.470924
210,1.750000,1.180120,2.185223,2.401556,0.920771,2.180346,2.691391,1.166892,1.669122,2.381158,0.907867,1.665588,2.671192,1.115023,2.183883,2.470935
211,1.758333,1.180135,2.185219,2.401565,0.920791,2.180342,2.691403,1.166896,1.669118,2.381158,0.907876,1.665585,2.671196,1.115039,2.183879,2.470944
212,1.766667,1.180141,2.185220,2.401566,0.920799,2.180346,2.691406,1.166906,1.669119,2.381167,0.907888,1.665588,2.671207,1.115046,2.183881,2.470946
213,1.775000,1.180158,2.185219,2.401573,0.920821,2.180351,2.691418,1.166915,1.669118,2.381177,0.907901,1.665593,2.671221,1.115064,2.183881,2.470954
214,1.783333,1.180193,2.185240,2.401591,0.920775,2.180445,2.691364,1.166799,1.669144,2.381180,0.907705,1.665691,2.671154,1.115080,2.183921,2.470953
215,1.791667,1.180217,2.185222,2.401602,0.920828,2.180430,2.691402,1.166848,1.669123,2.381225,0.907783,1.665675,2.671225,1.115111,2.183903,2.470971
216,1.800000,1.180219,2.185236,2.401614,0.920802,2.180444,2.691389,1.166797,1.669141,2.381186,0.907705,1.665692,2.671161,1.115106,2.183918,2.470977
217,1.808333,1.180217,2.185253,2.401620,0.920810,2.180454,2.691404,1.166803,1.669157,2.381189,0.907721,1.665702,2.671173,1.115106,2.183932,2.470986
218,1.816667,1.180245,2.185225,2.401628,0.920867,2.180422,2.691438,1.166882,1.669127,2.381237,0.907829,1.665667,2.671247,1.115141,2.183904,2.471000
219,1.825000,1.180216,2.185228,2.401640,0.920877,2.180354,2.691484,1.166941,1.669129,2.381207,0.907926,1.665598,2.671250,1.115121,2.183888,2.471021
220,1.833333,1.180247,2.185247,2.401654,0.920835,2.180448,2.691433,1.166824,1.669153,2.381213,0.907737,1.665697,2.671193,1.115135,2.183927,2.471018
221,1.841667,1.180247,2.185246,2.401670,0.920844,2.180450,2.691458,1.166809,1.669152,2.381223,0.907731,1.665699,2.671211,1.115137,2.183926,2.471036
222,1.850000,1.180250,2.185248,2.401678,0.920842,2.180447,2.691460,1.166820,1.669155,2.381226,0.907736,1.665696,2.671208,1.115139,2.183928,2.471043
223,1.858333,1.180271,2.185231,2.401682,0.920894,2.180428,2.691492,1.166893,1.669134,2.381277,0.907840,1.665674,2.671287,1.115168,2.183910,2.471054
224,1.866667,1.180255,2.185257,2.401708,0.920850,2.180446,2.691494,1.166825,1.669164,2.381240,0.907744,1.665696,2.671226,1.115145,2.183934,2.471074
225,1.875000,1.180232,2.185228,2.401705,0.920903,2.180346,2.691557,1.166934,1.669131,2.381239,0.907930,1.665593,2.671292,1.115140,2.183887,2.471088
226,1.883333,1.180270,2.185256,2.401721,0.920858,2.180448,2.691501,1.166834,1.669163,2.381254,0.907747,1.665698,2.671233,1.115158,2.183933,2.471086
227,1.891667,1.180243,2.185232,2.401717,0.920912,2.180360,2.691568,1.166931,1.669135,2.381254,0.907924,1.665606,2.671305,1.115150,2.183893,2.471100
228,1.900000,1.180260,2.185258,2.401751,0.920850,2.180437,2.691531,1.166836,1.669165,2.381269,0.907750,1.665687,2.671249,1.115148,2.183933,2.471115
229,1.908333,1.180262,2.185261,2.401752,0.920852,2.180437,2.691532,1.166832,1.669168,2.381261,0.907747,1.665688,2.671242,1.115151,2.183934,2.471116
230,1.916667,1.180249,2.185259,2.401762,0.920854,2.180438,2.691557,1.166817,1.669166,2.381276,0.907746,1.665688,2.671270,1.115141,2.183933,2.471130
231,1.925000,1.180253,2.185264,2.401771,0.920847,2.180439,2.691555,1.166820,1.669172,2.381275,0.907738,1.665689,2.671259,1.115142,2.183938,2.471137
232,1.933333,1.180259,2.185253,2.401785,0.920854,2.180426,2.691570,1.166843,1.669160,2.381301,0.907762,1.665676,2.671286,1.115149,2.183926,2.471151
233,1.941667,1.180233,2.185264,2.401788,0.920836,2.180429,2.691579,1.166816,1.669172,2.381289,0.907743,1.665680,2.671281,1.115125,2.183935,2.471155
234,1.950000,1.180249,2.185260,2.401805,0.920846,2.180423,2.691592,1.166839,1.669167,2.381309,0.907760,1.665673,2.671296,1.115139,2.183930,2.471171
235,1.958333,1.180216,2.185273,2.401810,0.920814,2.180429,2.691597,1.166800,1.669181,2.381297,0.907722,1.665680,2.671285,1.115106,2.183942,2.471176
236,1.966667,1.180218,2.185263,2.401808,0.920825,2.180419,2.691604,1.166820,1.669170,2.381312,0.907752,1.665669,2.671308,1.115110,2.183932,2.471176
237,1.975000,1.180214,2.185260,2.401814,0.920807,2.180416,2.691597,1.166821,1.669166,2.381322,0.907739,1.665666,2.671305,1.115103,2.183928,2.471179
238,1.983333,1.180203,2.185267,2.401828,0.920802,2.180413,2.691616,1.166820,1.669174,2.381326,0.907743,1.665663,2.671314,1.115094,2.183933,2.471195
239,1.991667,1.180154,2.185257,2.401810,0.920824,2.180331,2.691659,1.166894,1.669161,2.381297,0.907887,1.665579,2.671347,1.115062,2.183906,2.471192
240,2.000000,1.180186,2.185267,2.401838,0.920775,2.180405,2.691617,1.166803,1.669174,2.381322,0.907716,1.665656,2.671300,1.115074,2.183931,2.471202
241,2.008333,1.180164,2.185272,2.401818,0.920763,2.180418,2.691606,1.166771,1.669179,2.381307,0.907694,1.665668,2.671295,1.115054,2.183938,2.471184
242,2.016667,1.180163,2.185256,2.401818,0.920786,2.180402,2.691628,1.166810,1.669161,2.381345,0.907758,1.665650,2.671355,1.115060,2.183922,2.471190
243,2.025000,1.180115,2.185264,2.401814,0.920777,2.180333,2.691658,1.166871,1.669167,2.381308,0.907858,1.665580,2.671351,1.115021,2.183911,2.471195
244,2.033333,1.180137,2.185268,2.401814,0.920761,2.180401,2.691624,1.166807,1.669173,2.381338,0.907755,1.665648,2.671348,1.115034,2.183931,2.471186
245,2.041667,1.180116,2.185286,2.401820,0.920707,2.180411,2.691600,1.166745,1.669194,2.381291,0.907660,1.665662,2.671271,1.115005,2.183947,2.471185
246,2.050000,1.180110,2.185259,2.401800,0.920737,2.180402,2.691613,1.166779,1.669163,2.381342,0.907731,1.665649,2.671355,1.115008,2.183924,2.471172
247,2.058333,1.180099,2.185258,2.401808,0.920719,2.180395,2.691614,1.166770,1.669162,2.381340,0.907715,1.665642,2.671347,1.114995,2.183922,2.471179
248,2.066667,1.180041,2.185259,2.401793,0.920705,2.180317,2.691638,1.166826,1.669161,2.381292,0.907814,1.665563,2.671337,1.114948,2.183903,2.471174
249,2.075000,1.180062,2.185288,2.401802,0.920645,2.180411,2.691576,1.166719,1.669195,2.381292,0.907626,1.665660,2.671266,1.114949,2.183949,2.471165
250,2.083333,1.180045,2.185281,2.401789,0.920637,2.180408,2.691570,1.166705,1.669186,2.381292,0.907621,1.665657,2.671273,1.114934,2.183942,2.471154
251,2.091667,1.180006,2.185267,2.401768,0.920669,2.180327,2.691612,1.166790,1.669169,2.381270,0.907777,1.665573,2.671314,1.114912,2.183912,2.471148
252,2.100000,1.179996,2.185264,2.401761,0.920661,2.180317,2.691606,1.166812,1.669164,2.381280,0.907801,1.665562,2.671326,1.114903,2.183907,2.471142
253,2.108333,1.179983,2.185258,2.401758,0.920645,2.180309,2.691601,1.166791,1.669159,2.381265,0.907776,1.665554,2.671308,1.114889,2.183900,2.471138
254,2.116667,1.179971,2.185267,2.401752,0.920637,2.180315,2.691598,1.166795,1.669168,2.381267,0.907785,1.665559,2.671313,1.114878,2.183909,2.471133
255,2.125000,1.179961,2.185266,2.401738,0.920616,2.180314,2.691575,1.166793,1.669166,2.381261,0.907772,1.665558,2.671298,1.114865,2.183908,2.471117
256,2.133333,1.179953,2.185263,2.401725,0.920612,2.180312,2.691565,1.166782,1.669163,2.381246,0.907764,1.665556,2.671286,1.114859,2.183905,2.471104
257,2.141667,1.179945,2.185265,2.401716,0.920598,2.180312,2.691550,1.166780,1.669165,2.381238,0.907757,1.665556,2.671273,1.114849,2.183907,2.471094
258,2.150000,1.179930,2.185261,2.401713,0.920583,2.180318,2.691548,1.166765,1.669161,2.381253,0.907742,1.665561,2.671288,1.114834,2.183905,2.471091
259,2.158333,1.179925,2.185258,2.401699,0.920583,2.180305,2.691538,1.166774,1.669157,2.381235,0.907756,1.665548,2.671273,1.114830,2.183899,2.471078
260,2.166667,1.179925,2.185257,2.401683,0.920587,2.180308,2.691526,1.166763,1.669157,2.381217,0.907749,1.665551,2.671260,1.114830,2.183899,2.471063
261,2.175000,1.179908,2.185261,2.401674,0.920570,2.180310,2.691517,1.166760,1.669160,2.381218,0.907746,1.665552,2.671261,1.114814,2.183903,2.471054
262,2.183333,1.179904,2.185259,2.401660,0.920568,2.180316,2.691504,1.166757,1.669157,2.381218,0.907744,1.665558,2.671262,1.114810,2.183902,2.471041
263,2.191667,1.179905,2.185256,2.401643,0.920563,2.180317,2.691482,1.166770,1.669154,2.381217,0.907751,1.665558,2.671256,1.114810,2.183901,2.471022
264,2.200000,1.179895,2.185253,2.401634,0.920556,2.180316,2.691476,1.166754,1.669150,2.381207,0.907739,1.665557,2.671250,1.114801,2.183897,2.471014
265,2.208333,1.179894,2.185253,2.401623,0.920557,2.180315,2.691467,1.166744,1.669151,2.381186,0.907731,1.665556,2.671231,1.114800,2.183898,2.471003
266,2.216667,1.179890,2.185251,2.401611,0.920557,2.180314,2.691458,1.166742,1.669149,2.381180,0.907733,1.665555,2.671227,1.114797,2.183896,2.470992
267,2.225000,1.179895,2.185246,2.401605,0.920565,2.180313,2.691456,1.166750,1.669144,2.381182,0.907744,1.665553,2.671232,1.114803,2.183892,2.470988
268,2.233333,1.179899,2.185246,2.401602,0.920561,2.180319,2.691445,1.166754,1.669144,2.381189,0.907740,1.665559,2.671232,1.114804,2.183894,2.470982
269,2.241667,1.179900,2.185253,2.401598,0.920561,2.180322,2.691441,1.166755,1.669150,2.381180,0.907741,1.665563,2.671222,1.114805,2.183899,2.470978
270,2.250000,1.179899,2.185251,2.401587,0.920562,2.180320,2.691431,1.166751,1.669148,2.381165,0.907738,1.665561,2.671209,1.114805,2.183897,2.470967
271,2.258333,1.179888,2.185256,2.401571,0.920552,2.180322,2.691416,1.166747,1.669153,2.381150,0.907735,1.665563,2.671195,1.114794,2.183902,2.470951
272,2.266667,1.179901,2.185244,2.401568,0.920563,2.180321,2.691412,1.166767,1.669140,2.381173,0.907753,1.665560,2.671216,1.114807,2.183892,2.470949
273,2.275000,1.179914,2.185242,2.401567,0.920569,2.180323,2.691404,1.166759,1.669140,2.381158,0.907738,1.665563,2.671196,1.114818,2.183892,2.470945
274,2.283333,1.179916,2.185245,2.401555,0.920574,2.180321,2.691396,1.166772,1.669142,2.381150,0.907755,1.665561,2.671190,1.114821,2.183893,2.470935
275,2.291667,1.179920,2.185238,2.401544,0.920578,2.180328,2.691384,1.166766,1.669134,2.381155,0.907748,1.665568,2.671195,1.114825,2.183889,2.470923
276,2.300000,1.179967,2.185243,2.401547,0.920593,2.180400,2.691359,1.166705,1.669142,2.381175,0.907655,1.665641,2.671187,1.114865,2.183911,2.470919
277,2.308333,1.179939,2.185241,2.401531,0.920598,2.180341,2.691371,1.166767,1.669138,2.381142,0.907749,1.665581,2.671183,1.114844,2.183895,2.470910
278,2.316667,1.179950,2.185235,2.401534,0.920609,2.180329,2.691375,1.166779,1.669132,2.381136,0.907761,1.665570,2.671176,1.114855,2.183888,2.470914
279,2.325000,1.179955,2.185236,2.401528,0.920622,2.180328,2.691377,1.166792,1.669134,2.381133,0.907783,1.665568,2.671181,1.114862,2.183888,2.470910
280,2.333333,1.179961,2.185237,2.401532,0.920618,2.180328,2.691371,1.166796,1.669134,2.381135,0.907777,1.665569,2.671173,1.114865,2.183889,2.470911
281,2.341667,1.179973,2.185231,2.401525,0.920631,2.180334,2.691365,1.166792,1.669128,2.381135,0.907775,1.665575,2.671175,1.114878,2.183886,2.470904
282,2.350000,1.179984,2.185226,2.401522,0.920646,2.180330,2.691366,1.166798,1.669123,2.381129,0.907784,1.665571,2.671172,1.114890,2.183881,2.470902
283,2.358333,1.179999,2.185225,2.401534,0.920655,2.180328,2.691373,1.166817,1.669122,2.381143,0.907798,1.665569,2.671181,1.114903,2.183879,2.470913
284,2.366667,1.180055,2.185234,2.401541,0.920661,2.180417,2.691337,1.166764,1.669132,2.381189,0.907694,1.665659,2.671185,1.114947,2.183909,2.470909
285,2.375000,1.180018,2.185232,2.401530,0.920676,2.180342,2.691370,1.166812,1.669131,2.381127,0.907794,1.665584,2.671167,1.114923,2.183889,2.470909
286,2.383333,1.180030,2.185226,2.401534,0.920687,2.180332,2.691374,1.166830,1.669124,2.381131,0.907812,1.665573,2.671171,1.114935,2.183881,2.470914
287,2.391667,1.180030,2.185234,2.401531,0.920688,2.180349,2.691371,1.166831,1.669131,2.381146,0.907813,1.665590,2.671186,1.114935,2.183892,2.470911
288,2.400000,1.180056,2.185229,2.401538,0.920708,2.180342,2.691374,1.166844,1.669127,2.381137,0.907821,1.665584,2.671173,1.114959,2.183886,2.470917
289,2.408333,1.180103,2.185230,2.401550,0.920722,2.180417,2.691356,1.166776,1.669130,2.381173,0.907719,1.665661,2.671180,1.114999,2.183906,2.470921
290,2.416667,1.180114,2.185235,2.401557,0.920725,2.180416,2.691356,1.166794,1.669135,2.381176,0.907729,1.665660,2.671175,1.115008,2.183909,2.470926
291,2.425000,1.180076,2.185227,2.401552,0.920737,2.180343,2.691395,1.166854,1.669126,2.381147,0.907839,1.665585,2.671190,1.114982,2.183885,2.470932
292,2.433333,1.180094,2.185228,2.401565,0.920747,2.180347,2.691401,1.166878,1.669126,2.381171,0.907856,1.665589,2.671207,1.114998,2.183887,2.470944
293,2.441667,1.180148,2.185230,2.401579,0.920749,2.180425,2.691370,1.166814,1.669130,2.381209,0.907738,1.665669,2.671200,1.115039,2.183908,2.470946
294,2.450000,1.180114,2.185235,2.401577,0.920767,2.180365,2.691413,1.166858,1.669135,2.381165,0.907836,1.665608,2.671201,1.115018,2.183897,2.470955
295,2.458333,1.180121,2.185231,2.401587,0.920773,2.180351,2.691422,1.166885,1.669131,2.381175,0.907860,1.665594,2.671210,1.115025,2.183890,2.470966
296,2.466667,1.180128,2.185227,2.401593,0.920784,2.180350,2.691432,1.166880,1.669127,2.381176,0.907860,1.665593,2.671214,1.115032,2.183887,2.470972
297,2.475000,1.180136,2.185229,2.401603,0.920791,2.180345,2.691440,1.166905,1.669128,2.381189,0.907883,1.665587,2.671226,1.115040,2.183887,2.470982
298,2.483333,1.180187,2.185235,2.401624,0.920799,2.180425,2.691423,1.166845,1.669136,2.381237,0.907781,1.665669,2.671237,1.115081,2.183912,2.470993
299,2.491667,1.180187,2.185239,2.401629,0.920790,2.180430,2.691422,1.166839,1.669141,2.381238,0.907767,1.665674,2.671231,1.115078,2.183916,2.470997
300,2.500000,1.180145,2.185230,2.401625,0.920808,2.180351,2.691469,1.166897,1.669130,2.381205,0.907883,1.665594,2.671249,1.115051,2.183890,2.471005
301,2.508333,1.180183,2.185255,2.401646,0.920775,2.180450,2.691428,1.166793,1.669159,2.381223,0.907709,1.665697,2.671206,1.115072,2.183933,2.471011
302,2.516667,1.180188,2.185259,2.401662,0.920769,2.180443,2.691435,1.166798,1.669164,2.381219,0.907704,1.665691,2.671192,1.115074,2.183935,2.471025
303,2.525000,1.180190,2.185256,2.401665,0.920778,2.180447,2.691444,1.166796,1.669160,2.381232,0.907708,1.665694,2.671211,1.115078,2.183933,2.471029
304,2.533333,1.180160,2.185239,2.401668,0.920820,2.180353,2.691509,1.166916,1.669139,2.381239,0.907899,1.665596,2.671280,1.115065,2.183897,2.471048
305,2.541667,1.180189,2.185266,2.401684,0.920777,2.180442,2.691463,1.166806,1.669171,2.381235,0.907718,1.665690,2.671213,1.115077,2.183940,2.471048
306,2.550000,1.180200,2.185274,2.401705,0.920782,2.180443,2.691478,1.166812,1.669180,2.381238,0.907718,1.665692,2.671211,1.115087,2.183946,2.471067
307,2.558333,1.180191,2.185266,2.401706,0.920785,2.180432,2.691491,1.166809,1.669172,2.381239,0.907727,1.665681,2.671223,1.115081,2.183938,2.471072
308,2.566667,1.180198,2.185261,2.401718,0.920784,2.180434,2.691496,1.166805,1.669166,2.381256,0.907716,1.665683,2.671234,1.115085,2.183934,2.471082
309,2.575000,1.180192,2.185262,2.401723,0.920784,2.180430,2.691505,1.166795,1.669168,2.381248,0.907712,1.665679,2.671230,1.115081,2.183933,2.471088
310,2.583333,1.180187,2.185261,2.401728,0.920781,2.180426,2.691511,1.166805,1.669166,2.381261,0.907723,1.665675,2.671244,1.115077,2.183932,2.471093
311,2.591667,1.180177,2.185265,2.401736,0.920769,2.180424,2.691518,1.166807,1.669170,2.381269,0.907724,1.665673,2.671252,1.115066,2.183934,2.471101
312,2.600000,1.180156,2.185240,2.401726,0.920823,2.180341,2.691575,1.166900,1.669142,2.381266,0.907891,1.665586,2.671314,1.115063,2.183894,2.471108
313,2.608333,1.180174,2.185269,2.401745,0.920762,2.180425,2.691523,1.166794,1.669175,2.381262,0.907706,1.665674,2.671240,1.115062,2.183938,2.471109
314,2.616667,1.180170,2.185270,2.401748,0.920769,2.180419,2.691536,1.166801,1.669176,2.381264,0.907724,1.665668,2.671252,1.115061,2.183937,2.471114
315,2.625000,1.180159,2.185273,2.401757,0.920757,2.180427,2.691543,1.166779,1.669179,2.381273,0.907701,1.665676,2.671259,1.115050,2.183941,2.471123
316,2.633333,1.180155,2.185282,2.401766,0.920748,2.180429,2.691549,1.166777,1.669188,2.381270,0.907694,1.665679,2.671253,1.115044,2.183949,2.471131
317,2.641667,1.180152,2.185277,2.401767,0.920749,2.180420,2.691553,1.166780,1.669183,2.381271,0.907701,1.665670,2.671257,1.115042,2.183942,2.471133
318,2.650000,1.180114,2.185252,2.401758,0.920777,2.180328,2.691602,1.166892,1.669154,2.381282,0.907878,1.665573,2.671326,1.115020,2.183901,2.471138
319,2.658333,1.180140,2.185277,2.401774,0.920731,2.180424,2.691555,1.166769,1.669183,2.381285,0.907684,1.665673,2.671266,1.115029,2.183943,2.471138
320,2.666667,1.180104,2.185261,2.401768,0.920765,2.180334,2.691610,1.166888,1.669163,2.381291,0.907873,1.665578,2.671334,1.115010,2.183909,2.471148
321,2.675000,1.180117,2.185285,2.401779,0.920711,2.180418,2.691562,1.166770,1.669190,2.381285,0.907688,1.665666,2.671269,1.115006,2.183948,2.471144
322,2.683333,1.180088,2.185255,2.401772,0.920746,2.180325,2.691613,1.166866,1.669157,2.381286,0.907848,1.665570,2.671326,1.114993,2.183902,2.471152
323,2.691667,1.180106,2.185286,2.401783,0.920689,2.180417,2.691557,1.166762,1.669192,2.381287,0.907669,1.665665,2.671261,1.114992,2.183949,2.471146
324,2.700000,1.180066,2.185259,2.401769,0.920729,2.180321,2.691613,1.166852,1.669161,2.381276,0.907839,1.665566,2.671319,1.114972,2.183904,2.471150
325,2.708333,1.180075,2.185284,2.401775,0.920670,2.180409,2.691560,1.166739,1.669190,2.381278,0.907658,1.665658,2.671263,1.114965,2.183945,2.471141
326,2.716667,1.180043,2.185260,2.401768,0.920701,2.180321,2.691607,1.166842,1.669161,2.381286,0.907824,1.665566,2.671325,1.114948,2.183905,2.471147
327,2.725000,1.180066,2.185284,2.401772,0.920655,2.180410,2.691550,1.166726,1.669190,2.381271,0.907639,1.665658,2.671250,1.114954,2.183945,2.471136
328,2.733333,1.180072,2.185263,2.401761,0.920695,2.180393,2.691570,1.166772,1.669166,2.381306,0.907718,1.665639,2.671315,1.114968,2.183925,2.471132
329,2.741667,1.180013,2.185258,2.401746,0.920677,2.180324,2.691592,1.166807,1.669160,2.381267,0.907796,1.665568,2.671312,1.114919,2.183904,2.471127
330,2.750000,1.180004,2.185262,2.401742,0.920672,2.180316,2.691590,1.166822,1.669162,2.381264,0.907814,1.665560,2.671312,1.114911,2.183905,2.471123
331,2.758333,1.180036,2.185270,2.401749,0.920653,2.180401,2.691553,1.166742,1.669172,2.381303,0.907683,1.665647,2.671306,1.114931,2.183932,2.471120
332,2.766667,1.179983,2.185266,2.401732,0.920645,2.180324,2.691575,1.166792,1.669167,2.381252,0.907778,1.665568,2.671295,1.114889,2.183910,2.471112
333,2.775000,1.180013,2.185268,2.401732,0.920628,2.180394,2.691533,1.166734,1.669169,2.381289,0.907672,1.665639,2.671291,1.114908,2.183929,2.471102
334,2.783333,1.179963,2.185264,2.401720,0.920625,2.180318,2.691563,1.166791,1.669164,2.381250,0.907777,1.665561,2.671292,1.114869,2.183907,2.471101
335,2.791667,1.179951,2.185262,2.401708,0.920612,2.180316,2.691550,1.166793,1.669161,2.381251,0.907778,1.665559,2.671292,1.114857,2.183905,2.471088
336,2.800000,1.179952,2.185265,2.401702,0.920603,2.180312,2.691534,1.166805,1.669165,2.381239,0.907780,1.665554,2.671272,1.114855,2.183907,2.471079
337,2.808333,1.179941,2.185261,2.401696,0.920602,2.180315,2.691538,1.166781,1.669160,2.381236,0.907765,1.665557,2.671278,1.114847,2.183903,2.471076
338,2.816667,1.179940,2.185266,2.401685,0.920596,2.180315,2.691522,1.166794,1.669165,2.381229,0.907774,1.665558,2.671267,1.114844,2.183908,2.471064
339,2.825000,1.179942,2.185264,2.401680,0.920595,2.180317,2.691515,1.166782,1.669163,2.381218,0.907759,1.665560,2.671253,1.114846,2.183907,2.471058
340,2.833333,1.179925,2.185254,2.401671,0.920582,2.180303,2.691510,1.166787,1.669152,2.381222,0.907768,1.665544,2.671261,1.114830,2.183895,2.471051
341,2.841667,1.179921,2.185258,2.401665,0.920578,2.180313,2.691504,1.166765,1.669158,2.381210,0.907746,1.665555,2.671249,1.114825,2.183901,2.471045
342,2.850000,1.179924,2.185262,2.401656,0.920589,2.180316,2.691502,1.166776,1.669161,2.381208,0.907765,1.665558,2.671253,1.114830,2.183905,2.471037
343,2.858333,1.179924,2.185256,2.401650,0.920579,2.180315,2.691486,1.166772,1.669155,2.381205,0.907750,1.665557,2.671242,1.114828,2.183901,2.471028
344,2.866667,1.179924,2.185250,2.401641,0.920580,2.180313,2.691478,1.166771,1.669148,2.381203,0.907750,1.665555,2.671240,1.114829,2.183895,2.471020
345,2.875000,1.179927,2.185258,2.401633,0.920578,2.180321,2.691466,1.166780,1.669156,2.381199,0.907754,1.665562,2.671232,1.114830,2.183903,2.471011
346,2.883333,1.179926,2.185249,2.401635,0.920580,2.180314,2.691471,1.166769,1.669148,2.381197,0.907747,1.665555,2.671233,1.114830,2.183895,2.471014
347,2.891667,1.179923,2.185247,2.401615,0.920592,2.180315,2.691465,1.166771,1.669145,2.381190,0.907764,1.665557,2.671239,1.114830,2.183893,2.470997
348,2.900000,1.179920,2.185246,2.401606,0.920584,2.180313,2.691452,1.166772,1.669144,2.381180,0.907760,1.665554,2.671225,1.114826,2.183892,2.470987
349,2.908333,1.179917,2.185256,2.401599,0.920575,2.180324,2.691438,1.166765,1.669154,2.381170,0.907747,1.665565,2.671209,1.114822,2.183902,2.470978
350,2.916667,1.179977,2.185252,2.401597,0.920600,2.180405,2.691407,1.166706,1.669152,2.381209,0.907654,1.665647,2.671219,1.114873,2.183920,2.470969
351,2.925000,1.179936,2.185249,2.401597,0.920596,2.180331,2.691438,1.166761,1.669147,2.381173,0.907745,1.665572,2.671215,1.114841,2.183899,2.470977
352,2.933333,1.179948,2.185245,2.401582,0.920600,2.180322,2.691416,1.166788,1.669143,2.381162,0.907764,1.665564,2.671196,1.114852,2.183894,2.470960
353,2.941667,1.179945,2.185248,2.401579,0.920609,2.180328,2.691424,1.166790,1.669145,2.381169,0.907777,1.665568,2.671214,1.114851,2.183897,2.470960
354,2.950000,1.179959,2.185234,2.401581,0.920618,2.180325,2.691422,1.166780,1.669132,2.381168,0.907763,1.665566,2.671210,1.114864,2.183886,2.470960
355,2.958333,1.179958,2.185238,2.401578,0.920619,2.180327,2.691421,1.166782,1.669136,2.381166,0.907767,1.665568,2.671209,1.114863,2.183889,2.470958
356,2.966667,1.179971,2.185237,2.401577,0.920624,2.180324,2.691412,1.166794,1.669135,2.381160,0.907770,1.665565,2.671195,1.114875,2.183888,2.470955
357,2.975000,1.179978,2.185239,2.401570,0.920638,2.180329,2.691411,1.166809,1.669137,2.381166,0.907792,1.665570,2.671206,1.114884,2.183891,2.470950
358,2.983333,1.179994,2.185234,2.401570,0.920647,2.180331,2.691406,1.166814,1.669131,2.381168,0.907791,1.665572,2.671204,1.114897,2.183887,2.470948
359,2.991667,1.179990,2.185231,2.401563,0.920652,2.180325,2.691406,1.166819,1.669128,2.381164,0.907804,1.665565,2.671207,1.114896,2.183883,2.470943
360,3.000000,1.180006,2.185236,2.401568,0.920667,2.180328,2.691411,1.166822,1.669134,2.381155,0.907807,1.665570,2.671198,1.114912,2.183888,2.470949
361,3.008333,1.180019,2.185234,2.401573,0.920669,2.180331,2.691406,1.166841,1.669132,2.381172,0.907815,1.665572,2.671205,1.114922,2.183887,2.470951
362,3.016667,1.180021,2.185238,2.401566,0.920683,2.180336,2.691410,1.166833,1.669136,2.381160,0.907819,1.665577,2.671203,1.114927,2.183892,2.470947
363,3.025000,1.180032,2.185228,2.401573,0.920688,2.180325,2.691412,1.166848,1.669126,2.381169,0.907829,1.665566,2.671208,1.114936,2.183881,2.470952
364,3.033333,1.180032,2.185233,2.401573,0.920699,2.180330,2.691422,1.166849,1.669131,2.381170,0.907840,1.665571,2.671218,1.114939,2.183887,2.470955
365,3.041667,1.180034,2.185239,2.401573,0.920699,2.180336,2.691419,1.166832,1.669138,2.381153,0.907821,1.665578,2.671199,1.114940,2.183893,2.470954
366,3.050000,1.180057,2.185236,2.401582,0.920714,2.180337,2.691421,1.166864,1.669135,2.381176,0.907845,1.665579,2.671214,1.114962,2.183891,2.470961
367,3.058333,1.180069,2.185227,2.401585,0.920724,2.180336,2.691422,1.166862,1.669125,2.381181,0.907841,1.665577,2.671218,1.114973,2.183883,2.470963
368,3.066667,1.180069,2.185240,2.401573,0.920737,2.180351,2.691422,1.166851,1.669138,2.381165,0.907843,1.665594,2.671214,1.114976,2.183897,2.470954
369,3.075000,1.180092,2.185230,2.401593,0.920753,2.180336,2.691437,1.166869,1.669130,2.381171,0.907855,1.665579,2.671214,1.114998,2.183886,2.470974
370,3.083333,1.180106,2.185225,2.401597,0.920762,2.180334,2.691436,1.166891,1.669124,2.381186,0.907871,1.665576,2.671225,1.115010,2.183882,2.470976
371,3.091667,1.180112,2.185225,2.401615,0.920767,2.180331,2.691453,1.166889,1.669124,2.381192,0.907869,1.665574,2.671230,1.115016,2.183881,2.470994
372,3.100000,1.180118,2.185228,2.401612,0.920774,2.180338,2.691451,1.166900,1.669127,2.381201,0.907880,1.665580,2.671240,1.115022,2.183884,2.470991
373,3.108333,1.180127,2.185227,2.401618,0.920781,2.180339,2.691454,1.166892,1.669127,2.381193,0.907869,1.665582,2.671229,1.115031,2.183885,2.470997
374,3.116667,1.180187,2.185226,2.401637,0.920797,2.180416,2.691435,1.166833,1.669128,2.381241,0.907767,1.665661,2.671239,1.115080,2.183903,2.471006
375,3.125000,1.180174,2.185250,2.401646,0.920764,2.180434,2.691427,1.166776,1.669155,2.381196,0.907690,1.665682,2.671176,1.115063,2.183926,2.471011
376,3.133333,1.180193,2.185229,2.401648,0.920805,2.180416,2.691448,1.166843,1.669130,2.381250,0.907779,1.665661,2.671250,1.115087,2.183905,2.471017
377,3.141667,1.180148,2.185229,2.401641,0.920813,2.180341,2.691487,1.166900,1.669129,2.381207,0.907888,1.665585,2.671253,1.115055,2.183886,2.471022
378,3.150000,1.180157,2.185222,2.401651,0.920817,2.180332,2.691493,1.166906,1.669123,2.381208,0.907890,1.665576,2.671250,1.115062,2.183879,2.471031
379,3.158333,1.180160,2.185226,2.401662,0.920815,2.180332,2.691500,1.166921,1.669127,2.381224,0.907900,1.665575,2.671261,1.115064,2.183882,2.471041
380,3.166667,1.180198,2.185251,2.401675,0.920788,2.180433,2.691456,1.166800,1.669157,2.381222,0.907715,1.665681,2.671203,1.115087,2.183926,2.471040
381,3.175000,1.180190,2.185253,2.401689,0.920779,2.180432,2.691468,1.166798,1.669159,2.381235,0.907711,1.665680,2.671214,1.115078,2.183928,2.471053
382,3.183333,1.180200,2.185259,2.401694,0.920787,2.180436,2.691472,1.166806,1.669164,2.381236,0.907717,1.665684,2.671214,1.115088,2.183933,2.471058
383,3.191667,1.180218,2.185230,2.401694,0.920835,2.180416,2.691499,1.166865,1.669132,2.381292,0.907806,1.665661,2.671296,1.115113,2.183906,2.471064
384,3.200000,1.180206,2.185256,2.401699,0.920797,2.180439,2.691481,1.166804,1.669162,2.381244,0.907720,1.665687,2.671226,1.115095,2.183931,2.471064
385,3.208333,1.180205,2.185261,2.401718,0.920788,2.180429,2.691493,1.166811,1.669167,2.381243,0.907718,1.665678,2.671217,1.115092,2.183933,2.471081
386,3.216667,1.180194,2.185255,2.401718,0.920783,2.180429,2.691497,1.166801,1.669161,2.381254,0.907713,1.665677,2.671233,1.115083,2.183928,2.471082
387,3.225000,1.180165,2.185236,2.401721,0.920822,2.180339,2.691561,1.166903,1.669138,2.381258,0.907884,1.665584,2.671297,1.115069,2.183891,2.471100
388,3.233333,1.180171,2.185230,2.401728,0.920829,2.180331,2.691569,1.166920,1.669132,2.381271,0.907902,1.665576,2.671312,1.115076,2.183885,2.471108
389,3.241667,1.180200,2.185257,2.401727,0.920798,2.180433,2.691515,1.166802,1.669163,2.381265,0.907725,1.665682,2.671253,1.115090,2.183931,2.471093
390,3.250000,1.180191,2.185260,2.401749,0.920776,2.180423,2.691525,1.166802,1.669166,2.381271,0.907711,1.665672,2.671246,1.115078,2.183931,2.471112
391,3.258333,1.180180,2.185261,2.401745,0.920775,2.180428,2.691530,1.166786,1.669167,2.381271,0.907705,1.665678,2.671256,1.115070,2.183932,2.471111
392,3.266667,1.180154,2.185237,2.401733,0.920816,2.180337,2.691577,1.166898,1.669139,2.381269,0.907884,1.665582,2.671313,1.115060,2.183892,2.471113
393,3.275000,1.180171,2.185268,2.401759,0.920751,2.180426,2.691530,1.166798,1.669173,2.381285,0.907702,1.665675,2.671256,1.115057,2.183937,2.471121
394,3.283333,1.180174,2.185249,2.401758,0.920792,2.180399,2.691562,1.166840,1.669152,2.381309,0.907781,1.665646,2.671313,1.115070,2.183916,2.471128
395,3.291667,1.180164,2.185271,2.401763,0.920750,2.180425,2.691540,1.166782,1.669177,2.381275,0.907692,1.665674,2.671252,1.115052,2.183939,2.471127
396,3.300000,1.180154,2.185266,2.401760,0.920742,2.180427,2.691538,1.166774,1.669172,2.381286,0.907686,1.665676,2.671264,1.115042,2.183936,2.471124
397,3.308333,1.180116,2.185250,2.401752,0.920768,2.180338,2.691587,1.166875,1.669152,2.381279,0.907851,1.665583,2.671314,1.115019,2.183902,2.471130
398,3.316667,1.180140,2.185274,2.401762,0.920728,2.180423,2.691540,1.166774,1.669180,2.381279,0.907686,1.665672,2.671257,1.115029,2.183941,2.471126
399,3.325000,1.180141,2.185255,2.401757,0.920764,2.180404,2.691567,1.166816,1.669158,2.381315,0.907763,1.665651,2.671325,1.115037,2.183922,2.471129
400,3.333333,1.180104,2.185253,2.401760,0.920750,2.180341,2.691590,1.166861,1.669156,2.381284,0.907832,1.665586,2.671314,1.115006,2.183905,2.471137
401,3.341667,1.180123,2.185257,2.401761,0.920738,2.180404,2.691562,1.166802,1.669160,2.381317,0.907741,1.665650,2.671319,1.115018,2.183923,2.471130
402,3.350000,1.180115,2.185259,2.401762,0.920725,2.180410,2.691561,1.166805,1.669161,2.381335,0.907739,1.665655,2.671334,1.115008,2.183926,2.471132
403,3.358333,1.180063,2.185259,2.401744,0.920725,2.180334,2.691588,1.166843,1.669160,2.381269,0.907829,1.665579,2.671312,1.114969,2.183907,2.471125
404,3.366667,1.180080,2.185279,2.401758,0.920671,2.180409,2.691540,1.166737,1.669185,2.381263,0.907653,1.665657,2.671244,1.114969,2.183941,2.471123
405,3.375000,1.180079,2.185260,2.401752,0.920702,2.180403,2.691561,1.166771,1.669163,2.381313,0.907718,1.665648,2.671323,1.114976,2.183925,2.471123
406,3.383333,1.180036,2.185258,2.401742,0.920688,2.180326,2.691577,1.166835,1.669159,2.381271,0.907812,1.665570,2.671306,1.114939,2.183904,2.471121
407,3.391667,1.180019,2.185259,2.401736,0.920677,2.180322,2.691576,1.166828,1.669159,2.381265,0.907809,1.665566,2.671305,1.114924,2.183904,2.471116
408,3.400000,1.180063,2.185261,2.401739,0.920673,2.180397,2.691537,1.166766,1.669163,2.381297,0.907701,1.665642,2.671295,1.114956,2.183924,2.471108
409,3.408333,1.180011,2.185260,2.401729,0.920665,2.180320,2.691566,1.166820,1.669161,2.381252,0.907798,1.665564,2.671288,1.114915,2.183904,2.471108
410,3.416667,1.180035,2.185263,2.401731,0.920655,2.180400,2.691538,1.166742,1.669164,2.381296,0.907687,1.665645,2.671304,1.114931,2.183926,2.471102
411,3.425000,1.180029,2.185259,2.401721,0.920643,2.180404,2.691522,1.166734,1.669161,2.381298,0.907673,1.665649,2.671299,1.114923,2.183925,2.471090
412,3.433333,1.180010,2.185275,2.401723,0.920597,2.180400,2.691500,1.166712,1.669178,2.381258,0.907623,1.665647,2.671235,1.114898,2.183936,2.471087
413,3.441667,1.179978,2.185259,2.401706,0.920627,2.180322,2.691538,1.166792,1.669159,2.381239,0.907765,1.665566,2.671271,1.114881,2.183904,2.471084
414,3.450000,1.179963,2.185254,2.401691,0.920626,2.180314,2.691535,1.166797,1.669153,2.381238,0.907784,1.665557,2.671282,1.114869,2.183898,2.471072
415,3.458333,1.179959,2.185249,2.401693,0.920619,2.180307,2.691534,1.166794,1.669149,2.381235,0.907777,1.665550,2.671276,1.114864,2.183893,2.471073
416,3.466667,1.179955,2.185251,2.401684,0.920615,2.180309,2.691525,1.166796,1.669150,2.381232,0.907780,1.665551,2.671273,1.114860,2.183895,2.471064
417,3.475000,1.179945,2.185259,2.401680,0.920604,2.180320,2.691521,1.166778,1.669158,2.381226,0.907762,1.665562,2.671267,1.114850,2.183904,2.471060
418,3.483333,1.179937,2.185255,2.401668,0.920602,2.180316,2.691514,1.166777,1.669154,2.381220,0.907766,1.665558,2.671266,1.114844,2.183900,2.471049
419,3.491667,1.179944,2.185250,2.401668,0.920592,2.180312,2.691499,1.166781,1.669149,2.381219,0.907753,1.665554,2.671250,1.114846,2.183895,2.471045
420,3.500000,1.179933,2.185252,2.401654,0.920597,2.180310,2.691498,1.166789,1.669150,2.381216,0.907776,1.665551,2.671260,1.114840,2.183896,2.471034
421,3.508333,1.179936,2.185248,2.401642,0.920593,2.180321,2.691481,1.166769,1.669146,2.381209,0.907750,1.665563,2.671248,1.114841,2.183896,2.471021
422,3.516667,1.179975,2.185250,2.401643,0.920593,2.180401,2.691447,1.166707,1.669150,2.381253,0.907648,1.665643,2.671258,1.114870,2.183917,2.471013
423,3.525000,1.179927,2.185253,2.401633,0.920585,2.180326,2.691472,1.166770,1.669151,2.381209,0.907752,1.665567,2.671248,1.114832,2.183900,2.471012
424,3.533333,1.179929,2.185254,2.401632,0.920586,2.180317,2.691470,1.166774,1.669152,2.381192,0.907755,1.665559,2.671231,1.114833,2.183899,2.471011
425,3.541667,1.179971,2.185246,2.401625,0.920591,2.180401,2.691432,1.166689,1.669146,2.381231,0.907633,1.665644,2.671237,1.114867,2.183914,2.470996
426,3.550000,1.179920,2.185248,2.401616,0.920579,2.180317,2.691456,1.166763,1.669146,2.381186,0.907746,1.665558,2.671226,1.114826,2.183894,2.470995
427,3.558333,1.179923,2.185244,2.401605,0.920587,2.180316,2.691450,1.166766,1.669142,2.381181,0.907753,1.665557,2.671226,1.114829,2.183891,2.470986
428,3.566667,1.179931,2.185243,2.401611,0.920588,2.180320,2.691450,1.166760,1.669141,2.381182,0.907741,1.665561,2.671221,1.114836,2.183892,2.470990
429,3.575000,1.179924,2.185247,2.401602,0.920589,2.180321,2.691447,1.166765,1.669145,2.381180,0.907754,1.665562,2.671225,1.114830,2.183895,2.470982
430,3.583333,1.179928,2.185240,2.401601,0.920597,2.180310,2.691450,1.166778,1.669137,2.381180,0.907770,1.665551,2.671229,1.114836,2.183886,2.470983
431,3.591667,1.179935,2.185241,2.401592,0.920596,2.180322,2.691434,1.166766,1.669139,2.381173,0.907750,1.665564,2.671215,1.114841,2.183891,2.470972
432,3.600000,1.179938,2.185241,2.401594,0.920587,2.180320,2.691426,1.166782,1.669138,2.381181,0.907755,1.665561,2.671213,1.114841,2.183890,2.470972
433,3.608333,1.179942,2.185240,2.401587,0.920603,2.180320,2.691429,1.166783,1.669137,2.381174,0.907767,1.665561,2.671216,1.114848,2.183889,2.470967
434,3.616667,1.179948,2.185244,2.401587,0.920611,2.180325,2.691432,1.166776,1.669142,2.381166,0.907763,1.665566,2.671211,1.114854,2.183893,2.470968
435,3.625000,1.179957,2.185234,2.401585,0.920611,2.180319,2.691421,1.166791,1.669132,2.381174,0.907769,1.665560,2.671210,1.114861,2.183884,2.470963
436,3.633333,1.179968,2.185236,2.401587,0.920624,2.180323,2.691424,1.166788,1.669134,2.381168,0.907768,1.665565,2.671206,1.114872,2.183887,2.470966
437,3.641667,1.179999,2.185253,2.401599,0.920581,2.180413,2.691372,1.166672,1.669156,2.381171,0.907578,1.665659,2.671144,1.114886,2.183923,2.470962
438,3.650000,1.179976,2.185239,2.401579,0.920633,2.180334,2.691418,1.166791,1.669137,2.381171,0.907772,1.665576,2.671209,1.114881,2.183892,2.470958
439,3.658333,1.180010,2.185257,2.401593,0.920595,2.180417,2.691368,1.166684,1.669160,2.381163,0.907592,1.665662,2.671139,1.114898,2.183927,2.470956
440,3.666667,1.179991,2.185233,2.401577,0.920652,2.180329,2.691419,1.166796,1.669132,2.381161,0.907780,1.665571,2.671203,1.114897,2.183886,2.470957
441,3.675000,1.180000,2.185229,2.401575,0.920658,2.180325,2.691415,1.166819,1.669127,2.381171,0.907801,1.665566,2.671211,1.114905,2.183882,2.470955
442,3.683333,1.180016,2.185230,2.401590,0.920673,2.180337,2.691430,1.166809,1.669129,2.381182,0.907790,1.665579,2.671221,1.114920,2.183886,2.470970
443,3.691667,1.180017,2.185237,2.401588,0.920681,2.180333,2.691434,1.166816,1.669136,2.381169,0.907805,1.665576,2.671214,1.114923,2.183890,2.470969
444,3.700000,1.180031,2.185232,2.401590,0.920686,2.180334,2.691427,1.166828,1.669130,2.381176,0.907807,1.665576,2.671213,1.114936,2.183886,2.470968
445,3.708333,1.180038,2.185233,2.401598,0.920694,2.180332,2.691437,1.166830,1.669132,2.381177,0.907810,1.665575,2.671216,1.114942,2.183887,2.470978
446,3.716667,1.180073,2.185253,2.401607,0.920657,2.180430,2.691382,1.166723,1.669155,2.381188,0.907632,1.665676,2.671164,1.114960,2.183926,2.470970
447,3.725000,1.180047,2.185231,2.401603,0.920698,2.180333,2.691436,1.166850,1.669130,2.381193,0.907825,1.665575,2.671227,1.114951,2.183886,2.470980
448,3.733333,1.180055,2.185230,2.401606,0.920727,2.180332,2.691459,1.166853,1.669129,2.381195,0.907850,1.665574,2.671248,1.114963,2.183885,2.470989
449,3.741667,1.180071,2.185234,2.401606,0.920736,2.180333,2.691453,1.166859,1.669134,2.381180,0.907849,1.665576,2.671227,1.114978,2.183888,2.470987
450,3.750000,1.180101,2.185255,2.401622,0.920693,2.180427,2.691404,1.166754,1.669158,2.381197,0.907670,1.665673,2.671179,1.114990,2.183927,2.470987
451,3.758333,1.180105,2.185255,2.401631,0.920689,2.180427,2.691406,1.166747,1.669158,2.381197,0.907656,1.665673,2.671172,1.114992,2.183927,2.470994
452,3.766667,1.180084,2.185230,2.401619,0.920736,2.180342,2.691454,1.166864,1.669129,2.381208,0.907840,1.665584,2.671243,1.114988,2.183887,2.470998
453,3.775000,1.180127,2.185253,2.401642,0.920719,2.180433,2.691424,1.166750,1.669157,2.381204,0.907666,1.665680,2.671186,1.115016,2.183928,2.471007
454,3.783333,1.180142,2.185251,2.401647,0.920729,2.180429,2.691424,1.166786,1.669154,2.381224,0.907697,1.665675,2.671202,1.115029,2.183925,2.471010
455,3.791667,1.180148,2.185233,2.401652,0.920769,2.180407,2.691460,1.166827,1.669134,2.381257,0.907772,1.665651,2.671264,1.115044,2.183906,2.471024
456,3.800000,1.180140,2.185251,2.401654,0.920730,2.180434,2.691434,1.166754,1.669155,2.381215,0.907668,1.665682,2.671195,1.115029,2.183926,2.471019
457,3.808333,1.180151,2.185259,2.401663,0.920743,2.180430,2.691446,1.166772,1.669163,2.381210,0.907689,1.665678,2.671193,1.115040,2.183931,2.471028
458,3.816667,1.180162,2.185255,2.401672,0.920749,2.180430,2.691449,1.166775,1.669160,2.381216,0.907687,1.665678,2.671193,1.115050,2.183928,2.471036
459,3.825000,1.180166,2.185235,2.401669,0.920788,2.180408,2.691479,1.166835,1.669137,2.381264,0.907781,1.665653,2.671273,1.115062,2.183908,2.471041
460,3.833333,1.180129,2.185241,2.401672,0.920788,2.180344,2.691513,1.166885,1.669143,2.381223,0.907869,1.665588,2.671264,1.115034,2.183897,2.471052
461,3.841667,1.180135,2.185238,2.401682,0.920788,2.180337,2.691518,1.166889,1.669140,2.381226,0.907866,1.665582,2.671262,1.115038,2.183892,2.471061
462,3.850000,1.180164,2.185260,2.401688,0.920756,2.180432,2.691470,1.166778,1.669165,2.381229,0.907694,1.665680,2.671211,1.115053,2.183932,2.471053
463,3.858333,1.180161,2.185255,2.401690,0.920749,2.180432,2.691469,1.166781,1.669159,2.381245,0.907693,1.665680,2.671224,1.115049,2.183929,2.471055
464,3.866667,1.180165,2.185251,2.401708,0.920756,2.180423,2.691489,1.166794,1.669156,2.381262,0.907709,1.665671,2.671243,1.115054,2.183924,2.471072
465,3.875000,1.180150,2.185264,2.401700,0.920744,2.180432,2.691484,1.166765,1.669169,2.381236,0.907684,1.665680,2.671220,1.115040,2.183935,2.471066
466,3.883333,1.180156,2.185263,2.401717,0.920743,2.180425,2.691495,1.166776,1.669169,2.381245,0.907688,1.665674,2.671223,1.115044,2.183933,2.471081
467,3.891667,1.180153,2.185261,2.401704,0.920746,2.180431,2.691487,1.166779,1.669166,2.381253,0.907697,1.665679,2.671236,1.115042,2.183933,2.471069
468,3.900000,1.180153,2.185256,2.401716,0.920749,2.180426,2.691502,1.166762,1.669162,2.381248,0.907682,1.665674,2.671234,1.115043,2.183928,2.471082
469,3.908333,1.180147,2.185267,2.401721,0.920737,2.180428,2.691502,1.166773,1.669173,2.381253,0.907687,1.665676,2.671233,1.115035,2.183937,2.471086
470,3.916667,1.180143,2.185268,2.401723,0.920741,2.180428,2.691510,1.166763,1.669173,2.381248,0.907685,1.665677,2.671236,1.115034,2.183937,2.471089
471,3.925000,1.180144,2.185265,2.401725,0.920736,2.180427,2.691507,1.166763,1.669170,2.381254,0.907679,1.665676,2.671236,1.115033,2.183935,2.471090
472,3.933333,1.180136,2.185256,2.401729,0.920729,2.180416,2.691511,1.166762,1.669162,2.381258,0.907679,1.665664,2.671240,1.115025,2.183926,2.471094
473,3.941667,1.180127,2.185263,2.401727,0.920715,2.180422,2.691505,1.166757,1.669168,2.381258,0.907670,1.665670,2.671237,1.115015,2.183932,2.471091
474,3.950000,1.180121,2.185257,2.401727,0.920717,2.180417,2.691513,1.166751,1.669162,2.381262,0.907672,1.665665,2.671248,1.115011,2.183927,2.471093
475,3.958333,1.180133,2.185250,2.401728,0.920758,2.180401,2.691539,1.166803,1.669154,2.381284,0.907751,1.665647,2.671295,1.115030,2.183917,2.471101
476,3.966667,1.180113,2.185272,2.401734,0.920709,2.180420,2.691519,1.166752,1.669178,2.381255,0.907672,1.665668,2.671240,1.115003,2.183939,2.471100
477,3.975000,1.180074,2.185252,2.401725,0.920738,2.180331,2.691570,1.166853,1.669153,2.381255,0.907840,1.665575,2.671299,1.114981,2.183901,2.471106
478,3.983333,1.180108,2.185247,2.401730,0.920738,2.180399,2.691545,1.166775,1.669151,2.381286,0.907728,1.665645,2.671301,1.115006,2.183915,2.471103
479,3.991667,1.180095,2.185246,2.401729,0.920725,2.180397,2.691545,1.166782,1.669149,2.381301,0.907736,1.665642,2.671316,1.114993,2.183913,2.471102
480,4.000000,1.180053,2.185249,2.401731,0.920712,2.180331,2.691572,1.166826,1.669151,2.381260,0.907809,1.665576,2.671301,1.114958,2.183899,2.471111
481,4.008333,1.180077,2.185266,2.401738,0.920661,2.180409,2.691512,1.166732,1.669170,2.381263,0.907639,1.665657,2.671237,1.114964,2.183931,2.471101
482,4.016667,1.180084,2.185251,2.401726,0.920713,2.180398,2.691541,1.166764,1.669154,2.381284,0.907717,1.665643,2.671299,1.114982,2.183917,2.471099
483,4.025000,1.180036,2.185251,2.401722,0.920697,2.180324,2.691564,1.166822,1.669153,2.381247,0.907807,1.665569,2.671289,1.114941,2.183899,2.471102
484,4.033333,1.180071,2.185252,2.401726,0.920691,2.180389,2.691533,1.166771,1.669155,2.381284,0.907715,1.665634,2.671290,1.114967,2.183916,2.471097
485,4.041667,1.180012,2.185255,2.401718,0.920672,2.180320,2.691560,1.166805,1.669157,2.381235,0.907789,1.665565,2.671277,1.114918,2.183901,2.471098
486,4.050000,1.180057,2.185248,2.401725,0.920670,2.180399,2.691525,1.166736,1.669151,2.381288,0.907673,1.665645,2.671288,1.114951,2.183915,2.471094
487,4.058333,1.180033,2.185267,2.401722,0.920613,2.180408,2.691493,1.166691,1.669172,2.381244,0.907595,1.665655,2.671215,1.114920,2.183932,2.471084
488,4.066667,1.180035,2.185252,2.401717,0.920655,2.180395,2.691524,1.166726,1.669155,2.381277,0.907669,1.665640,2.671283,1.114931,2.183917,2.471088
489,4.075000,1.179988,2.185250,2.401700,0.920645,2.180317,2.691540,1.166791,1.669151,2.381231,0.907773,1.665561,2.671270,1.114892,2.183897,2.471079
490,4.083333,1.180017,2.185257,2.401699,0.920642,2.180390,2.691511,1.166730,1.669159,2.381262,0.907680,1.665635,2.671273,1.114914,2.183920,2.471071
491,4.091667,1.179971,2.185252,2.401693,0.920637,2.180316,2.691540,1.166788,1.669152,2.381231,0.907778,1.665559,2.671278,1.114877,2.183898,2.471074
492,4.100000,1.180007,2.185255,2.401692,0.920631,2.180386,2.691503,1.166717,1.669157,2.381249,0.907666,1.665631,2.671260,1.114903,2.183917,2.471065
493,4.108333,1.179954,2.185250,2.401680,0.920621,2.180317,2.691527,1.166767,1.669150,2.381221,0.907757,1.665561,2.671268,1.114861,2.183896,2.471061
494,4.116667,1.179956,2.185246,2.401681,0.920619,2.180315,2.691524,1.166769,1.669147,2.381222,0.907755,1.665558,2.671266,1.114862,2.183893,2.471061
495,4.125000,1.179950,2.185245,2.401668,0.920614,2.180313,2.691513,1.166757,1.669146,2.381203,0.907746,1.665556,2.671248,1.114856,2.183892,2.471048
496,4.133333,1.179988,2.185259,2.401669,0.920623,2.180398,2.691489,1.166681,1.669162,2.381227,0.907640,1.665644,2.671247,1.114887,2.183923,2.471044
497,4.141667,1.179959,2.185240,2.401665,0.920629,2.180326,2.691515,1.166757,1.669139,2.381226,0.907750,1.665569,2.671275,1.114867,2.183891,2.471047
498,4.150000,1.179984,2.185261,2.401670,0.920600,2.180392,2.691473,1.166701,1.669163,2.381232,0.907641,1.665637,2.671235,1.114879,2.183923,2.471040
499,4.158333,1.179943,2.185237,2.401652,0.920627,2.180322,2.691514,1.166755,1.669136,2.381225,0.907762,1.665564,2.671287,1.114854,2.183887,2.471037
500,4.166667,1.179926,2.185249,2.401649,0.920591,2.180312,2.691495,1.166759,1.669148,2.381200,0.907748,1.665554,2.671246,1.114833,2.183894,2.471030
501,4.175000,1.179929,2.185244,2.401644,0.920590,2.180315,2.691485,1.166751,1.669143,2.381198,0.907735,1.665558,2.671240,1.114834,2.183891,2.471024
502,4.183333,1.179929,2.185249,2.401638,0.920593,2.180320,2.691483,1.166756,1.669148,2.381197,0.907744,1.665562,2.671242,1.114835,2.183896,2.471019
503,4.191667,1.179933,2.185247,2.401639,0.920591,2.180318,2.691478,1.166764,1.669146,2.381202,0.907746,1.665560,2.671241,1.114838,2.183894,2.471018
504,4.200000,1.179927,2.185251,2.401628,0.920590,2.180319,2.691472,1.166765,1.669149,2.381191,0.907752,1.665560,2.671235,1.114833,2.183897,2.471008
505,4.208333,1.179927,2.185245,2.401629,0.920591,2.180319,2.691474,1.166759,1.669143,2.381200,0.907748,1.665561,2.671245,1.114833,2.183892,2.471010
506,4.216667,1.179934,2.185238,2.401630,0.920591,2.180309,2.691469,1.166762,1.669137,2.381191,0.907744,1.665552,2.671230,1.114838,2.183885,2.471009
507,4.225000,1.179940,2.185253,2.401630,0.920594,2.180324,2.691466,1.166767,1.669152,2.381189,0.907746,1.665566,2.671225,1.114844,2.183900,2.471009
508,4.233333,1.179946,2.185243,2.401622,0.920606,2.180317,2.691463,1.166775,1.669142,2.381187,0.907758,1.665559,2.671228,1.114852,2.183891,2.471002
509,4.241667,1.179941,2.185245,2.401625,0.920599,2.180315,2.691464,1.166776,1.669144,2.381188,0.907758,1.665556,2.671228,1.114846,2.183892,2.471004
510,4.250000,1.179977,2.185269,2.401634,0.920560,2.180419,2.691407,1.166657,1.669172,2.381192,0.907564,1.665665,2.671166,1.114864,2.183936,2.470996
511,4.258333,1.179944,2.185248,2.401618,0.920612,2.180329,2.691466,1.166762,1.669147,2.381188,0.907754,1.665571,2.671237,1.114851,2.183897,2.470999
512,4.266667,1.179959,2.185248,2.401619,0.920623,2.180316,2.691464,1.166791,1.669147,2.381178,0.907779,1.665558,2.671223,1.114865,2.183895,2.471000
513,4.275000,1.179959,2.185240,2.401608,0.920626,2.180311,2.691457,1.166796,1.669138,2.381177,0.907788,1.665552,2.671225,1.114866,2.183887,2.470990
514,4.283333,1.180009,2.185243,2.401621,0.920632,2.180395,2.691431,1.166722,1.669143,2.381219,0.907669,1.665639,2.671228,1.114905,2.183910,2.470993
515,4.291667,1.179968,2.185244,2.401614,0.920625,2.180330,2.691454,1.166782,1.669143,2.381188,0.907764,1.665572,2.671227,1.114873,2.183895,2.470994
516,4.300000,1.179980,2.185244,2.401611,0.920642,2.180326,2.691454,1.166803,1.669142,2.381186,0.907788,1.665568,2.671229,1.114886,2.183893,2.470991
517,4.308333,1.179984,2.185241,2.401607,0.920654,2.180319,2.691458,1.166798,1.669141,2.381169,0.907792,1.665562,2.671219,1.114892,2.183890,2.470989
518,4.316667,1.179992,2.185237,2.401616,0.920646,2.180319,2.691452,1.166813,1.669136,2.381189,0.907791,1.665561,2.671225,1.114896,2.183887,2.470994
519,4.325000,1.180004,2.185237,2.401608,0.920671,2.180325,2.691455,1.166819,1.669136,2.381187,0.907810,1.665567,2.671234,1.114911,2.183889,2.470989
520,4.333333,1.180012,2.185243,2.401611,0.920679,2.180327,2.691459,1.166823,1.669142,2.381181,0.907814,1.665569,2.671229,1.114919,2.183893,2.470993
521,4.341667,1.180022,2.185237,2.401613,0.920673,2.180325,2.691446,1.166842,1.669135,2.381194,0.907817,1.665566,2.671228,1.114925,2.183888,2.470990
522,4.350000,1.180065,2.185240,2.401622,0.920688,2.180405,2.691432,1.166770,1.669140,2.381237,0.907717,1.665648,2.671246,1.114961,2.183910,2.470994
523,4.358333,1.180035,2.185236,2.401613,0.920694,2.180334,2.691454,1.166823,1.669136,2.381184,0.907806,1.665576,2.671225,1.114940,2.183890,2.470993
524,4.366667,1.180084,2.185235,2.401626,0.920707,2.180403,2.691436,1.166775,1.669136,2.381232,0.907722,1.665647,2.671241,1.114980,2.183906,2.470998
525,4.375000,1.180052,2.185235,2.401616,0.920714,2.180332,2.691460,1.166844,1.669134,2.381190,0.907830,1.665574,2.671233,1.114958,2.183888,2.470996
526,4.383333,1.180053,2.185242,2.401632,0.920708,2.180331,2.691470,1.166861,1.669141,2.381206,0.907840,1.665573,2.671243,1.114957,2.183893,2.471011
527,4.391667,1.180065,2.185230,2.401626,0.920731,2.180324,2.691474,1.166860,1.669129,2.381200,0.907850,1.665567,2.671247,1.114972,2.183883,2.471008
528,4.400000,1.180072,2.185230,2.401622,0.920735,2.180334,2.691466,1.166853,1.669130,2.381198,0.907840,1.665577,2.671242,1.114978,2.183886,2.471002
529,4.408333,1.180120,2.185239,2.401643,0.920736,2.180406,2.691446,1.166810,1.669139,2.381245,0.907750,1.665650,2.671248,1.115015,2.183909,2.471013
530,4.416667,1.180117,2.185256,2.401648,0.920706,2.180427,2.691427,1.166751,1.669160,2.381203,0.907664,1.665674,2.671182,1.115005,2.183928,2.471012
531,4.425000,1.180098,2.185234,2.401646,0.920752,2.180331,2.691482,1.166870,1.669134,2.381202,0.907848,1.665575,2.671239,1.115002,2.183887,2.471024
532,4.433333,1.180124,2.185251,2.401653,0.920709,2.180415,2.691430,1.166765,1.669155,2.381204,0.907675,1.665662,2.671181,1.115011,2.183921,2.471017
533,4.441667,1.180134,2.185257,2.401659,0.920724,2.180426,2.691440,1.166768,1.669161,2.381213,0.907682,1.665673,2.671194,1.115022,2.183928,2.471024
534,4.450000,1.180120,2.185233,2.401657,0.920777,2.180333,2.691497,1.166893,1.669134,2.381219,0.907875,1.665577,2.671259,1.115025,2.183888,2.471036
535,4.458333,1.180143,2.185252,2.401666,0.920734,2.180420,2.691447,1.166779,1.669156,2.381219,0.907695,1.665667,2.671201,1.115031,2.183923,2.471030
536,4.466667,1.180147,2.185260,2.401672,0.920734,2.180428,2.691449,1.166782,1.669164,2.381224,0.907692,1.665675,2.671201,1.115035,2.183931,2.471036
537,4.475000,1.180126,2.185237,2.401671,0.920791,2.180336,2.691517,1.166878,1.669138,2.381213,0.907867,1.665581,2.671260,1.115033,2.183891,2.471052
538,4.483333,1.180172,2.185238,2.401683,0.920796,2.180408,2.691494,1.166837,1.669140,2.381269,0.907785,1.665653,2.671280,1.115069,2.183910,2.471055
539,4.491667,1.180133,2.185239,2.401682,0.920788,2.180337,2.691520,1.166893,1.669140,2.381230,0.907872,1.665581,2.671267,1.115037,2.183893,2.471061
540,4.500000,1.180161,2.185250,2.401695,0.920744,2.180417,2.691469,1.166784,1.669155,2.381234,0.907691,1.665665,2.671208,1.115048,2.183921,2.471058
541,4.508333,1.180166,2.185258,2.401704,0.920762,2.180428,2.691490,1.166777,1.669164,2.381239,0.907698,1.665677,2.671225,1.115056,2.183930,2.471070
542,4.516667,1.180147,2.185237,2.401701,0.920800,2.180337,2.691537,1.166898,1.669139,2.381243,0.907876,1.665582,2.671279,1.115051,2.183892,2.471079
543,4.525000,1.180141,2.185237,2.401703,0.920805,2.180325,2.691549,1.166916,1.669138,2.381247,0.907904,1.665569,2.671292,1.115047,2.183888,2.471084
544,4.533333,1.180186,2.185241,2.401713,0.920812,2.180407,2.691526,1.166855,1.669143,2.381296,0.907805,1.665652,2.671308,1.115083,2.183912,2.471086
545,4.541667,1.180171,2.185254,2.401721,0.920756,2.180426,2.691496,1.166779,1.669160,2.381254,0.907688,1.665674,2.671230,1.115058,2.183927,2.471084
546,4.550000,1.180145,2.185235,2.401714,0.920805,2.180333,2.691556,1.166899,1.669136,2.381256,0.907882,1.665578,2.671297,1.115051,2.183889,2.471094
547,4.558333,1.180169,2.185261,2.401724,0.920763,2.180427,2.691509,1.166787,1.669167,2.381258,0.907706,1.665676,2.671243,1.115059,2.183932,2.471090
548,4.566667,1.180130,2.185237,2.401714,0.920797,2.180327,2.691563,1.166900,1.669138,2.381257,0.907892,1.665571,2.671305,1.115037,2.183889,2.471096
549,4.575000,1.180191,2.185243,2.401747,0.920791,2.180410,2.691536,1.166845,1.669146,2.381316,0.907769,1.665656,2.671305,1.115082,2.183914,2.471114
550,4.583333,1.180166,2.185271,2.401748,0.920748,2.180424,2.691521,1.166791,1.669177,2.381265,0.907697,1.665673,2.671238,1.115053,2.183939,2.471111
551,4.591667,1.180150,2.185275,2.401747,0.920744,2.180423,2.691530,1.166784,1.669181,2.381262,0.907702,1.665671,2.671245,1.115039,2.183942,2.471112
552,4.600000,1.180146,2.185262,2.401742,0.920738,2.180413,2.691524,1.166772,1.669168,2.381256,0.907688,1.665662,2.671238,1.115035,2.183929,2.471107
553,4.608333,1.180149,2.185262,2.401751,0.920736,2.180415,2.691528,1.166776,1.669168,2.381269,0.907687,1.665664,2.671246,1.115037,2.183930,2.471114
554,4.616667,1.180138,2.185265,2.401749,0.920723,2.180421,2.691525,1.166772,1.669170,2.381278,0.907681,1.665669,2.671254,1.115025,2.183933,2.471113
555,4.625000,1.180134,2.185272,2.401749,0.920724,2.180420,2.691530,1.166759,1.669179,2.381256,0.907673,1.665669,2.671236,1.115023,2.183939,2.471114
556,4.633333,1.180123,2.185269,2.401747,0.920717,2.180418,2.691530,1.166757,1.669174,2.381265,0.907675,1.665667,2.671248,1.115013,2.183936,2.471112
557,4.641667,1.180138,2.185255,2.401742,0.920755,2.180398,2.691546,1.166819,1.669158,2.381296,0.907761,1.665645,2.671300,1.115033,2.183920,2.471113
558,4.650000,1.180091,2.185246,2.401736,0.920748,2.180330,2.691575,1.166859,1.669148,2.381264,0.907841,1.665575,2.671304,1.114995,2.183897,2.471115
559,4.658333,1.180107,2.185271,2.401748,0.920697,2.180419,2.691528,1.166750,1.669176,2.381272,0.907664,1.665668,2.671252,1.114996,2.183938,2.471112
560,4.666667,1.180070,2.185254,2.401738,0.920728,2.180325,2.691578,1.166857,1.669155,2.381262,0.907839,1.665569,2.671301,1.114975,2.183901,2.471118
561,4.675000,1.180068,2.185255,2.401736,0.920728,2.180324,2.691578,1.166859,1.669156,2.381260,0.907843,1.665569,2.671302,1.114973,2.183902,2.471116
562,4.683333,1.180058,2.185253,2.401731,0.920716,2.180323,2.691571,1.166847,1.669154,2.381255,0.907829,1.665568,2.671295,1.114963,2.183900,2.471111
563,4.691667,1.180044,2.185250,2.401731,0.920704,2.180316,2.691571,1.166838,1.669151,2.381251,0.907821,1.665560,2.671292,1.114949,2.183896,2.471111
564,4.700000,1.180075,2.185263,2.401733,0.920661,2.180409,2.691509,1.166724,1.669168,2.381259,0.907634,1.665658,2.671235,1.114963,2.183929,2.471097
565,4.708333,1.180040,2.185253,2.401728,0.920695,2.180319,2.691565,1.166840,1.669154,2.381254,0.907819,1.665564,2.671290,1.114945,2.183899,2.471106
566,4.716667,1.180030,2.185251,2.401723,0.920685,2.180314,2.691560,1.166831,1.669152,2.381244,0.907811,1.665558,2.671281,1.114934,2.183896,2.471102
567,4.725000,1.180022,2.185249,2.401717,0.920679,2.180316,2.691555,1.166829,1.669149,2.381251,0.907809,1.665560,2.671289,1.114927,2.183895,2.471096
568,4.733333,1.180011,2.185244,2.401700,0.920672,2.180316,2.691543,1.166819,1.669145,2.381244,0.907804,1.665560,2.671287,1.114916,2.183892,2.471081
569,4.741667,1.180001,2.185246,2.401711,0.920661,2.180309,2.691553,1.166817,1.669147,2.381246,0.907801,1.665553,2.671288,1.114907,2.183892,2.471092
570,4.750000,1.180001,2.185251,2.401702,0.920655,2.180314,2.691538,1.166826,1.669151,2.381244,0.907804,1.665557,2.671280,1.114905,2.183896,2.471081
571,4.758333,1.180019,2.185268,2.401699,0.920606,2.180404,2.691476,1.166702,1.669172,2.381237,0.907613,1.665651,2.671214,1.114907,2.183932,2.471062
572,4.766667,1.179993,2.185233,2.401691,0.920667,2.180316,2.691545,1.166805,1.669132,2.381259,0.907803,1.665558,2.671313,1.114902,2.183883,2.471074
573,4.775000,1.180023,2.185254,2.401697,0.920641,2.180383,2.691502,1.166736,1.669156,2.381254,0.907678,1.665629,2.671258,1.114918,2.183916,2.471068
574,4.783333,1.179975,2.185247,2.401682,0.920626,2.180316,2.691516,1.166789,1.669147,2.381226,0.907764,1.665560,2.671259,1.114878,2.183894,2.471060
575,4.791667,1.179962,2.185245,2.401672,0.920625,2.180311,2.691516,1.166796,1.669144,2.381227,0.907783,1.665553,2.671271,1.114868,2.183891,2.471052
576,4.800000,1.179959,2.185248,2.401672,0.920616,2.180304,2.691511,1.166800,1.669147,2.381216,0.907780,1.665546,2.671254,1.114864,2.183892,2.471051
577,4.808333,1.179950,2.185251,2.401665,0.920605,2.180304,2.691502,1.166801,1.669150,2.381213,0.907781,1.665546,2.671250,1.114854,2.183893,2.471044
578,4.816667,1.179990,2.185249,2.401666,0.920613,2.180386,2.691476,1.166713,1.669150,2.381246,0.907660,1.665630,2.671256,1.114887,2.183913,2.471038
579,4.825000,1.179947,2.185243,2.401653,0.920609,2.180308,2.691496,1.166768,1.669143,2.381195,0.907754,1.665551,2.671238,1.114853,2.183889,2.471033
580,4.833333,1.179944,2.185249,2.401651,0.920607,2.180313,2.691494,1.166783,1.669147,2.381210,0.907770,1.665555,2.671254,1.114850,2.183894,2.471031
581,4.841667,1.179941,2.185241,2.401645,0.920600,2.180313,2.691486,1.166780,1.669139,2.381217,0.907763,1.665554,2.671258,1.114846,2.183888,2.471025
582,4.850000,1.179942,2.185249,2.401642,0.920595,2.180316,2.691477,1.166793,1.669147,2.381214,0.907770,1.665557,2.671249,1.114845,2.183895,2.471020
583,4.858333,1.179937,2.185250,2.401636,0.920598,2.180313,2.691478,1.166781,1.669148,2.381197,0.907766,1.665555,2.671240,1.114843,2.183895,2.471016
584,4.866667,1.179939,2.185250,2.401637,0.920588,2.180319,2.691469,1.166786,1.669148,2.381209,0.907759,1.665560,2.671241,1.114842,2.183897,2.471015
585,4.875000,1.179931,2.185242,2.401623,0.920597,2.180310,2.691470,1.166780,1.669140,2.381197,0.907770,1.665552,2.671243,1.114838,2.183889,2.471004
586,4.883333,1.179994,2.185256,2.401639,0.920603,2.180383,2.691437,1.166751,1.669156,2.381230,0.907684,1.665626,2.671227,1.114887,2.183917,2.471008
587,4.891667,1.179947,2.185248,2.401622,0.920605,2.180326,2.691462,1.166780,1.669147,2.381198,0.907763,1.665568,2.671239,1.114852,2.183897,2.471001
588,4.900000,1.179940,2.185250,2.401629,0.920597,2.180322,2.691468,1.166769,1.669148,2.381191,0.907750,1.665564,2.671230,1.114845,2.183897,2.471008
589,4.908333,1.179946,2.185246,2.401623,0.920605,2.180311,2.691463,1.166792,1.669144,2.381189,0.907775,1.665553,2.671229,1.114851,2.183892,2.471003
590,4.916667,1.179953,2.185241,2.401622,0.920608,2.180314,2.691459,1.166793,1.669139,2.381196,0.907772,1.665555,2.671233,1.114857,2.183888,2.471001
591,4.925000,1.179963,2.185250,2.401619,0.920618,2.180327,2.691456,1.166794,1.669148,2.381191,0.907773,1.665568,2.671229,1.114867,2.183898,2.470997
592,4.933333,1.179998,2.185242,2.401620,0.920621,2.180394,2.691429,1.166724,1.669141,2.381229,0.907671,1.665636,2.671239,1.114894,2.183909,2.470992
593,4.941667,1.180006,2.185244,2.401620,0.920615,2.180396,2.691417,1.166731,1.669143,2.381227,0.907664,1.665639,2.671223,1.114899,2.183911,2.470989
594,4.950000,1.179968,2.185240,2.401616,0.920628,2.180321,2.691458,1.166786,1.669139,2.381185,0.907771,1.665563,2.671227,1.114873,2.183890,2.470996
595,4.958333,1.179967,2.185240,2.401612,0.920630,2.180318,2.691456,1.166800,1.669139,2.381188,0.907786,1.665559,2.671232,1.114873,2.183889,2.470993
596,4.966667,1.179973,2.185237,2.401612,0.920632,2.180314,2.691452,1.166808,1.669135,2.381189,0.907791,1.665556,2.671229,1.114878,2.183886,2.470991
597,4.975000,1.180016,2.185264,2.401623,0.920601,2.180419,2.691399,1.166689,1.669167,2.381185,0.907598,1.665665,2.671161,1.114903,2.183933,2.470986
598,4.983333,1.180032,2.185247,2.401630,0.920647,2.180400,2.691434,1.166748,1.669147,2.381231,0.907688,1.665643,2.671234,1.114926,2.183915,2.471001
599,4.991667,1.180015,2.185220,2.401618,0.920697,2.180313,2.691480,1.166827,1.669119,2.381205,0.907834,1.665555,2.671267,1.114926,2.183873,2.471003
600,5.000000,1.180005,2.185241,2.401621,0.920663,2.180310,2.691460,1.166841,1.669139,2.381186,0.907823,1.665552,2.671225,1.114910,2.183887,2.471000
601,5.008333,1.180015,2.185232,2.401628,0.920675,2.180315,2.691469,1.166834,1.669131,2.381201,0.907817,1.665557,2.671242,1.114921,2.183882,2.471008
602,5.016667,1.180026,2.185238,2.401623,0.920686,2.180334,2.691464,1.166825,1.669137,2.381200,0.907808,1.665576,2.671241,1.114931,2.183891,2.471003
603,5.025000,1.180027,2.185239,2.401623,0.920695,2.180325,2.691471,1.166847,1.669137,2.381201,0.907839,1.665566,2.671250,1.114934,2.183890,2.471004
604,5.033333,1.180043,2.185234,2.401640,0.920693,2.180324,2.691472,1.166841,1.669134,2.381206,0.907815,1.665567,2.671238,1.114946,2.183886,2.471017
605,5.041667,1.180045,2.185224,2.401638,0.920699,2.180320,2.691474,1.166833,1.669123,2.381207,0.907810,1.665563,2.671243,1.114949,2.183877,2.471017
