0.4565,0.6992,3.8019,0.072,0.707,3.8659,0.4472,0.1833,3.7914,0.0612,0.1927,3.8574
0.3781,0.6972,3.6901,0.113,0.7102,3.9742,0.3321,0.1866,3.6697,0.0695,0.1974,3.9556
0.2284,0.6967,3.2551,-0.1356,0.7145,3.1182,0.2208,0.1869,3.2044,-0.142,0.2033,3.0682
0.1532,0.6759,3.1356,-0.1993,0.7467,3.2821,0.0383,0.1741,3.1016,-0.3103,0.2434,3.2485
0.0584,0.7012,2.8488,-0.3015,0.7109,2.6994,0.0654,0.1905,2.8015,-0.2969,0.1996,2.6523
-0.0372,0.8407,2.6714,-0.3215,0.8584,2.9374,-0.0782,0.3306,2.663,-0.3581,0.3441,2.932
-0.1976,0.699,3.4957,-0.5872,0.6975,3.4855,-0.195,0.1857,3.5048,-0.5855,0.1837,3.4948
-0.3604,0.6868,2.9223,-0.7258,0.7324,3.0483,-0.4358,0.1805,2.8785,-0.8007,0.224,3.0078
-0.128,0.8345,2.904,-0.4607,0.8939,2.7103,-0.169,0.3305,2.8263,-0.5036,0.3849,2.6332
-0.0845,0.8756,2.6125,-0.4535,0.9153,2.4927,-0.1208,0.3673,2.5684,-0.4932,0.4027,2.452
-0.7793,0.6836,3.9335,-1.0609,0.7209,3.6663,-0.793,0.1725,3.8798,-1.0779,0.2091,3.6127
-0.162,-0.0046,3.4575,-0.5515,-0.0055,3.4765,-0.1871,-0.0028,2.9447,-0.5756,-0.0023,2.9633
-0.1044,-0.0078,3.9659,-0.4929,-0.0087,3.9932,-0.1409,-0.0042,3.453,-0.5277,-0.0041,3.4798
-0.5515,-0.0037,3.3899,-0.9398,-0.0047,3.4192,-0.5856,0.008,2.8713,-0.9775,-0.0004,2.9069
0.3799,-0.0059,3.5007,-0.0065,-0.0065,3.5496,0.3158,-0.0033,2.9912,-0.0696,-0.0028,3.0397
