Format Version,1.2,Take Name,Take 2020-02-07 06.24.44 PM,Capture Frame Rate,120.000000,Export Frame Rate,120.000000,Capture Start Time,2020-02-07 06.24.44.713 PM,Total Frames,633,Rotation Type,Quaternion,Length Units,Meters,Coordinate Space,Global

,,Rigid Body Marker,Rigid Body Marker,Rigid Body Marker,Rigid Body Marker,Rigid Body Marker,Rigid Body Marker,Rigid Body Marker,Rigid Body Marker,Rigid Body Marker,Rigid Body Marker,Rigid Body Marker,Rigid Body Marker,Rigid Body Marker,Rigid Body Marker,Rigid Body Marker
,,Rigid Body 1_1,Rigid Body 1_1,Rigid Body 1_1,Rigid Body 1_2,Rigid Body 1_2,Rigid Body 1_2,Rigid Body 1_3,Rigid Body 1_3,Rigid Body 1_3,Rigid Body 1_4,Rigid Body 1_4,Rigid Body 1_4,Rigid Body 1_5,Rigid Body 1_5,Rigid Body 1_5
,,"A27475E7497311EAE5BE26CA05685A8D","A27475E7497311EAE5BE26CA05685A8D","A27475E7497311EAE5BE26CA05685A8D","A27475E7497311EAE5BE26CA05685A8D","A27475E7497311EAE5BE26CA05685A8D","A27475E7497311EAE5BE26CA05685A8D","A27475E7497311EAE5BE26CA05685A8D","A27475E7497311EAE5BE26CA05685A8D","A27475E7497311EAE5BE26CA05685A8D","A27475E7497311EAE5BE26CA05685A8D","A27475E7497311EAE5BE26CA05685A8D","A27475E7497311EAE5BE26CA05685A8D","A27475E7497311EAE5BE26CA05685A8D","A27475E7497311EAE5BE26CA05685A8D","A27475E7497311EAE5BE26CA05685A8D"
,,Position,Position,Position,Position,Position,Position,Position,Position,Position,Position,Position,Position,Position,Position,Position
Frame,Time,X,Y,Z,X,Y,Z,X,Y,Z,X,Y,Z,X,Y,Z
0,0.000000,-1.001384,1.844198,1.125246,-0.797798,1.827433,0.794455,-1.007694,1.328760,1.147747,-0.805488,1.312028,0.816333,-0.949583,1.839852,1.045433
1,0.008333,-1.001038,1.844334,1.125334,-0.797818,1.827167,0.794339,-1.007920,1.328916,1.148102,-0.806081,1.311783,0.816485,-0.949325,1.839888,1.045469
2,0.016667,-1.001379,1.844198,1.125242,-0.797805,1.827417,0.794444,-1.007704,1.328761,1.147757,-0.805509,1.312014,0.816337,-0.949581,1.839848,1.045427
3,0.025000,-1.001022,1.844364,1.125321,-0.797825,1.827166,0.794314,-1.007947,1.328947,1.148110,-0.806130,1.311783,0.816481,-0.949315,1.839910,1.045453
4,0.033333,-1.001379,1.844193,1.125235,-0.797802,1.827418,0.794439,-1.007693,1.328757,1.147749,-0.805496,1.312014,0.816330,-0.949579,1.839844,1.045421
5,0.041667,-1.001506,1.843916,1.125198,-0.797746,1.827470,0.794498,-1.007536,1.328462,1.147377,-0.805155,1.312048,0.816054,-0.949663,1.839648,1.045408
6,0.050000,-1.001343,1.844130,1.125194,-0.797766,1.827382,0.794396,-1.007652,1.328692,1.147668,-0.805455,1.311976,0.816248,-0.949544,1.839788,1.045379
7,0.058333,-1.001027,1.844346,1.125311,-0.797817,1.827167,0.794309,-1.007928,1.328928,1.148084,-0.806100,1.311784,0.816461,-0.949316,1.839897,1.045444
8,0.066667,-1.001028,1.844354,1.125315,-0.797837,1.827157,0.794303,-1.007928,1.328937,1.148117,-0.806118,1.311774,0.816484,-0.949322,1.839900,1.045446
9,0.075000,-1.001334,1.844134,1.125184,-0.797748,1.827373,0.794392,-1.007656,1.328696,1.147669,-0.805450,1.311968,0.816255,-0.949533,1.839788,1.045370
10,0.083333,-1.001370,1.844198,1.125221,-0.797789,1.827413,0.794428,-1.007694,1.328761,1.147744,-0.805493,1.312010,0.816328,-0.949570,1.839847,1.045408
11,0.091667,-1.001371,1.844198,1.125219,-0.797791,1.827417,0.794424,-1.007682,1.328762,1.147743,-0.805483,1.312014,0.816326,-0.949571,1.839848,1.045405
12,0.100000,-1.001366,1.844185,1.125229,-0.797788,1.827413,0.794433,-1.007687,1.328748,1.147734,-0.805489,1.312009,0.816316,-0.949566,1.839837,1.045415
13,0.108333,-1.001362,1.844196,1.125228,-0.797779,1.827412,0.794436,-1.007684,1.328760,1.147751,-0.805481,1.312009,0.816336,-0.949561,1.839845,1.045415
14,0.116667,-1.001010,1.844362,1.125326,-0.797804,1.827168,0.794323,-1.007924,1.328945,1.148115,-0.806099,1.311786,0.816491,-0.949300,1.839909,1.045459
15,0.125000,-1.001726,1.844225,1.124907,-0.797717,1.827751,0.794362,-1.007189,1.328781,1.147486,-0.804559,1.312338,0.816317,-0.949822,1.839954,1.045157
16,0.133333,-1.001365,1.844196,1.125234,-0.797784,1.827417,0.794440,-1.007686,1.328759,1.147749,-0.805485,1.312013,0.816333,-0.949565,1.839846,1.045420
17,0.141667,-1.001330,1.844130,1.125207,-0.797752,1.827371,0.794411,-1.007653,1.328692,1.147690,-0.805455,1.311966,0.816271,-0.949531,1.839785,1.045393
18,0.150000,-1.001026,1.844359,1.125324,-0.797820,1.827164,0.794321,-1.007933,1.328942,1.148120,-0.806108,1.311781,0.816496,-0.949317,1.839906,1.045457
19,0.158333,-1.001366,1.844221,1.125257,-0.797793,1.827431,0.794459,-1.007717,1.328785,1.147771,-0.805525,1.312027,0.816350,-0.949567,1.839868,1.045442
20,0.166667,-1.001337,1.844147,1.125229,-0.797755,1.827393,0.794434,-1.007652,1.328708,1.147709,-0.805450,1.311988,0.816291,-0.949537,1.839803,1.045415
21,0.175000,-1.001551,1.843902,1.125230,-0.797738,1.827540,0.794558,-1.007477,1.328443,1.147344,-0.805044,1.312113,0.816049,-0.949695,1.839655,1.045447
22,0.183333,-1.001371,1.844195,1.125260,-0.797783,1.827426,0.794471,-1.007691,1.328758,1.147762,-0.805483,1.312021,0.816350,-0.949569,1.839848,1.045447
23,0.191667,-1.001371,1.844214,1.125283,-0.797792,1.827438,0.794487,-1.007706,1.328777,1.147786,-0.805508,1.312034,0.816367,-0.949571,1.839865,1.045469
24,0.200000,-1.001567,1.843921,1.125262,-0.797723,1.827560,0.794610,-1.007491,1.328462,1.147376,-0.805026,1.312134,0.816100,-0.949703,1.839674,1.045484
25,0.208333,-1.001374,1.844209,1.125289,-0.797801,1.827438,0.794490,-1.007703,1.328772,1.147787,-0.805510,1.312034,0.816365,-0.949575,1.839861,1.045474
26,0.216667,-1.001383,1.844205,1.125301,-0.797796,1.827444,0.794510,-1.007705,1.328767,1.147788,-0.805499,1.312039,0.816374,-0.949581,1.839860,1.045488
27,0.225000,-1.001371,1.844192,1.125288,-0.797782,1.827427,0.794499,-1.007695,1.328755,1.147780,-0.805487,1.312023,0.816367,-0.949568,1.839846,1.045476
28,0.233333,-1.001699,1.844221,1.124981,-0.797719,1.827759,0.794417,-1.007198,1.328776,1.147516,-0.804598,1.312345,0.816328,-0.949802,1.839952,1.045226
29,0.241667,-1.001004,1.844374,1.125395,-0.797802,1.827195,0.794389,-1.007934,1.328956,1.148152,-0.806113,1.311811,0.816524,-0.949296,1.839924,1.045528
30,0.250000,-1.001378,1.844198,1.125304,-0.797793,1.827436,0.794513,-1.007709,1.328760,1.147786,-0.805504,1.312031,0.816372,-0.949577,1.839852,1.045491
31,0.258333,-1.001354,1.844144,1.125283,-0.797770,1.827403,0.794489,-1.007667,1.328705,1.147744,-0.805464,1.311997,0.816327,-0.949553,1.839804,1.045469
32,0.266667,-1.001379,1.844191,1.125307,-0.797796,1.827443,0.794512,-1.007680,1.328752,1.147785,-0.805478,1.312037,0.816368,-0.949578,1.839849,1.045493
33,0.275000,-1.001379,1.844187,1.125308,-0.797784,1.827436,0.794522,-1.007687,1.328749,1.147788,-0.805472,1.312031,0.816379,-0.949576,1.839844,1.045496
34,0.283333,-1.001390,1.844201,1.125323,-0.797802,1.827438,0.794533,-1.007724,1.328763,1.147806,-0.805516,1.312033,0.816393,-0.949588,1.839855,1.045511
35,0.291667,-1.001405,1.844197,1.125320,-0.797818,1.827437,0.794528,-1.007725,1.328759,1.147806,-0.805519,1.312032,0.816392,-0.949603,1.839852,1.045507
36,0.300000,-1.001042,1.844322,1.125382,-0.797832,1.827172,0.794380,-1.007936,1.328903,1.148116,-0.806106,1.311787,0.816492,-0.949331,1.839880,1.045515
37,0.308333,-1.001582,1.843863,1.125262,-0.797714,1.827546,0.794622,-1.007475,1.328402,1.147326,-0.804987,1.312117,0.816062,-0.949712,1.839627,1.045487
38,0.316667,-1.001418,1.844196,1.125315,-0.797816,1.827443,0.794533,-1.007741,1.328757,1.147788,-0.805519,1.312038,0.816383,-0.949613,1.839853,1.045504
39,0.325000,-1.001403,1.844206,1.125310,-0.797803,1.827441,0.794527,-1.007728,1.328768,1.147800,-0.805508,1.312037,0.816395,-0.949598,1.839859,1.045499
40,0.333333,-1.001376,1.844121,1.125278,-0.797792,1.827391,0.794484,-1.007687,1.328681,1.147724,-0.805483,1.311984,0.816307,-0.949575,1.839783,1.045465
41,0.341667,-1.001406,1.844170,1.125308,-0.797805,1.827424,0.794524,-1.007725,1.328731,1.147773,-0.805504,1.312018,0.816367,-0.949601,1.839828,1.045497
42,0.350000,-1.001402,1.844192,1.125310,-0.797815,1.827437,0.794518,-1.007720,1.328754,1.147790,-0.805513,1.312032,0.816376,-0.949600,1.839848,1.045497
43,0.358333,-1.001057,1.844317,1.125381,-0.797841,1.827168,0.794382,-1.007938,1.328897,1.148121,-0.806102,1.311783,0.816500,-0.949345,1.839875,1.045515
44,0.366667,-1.001608,1.843900,1.125267,-0.797745,1.827576,0.794624,-1.007497,1.328440,1.147345,-0.805014,1.312148,0.816079,-0.949739,1.839663,1.045492
45,0.375000,-1.001378,1.844139,1.125264,-0.797787,1.827400,0.794474,-1.007686,1.328700,1.147725,-0.805475,1.311994,0.816313,-0.949575,1.839799,1.045451
46,0.383333,-1.001370,1.844126,1.125273,-0.797786,1.827395,0.794479,-1.007680,1.328687,1.147722,-0.805477,1.311988,0.816305,-0.949569,1.839788,1.045460
47,0.391667,-1.001372,1.844133,1.125266,-0.797785,1.827398,0.794473,-1.007684,1.328694,1.147717,-0.805477,1.311992,0.816302,-0.949570,1.839794,1.045452
48,0.400000,-1.001366,1.844140,1.125255,-0.797787,1.827397,0.794459,-1.007682,1.328701,1.147717,-0.805483,1.311991,0.816298,-0.949566,1.839799,1.045441
49,0.408333,-1.001362,1.844134,1.125258,-0.797783,1.827395,0.794460,-1.007672,1.328695,1.147718,-0.805474,1.311989,0.816297,-0.949562,1.839794,1.045443
50,0.416667,-1.001381,1.844180,1.125285,-0.797806,1.827416,0.794487,-1.007709,1.328742,1.147772,-0.805515,1.312011,0.816351,-0.949582,1.839834,1.045470
51,0.425000,-1.001358,1.844122,1.125240,-0.797767,1.827383,0.794450,-1.007687,1.328682,1.147687,-0.805476,1.311977,0.816275,-0.949555,1.839782,1.045427
52,0.433333,-1.001360,1.844136,1.125246,-0.797775,1.827389,0.794453,-1.007688,1.328698,1.147708,-0.805483,1.311983,0.816292,-0.949558,1.839794,1.045432
53,0.441667,-1.001362,1.844152,1.125237,-0.797788,1.827396,0.794438,-1.007695,1.328713,1.147709,-0.805502,1.311990,0.816287,-0.949563,1.839807,1.045422
54,0.450000,-1.001555,1.843867,1.125225,-0.797727,1.827534,0.794561,-1.007471,1.328407,1.147301,-0.805023,1.312106,0.816013,-0.949695,1.839627,1.045444
55,0.458333,-1.001051,1.844313,1.125325,-0.797833,1.827139,0.794328,-1.007960,1.328894,1.148085,-0.806123,1.311755,0.816467,-0.949339,1.839865,1.045460
56,0.466667,-1.001379,1.844201,1.125251,-0.797803,1.827425,0.794455,-1.007711,1.328765,1.147756,-0.805515,1.312021,0.816336,-0.949580,1.839852,1.045437
57,0.475000,-1.001581,1.843918,1.125231,-0.797726,1.827553,0.794585,-1.007512,1.328460,1.147348,-0.805037,1.312127,0.816078,-0.949714,1.839671,1.045455
58,0.483333,-1.001354,1.844157,1.125214,-0.797778,1.827394,0.794416,-1.007684,1.328719,1.147698,-0.805488,1.311989,0.816278,-0.949555,1.839811,1.045399
59,0.491667,-1.001538,1.843855,1.125191,-0.797706,1.827505,0.794531,-1.007471,1.328395,1.147282,-0.805018,1.312078,0.815998,-0.949677,1.839611,1.045411
60,0.500000,-1.001352,1.844133,1.125192,-0.797760,1.827381,0.794404,-1.007664,1.328695,1.147671,-0.805453,1.311975,0.816260,-0.949549,1.839790,1.045380
61,0.508333,-1.001375,1.844204,1.125239,-0.797790,1.827419,0.794448,-1.007710,1.328768,1.147757,-0.805505,1.312015,0.816343,-0.949574,1.839853,1.045426
62,0.516667,-1.001355,1.844160,1.125208,-0.797776,1.827388,0.794413,-1.007687,1.328723,1.147707,-0.805488,1.311984,0.816289,-0.949555,1.839812,1.045394
63,0.525000,-1.001371,1.844206,1.125235,-0.797798,1.827418,0.794437,-1.007720,1.328770,1.147747,-0.805527,1.312015,0.816326,-0.949573,1.839854,1.045420
64,0.533333,-1.001362,1.844202,1.125230,-0.797801,1.827423,0.794424,-1.007712,1.328764,1.147727,-0.805531,1.312019,0.816298,-0.949567,1.839852,1.045413
65,0.541667,-1.001045,1.844311,1.125305,-0.797784,1.827143,0.794335,-1.007950,1.328892,1.148061,-0.806069,1.311759,0.816469,-0.949322,1.839864,1.045447
66,0.550000,-1.001381,1.844225,1.125240,-0.797799,1.827431,0.794448,-1.007720,1.328789,1.147766,-0.805519,1.312029,0.816351,-0.949580,1.839871,1.045427
67,0.558333,-1.001375,1.844207,1.125237,-0.797790,1.827421,0.794446,-1.007720,1.328770,1.147748,-0.805515,1.312017,0.816334,-0.949574,1.839855,1.045424
68,0.566667,-1.001375,1.844217,1.125244,-0.797796,1.827423,0.794450,-1.007718,1.328781,1.147768,-0.805519,1.312020,0.816351,-0.949575,1.839863,1.045430
69,0.575000,-1.001346,1.844159,1.125209,-0.797767,1.827393,0.794414,-1.007673,1.328722,1.147701,-0.805474,1.311989,0.816283,-0.949546,1.839813,1.045395
70,0.583333,-1.001555,1.843868,1.125202,-0.797713,1.827538,0.794546,-1.007448,1.328407,1.147286,-0.804986,1.312110,0.816007,-0.949691,1.839629,1.045423
71,0.591667,-1.001342,1.844159,1.125224,-0.797765,1.827390,0.794427,-1.007683,1.328722,1.147712,-0.805486,1.311985,0.816293,-0.949543,1.839812,1.045409
72,0.600000,-1.001720,1.844214,1.124937,-0.797737,1.827737,0.794376,-1.007227,1.328769,1.147491,-0.804624,1.312324,0.816306,-0.949822,1.839941,1.045182
73,0.608333,-1.001366,1.844206,1.125252,-0.797788,1.827427,0.794457,-1.007707,1.328769,1.147756,-0.805509,1.312023,0.816337,-0.949567,1.839856,1.045438
74,0.616667,-1.001373,1.844198,1.125255,-0.797782,1.827423,0.794467,-1.007697,1.328761,1.147763,-0.805486,1.312019,0.816352,-0.949570,1.839849,1.045443
75,0.625000,-1.001018,1.844337,1.125359,-0.797803,1.827159,0.794360,-1.007927,1.328918,1.148126,-0.806094,1.311775,0.816506,-0.949306,1.839887,1.045493
76,0.633333,-1.001369,1.844196,1.125264,-0.797784,1.827421,0.794473,-1.007702,1.328759,1.147765,-0.805497,1.312017,0.816351,-0.949568,1.839847,1.045451
77,0.641667,-1.001026,1.844329,1.125366,-0.797840,1.827155,0.794350,-1.007935,1.328910,1.148126,-0.806130,1.311771,0.816489,-0.949321,1.839880,1.045496
78,0.650000,-1.001369,1.844196,1.125277,-0.797790,1.827425,0.794482,-1.007716,1.328759,1.147764,-0.805518,1.312021,0.816345,-0.949569,1.839848,1.045463
79,0.658333,-1.001742,1.844219,1.124943,-0.797722,1.827757,0.794404,-1.007210,1.328775,1.147501,-0.804570,1.312343,0.816337,-0.949835,1.839950,1.045194
80,0.666667,-1.001388,1.844201,1.125285,-0.797796,1.827436,0.794498,-1.007721,1.328763,1.147771,-0.805509,1.312032,0.816360,-0.949585,1.839854,1.045473
81,0.675000,-1.001035,1.844329,1.125371,-0.797845,1.827162,0.794356,-1.007935,1.328911,1.148127,-0.806126,1.311778,0.816491,-0.949329,1.839883,1.045501
82,0.683333,-1.001357,1.844132,1.125261,-0.797769,1.827399,0.794470,-1.007674,1.328692,1.147708,-0.805466,1.311992,0.816294,-0.949555,1.839793,1.045448
83,0.691667,-1.001390,1.844210,1.125300,-0.797812,1.827441,0.794504,-1.007717,1.328772,1.147796,-0.805519,1.312036,0.816377,-0.949590,1.839862,1.045485
84,0.700000,-1.001366,1.844137,1.125277,-0.797778,1.827403,0.794485,-1.007686,1.328698,1.147724,-0.805478,1.311996,0.816309,-0.949564,1.839798,1.045464
85,0.708333,-1.001392,1.844207,1.125305,-0.797807,1.827436,0.794513,-1.007736,1.328769,1.147794,-0.805532,1.312031,0.816379,-0.949591,1.839859,1.045492
86,0.716667,-1.001396,1.844201,1.125316,-0.797816,1.827434,0.794521,-1.007721,1.328763,1.147810,-0.805521,1.312029,0.816393,-0.949596,1.839854,1.045502
87,0.725000,-1.001754,1.844204,1.124978,-0.797741,1.827755,0.794434,-1.007217,1.328759,1.147518,-0.804583,1.312340,0.816350,-0.949849,1.839939,1.045228
88,0.733333,-1.001401,1.844194,1.125322,-0.797816,1.827440,0.794530,-1.007732,1.328756,1.147793,-0.805528,1.312034,0.816378,-0.949600,1.839850,1.045509
89,0.741667,-1.001371,1.844158,1.125315,-0.797802,1.827390,0.794513,-1.007758,1.328720,1.147772,-0.805570,1.311985,0.816347,-0.949574,1.839811,1.045499
90,0.750000,-1.001381,1.844144,1.125280,-0.797790,1.827407,0.794491,-1.007691,1.328704,1.147737,-0.805480,1.312001,0.816325,-0.949578,1.839804,1.045468
91,0.758333,-1.001770,1.844189,1.124988,-0.797767,1.827751,0.794437,-1.007230,1.328743,1.147513,-0.804606,1.312335,0.816338,-0.949867,1.839926,1.045236
92,0.766667,-1.001406,1.844187,1.125313,-0.797815,1.827429,0.794524,-1.007720,1.328749,1.147799,-0.805510,1.312024,0.816387,-0.949603,1.839842,1.045501
93,0.775000,-1.001413,1.844202,1.125319,-0.797827,1.827446,0.794527,-1.007729,1.328764,1.147802,-0.805523,1.312041,0.816387,-0.949612,1.839858,1.045506
94,0.783333,-1.001393,1.844136,1.125289,-0.797810,1.827408,0.794494,-1.007706,1.328696,1.147731,-0.805503,1.312001,0.816313,-0.949592,1.839799,1.045475
95,0.791667,-1.001385,1.844142,1.125291,-0.797793,1.827400,0.794502,-1.007701,1.328702,1.147750,-0.805489,1.311994,0.816338,-0.949582,1.839801,1.045478
96,0.800000,-1.001603,1.843863,1.125266,-0.797743,1.827552,0.794621,-1.007491,1.328401,1.147324,-0.805011,1.312123,0.816054,-0.949735,1.839629,1.045490
97,0.808333,-1.001576,1.843853,1.125275,-0.797733,1.827553,0.794618,-1.007460,1.328390,1.147317,-0.804997,1.312123,0.816037,-0.949712,1.839621,1.045496
98,0.816667,-1.001078,1.844346,1.125389,-0.797879,1.827157,0.794381,-1.007967,1.328929,1.148185,-0.806149,1.311775,0.816556,-0.949371,1.839894,1.045521
99,0.825000,-1.001422,1.844205,1.125319,-0.797842,1.827448,0.794523,-1.007733,1.328767,1.147805,-0.805534,1.312043,0.816386,-0.949622,1.839860,1.045505
100,0.833333,-1.001595,1.843894,1.125280,-0.797808,1.827542,0.794592,-1.007513,1.328434,1.147381,-0.805106,1.312115,0.816069,-0.949745,1.839649,1.045493
101,0.841667,-1.001415,1.844184,1.125296,-0.797822,1.827433,0.794507,-1.007720,1.328746,1.147778,-0.805508,1.312028,0.816366,-0.949611,1.839841,1.045483
102,0.850000,-1.001405,1.844192,1.125296,-0.797826,1.827430,0.794500,-1.007724,1.328754,1.147786,-0.805525,1.312025,0.816367,-0.949605,1.839846,1.045482
103,0.858333,-1.001575,1.843872,1.125238,-0.797723,1.827541,0.794589,-1.007491,1.328412,1.147311,-0.805019,1.312113,0.816038,-0.949709,1.839633,1.045461
104,0.866667,-1.001374,1.844127,1.125243,-0.797798,1.827386,0.794444,-1.007688,1.328688,1.147703,-0.805492,1.311980,0.816281,-0.949575,1.839787,1.045428
105,0.875000,-1.001416,1.844200,1.125287,-0.797826,1.827435,0.794498,-1.007732,1.328762,1.147784,-0.805523,1.312030,0.816372,-0.949613,1.839853,1.045475
106,0.883333,-1.001603,1.843869,1.125246,-0.797747,1.827556,0.794598,-1.007486,1.328408,1.147310,-0.805010,1.312127,0.816038,-0.949736,1.839634,1.045469
107,0.891667,-1.001397,1.844191,1.125269,-0.797819,1.827425,0.794472,-1.007713,1.328753,1.147767,-0.805516,1.312020,0.816348,-0.949597,1.839844,1.045455
108,0.900000,-1.001392,1.844185,1.125265,-0.797811,1.827419,0.794470,-1.007705,1.328747,1.147765,-0.805504,1.312014,0.816348,-0.949592,1.839838,1.045451
109,0.908333,-1.001747,1.844205,1.124948,-0.797774,1.827746,0.794380,-1.007227,1.328760,1.147492,-0.804633,1.312332,0.816299,-0.949852,1.839937,1.045192
110,0.916667,-1.001406,1.844209,1.125262,-0.797820,1.827441,0.794471,-1.007724,1.328771,1.147762,-0.805518,1.312036,0.816348,-0.949604,1.839862,1.045449
111,0.925000,-1.001362,1.844148,1.125233,-0.797802,1.827390,0.794425,-1.007690,1.328710,1.147712,-0.805510,1.311985,0.816281,-0.949567,1.839804,1.045416
112,0.933333,-1.001385,1.844192,1.125248,-0.797804,1.827424,0.794454,-1.007711,1.328754,1.147744,-0.805511,1.312019,0.816326,-0.949584,1.839845,1.045434
113,0.941667,-1.001032,1.844352,1.125331,-0.797821,1.827179,0.794330,-1.007932,1.328933,1.148096,-0.806101,1.311795,0.816474,-0.949321,1.839904,1.045464
114,0.950000,-1.001559,1.843881,1.125212,-0.797731,1.827525,0.794549,-1.007496,1.328421,1.147309,-0.805047,1.312099,0.816022,-0.949699,1.839635,1.045431
115,0.958333,-1.001360,1.844139,1.125215,-0.797778,1.827381,0.794421,-1.007676,1.328701,1.147701,-0.805474,1.311976,0.816284,-0.949559,1.839794,1.045401
116,0.966667,-1.001719,1.844217,1.124921,-0.797752,1.827735,0.794350,-1.007198,1.328773,1.147500,-0.804610,1.312322,0.816305,-0.949825,1.839943,1.045164
117,0.975000,-1.001575,1.843909,1.125230,-0.797729,1.827558,0.794578,-1.007494,1.328449,1.147331,-0.805028,1.312131,0.816055,-0.949710,1.839664,1.045452
118,0.983333,-1.001356,1.844149,1.125215,-0.797774,1.827391,0.794420,-1.007679,1.328710,1.147695,-0.805478,1.311986,0.816277,-0.949555,1.839804,1.045401
119,0.991667,-1.001357,1.844140,1.125207,-0.797770,1.827376,0.794417,-1.007677,1.328703,1.147701,-0.805469,1.311971,0.816287,-0.949555,1.839794,1.045394
120,1.000000,-1.001377,1.844193,1.125239,-0.797792,1.827406,0.794449,-1.007715,1.328757,1.147758,-0.805509,1.312002,0.816344,-0.949575,1.839841,1.045426
121,1.008333,-1.001731,1.844206,1.124916,-0.797724,1.827734,0.794368,-1.007194,1.328762,1.147489,-0.804567,1.312321,0.816318,-0.949827,1.839935,1.045165
122,1.016667,-1.001362,1.844186,1.125238,-0.797785,1.827413,0.794441,-1.007686,1.328749,1.147743,-0.805490,1.312009,0.816323,-0.949562,1.839838,1.045424
123,1.025000,-1.001344,1.844130,1.125209,-0.797765,1.827385,0.794412,-1.007654,1.328691,1.147678,-0.805456,1.311979,0.816258,-0.949544,1.839789,1.045394
124,1.033333,-1.001368,1.844200,1.125244,-0.797791,1.827422,0.794448,-1.007696,1.328763,1.147752,-0.805499,1.312018,0.816334,-0.949569,1.839850,1.045430
125,1.041667,-1.001554,1.843870,1.125205,-0.797697,1.827532,0.794559,-1.007445,1.328410,1.147304,-0.804969,1.312104,0.816034,-0.949687,1.839629,1.045429
126,1.050000,-1.001367,1.844201,1.125264,-0.797791,1.827422,0.794467,-1.007699,1.328765,1.147774,-0.805503,1.312018,0.816354,-0.949568,1.839851,1.045449
127,1.058333,-1.001547,1.843863,1.125201,-0.797691,1.827522,0.794555,-1.007460,1.328403,1.147291,-0.804984,1.312094,0.816021,-0.949680,1.839621,1.045425
128,1.066667,-1.001342,1.844143,1.125229,-0.797762,1.827388,0.794433,-1.007658,1.328705,1.147710,-0.805458,1.311983,0.816292,-0.949542,1.839799,1.045415
129,1.075000,-1.001368,1.844201,1.125264,-0.797780,1.827412,0.794475,-1.007709,1.328765,1.147783,-0.805501,1.312009,0.816371,-0.949566,1.839849,1.045452
130,1.083333,-1.001343,1.844131,1.125239,-0.797763,1.827383,0.794444,-1.007665,1.328692,1.147706,-0.805464,1.311977,0.816287,-0.949543,1.839788,1.045425
131,1.091667,-1.001373,1.844201,1.125274,-0.797780,1.827429,0.794487,-1.007707,1.328764,1.147771,-0.805494,1.312025,0.816362,-0.949570,1.839853,1.045462
132,1.100000,-1.001732,1.844212,1.124939,-0.797729,1.827746,0.794389,-1.007208,1.328768,1.147496,-0.804585,1.312332,0.816323,-0.949829,1.839943,1.045187
133,1.108333,-1.001373,1.844207,1.125275,-0.797789,1.827431,0.794483,-1.007708,1.328770,1.147777,-0.805505,1.312027,0.816362,-0.949572,1.839858,1.045462
134,1.116667,-1.001384,1.844203,1.125277,-0.797791,1.827423,0.794490,-1.007714,1.328766,1.147789,-0.805501,1.312019,0.816380,-0.949580,1.839853,1.045465
135,1.125000,-1.001352,1.844142,1.125251,-0.797765,1.827387,0.794460,-1.007680,1.328704,1.147725,-0.805474,1.311982,0.816311,-0.949551,1.839798,1.045438
136,1.133333,-1.001031,1.844320,1.125350,-0.797813,1.827145,0.794354,-1.007933,1.328902,1.148118,-0.806095,1.311762,0.816501,-0.949319,1.839872,1.045485
137,1.141667,-1.001367,1.844133,1.125259,-0.797770,1.827391,0.794473,-1.007681,1.328694,1.147722,-0.805465,1.311985,0.816313,-0.949563,1.839792,1.045448
138,1.150000,-1.001369,1.844137,1.125264,-0.797784,1.827396,0.794471,-1.007681,1.328698,1.147726,-0.805476,1.311990,0.816310,-0.949568,1.839796,1.045450
139,1.158333,-1.001367,1.844134,1.125264,-0.797776,1.827384,0.794475,-1.007676,1.328695,1.147741,-0.805465,1.311979,0.816329,-0.949564,1.839791,1.045451
140,1.166667,-1.001388,1.844182,1.125287,-0.797797,1.827415,0.794498,-1.007720,1.328744,1.147776,-0.805510,1.312011,0.816365,-0.949585,1.839835,1.045474
141,1.175000,-1.001394,1.844196,1.125304,-0.797808,1.827429,0.794513,-1.007717,1.328758,1.147799,-0.805511,1.312024,0.816385,-0.949593,1.839849,1.045491
142,1.183333,-1.001398,1.844198,1.125312,-0.797823,1.827447,0.794513,-1.007713,1.328759,1.147786,-0.805519,1.312042,0.816365,-0.949599,1.839855,1.045497
143,1.191667,-1.001366,1.844132,1.125277,-0.797786,1.827397,0.794480,-1.007691,1.328692,1.147721,-0.805491,1.311990,0.816302,-0.949566,1.839793,1.045462
144,1.200000,-1.001413,1.844189,1.125304,-0.797820,1.827436,0.794515,-1.007732,1.328751,1.147781,-0.805520,1.312030,0.816370,-0.949610,1.839846,1.045491
145,1.208333,-1.001404,1.844183,1.125300,-0.797813,1.827437,0.794510,-1.007703,1.328744,1.147776,-0.805493,1.312031,0.816364,-0.949601,1.839841,1.045487
146,1.216667,-1.001416,1.844197,1.125315,-0.797823,1.827442,0.794527,-1.007721,1.328759,1.147802,-0.805509,1.312037,0.816392,-0.949613,1.839853,1.045503
147,1.225000,-1.001415,1.844199,1.125311,-0.797822,1.827439,0.794523,-1.007732,1.328761,1.147799,-0.805519,1.312034,0.816389,-0.949612,1.839854,1.045498
148,1.233333,-1.001075,1.844265,1.125360,-0.797780,1.827160,0.794407,-1.007892,1.328843,1.148072,-0.805978,1.311772,0.816497,-0.949344,1.839833,1.045506
149,1.241667,-1.001404,1.844184,1.125309,-0.797821,1.827428,0.794515,-1.007720,1.328746,1.147792,-0.805518,1.312023,0.816376,-0.949603,1.839840,1.045496
150,1.250000,-1.001420,1.844200,1.125321,-0.797832,1.827443,0.794530,-1.007741,1.328761,1.147801,-0.805533,1.312038,0.816387,-0.949618,1.839855,1.045508
151,1.258333,-1.001582,1.843849,1.125257,-0.797746,1.827535,0.794597,-1.007465,1.328387,1.147323,-0.805009,1.312106,0.816038,-0.949720,1.839614,1.045477
152,1.266667,-1.001393,1.844139,1.125281,-0.797807,1.827407,0.794489,-1.007678,1.328700,1.147745,-0.805472,1.312001,0.816330,-0.949592,1.839801,1.045468
153,1.275000,-1.001412,1.844183,1.125299,-0.797819,1.827425,0.794512,-1.007728,1.328744,1.147785,-0.805515,1.312020,0.816375,-0.949609,1.839838,1.045487
154,1.283333,-1.001395,1.844134,1.125268,-0.797804,1.827397,0.794478,-1.007687,1.328695,1.147735,-0.805476,1.311991,0.816323,-0.949592,1.839795,1.045456
155,1.291667,-1.001398,1.844178,1.125297,-0.797816,1.827416,0.794503,-1.007714,1.328740,1.147789,-0.805512,1.312011,0.816372,-0.949598,1.839832,1.045483
156,1.300000,-1.001408,1.844187,1.125291,-0.797819,1.827430,0.794501,-1.007721,1.328749,1.147777,-0.805513,1.312025,0.816364,-0.949606,1.839843,1.045479
157,1.308333,-1.001401,1.844207,1.125293,-0.797818,1.827433,0.794500,-1.007732,1.328769,1.147795,-0.805529,1.312028,0.816379,-0.949600,1.839858,1.045479
158,1.316667,-1.001378,1.844131,1.125253,-0.797792,1.827395,0.794460,-1.007671,1.328692,1.147719,-0.805466,1.311988,0.816303,-0.949576,1.839792,1.045440
159,1.325000,-1.001084,1.844260,1.125335,-0.797778,1.827146,0.794389,-1.007904,1.328839,1.148061,-0.805979,1.311759,0.816493,-0.949350,1.839827,1.045483
160,1.333333,-1.001416,1.844200,1.125289,-0.797828,1.827431,0.794499,-1.007728,1.328763,1.147795,-0.805521,1.312027,0.816382,-0.949614,1.839853,1.045477
161,1.341667,-1.001405,1.844204,1.125288,-0.797828,1.827433,0.794491,-1.007734,1.328766,1.147785,-0.805537,1.312029,0.816366,-0.949605,1.839856,1.045473
162,1.350000,-1.001371,1.844135,1.125244,-0.797790,1.827391,0.794449,-1.007682,1.328696,1.147711,-0.805481,1.311985,0.816293,-0.949571,1.839794,1.045430
163,1.358333,-1.001407,1.844200,1.125275,-0.797820,1.827433,0.794484,-1.007738,1.328762,1.147764,-0.805531,1.312029,0.816350,-0.949605,1.839853,1.045462
164,1.366667,-1.001390,1.844185,1.125267,-0.797808,1.827414,0.794474,-1.007708,1.328748,1.147772,-0.805506,1.312009,0.816356,-0.949590,1.839837,1.045453
165,1.375000,-1.001391,1.844187,1.125270,-0.797822,1.827421,0.794468,-1.007715,1.328750,1.147763,-0.805526,1.312016,0.816339,-0.949593,1.839841,1.045454
166,1.383333,-1.001378,1.844136,1.125222,-0.797786,1.827386,0.794433,-1.007686,1.328697,1.147699,-0.805475,1.311981,0.816287,-0.949575,1.839793,1.045409
167,1.391667,-1.001393,1.844184,1.125257,-0.797811,1.827424,0.794462,-1.007707,1.328747,1.147748,-0.805506,1.312019,0.816331,-0.949593,1.839839,1.045443
168,1.400000,-1.001394,1.844199,1.125258,-0.797812,1.827420,0.794465,-1.007722,1.328762,1.147769,-0.805520,1.312016,0.816353,-0.949593,1.839849,1.045444
169,1.408333,-1.001388,1.844204,1.125263,-0.797813,1.827421,0.794466,-1.007728,1.328768,1.147774,-0.805532,1.312017,0.816354,-0.949589,1.839853,1.045448
170,1.416667,-1.001049,1.844338,1.125327,-0.797841,1.827136,0.794326,-1.007961,1.328921,1.148130,-0.806134,1.311754,0.816507,-0.949339,1.839883,1.045461
171,1.425000,-1.001036,1.844343,1.125310,-0.797834,1.827152,0.794304,-1.007960,1.328926,1.148088,-0.806139,1.311769,0.816461,-0.949328,1.839890,1.045442
172,1.433333,-1.001040,1.844329,1.125340,-0.797846,1.827137,0.794329,-1.007975,1.328912,1.148114,-0.806162,1.311754,0.816482,-0.949333,1.839876,1.045471
173,1.441667,-1.001380,1.844187,1.125246,-0.797798,1.827408,0.794453,-1.007714,1.328750,1.147754,-0.805512,1.312004,0.816338,-0.949579,1.839837,1.045432
174,1.450000,-1.001380,1.844184,1.125250,-0.797800,1.827408,0.794456,-1.007707,1.328747,1.147757,-0.805508,1.312004,0.816339,-0.949580,1.839835,1.045436
175,1.458333,-1.001011,1.844342,1.125355,-0.797838,1.827150,0.794332,-1.007946,1.328925,1.148127,-0.806154,1.311767,0.816483,-0.949309,1.839889,1.045483
176,1.466667,-1.001735,1.844214,1.124925,-0.797727,1.827752,0.794379,-1.007203,1.328770,1.147483,-0.804575,1.312338,0.816312,-0.949831,1.839946,1.045174
177,1.475000,-1.001379,1.844196,1.125247,-0.797796,1.827427,0.794455,-1.007705,1.328759,1.147744,-0.805502,1.312023,0.816329,-0.949578,1.839849,1.045434
178,1.483333,-1.001379,1.844190,1.125245,-0.797788,1.827421,0.794457,-1.007714,1.328753,1.147738,-0.805503,1.312016,0.816327,-0.949576,1.839843,1.045433
179,1.491667,-1.001381,1.844179,1.125248,-0.797798,1.827412,0.794455,-1.007698,1.328742,1.147749,-0.805495,1.312007,0.816333,-0.949580,1.839832,1.045435
180,1.500000,-1.001371,1.844188,1.125253,-0.797793,1.827414,0.794457,-1.007710,1.328751,1.147750,-0.805512,1.312010,0.816331,-0.949572,1.839840,1.045439
181,1.508333,-1.001739,1.844209,1.124925,-0.797714,1.827745,0.794389,-1.007216,1.328764,1.147480,-0.804571,1.312331,0.816319,-0.949831,1.839940,1.045177
182,1.516667,-1.001374,1.844200,1.125249,-0.797791,1.827423,0.794457,-1.007693,1.328763,1.147762,-0.805490,1.312019,0.816347,-0.949573,1.839851,1.045436
183,1.525000,-1.001370,1.844195,1.125261,-0.797786,1.827425,0.794469,-1.007699,1.328757,1.147758,-0.805495,1.312020,0.816342,-0.949569,1.839847,1.045448
184,1.533333,-1.001383,1.844202,1.125280,-0.797809,1.827432,0.794481,-1.007708,1.328765,1.147779,-0.805514,1.312028,0.816357,-0.949584,1.839855,1.045465
185,1.541667,-1.001583,1.843891,1.125244,-0.797749,1.827547,0.794584,-1.007473,1.328432,1.147353,-0.805019,1.312120,0.816069,-0.949721,1.839649,1.045465
186,1.550000,-1.001377,1.844195,1.125271,-0.797795,1.827434,0.794477,-1.007698,1.328757,1.147758,-0.805496,1.312029,0.816341,-0.949576,1.839849,1.045457
187,1.558333,-1.001038,1.844360,1.125353,-0.797847,1.827158,0.794342,-1.007948,1.328943,1.148157,-0.806137,1.311776,0.816524,-0.949332,1.839905,1.045484
188,1.566667,-1.001378,1.844193,1.125275,-0.797789,1.827426,0.794486,-1.007690,1.328756,1.147777,-0.805481,1.312022,0.816365,-0.949576,1.839846,1.045463
189,1.575000,-1.001727,1.844201,1.124967,-0.797733,1.827747,0.794411,-1.007186,1.328756,1.147516,-0.804571,1.312333,0.816336,-0.949827,1.839934,1.045214
190,1.583333,-1.001348,1.844129,1.125251,-0.797762,1.827389,0.794458,-1.007650,1.328690,1.147718,-0.805444,1.311982,0.816302,-0.949546,1.839789,1.045438
191,1.591667,-1.001382,1.844191,1.125290,-0.797794,1.827439,0.794499,-1.007672,1.328753,1.147781,-0.805465,1.312034,0.816368,-0.949580,1.839848,1.045477
192,1.600000,-1.001380,1.844190,1.125294,-0.797792,1.827432,0.794503,-1.007696,1.328752,1.147779,-0.805488,1.312027,0.816366,-0.949578,1.839845,1.045481
193,1.608333,-1.001028,1.844313,1.125372,-0.797823,1.827157,0.794366,-1.007915,1.328894,1.148118,-0.806091,1.311772,0.816492,-0.949319,1.839869,1.045504
194,1.616667,-1.001377,1.844178,1.125299,-0.797791,1.827418,0.794508,-1.007704,1.328740,1.147782,-0.805498,1.312013,0.816368,-0.949576,1.839833,1.045486
195,1.625000,-1.001377,1.844180,1.125306,-0.797806,1.827423,0.794505,-1.007701,1.328742,1.147786,-0.805510,1.312018,0.816362,-0.949580,1.839836,1.045491
196,1.633333,-1.001392,1.844180,1.125307,-0.797808,1.827430,0.794514,-1.007706,1.328741,1.147782,-0.805502,1.312024,0.816366,-0.949591,1.839837,1.045494
197,1.641667,-1.001390,1.844184,1.125301,-0.797802,1.827431,0.794510,-1.007699,1.328745,1.147784,-0.805490,1.312026,0.816370,-0.949588,1.839840,1.045488
198,1.650000,-1.001396,1.844180,1.125309,-0.797809,1.827429,0.794517,-1.007709,1.328742,1.147786,-0.805502,1.312023,0.816371,-0.949594,1.839837,1.045495
199,1.658333,-1.001402,1.844190,1.125325,-0.797812,1.827438,0.794536,-1.007713,1.328751,1.147804,-0.805503,1.312033,0.816392,-0.949600,1.839847,1.045513
200,1.666667,-1.001365,1.844151,1.125319,-0.797798,1.827385,0.794515,-1.007760,1.328712,1.147767,-0.805573,1.311980,0.816342,-0.949568,1.839804,1.045502
201,1.675000,-1.001398,1.844174,1.125304,-0.797810,1.827420,0.794513,-1.007719,1.328736,1.147781,-0.805511,1.312015,0.816368,-0.949596,1.839830,1.045491
202,1.683333,-1.001397,1.844172,1.125306,-0.797815,1.827428,0.794511,-1.007702,1.328733,1.147777,-0.805500,1.312022,0.816359,-0.949596,1.839831,1.045492
203,1.691667,-1.001368,1.844153,1.125320,-0.797809,1.827385,0.794512,-1.007764,1.328714,1.147771,-0.805585,1.311980,0.816341,-0.949573,1.839805,1.045502
204,1.700000,-1.001408,1.844177,1.125308,-0.797819,1.827432,0.794518,-1.007708,1.328738,1.147784,-0.805499,1.312026,0.816371,-0.949606,1.839836,1.045495
205,1.708333,-1.001575,1.843830,1.125251,-0.797733,1.827532,0.794594,-1.007469,1.328367,1.147285,-0.805006,1.312101,0.816005,-0.949712,1.839598,1.045472
206,1.716667,-1.001414,1.844190,1.125314,-0.797828,1.827436,0.794522,-1.007734,1.328752,1.147793,-0.805528,1.312030,0.816378,-0.949613,1.839847,1.045501
207,1.725000,-1.001403,1.844179,1.125301,-0.797818,1.827427,0.794508,-1.007714,1.328740,1.147780,-0.805508,1.312022,0.816365,-0.949602,1.839835,1.045487
208,1.733333,-1.001076,1.844263,1.125364,-0.797754,1.827149,0.794428,-1.007911,1.328842,1.148080,-0.805970,1.311762,0.816522,-0.949338,1.839830,1.045514
209,1.741667,-1.001394,1.844189,1.125304,-0.797813,1.827433,0.794509,-1.007711,1.328750,1.147785,-0.805510,1.312028,0.816367,-0.949594,1.839845,1.045490
210,1.750000,-1.001374,1.844137,1.125278,-0.797789,1.827405,0.794485,-1.007687,1.328697,1.147726,-0.805482,1.311998,0.816310,-0.949573,1.839799,1.045465
211,1.758333,-1.001404,1.844191,1.125292,-0.797813,1.827431,0.794504,-1.007721,1.328753,1.147780,-0.805509,1.312027,0.816369,-0.949601,1.839846,1.045480
212,1.766667,-1.001773,1.844197,1.124960,-0.797768,1.827741,0.794412,-1.007232,1.328752,1.147512,-0.804606,1.312327,0.816339,-0.949870,1.839929,1.045209
213,1.775000,-1.001006,1.844370,1.125384,-0.797841,1.827173,0.794356,-1.007939,1.328953,1.148166,-0.806154,1.311790,0.816517,-0.949307,1.839916,1.045511
214,1.783333,-1.001399,1.844190,1.125290,-0.797818,1.827434,0.794495,-1.007708,1.328752,1.147776,-0.805508,1.312029,0.816358,-0.949598,1.839846,1.045476
215,1.791667,-1.001396,1.844188,1.125285,-0.797809,1.827425,0.794494,-1.007710,1.328751,1.147780,-0.805503,1.312020,0.816367,-0.949594,1.839842,1.045472
216,1.800000,-1.001393,1.844189,1.125285,-0.797816,1.827431,0.794487,-1.007708,1.328751,1.147770,-0.805511,1.312026,0.816350,-0.949594,1.839844,1.045470
217,1.808333,-1.001395,1.844187,1.125286,-0.797818,1.827428,0.794488,-1.007704,1.328749,1.147777,-0.805507,1.312023,0.816357,-0.949596,1.839842,1.045471
218,1.816667,-1.001387,1.844185,1.125273,-0.797803,1.827420,0.794480,-1.007707,1.328747,1.147765,-0.805503,1.312016,0.816350,-0.949586,1.839838,1.045459
219,1.825000,-1.001400,1.844182,1.125265,-0.797805,1.827422,0.794479,-1.007711,1.328744,1.147757,-0.805496,1.312017,0.816348,-0.949596,1.839837,1.045454
220,1.833333,-1.001389,1.844187,1.125267,-0.797801,1.827429,0.794477,-1.007705,1.328749,1.147754,-0.805498,1.312024,0.816340,-0.949587,1.839843,1.045455
221,1.841667,-1.001387,1.844188,1.125260,-0.797796,1.827423,0.794471,-1.007697,1.328750,1.147759,-0.805486,1.312019,0.816348,-0.949585,1.839841,1.045447
222,1.850000,-1.001387,1.844183,1.125263,-0.797794,1.827416,0.794476,-1.007698,1.328745,1.147765,-0.805485,1.312012,0.816356,-0.949584,1.839836,1.045451
223,1.858333,-1.001380,1.844183,1.125262,-0.797796,1.827417,0.794469,-1.007691,1.328746,1.147763,-0.805487,1.312013,0.816348,-0.949579,1.839837,1.045448
224,1.866667,-1.001383,1.844189,1.125259,-0.797798,1.827428,0.794467,-1.007701,1.328752,1.147749,-0.805497,1.312023,0.816333,-0.949581,1.839844,1.045446
225,1.875000,-1.001388,1.844200,1.125269,-0.797806,1.827430,0.794475,-1.007699,1.328763,1.147776,-0.805498,1.312026,0.816359,-0.949587,1.839853,1.045455
226,1.883333,-1.001383,1.844187,1.125246,-0.797792,1.827416,0.794458,-1.007691,1.328750,1.147756,-0.805481,1.312012,0.816346,-0.949580,1.839839,1.045433
227,1.891667,-1.001342,1.844128,1.125214,-0.797760,1.827382,0.794419,-1.007644,1.328690,1.147691,-0.805442,1.311976,0.816273,-0.949542,1.839786,1.045400
228,1.900000,-1.001375,1.844186,1.125259,-0.797799,1.827417,0.794462,-1.007698,1.328748,1.147758,-0.805502,1.312012,0.816338,-0.949576,1.839838,1.045444
229,1.908333,-1.001373,1.844187,1.125251,-0.797790,1.827419,0.794457,-1.007690,1.328750,1.147751,-0.805487,1.312015,0.816335,-0.949572,1.839840,1.045437
230,1.916667,-1.001369,1.844195,1.125250,-0.797795,1.827427,0.794451,-1.007677,1.328758,1.147755,-0.805484,1.312023,0.816333,-0.949570,1.839848,1.045435
231,1.925000,-1.001363,1.844198,1.125249,-0.797782,1.827432,0.794455,-1.007683,1.328761,1.147745,-0.805482,1.312028,0.816328,-0.949563,1.839852,1.045435
232,1.933333,-1.001373,1.844193,1.125247,-0.797792,1.827423,0.794454,-1.007685,1.328756,1.147754,-0.805483,1.312019,0.816338,-0.949573,1.839845,1.045434
233,1.941667,-1.001537,1.843832,1.125196,-0.797686,1.827503,0.794546,-1.007443,1.328371,1.147271,-0.804972,1.312075,0.815997,-0.949671,1.839593,1.045419
234,1.950000,-1.001366,1.844196,1.125249,-0.797787,1.827414,0.794455,-1.007687,1.328759,1.147768,-0.805487,1.312011,0.816351,-0.949567,1.839845,1.045435
235,1.958333,-1.001370,1.844194,1.125252,-0.797790,1.827418,0.794458,-1.007684,1.328757,1.147768,-0.805484,1.312014,0.816351,-0.949570,1.839845,1.045439
236,1.966667,-1.001368,1.844198,1.125259,-0.797795,1.827430,0.794460,-1.007679,1.328761,1.147764,-0.805485,1.312026,0.816342,-0.949570,1.839851,1.045444
237,1.975000,-1.001374,1.844202,1.125274,-0.797809,1.827431,0.794470,-1.007699,1.328765,1.147774,-0.805515,1.312027,0.816347,-0.949577,1.839854,1.045457
238,1.983333,-1.001364,1.844181,1.125257,-0.797786,1.827407,0.794461,-1.007682,1.328744,1.147767,-0.805484,1.312003,0.816348,-0.949565,1.839833,1.045443
239,1.991667,-1.001370,1.844187,1.125255,-0.797777,1.827411,0.794468,-1.007695,1.328750,1.147763,-0.805482,1.312007,0.816354,-0.949567,1.839838,1.045443
240,2.000000,-1.001547,1.843889,1.125253,-0.797708,1.827542,0.794597,-1.007487,1.328429,1.147335,-0.805027,1.312115,0.816055,-0.949684,1.839645,1.045475
241,2.008333,-1.001364,1.844210,1.125283,-0.797794,1.827435,0.794483,-1.007708,1.328772,1.147778,-0.805518,1.312031,0.816355,-0.949566,1.839861,1.045468
242,2.016667,-1.001376,1.844187,1.125271,-0.797787,1.827427,0.794481,-1.007690,1.328749,1.147760,-0.805482,1.312022,0.816347,-0.949574,1.839842,1.045458
243,2.025000,-1.001023,1.844333,1.125367,-0.797840,1.827150,0.794349,-1.007957,1.328915,1.148127,-0.806154,1.311766,0.816489,-0.949319,1.839883,1.045496
244,2.033333,-1.001378,1.844183,1.125282,-0.797785,1.827423,0.794494,-1.007686,1.328745,1.147775,-0.805473,1.312018,0.816365,-0.949575,1.839838,1.045470
245,2.041667,-1.001363,1.844185,1.125280,-0.797789,1.827428,0.794481,-1.007678,1.328747,1.147765,-0.805485,1.312023,0.816342,-0.949564,1.839841,1.045465
246,2.050000,-1.001380,1.844195,1.125286,-0.797790,1.827441,0.794496,-1.007680,1.328757,1.147775,-0.805471,1.312036,0.816363,-0.949577,1.839851,1.045473
247,2.058333,-1.001375,1.844193,1.125285,-0.797793,1.827430,0.794491,-1.007691,1.328755,1.147777,-0.805489,1.312026,0.816360,-0.949575,1.839847,1.045471
248,2.066667,-1.001384,1.844189,1.125282,-0.797795,1.827428,0.794492,-1.007695,1.328751,1.147775,-0.805486,1.312023,0.816363,-0.949582,1.839844,1.045469
249,2.075000,-1.001378,1.844185,1.125284,-0.797786,1.827429,0.794496,-1.007685,1.328747,1.147773,-0.805474,1.312024,0.816361,-0.949575,1.839841,1.045472
250,2.083333,-1.001729,1.844202,1.124969,-0.797721,1.827740,0.794423,-1.007219,1.328757,1.147513,-0.804590,1.312325,0.816342,-0.949825,1.839933,1.045218
251,2.091667,-1.001380,1.844180,1.125289,-0.797798,1.827428,0.794494,-1.007688,1.328742,1.147770,-0.805486,1.312023,0.816353,-0.949579,1.839837,1.045475
252,2.100000,-1.001406,1.844190,1.125306,-0.797810,1.827443,0.794519,-1.007711,1.328751,1.147781,-0.805495,1.312038,0.816372,-0.949602,1.839848,1.045494
253,2.108333,-1.001385,1.844180,1.125294,-0.797795,1.827429,0.794505,-1.007698,1.328742,1.147771,-0.805488,1.312024,0.816358,-0.949583,1.839837,1.045482
254,2.116667,-1.001733,1.844190,1.124982,-0.797732,1.827741,0.794430,-1.007217,1.328744,1.147507,-0.804596,1.312326,0.816331,-0.949831,1.839924,1.045230
255,2.125000,-1.001764,1.844184,1.124959,-0.797762,1.827733,0.794408,-1.007204,1.328739,1.147515,-0.804582,1.312318,0.816340,-0.949862,1.839918,1.045207
256,2.133333,-1.001376,1.844130,1.125274,-0.797786,1.827395,0.794483,-1.007677,1.328691,1.147732,-0.805468,1.311989,0.816318,-0.949573,1.839791,1.045461
257,2.141667,-1.001396,1.844185,1.125296,-0.797808,1.827436,0.794505,-1.007699,1.328746,1.147774,-0.805491,1.312031,0.816360,-0.949594,1.839842,1.045483
258,2.150000,-1.001393,1.844181,1.125304,-0.797815,1.827429,0.794507,-1.007711,1.328743,1.147779,-0.805513,1.312024,0.816359,-0.949593,1.839838,1.045490
259,2.158333,-1.001386,1.844179,1.125299,-0.797807,1.827426,0.794503,-1.007697,1.328741,1.147781,-0.805498,1.312021,0.816362,-0.949587,1.839836,1.045485
260,2.166667,-1.001740,1.844201,1.124983,-0.797758,1.827749,0.794420,-1.007237,1.328756,1.147507,-0.804633,1.312334,0.816320,-0.949843,1.839935,1.045228
261,2.175000,-1.001402,1.844180,1.125295,-0.797823,1.827433,0.794498,-1.007706,1.328742,1.147771,-0.805508,1.312028,0.816351,-0.949602,1.839838,1.045481
262,2.183333,-1.001400,1.844178,1.125303,-0.797821,1.827428,0.794507,-1.007711,1.328740,1.147781,-0.805512,1.312022,0.816362,-0.949600,1.839836,1.045489
263,2.191667,-1.001390,1.844183,1.125284,-0.797811,1.827425,0.794488,-1.007700,1.328745,1.147773,-0.805502,1.312020,0.816354,-0.949590,1.839838,1.045470
264,2.200000,-1.001406,1.844180,1.125287,-0.797823,1.827428,0.794493,-1.007705,1.328742,1.147773,-0.805503,1.312023,0.816356,-0.949605,1.839837,1.045473
265,2.208333,-1.001760,1.844198,1.124957,-0.797746,1.827748,0.794413,-1.007227,1.328752,1.147495,-0.804593,1.312333,0.816327,-0.949854,1.839932,1.045207
266,2.216667,-1.001394,1.844187,1.125283,-0.797822,1.827429,0.794483,-1.007704,1.328749,1.147773,-0.805512,1.312024,0.816350,-0.949596,1.839842,1.045468
267,2.225000,-1.001595,1.843884,1.125259,-0.797726,1.827559,0.794620,-1.007498,1.328423,1.147332,-0.805008,1.312130,0.816069,-0.949725,1.839646,1.045485
268,2.233333,-1.001396,1.844184,1.125278,-0.797811,1.827431,0.794486,-1.007706,1.328746,1.147760,-0.805500,1.312026,0.816345,-0.949595,1.839841,1.045465
269,2.241667,-1.001758,1.844217,1.124943,-0.797772,1.827760,0.794383,-1.007201,1.328773,1.147507,-0.804594,1.312346,0.816322,-0.949859,1.839950,1.045189
270,2.250000,-1.001398,1.844188,1.125281,-0.797818,1.827429,0.794485,-1.007709,1.328750,1.147771,-0.805509,1.312024,0.816353,-0.949598,1.839843,1.045467
271,2.258333,-1.001570,1.843842,1.125225,-0.797738,1.827521,0.794563,-1.007458,1.328381,1.147298,-0.805006,1.312093,0.816012,-0.949709,1.839605,1.045445
272,2.266667,-1.001396,1.844187,1.125268,-0.797814,1.827428,0.794474,-1.007714,1.328749,1.147754,-0.805512,1.312023,0.816338,-0.949596,1.839842,1.045455
273,2.275000,-1.001397,1.844197,1.125264,-0.797812,1.827432,0.794472,-1.007710,1.328760,1.147762,-0.805505,1.312027,0.816348,-0.949596,1.839851,1.045451
274,2.283333,-1.001393,1.844184,1.125273,-0.797813,1.827424,0.794478,-1.007705,1.328746,1.147763,-0.805505,1.312019,0.816346,-0.949593,1.839839,1.045459
275,2.291667,-1.001390,1.844183,1.125260,-0.797802,1.827422,0.794469,-1.007703,1.328745,1.147752,-0.805496,1.312017,0.816339,-0.949588,1.839838,1.045447
276,2.300000,-1.001395,1.844190,1.125258,-0.797805,1.827429,0.794469,-1.007698,1.328752,1.147756,-0.805489,1.312024,0.816343,-0.949592,1.839844,1.045446
277,2.308333,-1.001563,1.843860,1.125232,-0.797726,1.827520,0.794574,-1.007458,1.328401,1.147331,-0.805000,1.312093,0.816050,-0.949701,1.839619,1.045452
278,2.316667,-1.001393,1.844196,1.125253,-0.797802,1.827422,0.794465,-1.007713,1.328759,1.147762,-0.805502,1.312018,0.816352,-0.949590,1.839848,1.045441
279,2.325000,-1.001386,1.844197,1.125249,-0.797792,1.827426,0.794463,-1.007699,1.328760,1.147757,-0.805485,1.312022,0.816348,-0.949582,1.839849,1.045437
280,2.333333,-1.001379,1.844195,1.125249,-0.797796,1.827428,0.794456,-1.007697,1.328758,1.147747,-0.805495,1.312024,0.816331,-0.949578,1.839849,1.045436
281,2.341667,-1.001355,1.844120,1.125223,-0.797767,1.827383,0.794431,-1.007671,1.328680,1.147676,-0.805463,1.311976,0.816262,-0.949553,1.839780,1.045410
282,2.350000,-1.001379,1.844192,1.125255,-0.797798,1.827422,0.794460,-1.007701,1.328754,1.147756,-0.805500,1.312017,0.816338,-0.949578,1.839844,1.045441
283,2.358333,-1.001378,1.844188,1.125255,-0.797791,1.827419,0.794464,-1.007702,1.328751,1.147753,-0.805496,1.312014,0.816340,-0.949576,1.839841,1.045442
284,2.366667,-1.001352,1.844144,1.125223,-0.797763,1.827393,0.794433,-1.007659,1.328705,1.147704,-0.805450,1.311987,0.816291,-0.949550,1.839801,1.045411
285,2.375000,-1.001724,1.844223,1.124928,-0.797730,1.827754,0.794373,-1.007188,1.328779,1.147496,-0.804573,1.312341,0.816317,-0.949823,1.839952,1.045175
286,2.383333,-1.001034,1.844358,1.125328,-0.797841,1.827139,0.794318,-1.007969,1.328942,1.148143,-0.806156,1.311758,0.816513,-0.949328,1.839899,1.045459
287,2.391667,-1.001373,1.844193,1.125253,-0.797791,1.827424,0.794459,-1.007687,1.328756,1.147757,-0.805485,1.312020,0.816341,-0.949572,1.839846,1.045439
288,2.400000,-1.001365,1.844203,1.125275,-0.797800,1.827429,0.794471,-1.007698,1.328766,1.147775,-0.805513,1.312024,0.816349,-0.949568,1.839854,1.045459
289,2.408333,-1.001373,1.844211,1.125269,-0.797793,1.827434,0.794475,-1.007700,1.328774,1.147778,-0.805500,1.312030,0.816361,-0.949573,1.839862,1.045455
290,2.416667,-1.001722,1.844219,1.124925,-0.797718,1.827753,0.794376,-1.007185,1.328774,1.147489,-0.804560,1.312340,0.816316,-0.949819,1.839949,1.045173
291,2.425000,-1.001369,1.844187,1.125259,-0.797783,1.827420,0.794468,-1.007682,1.328749,1.147761,-0.805475,1.312015,0.816347,-0.949568,1.839840,1.045446
292,2.433333,-1.001026,1.844327,1.125320,-0.797818,1.827144,0.794318,-1.007919,1.328910,1.148105,-0.806092,1.311761,0.816481,-0.949316,1.839877,1.045453
293,2.441667,-1.001375,1.844207,1.125278,-0.797791,1.827432,0.794486,-1.007705,1.328770,1.147782,-0.805501,1.312028,0.816368,-0.949574,1.839858,1.045465
294,2.450000,-1.001722,1.844204,1.124940,-0.797738,1.827735,0.794379,-1.007195,1.328760,1.147504,-0.804590,1.312322,0.816319,-0.949824,1.839934,1.045185
295,2.458333,-1.001367,1.844205,1.125284,-0.797795,1.827437,0.794484,-1.007679,1.328768,1.147788,-0.805487,1.312033,0.816365,-0.949569,1.839858,1.045469
296,2.466667,-1.001718,1.844216,1.124949,-0.797711,1.827752,0.794402,-1.007199,1.328771,1.147500,-0.804571,1.312338,0.816329,-0.949815,1.839947,1.045198
297,2.475000,-1.001350,1.844148,1.125260,-0.797762,1.827404,0.794468,-1.007663,1.328709,1.147726,-0.805456,1.311998,0.816312,-0.949548,1.839807,1.045447
298,2.483333,-1.001368,1.844185,1.125278,-0.797784,1.827425,0.794485,-1.007670,1.328747,1.147773,-0.805467,1.312021,0.816357,-0.949567,1.839840,1.045464
299,2.491667,-1.001031,1.844334,1.125350,-0.797851,1.827127,0.794331,-1.007934,1.328918,1.148164,-0.806136,1.311746,0.816524,-0.949328,1.839878,1.045479
300,2.500000,-1.001372,1.844193,1.125282,-0.797781,1.827434,0.794494,-1.007676,1.328755,1.147778,-0.805465,1.312029,0.816366,-0.949570,1.839849,1.045470
301,2.508333,-1.001730,1.844216,1.124963,-0.797731,1.827761,0.794411,-1.007176,1.328771,1.147522,-0.804557,1.312347,0.816345,-0.949829,1.839949,1.045211
302,2.516667,-1.001704,1.844217,1.124963,-0.797743,1.827760,0.794388,-1.007177,1.328772,1.147509,-0.804595,1.312345,0.816309,-0.949812,1.839950,1.045205
303,2.525000,-1.001371,1.844181,1.125281,-0.797781,1.827431,0.794492,-1.007673,1.328742,1.147762,-0.805463,1.312026,0.816350,-0.949569,1.839838,1.045469
304,2.533333,-1.001382,1.844203,1.125310,-0.797792,1.827443,0.794521,-1.007685,1.328765,1.147808,-0.805475,1.312038,0.816396,-0.949580,1.839858,1.045498
305,2.541667,-1.001378,1.844190,1.125295,-0.797786,1.827435,0.794507,-1.007689,1.328752,1.147779,-0.805477,1.312030,0.816368,-0.949575,1.839846,1.045483
306,2.550000,-1.001382,1.844180,1.125294,-0.797782,1.827428,0.794510,-1.007678,1.328742,1.147783,-0.805458,1.312023,0.816377,-0.949577,1.839837,1.045483
307,2.558333,-1.001052,1.844323,1.125379,-0.797833,1.827150,0.794383,-1.007941,1.328904,1.148151,-0.806102,1.311766,0.816533,-0.949339,1.839875,1.045514
308,2.566667,-1.001362,1.844141,1.125275,-0.797768,1.827402,0.794487,-1.007674,1.328701,1.147734,-0.805460,1.311995,0.816323,-0.949558,1.839800,1.045463
309,2.575000,-1.001379,1.844184,1.125306,-0.797792,1.827426,0.794515,-1.007697,1.328746,1.147790,-0.805490,1.312021,0.816377,-0.949578,1.839839,1.045493
310,2.583333,-1.001400,1.844187,1.125309,-0.797805,1.827433,0.794522,-1.007700,1.328750,1.147799,-0.805485,1.312027,0.816390,-0.949596,1.839844,1.045497
311,2.591667,-1.001391,1.844172,1.125307,-0.797808,1.827427,0.794512,-1.007691,1.328733,1.147782,-0.805489,1.312021,0.816365,-0.949590,1.839831,1.045493
312,2.600000,-1.001387,1.844185,1.125316,-0.797816,1.827439,0.794515,-1.007695,1.328747,1.147789,-0.805504,1.312033,0.816365,-0.949589,1.839843,1.045500
313,2.608333,-1.001395,1.844212,1.125313,-0.797818,1.827452,0.794516,-1.007709,1.328774,1.147803,-0.805512,1.312047,0.816383,-0.949595,1.839867,1.045498
314,2.616667,-1.001373,1.844136,1.125280,-0.797788,1.827404,0.794486,-1.007665,1.328696,1.147740,-0.805461,1.311997,0.816323,-0.949572,1.839798,1.045466
315,2.625000,-1.001046,1.844324,1.125399,-0.797836,1.827168,0.794397,-1.007931,1.328905,1.148147,-0.806102,1.311783,0.816523,-0.949336,1.839880,1.045533
316,2.633333,-1.001372,1.844139,1.125290,-0.797798,1.827407,0.794489,-1.007677,1.328699,1.147742,-0.805483,1.312000,0.816319,-0.949573,1.839800,1.045474
317,2.641667,-1.001405,1.844203,1.125311,-0.797831,1.827445,0.794512,-1.007713,1.328765,1.147800,-0.805519,1.312040,0.816379,-0.949607,1.839858,1.045496
318,2.650000,-1.001414,1.844207,1.125309,-0.797825,1.827448,0.794519,-1.007730,1.328769,1.147798,-0.805521,1.312042,0.816385,-0.949612,1.839862,1.045497
319,2.658333,-1.001396,1.844182,1.125294,-0.797814,1.827428,0.794499,-1.007700,1.328744,1.147781,-0.805499,1.312023,0.816363,-0.949595,1.839838,1.045480
320,2.666667,-1.001402,1.844176,1.125297,-0.797814,1.827428,0.794506,-1.007701,1.328738,1.147779,-0.805493,1.312022,0.816365,-0.949600,1.839834,1.045484
321,2.675000,-1.001390,1.844146,1.125271,-0.797805,1.827411,0.794477,-1.007674,1.328707,1.147741,-0.805469,1.312004,0.816325,-0.949589,1.839807,1.045457
322,2.683333,-1.001404,1.844187,1.125285,-0.797805,1.827434,0.794501,-1.007706,1.328749,1.147771,-0.805487,1.312029,0.816365,-0.949599,1.839844,1.045473
323,2.691667,-1.001402,1.844208,1.125296,-0.797814,1.827437,0.794506,-1.007721,1.328770,1.147799,-0.805514,1.312033,0.816387,-0.949600,1.839860,1.045483
324,2.700000,-1.001401,1.844187,1.125285,-0.797813,1.827433,0.794494,-1.007712,1.328749,1.147768,-0.805505,1.312028,0.816354,-0.949599,1.839844,1.045472
325,2.708333,-1.001408,1.844202,1.125297,-0.797826,1.827439,0.794503,-1.007720,1.328764,1.147792,-0.805518,1.312034,0.816375,-0.949607,1.839856,1.045483
326,2.716667,-1.001399,1.844181,1.125281,-0.797808,1.827427,0.794492,-1.007695,1.328743,1.147773,-0.805484,1.312022,0.816362,-0.949596,1.839837,1.045468
327,2.725000,-1.001385,1.844181,1.125285,-0.797816,1.827420,0.794483,-1.007705,1.328743,1.147773,-0.805516,1.312015,0.816348,-0.949588,1.839836,1.045469
328,2.733333,-1.001397,1.844193,1.125278,-0.797818,1.827430,0.794483,-1.007699,1.328755,1.147779,-0.805500,1.312026,0.816361,-0.949597,1.839847,1.045464
329,2.741667,-1.001367,1.844147,1.125252,-0.797789,1.827408,0.794454,-1.007673,1.328708,1.147715,-0.805475,1.312001,0.816294,-0.949567,1.839807,1.045437
330,2.750000,-1.001734,1.844206,1.124956,-0.797764,1.827737,0.794387,-1.007217,1.328762,1.147515,-0.804627,1.312323,0.816321,-0.949839,1.839936,1.045200
331,2.758333,-1.001384,1.844188,1.125271,-0.797801,1.827425,0.794478,-1.007696,1.328751,1.147768,-0.805492,1.312020,0.816353,-0.949583,1.839842,1.045458
332,2.766667,-1.001358,1.844146,1.125245,-0.797778,1.827394,0.794449,-1.007671,1.328707,1.147722,-0.805471,1.311988,0.816304,-0.949558,1.839803,1.045431
333,2.775000,-1.001382,1.844210,1.125282,-0.797812,1.827430,0.794481,-1.007719,1.328773,1.147788,-0.805530,1.312026,0.816364,-0.949584,1.839860,1.045466
334,2.783333,-1.001063,1.844287,1.125326,-0.797755,1.827149,0.794383,-1.007944,1.328867,1.148051,-0.806017,1.311763,0.816486,-0.949329,1.839848,1.045474
335,2.791667,-1.001372,1.844187,1.125269,-0.797797,1.827425,0.794470,-1.007691,1.328749,1.147759,-0.805496,1.312020,0.816338,-0.949573,1.839842,1.045454
336,2.800000,-1.001727,1.844208,1.124939,-0.797737,1.827742,0.794382,-1.007188,1.328763,1.147506,-0.804577,1.312328,0.816324,-0.949827,1.839938,1.045186
337,2.808333,-1.001069,1.844302,1.125319,-0.797760,1.827142,0.794377,-1.007965,1.328883,1.148069,-0.806037,1.311757,0.816506,-0.949334,1.839857,1.045468
338,2.816667,-1.001574,1.843883,1.125246,-0.797700,1.827562,0.794610,-1.007470,1.328422,1.147315,-0.804976,1.312133,0.816055,-0.949703,1.839646,1.045472
339,2.825000,-1.001341,1.844110,1.125226,-0.797765,1.827373,0.794428,-1.007650,1.328670,1.147683,-0.805453,1.311967,0.816262,-0.949542,1.839770,1.045411
340,2.833333,-1.001364,1.844180,1.125256,-0.797783,1.827411,0.794462,-1.007677,1.328743,1.147760,-0.805476,1.312007,0.816343,-0.949564,1.839833,1.045443
341,2.841667,-1.001368,1.844191,1.125258,-0.797787,1.827424,0.794464,-1.007680,1.328753,1.147760,-0.805479,1.312020,0.816343,-0.949568,1.839844,1.045445
342,2.850000,-1.001368,1.844184,1.125266,-0.797787,1.827422,0.794472,-1.007681,1.328746,1.147759,-0.805479,1.312018,0.816343,-0.949568,1.839839,1.045452
343,2.858333,-1.001364,1.844175,1.125266,-0.797791,1.827415,0.794467,-1.007660,1.328738,1.147768,-0.805467,1.312010,0.816346,-0.949566,1.839830,1.045451
344,2.866667,-1.001365,1.844200,1.125280,-0.797786,1.827421,0.794485,-1.007690,1.328763,1.147792,-0.805491,1.312018,0.816374,-0.949565,1.839850,1.045466
345,2.875000,-1.001561,1.843911,1.125268,-0.797785,1.827556,0.794574,-1.007478,1.328452,1.147376,-0.805081,1.312129,0.816058,-0.949714,1.839666,1.045480
346,2.883333,-1.001719,1.844206,1.124957,-0.797754,1.827744,0.794384,-1.007191,1.328761,1.147510,-0.804605,1.312330,0.816313,-0.949826,1.839937,1.045200
347,2.891667,-1.001330,1.844136,1.125246,-0.797742,1.827382,0.794455,-1.007653,1.328697,1.147720,-0.805446,1.311977,0.816306,-0.949528,1.839792,1.045433
348,2.900000,-1.001334,1.844133,1.125251,-0.797765,1.827381,0.794448,-1.007650,1.328695,1.147726,-0.805461,1.311976,0.816301,-0.949537,1.839790,1.045435
349,2.908333,-1.001361,1.844190,1.125284,-0.797783,1.827423,0.794487,-1.007690,1.328752,1.147775,-0.805493,1.312018,0.816355,-0.949562,1.839843,1.045469
350,2.916667,-1.001345,1.844134,1.125252,-0.797763,1.827393,0.794457,-1.007664,1.328694,1.147709,-0.805461,1.311987,0.816291,-0.949544,1.839793,1.045438
351,2.925000,-1.001357,1.844175,1.125275,-0.797776,1.827412,0.794480,-1.007674,1.328737,1.147767,-0.805473,1.312007,0.816350,-0.949556,1.839829,1.045461
352,2.933333,-1.001338,1.844136,1.125266,-0.797771,1.827391,0.794462,-1.007654,1.328697,1.147732,-0.805467,1.311985,0.816305,-0.949541,1.839795,1.045450
353,2.941667,-1.001383,1.844208,1.125297,-0.797804,1.827445,0.794502,-1.007701,1.328771,1.147790,-0.805501,1.312041,0.816371,-0.949583,1.839862,1.045483
354,2.950000,-1.001377,1.844197,1.125302,-0.797801,1.827432,0.794504,-1.007688,1.328760,1.147802,-0.805492,1.312027,0.816382,-0.949578,1.839851,1.045487
355,2.958333,-1.001369,1.844172,1.125289,-0.797781,1.827417,0.794498,-1.007683,1.328734,1.147773,-0.805475,1.312011,0.816360,-0.949567,1.839828,1.045476
356,2.966667,-1.001375,1.844204,1.125295,-0.797790,1.827429,0.794503,-1.007707,1.328767,1.147797,-0.805503,1.312025,0.816382,-0.949574,1.839855,1.045482
357,2.975000,-1.001359,1.844135,1.125271,-0.797779,1.827396,0.794475,-1.007653,1.328696,1.147741,-0.805453,1.311990,0.816322,-0.949559,1.839795,1.045457
358,2.983333,-1.001396,1.844201,1.125308,-0.797808,1.827436,0.794518,-1.007704,1.328764,1.147809,-0.805496,1.312032,0.816396,-0.949594,1.839855,1.045495
359,2.991667,-1.001025,1.844327,1.125380,-0.797829,1.827150,0.794371,-1.007933,1.328909,1.148148,-0.806118,1.311766,0.816517,-0.949318,1.839878,1.045512
360,3.000000,-1.001388,1.844179,1.125299,-0.797804,1.827427,0.794505,-1.007684,1.328741,1.147787,-0.805481,1.312022,0.816371,-0.949587,1.839836,1.045485
361,3.008333,-1.001377,1.844180,1.125297,-0.797793,1.827426,0.794504,-1.007684,1.328742,1.147782,-0.805479,1.312021,0.816366,-0.949576,1.839836,1.045484
362,3.016667,-1.001388,1.844199,1.125309,-0.797798,1.827434,0.794519,-1.007714,1.328761,1.147799,-0.805505,1.312029,0.816387,-0.949586,1.839853,1.045496
363,3.025000,-1.001380,1.844174,1.125309,-0.797810,1.827417,0.794507,-1.007692,1.328736,1.147795,-0.805503,1.312012,0.816370,-0.949582,1.839829,1.045493
364,3.033333,-1.001396,1.844174,1.125311,-0.797811,1.827425,0.794518,-1.007709,1.328736,1.147784,-0.805504,1.312020,0.816368,-0.949595,1.839832,1.045497
365,3.041667,-1.001073,1.844300,1.125369,-0.797786,1.827159,0.794413,-1.007953,1.328880,1.148098,-0.806047,1.311773,0.816521,-0.949344,1.839860,1.045514
366,3.050000,-1.001364,1.844104,1.125270,-0.797782,1.827392,0.794474,-1.007654,1.328663,1.147700,-0.805452,1.311985,0.816280,-0.949563,1.839770,1.045456
367,3.058333,-1.001391,1.844173,1.125301,-0.797809,1.827418,0.794507,-1.007704,1.328735,1.147784,-0.805503,1.312012,0.816367,-0.949590,1.839829,1.045488
368,3.066667,-1.001394,1.844179,1.125307,-0.797806,1.827433,0.794516,-1.007701,1.328740,1.147778,-0.805494,1.312028,0.816364,-0.949592,1.839837,1.045494
369,3.075000,-1.001409,1.844204,1.125319,-0.797831,1.827441,0.794522,-1.007720,1.328767,1.147816,-0.805522,1.312036,0.816397,-0.949609,1.839858,1.045504
370,3.083333,-1.001603,1.843857,1.125278,-0.797733,1.827561,0.794637,-1.007478,1.328394,1.147319,-0.804988,1.312131,0.816055,-0.949733,1.839626,1.045503
371,3.091667,-1.001396,1.844168,1.125297,-0.797803,1.827417,0.794509,-1.007701,1.328730,1.147779,-0.805488,1.312012,0.816368,-0.949593,1.839825,1.045485
372,3.100000,-1.001584,1.843879,1.125281,-0.797739,1.827544,0.794627,-1.007509,1.328419,1.147354,-0.805044,1.312116,0.816077,-0.949719,1.839639,1.045503
373,3.108333,-1.001593,1.843882,1.125280,-0.797734,1.827543,0.794635,-1.007508,1.328422,1.147365,-0.805029,1.312115,0.816096,-0.949726,1.839641,1.045504
374,3.116667,-1.001400,1.844176,1.125295,-0.797809,1.827430,0.794506,-1.007688,1.328738,1.147781,-0.805477,1.312024,0.816369,-0.949597,1.839835,1.045483
375,3.125000,-1.001393,1.844177,1.125298,-0.797823,1.827419,0.794496,-1.007699,1.328739,1.147789,-0.805509,1.312014,0.816365,-0.949595,1.839832,1.045482
376,3.133333,-1.001407,1.844198,1.125303,-0.797821,1.827440,0.794512,-1.007708,1.328761,1.147799,-0.805503,1.312035,0.816385,-0.949605,1.839854,1.045490
377,3.141667,-1.001071,1.844271,1.125345,-0.797789,1.827152,0.794384,-1.007912,1.328850,1.148063,-0.806011,1.311765,0.816481,-0.949343,1.839837,1.045489
378,3.150000,-1.001758,1.844193,1.124965,-0.797756,1.827748,0.794414,-1.007192,1.328747,1.147515,-0.804571,1.312333,0.816339,-0.949855,1.839928,1.045213
379,3.158333,-1.001385,1.844181,1.125283,-0.797804,1.827418,0.794489,-1.007692,1.328743,1.147781,-0.805491,1.312014,0.816364,-0.949584,1.839835,1.045469
380,3.166667,-1.001745,1.844202,1.124962,-0.797756,1.827752,0.794403,-1.007194,1.328757,1.147512,-0.804584,1.312337,0.816329,-0.949846,1.839936,1.045208
381,3.175000,-1.001404,1.844198,1.125303,-0.797824,1.827434,0.794507,-1.007710,1.328760,1.147803,-0.805510,1.312029,0.816385,-0.949604,1.839852,1.045488
382,3.183333,-1.001041,1.844318,1.125367,-0.797831,1.827162,0.794364,-1.007911,1.328899,1.148125,-0.806082,1.311777,0.816501,-0.949331,1.839874,1.045500
383,3.191667,-1.001590,1.843889,1.125249,-0.797737,1.827545,0.794600,-1.007498,1.328429,1.147346,-0.805025,1.312118,0.816074,-0.949724,1.839646,1.045472
384,3.200000,-1.001402,1.844202,1.125288,-0.797821,1.827435,0.794494,-1.007709,1.328764,1.147793,-0.805508,1.312031,0.816376,-0.949602,1.839855,1.045474
385,3.208333,-1.001388,1.844205,1.125287,-0.797820,1.827433,0.794484,-1.007710,1.328768,1.147789,-0.805523,1.312029,0.816364,-0.949591,1.839857,1.045471
386,3.216667,-1.001353,1.844111,1.125235,-0.797779,1.827371,0.794435,-1.007667,1.328672,1.147694,-0.805474,1.311965,0.816271,-0.949554,1.839771,1.045420
387,3.225000,-1.001375,1.844181,1.125278,-0.797810,1.827423,0.794474,-1.007683,1.328744,1.147770,-0.805497,1.312018,0.816343,-0.949578,1.839837,1.045462
388,3.233333,-1.001357,1.844141,1.125242,-0.797778,1.827390,0.794446,-1.007670,1.328702,1.147719,-0.805472,1.311984,0.816299,-0.949557,1.839798,1.045428
389,3.241667,-1.001387,1.844204,1.125280,-0.797806,1.827431,0.794486,-1.007706,1.328767,1.147786,-0.805505,1.312027,0.816370,-0.949587,1.839856,1.045466
390,3.250000,-1.001349,1.844114,1.125228,-0.797764,1.827374,0.794434,-1.007660,1.328674,1.147688,-0.805455,1.311968,0.816272,-0.949548,1.839773,1.045414
391,3.258333,-1.001726,1.844202,1.124936,-0.797721,1.827739,0.794388,-1.007180,1.328758,1.147502,-0.804555,1.312325,0.816329,-0.949823,1.839933,1.045185
392,3.266667,-1.001729,1.844213,1.124949,-0.797731,1.827740,0.794397,-1.007195,1.328769,1.147524,-0.804575,1.312327,0.816348,-0.949828,1.839942,1.045197
393,3.275000,-1.001380,1.844196,1.125282,-0.797808,1.827424,0.794482,-1.007706,1.328759,1.147783,-0.805514,1.312020,0.816360,-0.949582,1.839848,1.045467
394,3.283333,-1.001725,1.844206,1.124942,-0.797730,1.827744,0.794388,-1.007188,1.328762,1.147501,-0.804572,1.312330,0.816323,-0.949824,1.839938,1.045189
395,3.291667,-1.001567,1.843890,1.125244,-0.797697,1.827542,0.794607,-1.007474,1.328431,1.147350,-0.804983,1.312115,0.816089,-0.949697,1.839646,1.045470
396,3.300000,-1.001579,1.843906,1.125262,-0.797705,1.827564,0.794626,-1.007486,1.328446,1.147357,-0.804992,1.312137,0.816098,-0.949707,1.839664,1.045488
397,3.308333,-1.001348,1.844144,1.125240,-0.797758,1.827394,0.794450,-1.007663,1.328706,1.147714,-0.805454,1.311989,0.816301,-0.949545,1.839801,1.045427
398,3.316667,-1.001727,1.844206,1.124940,-0.797719,1.827743,0.794394,-1.007193,1.328761,1.147499,-0.804564,1.312329,0.816329,-0.949823,1.839937,1.045189
399,3.325000,-1.001351,1.844141,1.125245,-0.797762,1.827397,0.794454,-1.007662,1.328702,1.147712,-0.805453,1.311991,0.816298,-0.949549,1.839799,1.045432
400,3.333333,-1.001371,1.844188,1.125270,-0.797791,1.827427,0.794475,-1.007682,1.328750,1.147763,-0.805482,1.312022,0.816345,-0.949571,1.839842,1.045456
401,3.341667,-1.001371,1.844195,1.125283,-0.797789,1.827428,0.794489,-1.007677,1.328757,1.147789,-0.805475,1.312023,0.816372,-0.949571,1.839848,1.045469
402,3.350000,-1.001367,1.844177,1.125270,-0.797778,1.827420,0.794480,-1.007665,1.328739,1.147764,-0.805456,1.312015,0.816351,-0.949565,1.839832,1.045457
403,3.358333,-1.001364,1.844183,1.125276,-0.797782,1.827418,0.794482,-1.007675,1.328745,1.147775,-0.805473,1.312014,0.816358,-0.949563,1.839837,1.045463
404,3.366667,-1.001701,1.844202,1.124954,-0.797719,1.827730,0.794392,-1.007190,1.328757,1.147513,-0.804586,1.312316,0.816327,-0.949804,1.839930,1.045199
405,3.375000,-1.001362,1.844183,1.125278,-0.797786,1.827420,0.794480,-1.007676,1.328746,1.147774,-0.805480,1.312015,0.816353,-0.949563,1.839837,1.045463
406,3.383333,-1.001354,1.844131,1.125258,-0.797773,1.827394,0.794462,-1.007651,1.328692,1.147724,-0.805451,1.311987,0.816305,-0.949553,1.839791,1.045444
407,3.391667,-1.001373,1.844185,1.125282,-0.797788,1.827425,0.794490,-1.007686,1.328747,1.147772,-0.805482,1.312020,0.816357,-0.949571,1.839840,1.045469
408,3.400000,-1.001382,1.844202,1.125292,-0.797809,1.827433,0.794493,-1.007691,1.328765,1.147799,-0.805498,1.312029,0.816378,-0.949584,1.839855,1.045477
409,3.408333,-1.001568,1.843863,1.125263,-0.797727,1.827545,0.794606,-1.007445,1.328402,1.147339,-0.804984,1.312116,0.816058,-0.949705,1.839626,1.045484
410,3.416667,-1.001383,1.844196,1.125305,-0.797815,1.827436,0.794502,-1.007679,1.328758,1.147805,-0.805491,1.312032,0.816380,-0.949586,1.839851,1.045489
411,3.425000,-1.001711,1.844213,1.124977,-0.797739,1.827745,0.794408,-1.007181,1.328769,1.147540,-0.804589,1.312331,0.816347,-0.949816,1.839943,1.045220
412,3.433333,-1.001710,1.844204,1.124986,-0.797757,1.827737,0.794405,-1.007204,1.328759,1.147532,-0.804631,1.312323,0.816327,-0.949819,1.839934,1.045227
413,3.441667,-1.001047,1.844330,1.125369,-0.797843,1.827159,0.794364,-1.007925,1.328912,1.148145,-0.806102,1.311775,0.816519,-0.949338,1.839883,1.045502
414,3.450000,-1.001385,1.844193,1.125317,-0.797817,1.827433,0.794513,-1.007694,1.328755,1.147809,-0.805507,1.312028,0.816383,-0.949588,1.839847,1.045500
415,3.458333,-1.001386,1.844176,1.125303,-0.797804,1.827421,0.794509,-1.007692,1.328738,1.147789,-0.805490,1.312016,0.816372,-0.949586,1.839832,1.045489
416,3.466667,-1.001385,1.844183,1.125294,-0.797811,1.827424,0.794494,-1.007691,1.328745,1.147787,-0.805498,1.312019,0.816365,-0.949586,1.839838,1.045479
417,3.475000,-1.001728,1.844209,1.124976,-0.797740,1.827751,0.794417,-1.007184,1.328764,1.147533,-0.804575,1.312337,0.816349,-0.949829,1.839941,1.045222
418,3.483333,-1.001354,1.844115,1.125272,-0.797785,1.827391,0.794468,-1.007655,1.328675,1.147714,-0.805467,1.311984,0.816287,-0.949557,1.839779,1.045455
419,3.491667,-1.001574,1.843849,1.125252,-0.797698,1.827547,0.794616,-1.007450,1.328387,1.147306,-0.804954,1.312117,0.816046,-0.949702,1.839617,1.045478
420,3.500000,-1.001569,1.843852,1.125253,-0.797718,1.827535,0.794603,-1.007471,1.328391,1.147314,-0.804999,1.312106,0.816040,-0.949703,1.839616,1.045476
421,3.508333,-1.001096,1.844273,1.125373,-0.797807,1.827172,0.794416,-1.007911,1.328851,1.148080,-0.806003,1.311784,0.816502,-0.949367,1.839843,1.045518
422,3.516667,-1.001367,1.844133,1.125280,-0.797792,1.827403,0.794480,-1.007672,1.328694,1.147729,-0.805478,1.311996,0.816306,-0.949568,1.839795,1.045465
423,3.525000,-1.001043,1.844331,1.125381,-0.797845,1.827180,0.794370,-1.007910,1.328912,1.148132,-0.806093,1.311795,0.816500,-0.949336,1.839889,1.045512
424,3.533333,-1.001368,1.844151,1.125301,-0.797812,1.827382,0.794491,-1.007758,1.328712,1.147757,-0.805582,1.311977,0.816325,-0.949574,1.839803,1.045483
425,3.541667,-1.001744,1.844203,1.124977,-0.797751,1.827757,0.794421,-1.007200,1.328757,1.147517,-0.804586,1.312342,0.816336,-0.949844,1.839938,1.045224
426,3.550000,-1.001382,1.844143,1.125273,-0.797804,1.827411,0.794475,-1.007672,1.328704,1.147735,-0.805474,1.312004,0.816314,-0.949582,1.839805,1.045458
427,3.558333,-1.001371,1.844136,1.125265,-0.797788,1.827402,0.794470,-1.007668,1.328696,1.147726,-0.805465,1.311995,0.816308,-0.949570,1.839797,1.045451
428,3.566667,-1.001088,1.844259,1.125346,-0.797772,1.827161,0.794406,-1.007881,1.328837,1.148063,-0.805946,1.311773,0.816501,-0.949352,1.839830,1.045496
429,3.575000,-1.001373,1.844140,1.125267,-0.797797,1.827400,0.794469,-1.007686,1.328701,1.147727,-0.805490,1.311994,0.816305,-0.949574,1.839800,1.045452
430,3.583333,-1.001411,1.844196,1.125312,-0.797828,1.827436,0.794518,-1.007728,1.328758,1.147800,-0.805525,1.312031,0.816383,-0.949610,1.839851,1.045498
431,3.591667,-1.001759,1.844194,1.124967,-0.797752,1.827746,0.794420,-1.007229,1.328748,1.147501,-0.804601,1.312331,0.816329,-0.949855,1.839929,1.045216
432,3.600000,-1.001742,1.844197,1.124964,-0.797760,1.827740,0.794401,-1.007202,1.328753,1.147517,-0.804600,1.312326,0.816330,-0.949844,1.839930,1.045209
433,3.608333,-1.001366,1.844143,1.125257,-0.797800,1.827402,0.794452,-1.007665,1.328704,1.147727,-0.805479,1.311996,0.816300,-0.949570,1.839802,1.045441
434,3.616667,-1.001399,1.844212,1.125291,-0.797836,1.827446,0.794486,-1.007721,1.328774,1.147785,-0.805538,1.312042,0.816357,-0.949603,1.839865,1.045475
435,3.625000,-1.001734,1.844193,1.124957,-0.797762,1.827718,0.794388,-1.007241,1.328748,1.147508,-0.804649,1.312304,0.816316,-0.949839,1.839921,1.045200
436,3.633333,-1.001602,1.843902,1.125267,-0.797794,1.827551,0.794591,-1.007515,1.328443,1.147372,-0.805086,1.312124,0.816073,-0.949746,1.839658,1.045483
437,3.641667,-1.001371,1.844142,1.125244,-0.797807,1.827396,0.794438,-1.007677,1.328703,1.147717,-0.805493,1.311990,0.816289,-0.949575,1.839800,1.045427
438,3.650000,-1.001740,1.844196,1.124955,-0.797737,1.827739,0.794405,-1.007217,1.328751,1.147498,-0.804594,1.312325,0.816324,-0.949837,1.839929,1.045204
439,3.658333,-1.001719,1.844198,1.124944,-0.797741,1.827731,0.794380,-1.007207,1.328753,1.147495,-0.804608,1.312317,0.816306,-0.949822,1.839928,1.045189
440,3.666667,-1.001716,1.844191,1.124952,-0.797737,1.827724,0.794388,-1.007234,1.328746,1.147484,-0.804635,1.312310,0.816296,-0.949819,1.839921,1.045197
441,3.675000,-1.001387,1.844181,1.125264,-0.797812,1.827417,0.794465,-1.007710,1.328743,1.147753,-0.805515,1.312013,0.816332,-0.949588,1.839835,1.045449
442,3.683333,-1.001569,1.843895,1.125232,-0.797721,1.827536,0.794582,-1.007501,1.328436,1.147338,-0.805033,1.312109,0.816064,-0.949704,1.839649,1.045455
443,3.691667,-1.001715,1.844207,1.124936,-0.797744,1.827724,0.794368,-1.007235,1.328763,1.147492,-0.804643,1.312311,0.816300,-0.949820,1.839933,1.045180
444,3.700000,-1.001350,1.844117,1.125220,-0.797779,1.827372,0.794419,-1.007664,1.328678,1.147687,-0.805473,1.311966,0.816263,-0.949552,1.839776,1.045405
445,3.708333,-1.001353,1.844114,1.125232,-0.797793,1.827374,0.794424,-1.007661,1.328675,1.147694,-0.805481,1.311968,0.816263,-0.949558,1.839774,1.045415
446,3.716667,-1.001576,1.843925,1.125250,-0.797767,1.827549,0.794577,-1.007510,1.328467,1.147380,-0.805081,1.312124,0.816082,-0.949720,1.839674,1.045467
447,3.725000,-1.001385,1.844185,1.125260,-0.797805,1.827419,0.794465,-1.007704,1.328747,1.147756,-0.805504,1.312014,0.816338,-0.949585,1.839838,1.045446
448,3.733333,-1.001383,1.844189,1.125250,-0.797813,1.827414,0.794449,-1.007697,1.328752,1.147763,-0.805508,1.312010,0.816339,-0.949585,1.839840,1.045435
449,3.741667,-1.001375,1.844190,1.125259,-0.797801,1.827420,0.794460,-1.007706,1.328752,1.147753,-0.805512,1.312016,0.816332,-0.949577,1.839842,1.045444
450,3.750000,-1.001073,1.844299,1.125336,-0.797809,1.827160,0.794366,-1.007962,1.328879,1.148058,-0.806079,1.311774,0.816466,-0.949350,1.839859,1.045478
451,3.758333,-1.001385,1.844182,1.125263,-0.797807,1.827416,0.794467,-1.007702,1.328745,1.147762,-0.805504,1.312012,0.816343,-0.949586,1.839836,1.045449
452,3.766667,-1.001354,1.844118,1.125229,-0.797780,1.827384,0.794429,-1.007656,1.328678,1.147686,-0.805462,1.311977,0.816263,-0.949555,1.839779,1.045414
453,3.775000,-1.001379,1.844187,1.125267,-0.797809,1.827420,0.794466,-1.007691,1.328750,1.147769,-0.805502,1.312015,0.816345,-0.949581,1.839840,1.045452
454,3.783333,-1.001719,1.844213,1.124950,-0.797753,1.827743,0.794378,-1.007218,1.328768,1.147499,-0.804631,1.312329,0.816303,-0.949825,1.839942,1.045193
455,3.791667,-1.001369,1.844189,1.125262,-0.797789,1.827418,0.794467,-1.007698,1.328752,1.147759,-0.805498,1.312014,0.816341,-0.949569,1.839841,1.045448
456,3.800000,-1.001730,1.844209,1.124949,-0.797732,1.827743,0.794396,-1.007203,1.328765,1.147509,-0.804585,1.312329,0.816332,-0.949828,1.839939,1.045196
457,3.808333,-1.001380,1.844188,1.125279,-0.797808,1.827425,0.794479,-1.007698,1.328751,1.147772,-0.805506,1.312020,0.816349,-0.949582,1.839842,1.045464
458,3.816667,-1.001356,1.844133,1.125239,-0.797781,1.827397,0.794440,-1.007672,1.328693,1.147690,-0.805477,1.311990,0.816268,-0.949557,1.839793,1.045424
459,3.825000,-1.001720,1.844200,1.124964,-0.797736,1.827729,0.794403,-1.007244,1.328755,1.147500,-0.804640,1.312315,0.816315,-0.949822,1.839929,1.045210
460,3.833333,-1.001526,1.843861,1.125216,-0.797700,1.827492,0.794553,-1.007482,1.328402,1.147322,-0.805035,1.312066,0.816036,-0.949666,1.839612,1.045436
461,3.841667,-1.001374,1.844180,1.125279,-0.797800,1.827423,0.794480,-1.007696,1.328741,1.147758,-0.805502,1.312018,0.816337,-0.949575,1.839835,1.045464
462,3.850000,-1.001351,1.844127,1.125236,-0.797771,1.827390,0.794440,-1.007658,1.328687,1.147695,-0.805458,1.311983,0.816276,-0.949550,1.839787,1.045422
463,3.858333,-1.001392,1.844189,1.125298,-0.797825,1.827438,0.794495,-1.007705,1.328751,1.147775,-0.805518,1.312032,0.816349,-0.949595,1.839846,1.045482
464,3.866667,-1.001379,1.844183,1.125281,-0.797800,1.827423,0.794485,-1.007698,1.328745,1.147767,-0.805499,1.312018,0.816348,-0.949580,1.839838,1.045466
465,3.875000,-1.001345,1.844121,1.125248,-0.797768,1.827386,0.794449,-1.007663,1.328681,1.147696,-0.805466,1.311979,0.816275,-0.949546,1.839782,1.045433
466,3.883333,-1.001380,1.844183,1.125285,-0.797808,1.827431,0.794484,-1.007704,1.328744,1.147755,-0.805512,1.312026,0.816332,-0.949581,1.839840,1.045470
467,3.891667,-1.001722,1.844206,1.124961,-0.797735,1.827752,0.794402,-1.007192,1.328761,1.147504,-0.804583,1.312337,0.816320,-0.949823,1.839939,1.045207
468,3.900000,-1.001576,1.843877,1.125264,-0.797719,1.827533,0.794618,-1.007512,1.328417,1.147345,-0.805035,1.312106,0.816075,-0.949709,1.839634,1.045488
469,3.908333,-1.001600,1.843873,1.125265,-0.797730,1.827551,0.794626,-1.007497,1.328412,1.147336,-0.805006,1.312122,0.816073,-0.949730,1.839636,1.045491
470,3.916667,-1.001711,1.844207,1.124963,-0.797745,1.827735,0.794391,-1.007214,1.328763,1.147512,-0.804628,1.312321,0.816316,-0.949818,1.839936,1.045205
471,3.925000,-1.001730,1.844196,1.124961,-0.797745,1.827733,0.794400,-1.007216,1.328752,1.147508,-0.804610,1.312319,0.816323,-0.949831,1.839927,1.045206
472,3.933333,-1.001727,1.844201,1.124971,-0.797740,1.827746,0.794411,-1.007196,1.328755,1.147515,-0.804588,1.312332,0.816331,-0.949829,1.839934,1.045217
473,3.941667,-1.001736,1.844214,1.124976,-0.797755,1.827765,0.794412,-1.007198,1.328769,1.147516,-0.804596,1.312350,0.816328,-0.949839,1.839949,1.045221
474,3.950000,-1.001407,1.844188,1.125308,-0.797832,1.827443,0.794509,-1.007711,1.328749,1.147780,-0.805516,1.312038,0.816358,-0.949608,1.839846,1.045493
475,3.958333,-1.001398,1.844172,1.125293,-0.797820,1.827430,0.794495,-1.007696,1.328733,1.147764,-0.805498,1.312024,0.816344,-0.949598,1.839831,1.045478
476,3.966667,-1.001584,1.843886,1.125273,-0.797707,1.827555,0.794639,-1.007505,1.328426,1.147344,-0.805007,1.312126,0.816086,-0.949712,1.839647,1.045499
477,3.975000,-1.001408,1.844192,1.125307,-0.797838,1.827440,0.794505,-1.007706,1.328753,1.147794,-0.805516,1.312034,0.816370,-0.949610,1.839848,1.045492
478,3.983333,-1.001747,1.844205,1.124963,-0.797740,1.827756,0.794415,-1.007203,1.328760,1.147506,-0.804576,1.312342,0.816333,-0.949843,1.839940,1.045212
479,3.991667,-1.001368,1.844110,1.125251,-0.797783,1.827382,0.794456,-1.007649,1.328670,1.147710,-0.805445,1.311976,0.816293,-0.949567,1.839773,1.045437
480,4.000000,-1.001577,1.843854,1.125260,-0.797724,1.827542,0.794610,-1.007469,1.328393,1.147317,-0.804995,1.312113,0.816044,-0.949711,1.839619,1.045483
481,4.008333,-1.001416,1.844197,1.125304,-0.797829,1.827442,0.794512,-1.007716,1.328759,1.147796,-0.805509,1.312037,0.816382,-0.949615,1.839853,1.045491
482,4.016667,-1.001402,1.844177,1.125286,-0.797809,1.827429,0.794498,-1.007697,1.328739,1.147769,-0.805485,1.312024,0.816358,-0.949599,1.839835,1.045474
483,4.025000,-1.001401,1.844180,1.125293,-0.797821,1.827430,0.794497,-1.007685,1.328741,1.147785,-0.805485,1.312025,0.816366,-0.949601,1.839837,1.045479
484,4.033333,-1.001411,1.844195,1.125297,-0.797823,1.827440,0.794507,-1.007707,1.328757,1.147790,-0.805499,1.312035,0.816377,-0.949609,1.839851,1.045484
485,4.041667,-1.001742,1.844212,1.124963,-0.797747,1.827749,0.794408,-1.007200,1.328767,1.147527,-0.804584,1.312335,0.816348,-0.949841,1.839943,1.045210
486,4.050000,-1.001391,1.844163,1.125285,-0.797826,1.827416,0.794480,-1.007680,1.328725,1.147770,-0.805495,1.312011,0.816343,-0.949595,1.839821,1.045469
487,4.058333,-1.001393,1.844181,1.125285,-0.797826,1.827432,0.794482,-1.007685,1.328743,1.147771,-0.805498,1.312027,0.816345,-0.949596,1.839839,1.045469
488,4.066667,-1.001402,1.844200,1.125298,-0.797829,1.827441,0.794498,-1.007704,1.328763,1.147794,-0.805511,1.312036,0.816371,-0.949603,1.839855,1.045483
489,4.075000,-1.001405,1.844198,1.125290,-0.797835,1.827434,0.794489,-1.007719,1.328761,1.147786,-0.805530,1.312030,0.816362,-0.949607,1.839852,1.045474
490,4.083333,-1.001413,1.844189,1.125291,-0.797830,1.827426,0.794498,-1.007721,1.328751,1.147790,-0.805519,1.312021,0.816373,-0.949612,1.839843,1.045478
491,4.091667,-1.001407,1.844188,1.125294,-0.797833,1.827427,0.794495,-1.007720,1.328750,1.147787,-0.805527,1.312022,0.816365,-0.949608,1.839843,1.045479
492,4.100000,-1.001408,1.844199,1.125288,-0.797839,1.827436,0.794486,-1.007715,1.328761,1.147786,-0.805526,1.312031,0.816362,-0.949610,1.839853,1.045472
493,4.108333,-1.001402,1.844193,1.125276,-0.797824,1.827425,0.794480,-1.007706,1.328755,1.147784,-0.805508,1.312021,0.816365,-0.949603,1.839846,1.045462
494,4.116667,-1.001395,1.844183,1.125278,-0.797812,1.827416,0.794484,-1.007707,1.328745,1.147779,-0.805504,1.312011,0.816363,-0.949594,1.839836,1.045464
495,4.125000,-1.001377,1.844141,1.125252,-0.797796,1.827396,0.794456,-1.007681,1.328702,1.147724,-0.805480,1.311990,0.816306,-0.949577,1.839799,1.045438
496,4.133333,-1.001395,1.844188,1.125279,-0.797817,1.827421,0.794483,-1.007709,1.328750,1.147779,-0.805511,1.312017,0.816360,-0.949596,1.839841,1.045465
497,4.141667,-1.001384,1.844186,1.125270,-0.797817,1.827416,0.794467,-1.007710,1.328749,1.147768,-0.805522,1.312012,0.816343,-0.949587,1.839839,1.045454
498,4.150000,-1.001732,1.844205,1.124949,-0.797735,1.827754,0.794395,-1.007201,1.328759,1.147487,-0.804583,1.312339,0.816309,-0.949830,1.839939,1.045196
499,4.158333,-1.001729,1.844211,1.124952,-0.797743,1.827748,0.794392,-1.007203,1.328767,1.147506,-0.804596,1.312334,0.816322,-0.949830,1.839942,1.045198
500,4.166667,-1.001036,1.844353,1.125357,-0.797849,1.827157,0.794342,-1.007945,1.328936,1.148152,-0.806138,1.311774,0.816516,-0.949331,1.839899,1.045487
501,4.175000,-1.001382,1.844194,1.125271,-0.797812,1.827423,0.794471,-1.007704,1.328756,1.147773,-0.805513,1.312019,0.816350,-0.949585,1.839846,1.045456
502,4.183333,-1.001389,1.844181,1.125268,-0.797805,1.827422,0.794474,-1.007703,1.328743,1.147756,-0.805499,1.312017,0.816340,-0.949588,1.839836,1.045454
503,4.191667,-1.001730,1.844201,1.124958,-0.797740,1.827737,0.794401,-1.007214,1.328757,1.147509,-0.804603,1.312323,0.816327,-0.949831,1.839932,1.045205
504,4.200000,-1.001387,1.844202,1.125291,-0.797812,1.827441,0.794492,-1.007695,1.328764,1.147786,-0.805500,1.312036,0.816365,-0.949588,1.839857,1.045476
505,4.208333,-1.001387,1.844211,1.125287,-0.797810,1.827438,0.794491,-1.007706,1.328774,1.147795,-0.805509,1.312034,0.816375,-0.949588,1.839863,1.045473
506,4.216667,-1.001375,1.844194,1.125271,-0.797795,1.827430,0.794476,-1.007688,1.328757,1.147768,-0.805488,1.312026,0.816350,-0.949575,1.839848,1.045457
507,4.225000,-1.001374,1.844184,1.125276,-0.797800,1.827417,0.794478,-1.007688,1.328746,1.147776,-0.805494,1.312013,0.816355,-0.949575,1.839837,1.045462
508,4.233333,-1.001384,1.844200,1.125288,-0.797820,1.827425,0.794483,-1.007704,1.328763,1.147797,-0.805521,1.312021,0.816370,-0.949587,1.839851,1.045471
509,4.241667,-1.001367,1.844183,1.125271,-0.797792,1.827420,0.794472,-1.007671,1.328745,1.147771,-0.805476,1.312016,0.816350,-0.949568,1.839837,1.045456
510,4.250000,-1.001348,1.844121,1.125244,-0.797765,1.827382,0.794449,-1.007653,1.328681,1.147705,-0.805451,1.311976,0.816287,-0.949547,1.839781,1.045430
511,4.258333,-1.001564,1.843860,1.125244,-0.797709,1.827545,0.794596,-1.007454,1.328399,1.147307,-0.804978,1.312116,0.816035,-0.949697,1.839625,1.045467
512,4.266667,-1.001392,1.844198,1.125294,-0.797808,1.827432,0.794502,-1.007703,1.328761,1.147795,-0.805499,1.312028,0.816380,-0.949591,1.839852,1.045481
513,4.275000,-1.001345,1.844125,1.125234,-0.797760,1.827374,0.794442,-1.007659,1.328686,1.147710,-0.805454,1.311968,0.816295,-0.949544,1.839782,1.045421
514,4.283333,-1.001369,1.844187,1.125283,-0.797796,1.827414,0.794484,-1.007688,1.328750,1.147789,-0.805494,1.312010,0.816368,-0.949571,1.839839,1.045468
515,4.291667,-1.001377,1.844192,1.125283,-0.797790,1.827429,0.794492,-1.007702,1.328754,1.147770,-0.805495,1.312025,0.816357,-0.949575,1.839846,1.045470
516,4.300000,-1.001377,1.844209,1.125297,-0.797807,1.827437,0.794496,-1.007695,1.328772,1.147803,-0.805506,1.312033,0.816379,-0.949579,1.839861,1.045482
517,4.308333,-1.001380,1.844200,1.125305,-0.797807,1.827443,0.794505,-1.007701,1.328762,1.147786,-0.805509,1.312038,0.816363,-0.949581,1.839856,1.045490
518,4.316667,-1.001346,1.844116,1.125245,-0.797765,1.827381,0.794449,-1.007650,1.328676,1.147701,-0.805449,1.311975,0.816282,-0.949545,1.839777,1.045431
519,4.325000,-1.001372,1.844182,1.125289,-0.797796,1.827421,0.794491,-1.007693,1.328744,1.147776,-0.805498,1.312016,0.816355,-0.949573,1.839836,1.045474
520,4.333333,-1.001022,1.844330,1.125380,-0.797846,1.827158,0.794357,-1.007927,1.328912,1.148140,-0.806132,1.311774,0.816496,-0.949319,1.839882,1.045508
521,4.341667,-1.001382,1.844205,1.125305,-0.797809,1.827436,0.794506,-1.007706,1.328768,1.147803,-0.805514,1.312032,0.816381,-0.949583,1.839858,1.045490
522,4.350000,-1.001023,1.844335,1.125371,-0.797826,1.827157,0.794362,-1.007925,1.328917,1.148142,-0.806109,1.311774,0.816512,-0.949316,1.839886,1.045503
523,4.358333,-1.001348,1.844120,1.125255,-0.797764,1.827384,0.794461,-1.007659,1.328680,1.147710,-0.805456,1.311977,0.816293,-0.949547,1.839780,1.045442
524,4.366667,-1.001381,1.844171,1.125292,-0.797807,1.827413,0.794493,-1.007694,1.328733,1.147779,-0.805501,1.312008,0.816356,-0.949582,1.839826,1.045477
525,4.375000,-1.001382,1.844181,1.125290,-0.797800,1.827424,0.794496,-1.007692,1.328743,1.147779,-0.805489,1.312019,0.816362,-0.949581,1.839837,1.045476
526,4.383333,-1.001393,1.844207,1.125296,-0.797805,1.827442,0.794505,-1.007710,1.328770,1.147793,-0.805502,1.312037,0.816380,-0.949591,1.839861,1.045483
527,4.391667,-1.001388,1.844188,1.125303,-0.797811,1.827436,0.794505,-1.007690,1.328750,1.147789,-0.805494,1.312030,0.816368,-0.949589,1.839845,1.045488
528,4.400000,-1.001035,1.844353,1.125402,-0.797889,1.827154,0.794362,-1.007962,1.328936,1.148190,-0.806197,1.311771,0.816529,-0.949340,1.839898,1.045525
529,4.408333,-1.001738,1.844189,1.124977,-0.797756,1.827736,0.794414,-1.007213,1.328743,1.147515,-0.804610,1.312321,0.816327,-0.949840,1.839922,1.045222
530,4.416667,-1.001384,1.844181,1.125293,-0.797812,1.827421,0.794493,-1.007705,1.328743,1.147779,-0.805513,1.312016,0.816357,-0.949586,1.839836,1.045478
531,4.425000,-1.001739,1.844206,1.124961,-0.797761,1.827733,0.794397,-1.007213,1.328762,1.147530,-0.804614,1.312320,0.816341,-0.949843,1.839935,1.045206
532,4.433333,-1.001395,1.844204,1.125297,-0.797817,1.827434,0.794501,-1.007709,1.328766,1.147802,-0.805511,1.312030,0.816383,-0.949595,1.839856,1.045483
533,4.441667,-1.001400,1.844199,1.125307,-0.797813,1.827436,0.794516,-1.007718,1.328761,1.147799,-0.805510,1.312032,0.816386,-0.949599,1.839853,1.045494
534,4.450000,-1.001395,1.844183,1.125295,-0.797807,1.827431,0.794504,-1.007700,1.328744,1.147777,-0.805492,1.312026,0.816364,-0.949593,1.839840,1.045482
535,4.458333,-1.001389,1.844179,1.125295,-0.797813,1.827420,0.794497,-1.007712,1.328741,1.147778,-0.805516,1.312015,0.816358,-0.949590,1.839834,1.045480
536,4.466667,-1.001391,1.844181,1.125282,-0.797814,1.827428,0.794485,-1.007698,1.328743,1.147766,-0.805501,1.312023,0.816346,-0.949592,1.839838,1.045467
537,4.475000,-1.001054,1.844324,1.125382,-0.797854,1.827180,0.794372,-1.007950,1.328903,1.148103,-0.806131,1.311794,0.816473,-0.949346,1.839883,1.045513
538,4.483333,-1.001399,1.844183,1.125290,-0.797811,1.827425,0.794500,-1.007706,1.328745,1.147781,-0.805498,1.312021,0.816368,-0.949597,1.839839,1.045477
539,4.491667,-1.001391,1.844183,1.125283,-0.797819,1.827425,0.794483,-1.007696,1.328745,1.147776,-0.805504,1.312020,0.816353,-0.949593,1.839839,1.045468
540,4.500000,-1.001405,1.844202,1.125291,-0.797830,1.827441,0.794493,-1.007714,1.328765,1.147786,-0.805519,1.312036,0.816365,-0.949606,1.839857,1.045476
541,4.508333,-1.001737,1.844201,1.124968,-0.797752,1.827751,0.794407,-1.007208,1.328755,1.147504,-0.804602,1.312336,0.816319,-0.949839,1.839935,1.045214
542,4.516667,-1.001362,1.844121,1.125250,-0.797785,1.827388,0.794452,-1.007649,1.328682,1.147715,-0.805452,1.311982,0.816294,-0.949563,1.839783,1.045435
543,4.525000,-1.001057,1.844308,1.125356,-0.797858,1.827163,0.794346,-1.007925,1.328888,1.148097,-0.806106,1.311778,0.816465,-0.949349,1.839867,1.045487
544,4.533333,-1.001365,1.844116,1.125252,-0.797786,1.827393,0.794455,-1.007658,1.328676,1.147697,-0.805459,1.311986,0.816277,-0.949565,1.839780,1.045438
545,4.541667,-1.001369,1.844132,1.125260,-0.797792,1.827390,0.794461,-1.007666,1.328693,1.147731,-0.805470,1.311984,0.816310,-0.949569,1.839791,1.045445
546,4.550000,-1.001362,1.844113,1.125242,-0.797782,1.827385,0.794445,-1.007659,1.328673,1.147692,-0.805460,1.311978,0.816272,-0.949562,1.839776,1.045428
547,4.558333,-1.001045,1.844291,1.125369,-0.797845,1.827130,0.794361,-1.007957,1.328872,1.148110,-0.806138,1.311745,0.816480,-0.949337,1.839846,1.045501
548,4.566667,-1.001371,1.844144,1.125252,-0.797789,1.827397,0.794457,-1.007667,1.328705,1.147732,-0.805465,1.311992,0.816314,-0.949570,1.839802,1.045438
549,4.575000,-1.001360,1.844132,1.125252,-0.797772,1.827394,0.794460,-1.007664,1.328693,1.147713,-0.805457,1.311988,0.816299,-0.949558,1.839792,1.045438
550,4.583333,-1.001730,1.844195,1.124969,-0.797755,1.827737,0.794403,-1.007209,1.328750,1.147512,-0.804612,1.312323,0.816321,-0.949834,1.839927,1.045213
551,4.591667,-1.001587,1.843898,1.125248,-0.797739,1.827547,0.794597,-1.007489,1.328439,1.147360,-0.805021,1.312120,0.816086,-0.949722,1.839654,1.045470
552,4.600000,-1.001039,1.844311,1.125356,-0.797842,1.827154,0.794345,-1.007938,1.328892,1.148097,-0.806122,1.311769,0.816465,-0.949332,1.839867,1.045487
553,4.608333,-1.001380,1.844177,1.125270,-0.797798,1.827423,0.794475,-1.007685,1.328739,1.147757,-0.805483,1.312017,0.816340,-0.949579,1.839833,1.045456
554,4.616667,-1.001372,1.844180,1.125270,-0.797796,1.827425,0.794473,-1.007683,1.328742,1.147755,-0.805487,1.312020,0.816334,-0.949573,1.839836,1.045455
555,4.625000,-1.001360,1.844147,1.125250,-0.797788,1.827404,0.794449,-1.007657,1.328708,1.147724,-0.805465,1.311998,0.816300,-0.949562,1.839806,1.045435
556,4.633333,-1.001389,1.844203,1.125283,-0.797815,1.827440,0.794485,-1.007704,1.328766,1.147778,-0.805510,1.312035,0.816356,-0.949590,1.839857,1.045469
557,4.641667,-1.001375,1.844180,1.125269,-0.797806,1.827416,0.794467,-1.007680,1.328742,1.147771,-0.805492,1.312011,0.816346,-0.949577,1.839834,1.045453
558,4.650000,-1.001372,1.844195,1.125279,-0.797801,1.827422,0.794479,-1.007696,1.328758,1.147783,-0.805506,1.312018,0.816360,-0.949574,1.839846,1.045464
559,4.658333,-1.001372,1.844188,1.125270,-0.797789,1.827427,0.794477,-1.007689,1.328750,1.147760,-0.805486,1.312022,0.816344,-0.949571,1.839843,1.045457
560,4.666667,-1.001380,1.844192,1.125285,-0.797809,1.827427,0.794485,-1.007700,1.328754,1.147779,-0.805509,1.312023,0.816356,-0.949582,1.839846,1.045470
561,4.675000,-1.001377,1.844200,1.125285,-0.797800,1.827430,0.794488,-1.007702,1.328763,1.147784,-0.805505,1.312026,0.816365,-0.949578,1.839852,1.045470
562,4.683333,-1.001371,1.844178,1.125272,-0.797796,1.827418,0.794474,-1.007664,1.328740,1.147774,-0.805469,1.312014,0.816353,-0.949572,1.839833,1.045457
563,4.691667,-1.001371,1.844185,1.125269,-0.797777,1.827419,0.794483,-1.007686,1.328747,1.147768,-0.805471,1.312015,0.816359,-0.949567,1.839838,1.045457
564,4.700000,-1.001025,1.844334,1.125377,-0.797852,1.827149,0.794354,-1.007970,1.328916,1.148133,-0.806177,1.311765,0.816489,-0.949323,1.839883,1.045505
565,4.708333,-1.001008,1.844319,1.125369,-0.797809,1.827158,0.794361,-1.007923,1.328900,1.148108,-0.806104,1.311773,0.816478,-0.949300,1.839874,1.045501
566,4.716667,-1.001373,1.844191,1.125269,-0.797779,1.827426,0.794483,-1.007692,1.328754,1.147765,-0.805478,1.312021,0.816356,-0.949570,1.839845,1.045457
567,4.725000,-1.001381,1.844203,1.125291,-0.797791,1.827431,0.794502,-1.007702,1.328766,1.147795,-0.805492,1.312027,0.816383,-0.949579,1.839855,1.045478
568,4.733333,-1.001390,1.844194,1.125297,-0.797804,1.827441,0.794505,-1.007694,1.328756,1.147782,-0.805489,1.312036,0.816367,-0.949589,1.839850,1.045483
569,4.741667,-1.001353,1.844146,1.125253,-0.797757,1.827397,0.794467,-1.007654,1.328707,1.147733,-0.805439,1.311992,0.816324,-0.949549,1.839803,1.045441
570,4.750000,-1.001349,1.844145,1.125255,-0.797762,1.827404,0.794464,-1.007655,1.328706,1.147720,-0.805447,1.311998,0.816306,-0.949547,1.839804,1.045442
571,4.758333,-1.001580,1.843885,1.125250,-0.797714,1.827571,0.794608,-1.007463,1.328424,1.147316,-0.804976,1.312142,0.816051,-0.949710,1.839650,1.045475
572,4.766667,-1.001386,1.844200,1.125296,-0.797800,1.827435,0.794505,-1.007701,1.328763,1.147794,-0.805495,1.312031,0.816380,-0.949585,1.839854,1.045483
573,4.775000,-1.001376,1.844171,1.125285,-0.797784,1.827414,0.794497,-1.007696,1.328733,1.147767,-0.805484,1.312009,0.816356,-0.949573,1.839826,1.045473
574,4.783333,-1.001569,1.843874,1.125262,-0.797720,1.827550,0.794611,-1.007450,1.328414,1.147345,-0.804981,1.312122,0.816070,-0.949704,1.839637,1.045485
575,4.791667,-1.001046,1.844305,1.125387,-0.797842,1.827141,0.794381,-1.007967,1.328886,1.148126,-0.806144,1.311756,0.816499,-0.949337,1.839859,1.045519
576,4.800000,-1.001385,1.844194,1.125301,-0.797799,1.827439,0.794509,-1.007685,1.328756,1.147791,-0.805479,1.312034,0.816377,-0.949583,1.839850,1.045488
577,4.808333,-1.001374,1.844177,1.125293,-0.797782,1.827427,0.794505,-1.007685,1.328739,1.147771,-0.805473,1.312021,0.816360,-0.949571,1.839835,1.045481
578,4.816667,-1.001577,1.843915,1.125287,-0.797775,1.827561,0.794608,-1.007489,1.328456,1.147397,-0.805066,1.312134,0.816095,-0.949723,1.839670,1.045503
579,4.825000,-1.001382,1.844182,1.125305,-0.797810,1.827429,0.794504,-1.007685,1.328744,1.147791,-0.805493,1.312024,0.816367,-0.949583,1.839839,1.045489
580,4.833333,-1.001361,1.844140,1.125279,-0.797778,1.827404,0.794483,-1.007676,1.328700,1.147730,-0.805474,1.311997,0.816312,-0.949560,1.839800,1.045465
581,4.841667,-1.001384,1.844180,1.125302,-0.797810,1.827427,0.794503,-1.007690,1.328741,1.147785,-0.805496,1.312022,0.816363,-0.949585,1.839836,1.045487
582,4.850000,-1.001383,1.844180,1.125304,-0.797809,1.827427,0.794505,-1.007694,1.328742,1.147784,-0.805500,1.312022,0.816363,-0.949584,1.839837,1.045489
583,4.858333,-1.001389,1.844178,1.125314,-0.797816,1.827418,0.794515,-1.007702,1.328740,1.147805,-0.805509,1.312013,0.816383,-0.949591,1.839833,1.045499
584,4.866667,-1.001365,1.844115,1.125270,-0.797791,1.827379,0.794470,-1.007676,1.328675,1.147724,-0.805482,1.311973,0.816301,-0.949567,1.839776,1.045455
585,4.875000,-1.001389,1.844177,1.125300,-0.797807,1.827423,0.794505,-1.007717,1.328738,1.147773,-0.805515,1.312017,0.816355,-0.949588,1.839833,1.045486
586,4.883333,-1.001394,1.844181,1.125309,-0.797811,1.827433,0.794515,-1.007714,1.328742,1.147777,-0.805511,1.312027,0.816361,-0.949593,1.839839,1.045495
587,4.891667,-1.001402,1.844186,1.125305,-0.797816,1.827428,0.794513,-1.007719,1.328748,1.147790,-0.805513,1.312023,0.816376,-0.949600,1.839841,1.045492
588,4.900000,-1.001395,1.844170,1.125312,-0.797820,1.827425,0.794513,-1.007703,1.328732,1.147782,-0.805508,1.312020,0.816360,-0.949596,1.839829,1.045497
589,4.908333,-1.001404,1.844175,1.125294,-0.797806,1.827424,0.794510,-1.007716,1.328737,1.147772,-0.805498,1.312019,0.816364,-0.949600,1.839832,1.045483
590,4.916667,-1.001395,1.844181,1.125308,-0.797823,1.827423,0.794507,-1.007721,1.328742,1.147786,-0.805530,1.312018,0.816362,-0.949597,1.839836,1.045492
591,4.925000,-1.001402,1.844180,1.125303,-0.797829,1.827427,0.794502,-1.007710,1.328741,1.147785,-0.805517,1.312021,0.816362,-0.949603,1.839836,1.045487
592,4.933333,-1.001393,1.844173,1.125301,-0.797807,1.827420,0.794509,-1.007716,1.328734,1.147775,-0.805511,1.312015,0.816360,-0.949591,1.839829,1.045488
593,4.941667,-1.001376,1.844147,1.125311,-0.797825,1.827383,0.794498,-1.007756,1.328709,1.147766,-0.805586,1.311978,0.816330,-0.949583,1.839801,1.045493
594,4.950000,-1.001400,1.844181,1.125305,-0.797824,1.827430,0.794506,-1.007702,1.328743,1.147787,-0.805507,1.312025,0.816366,-0.949601,1.839838,1.045490
595,4.958333,-1.001406,1.844194,1.125308,-0.797826,1.827434,0.794512,-1.007719,1.328756,1.147797,-0.805520,1.312029,0.816379,-0.949606,1.839849,1.045493
596,4.966667,-1.001396,1.844177,1.125291,-0.797824,1.827424,0.794490,-1.007699,1.328738,1.147775,-0.805507,1.312019,0.816352,-0.949598,1.839833,1.045475
597,4.975000,-1.001374,1.844119,1.125264,-0.797795,1.827394,0.794466,-1.007666,1.328679,1.147712,-0.805467,1.311987,0.816292,-0.949574,1.839782,1.045449
598,4.983333,-1.001405,1.844196,1.125294,-0.797815,1.827437,0.794505,-1.007712,1.328758,1.147786,-0.805503,1.312032,0.816374,-0.949602,1.839851,1.045482
599,4.991667,-1.001404,1.844180,1.125305,-0.797834,1.827436,0.794503,-1.007699,1.328742,1.147783,-0.805509,1.312030,0.816358,-0.949607,1.839839,1.045490
600,5.000000,-1.001399,1.844170,1.125288,-0.797810,1.827420,0.794498,-1.007716,1.328731,1.147761,-0.805506,1.312014,0.816348,-0.949597,1.839827,1.045476
601,5.008333,-1.001562,1.843857,1.125252,-0.797759,1.827527,0.794572,-1.007479,1.328397,1.147321,-0.805056,1.312099,0.816018,-0.949708,1.839618,1.045467
602,5.016667,-1.001401,1.844186,1.125287,-0.797811,1.827431,0.794498,-1.007714,1.328747,1.147769,-0.805504,1.312026,0.816357,-0.949598,1.839842,1.045475
603,5.025000,-1.001396,1.844180,1.125284,-0.797809,1.827427,0.794492,-1.007708,1.328742,1.147764,-0.805501,1.312022,0.816350,-0.949594,1.839837,1.045470
604,5.033333,-1.001391,1.844177,1.125283,-0.797813,1.827417,0.794486,-1.007713,1.328739,1.147767,-0.805516,1.312012,0.816347,-0.949591,1.839832,1.045468
605,5.041667,-1.001409,1.844193,1.125287,-0.797825,1.827428,0.794494,-1.007718,1.328755,1.147787,-0.805514,1.312024,0.816372,-0.949608,1.839847,1.045474
606,5.050000,-1.001373,1.844161,1.125291,-0.797814,1.827389,0.794484,-1.007754,1.328723,1.147758,-0.805575,1.311984,0.816328,-0.949578,1.839813,1.045474
607,5.058333,-1.001399,1.844190,1.125290,-0.797819,1.827422,0.794495,-1.007726,1.328752,1.147784,-0.805526,1.312018,0.816366,-0.949599,1.839843,1.045476
608,5.066667,-1.001358,1.844112,1.125240,-0.797777,1.827377,0.794445,-1.007656,1.328672,1.147702,-0.805455,1.311970,0.816283,-0.949558,1.839772,1.045426
609,5.075000,-1.001392,1.844206,1.125291,-0.797805,1.827433,0.794501,-1.007726,1.328768,1.147788,-0.805519,1.312029,0.816375,-0.949590,1.839857,1.045478
610,5.083333,-1.001364,1.844130,1.125244,-0.797785,1.827386,0.794448,-1.007680,1.328691,1.147708,-0.805480,1.311980,0.816289,-0.949564,1.839788,1.045430
611,5.091667,-1.001366,1.844140,1.125240,-0.797778,1.827381,0.794450,-1.007686,1.328702,1.147725,-0.805478,1.311976,0.816311,-0.949564,1.839795,1.045428
612,5.100000,-1.001355,1.844108,1.125238,-0.797778,1.827379,0.794439,-1.007656,1.328668,1.147688,-0.805459,1.311972,0.816266,-0.949556,1.839770,1.045423
613,5.108333,-1.001389,1.844199,1.125294,-0.797797,1.827429,0.794507,-1.007723,1.328762,1.147789,-0.805511,1.312025,0.816379,-0.949586,1.839852,1.045482
614,5.116667,-1.001377,1.844189,1.125285,-0.797788,1.827427,0.794495,-1.007692,1.328752,1.147779,-0.805484,1.312022,0.816366,-0.949575,1.839844,1.045472
615,5.125000,-1.001725,1.844196,1.124950,-0.797735,1.827729,0.794392,-1.007205,1.328752,1.147506,-0.804594,1.312315,0.816324,-0.949826,1.839926,1.045196
616,5.133333,-1.001370,1.844176,1.125275,-0.797786,1.827414,0.794482,-1.007698,1.328738,1.147759,-0.805494,1.312009,0.816343,-0.949569,1.839830,1.045462
617,5.141667,-1.001379,1.844190,1.125282,-0.797786,1.827430,0.794495,-1.007695,1.328752,1.147771,-0.805482,1.312025,0.816361,-0.949575,1.839845,1.045470
618,5.150000,-1.001375,1.844188,1.125281,-0.797793,1.827422,0.794487,-1.007697,1.328751,1.147776,-0.805496,1.312017,0.816359,-0.949574,1.839842,1.045467
619,5.158333,-1.001734,1.844202,1.124956,-0.797726,1.827744,0.794409,-1.007211,1.328757,1.147501,-0.804582,1.312329,0.816330,-0.949830,1.839934,1.045205
620,5.166667,-1.001732,1.844188,1.124962,-0.797738,1.827737,0.794406,-1.007220,1.328742,1.147488,-0.804605,1.312322,0.816309,-0.949832,1.839922,1.045209
621,5.175000,-1.001369,1.844187,1.125290,-0.797785,1.827424,0.794497,-1.007687,1.328749,1.147781,-0.805483,1.312019,0.816365,-0.949568,1.839841,1.045476
622,5.183333,-1.001368,1.844187,1.125289,-0.797781,1.827424,0.794498,-1.007694,1.328749,1.147778,-0.805487,1.312019,0.816364,-0.949567,1.839841,1.045476
623,5.191667,-1.001027,1.844336,1.125378,-0.797855,1.827139,0.794355,-1.007925,1.328920,1.148181,-0.806133,1.311757,0.816537,-0.949326,1.839883,1.045506
624,5.200000,-1.001374,1.844183,1.125287,-0.797781,1.827423,0.794500,-1.007696,1.328745,1.147773,-0.805483,1.312018,0.816363,-0.949571,1.839838,1.045475
625,5.208333,-1.001037,1.844320,1.125396,-0.797811,1.827177,0.794403,-1.007930,1.328900,1.148121,-0.806084,1.311791,0.816506,-0.949323,1.839879,1.045532
626,5.216667,-1.001358,1.844141,1.125279,-0.797765,1.827403,0.794490,-1.007667,1.328702,1.147738,-0.805454,1.311997,0.816326,-0.949555,1.839801,1.045466
627,5.225000,-1.001373,1.844173,1.125286,-0.797774,1.827421,0.794501,-1.007679,1.328735,1.147768,-0.805461,1.312016,0.816361,-0.949568,1.839830,1.045475
628,5.233333,-1.001348,1.844113,1.125262,-0.797763,1.827382,0.794469,-1.007653,1.328674,1.147713,-0.805448,1.311975,0.816297,-0.949547,1.839775,1.045448
629,5.241667,-1.001387,1.844198,1.125309,-0.797792,1.827440,0.794523,-1.007704,1.328760,1.147794,-0.805489,1.312035,0.816385,-0.949583,1.839853,1.045497
630,5.250000,-1.001385,1.844193,1.125298,-0.797798,1.827434,0.794507,-1.007705,1.328755,1.147783,-0.805498,1.312029,0.816370,-0.949583,1.839848,1.045485
631,5.258333,-1.001025,1.844351,1.125385,-0.797832,1.827166,0.794374,-1.007939,1.328933,1.148161,-0.806126,1.311782,0.816529,-0.949319,1.839900,1.045516
632,5.266667,,,,,,,,,,,,,,,
