-1.4614,1.7937,1.0668,-1.2879,1.7874,0.71889,-1.4623,1.2778,1.076,-1.2903,1.2715,0.72761
-1.2279,1.4917,0.67282,-0.9885,1.4837,0.36661,-1.2254,0.97599,0.68849,-0.98729,0.96803,0.3815
-0.94584,2.0933,0.70544,-0.76841,2.0873,0.35956,-0.94508,1.5774,0.71504,-0.76907,1.5714,0.36865
-1.2398,2.0937,1.089,-1.0509,2.085,0.74926,-1.2387,1.578,1.1032,-1.0513,1.5692,0.76288
-1.1063,2.0869,-0.19737,-0.86186,2.0803,-0.49964,-1.1077,1.571,-0.18692,-0.86458,1.5644,-0.48999
-0.77347,1.8452,0.81555,-0.5328,1.8321,0.51049,-0.78608,1.3295,0.82792,-0.54671,1.3165,0.52209
-0.7994,1.8464,0.83856,-0.65396,1.8288,0.47843,-0.80443,1.3309,0.86185,-0.66045,1.3134,0.50134
-1.0014,1.8442,1.1252,-0.79779,1.8274,0.79447,-1.0076,1.3287,1.1477,-0.80542,1.312,0.81633
-1.0345,1.6545,1.1171,-0.77974,1.6388,0.82384,-1.0414,1.1391,1.1391,-0.78792,1.1233,0.84501
-0.92129,2.0887,1.1236,-0.87088,2.0709,0.73851,-0.91938,1.5733,1.1479,-0.87048,1.5555,0.76282
